\relax 
\@writefile{lot}{\contentsline {table}{\numberline {1}{\ignorespaces  Misure dirette di $R_4$ e $C_2$\relax }}{1}}
\providecommand*\caption@xref[2]{\@setref\relax\@undefined{#1}}
\newlabel{tab:misuredirette}{{1}{1}}
\select@language{italian}
\@writefile{toc}{\select@language{italian}}
\@writefile{lof}{\select@language{italian}}
\@writefile{lot}{\select@language{italian}}
\select@language{italian}
\@writefile{toc}{\select@language{italian}}
\@writefile{lof}{\select@language{italian}}
\@writefile{lot}{\select@language{italian}}
\@writefile{lot}{\contentsline {table}{\numberline {2}{\ignorespaces  Fluke 111\relax }}{3}}
\newlabel{tab:fluke}{{2}{3}}
