\relax 
\select@language{italian}
\@writefile{toc}{\select@language{italian}}
\@writefile{lof}{\select@language{italian}}
\@writefile{lot}{\select@language{italian}}
\select@language{italian}
\@writefile{toc}{\select@language{italian}}
\@writefile{lof}{\select@language{italian}}
\@writefile{lot}{\select@language{italian}}
\@writefile{toc}{\contentsline {section}{\numberline {1}Obiettivo dell'esperienza}{1}}
\@writefile{toc}{\contentsline {section}{\numberline {2}Analisi Dati}{1}}
\@writefile{toc}{\contentsline {subsection}{\numberline {2.1}Determinazione sperimentale del Q-point}{1}}
\@writefile{toc}{\contentsline {subsection}{\numberline {2.2}Curva caratteristica $I_D$ vs. $V_\mathit  {DS}$ e misura di $\lambda _n$ e $r_o$}{1}}
\@writefile{toc}{\contentsline {subsection}{\numberline {2.3}Curva caratteristica $I_D$ vs. $V_\mathit  {GS}$ e determinazione di $k_n$ e $V_\mathit  {TN}$}{1}}
\@writefile{toc}{\contentsline {subsection}{\numberline {2.4}Utilizzo del MOSFET in zona di interdizione e conduzione: l'operatore logico NOR}{1}}
\@writefile{toc}{\contentsline {subsection}{\numberline {2.5}Utilizzo del MOSFET in zona di saturazione: l'amplificatore in tensione}{2}}
\@writefile{toc}{\contentsline {subsection}{\numberline {2.6}Dimensionamento circuito}{2}}
\@writefile{toc}{\contentsline {subsection}{\numberline {2.7}Misura del punto di lavoro}{2}}
\@writefile{toc}{\contentsline {subsection}{\numberline {2.8}Misura dell'amplificazione in tensione}{2}}
\@writefile{toc}{\contentsline {subsection}{\numberline {2.9}Misura delle resistenze di ingresso e uscita}{2}}
\@writefile{toc}{\contentsline {subsection}{\numberline {2.10}Configurazione senza capacit\IeC {\`a} di bypass}{2}}
\@writefile{toc}{\contentsline {subsection}{\numberline {2.11}Configurazione Common-Drain (CD)}{2}}
\@writefile{toc}{\contentsline {subsection}{\numberline {2.12}Prototipo di amplificatore differenziale a MOSFET}{3}}
\@writefile{toc}{\contentsline {subsection}{\numberline {2.13}Misura della banda passante}{3}}
