%!PS-Adobe-2.0 EPSF-2.0
%%Title: 1f3000_1.eps
%%Creator: gnuplot 4.4 patchlevel 3
%%CreationDate: Tue Jan 10 18:04:01 2017
%%DocumentFonts: (atend)
%%BoundingBox: 50 50 410 302
%%EndComments
%%BeginProlog
/gnudict 256 dict def
gnudict begin
%
% The following true/false flags may be edited by hand if desired.
% The unit line width and grayscale image gamma correction may also be changed.
%
/Color false def
/Blacktext false def
/Solid false def
/Dashlength 1 def
/Landscape false def
/Level1 false def
/Rounded false def
/ClipToBoundingBox false def
/TransparentPatterns false def
/gnulinewidth 5.000 def
/userlinewidth gnulinewidth def
/Gamma 1.0 def
%
/vshift -46 def
/dl1 {
  10.0 Dashlength mul mul
  Rounded { currentlinewidth 0.75 mul sub dup 0 le { pop 0.01 } if } if
} def
/dl2 {
  10.0 Dashlength mul mul
  Rounded { currentlinewidth 0.75 mul add } if
} def
/hpt_ 31.5 def
/vpt_ 31.5 def
/hpt hpt_ def
/vpt vpt_ def
Level1 {} {
/SDict 10 dict def
systemdict /pdfmark known not {
  userdict /pdfmark systemdict /cleartomark get put
} if
SDict begin [
  /Title (1f3000_1.eps)
  /Subject (gnuplot plot)
  /Creator (gnuplot 4.4 patchlevel 3)
  /Author (ale)
%  /Producer (gnuplot)
%  /Keywords ()
  /CreationDate (Tue Jan 10 18:04:01 2017)
  /DOCINFO pdfmark
end
} ifelse
/doclip {
  ClipToBoundingBox {
    newpath 50 50 moveto 410 50 lineto 410 302 lineto 50 302 lineto closepath
    clip
  } if
} def
%
% Gnuplot Prolog Version 4.4 (August 2010)
%
%/SuppressPDFMark true def
%
/M {moveto} bind def
/L {lineto} bind def
/R {rmoveto} bind def
/V {rlineto} bind def
/N {newpath moveto} bind def
/Z {closepath} bind def
/C {setrgbcolor} bind def
/f {rlineto fill} bind def
/g {setgray} bind def
/Gshow {show} def   % May be redefined later in the file to support UTF-8
/vpt2 vpt 2 mul def
/hpt2 hpt 2 mul def
/Lshow {currentpoint stroke M 0 vshift R 
	Blacktext {gsave 0 setgray show grestore} {show} ifelse} def
/Rshow {currentpoint stroke M dup stringwidth pop neg vshift R
	Blacktext {gsave 0 setgray show grestore} {show} ifelse} def
/Cshow {currentpoint stroke M dup stringwidth pop -2 div vshift R 
	Blacktext {gsave 0 setgray show grestore} {show} ifelse} def
/UP {dup vpt_ mul /vpt exch def hpt_ mul /hpt exch def
  /hpt2 hpt 2 mul def /vpt2 vpt 2 mul def} def
/DL {Color {setrgbcolor Solid {pop []} if 0 setdash}
 {pop pop pop 0 setgray Solid {pop []} if 0 setdash} ifelse} def
/BL {stroke userlinewidth 2 mul setlinewidth
	Rounded {1 setlinejoin 1 setlinecap} if} def
/AL {stroke userlinewidth 2 div setlinewidth
	Rounded {1 setlinejoin 1 setlinecap} if} def
/UL {dup gnulinewidth mul /userlinewidth exch def
	dup 1 lt {pop 1} if 10 mul /udl exch def} def
/PL {stroke userlinewidth setlinewidth
	Rounded {1 setlinejoin 1 setlinecap} if} def
3.8 setmiterlimit
% Default Line colors
/LCw {1 1 1} def
/LCb {0 0 0} def
/LCa {0 0 0} def
/LC0 {1 0 0} def
/LC1 {0 1 0} def
/LC2 {0 0 1} def
/LC3 {1 0 1} def
/LC4 {0 1 1} def
/LC5 {1 1 0} def
/LC6 {0 0 0} def
/LC7 {1 0.3 0} def
/LC8 {0.5 0.5 0.5} def
% Default Line Types
/LTw {PL [] 1 setgray} def
/LTb {BL [] LCb DL} def
/LTa {AL [1 udl mul 2 udl mul] 0 setdash LCa setrgbcolor} def
/LT0 {PL [] LC0 DL} def
/LT1 {PL [4 dl1 2 dl2] LC1 DL} def
/LT2 {PL [2 dl1 3 dl2] LC2 DL} def
/LT3 {PL [1 dl1 1.5 dl2] LC3 DL} def
/LT4 {PL [6 dl1 2 dl2 1 dl1 2 dl2] LC4 DL} def
/LT5 {PL [3 dl1 3 dl2 1 dl1 3 dl2] LC5 DL} def
/LT6 {PL [2 dl1 2 dl2 2 dl1 6 dl2] LC6 DL} def
/LT7 {PL [1 dl1 2 dl2 6 dl1 2 dl2 1 dl1 2 dl2] LC7 DL} def
/LT8 {PL [2 dl1 2 dl2 2 dl1 2 dl2 2 dl1 2 dl2 2 dl1 4 dl2] LC8 DL} def
/Pnt {stroke [] 0 setdash gsave 1 setlinecap M 0 0 V stroke grestore} def
/Dia {stroke [] 0 setdash 2 copy vpt add M
  hpt neg vpt neg V hpt vpt neg V
  hpt vpt V hpt neg vpt V closepath stroke
  Pnt} def
/Pls {stroke [] 0 setdash vpt sub M 0 vpt2 V
  currentpoint stroke M
  hpt neg vpt neg R hpt2 0 V stroke
 } def
/Box {stroke [] 0 setdash 2 copy exch hpt sub exch vpt add M
  0 vpt2 neg V hpt2 0 V 0 vpt2 V
  hpt2 neg 0 V closepath stroke
  Pnt} def
/Crs {stroke [] 0 setdash exch hpt sub exch vpt add M
  hpt2 vpt2 neg V currentpoint stroke M
  hpt2 neg 0 R hpt2 vpt2 V stroke} def
/TriU {stroke [] 0 setdash 2 copy vpt 1.12 mul add M
  hpt neg vpt -1.62 mul V
  hpt 2 mul 0 V
  hpt neg vpt 1.62 mul V closepath stroke
  Pnt} def
/Star {2 copy Pls Crs} def
/BoxF {stroke [] 0 setdash exch hpt sub exch vpt add M
  0 vpt2 neg V hpt2 0 V 0 vpt2 V
  hpt2 neg 0 V closepath fill} def
/TriUF {stroke [] 0 setdash vpt 1.12 mul add M
  hpt neg vpt -1.62 mul V
  hpt 2 mul 0 V
  hpt neg vpt 1.62 mul V closepath fill} def
/TriD {stroke [] 0 setdash 2 copy vpt 1.12 mul sub M
  hpt neg vpt 1.62 mul V
  hpt 2 mul 0 V
  hpt neg vpt -1.62 mul V closepath stroke
  Pnt} def
/TriDF {stroke [] 0 setdash vpt 1.12 mul sub M
  hpt neg vpt 1.62 mul V
  hpt 2 mul 0 V
  hpt neg vpt -1.62 mul V closepath fill} def
/DiaF {stroke [] 0 setdash vpt add M
  hpt neg vpt neg V hpt vpt neg V
  hpt vpt V hpt neg vpt V closepath fill} def
/Pent {stroke [] 0 setdash 2 copy gsave
  translate 0 hpt M 4 {72 rotate 0 hpt L} repeat
  closepath stroke grestore Pnt} def
/PentF {stroke [] 0 setdash gsave
  translate 0 hpt M 4 {72 rotate 0 hpt L} repeat
  closepath fill grestore} def
/Circle {stroke [] 0 setdash 2 copy
  hpt 0 360 arc stroke Pnt} def
/CircleF {stroke [] 0 setdash hpt 0 360 arc fill} def
/C0 {BL [] 0 setdash 2 copy moveto vpt 90 450 arc} bind def
/C1 {BL [] 0 setdash 2 copy moveto
	2 copy vpt 0 90 arc closepath fill
	vpt 0 360 arc closepath} bind def
/C2 {BL [] 0 setdash 2 copy moveto
	2 copy vpt 90 180 arc closepath fill
	vpt 0 360 arc closepath} bind def
/C3 {BL [] 0 setdash 2 copy moveto
	2 copy vpt 0 180 arc closepath fill
	vpt 0 360 arc closepath} bind def
/C4 {BL [] 0 setdash 2 copy moveto
	2 copy vpt 180 270 arc closepath fill
	vpt 0 360 arc closepath} bind def
/C5 {BL [] 0 setdash 2 copy moveto
	2 copy vpt 0 90 arc
	2 copy moveto
	2 copy vpt 180 270 arc closepath fill
	vpt 0 360 arc} bind def
/C6 {BL [] 0 setdash 2 copy moveto
	2 copy vpt 90 270 arc closepath fill
	vpt 0 360 arc closepath} bind def
/C7 {BL [] 0 setdash 2 copy moveto
	2 copy vpt 0 270 arc closepath fill
	vpt 0 360 arc closepath} bind def
/C8 {BL [] 0 setdash 2 copy moveto
	2 copy vpt 270 360 arc closepath fill
	vpt 0 360 arc closepath} bind def
/C9 {BL [] 0 setdash 2 copy moveto
	2 copy vpt 270 450 arc closepath fill
	vpt 0 360 arc closepath} bind def
/C10 {BL [] 0 setdash 2 copy 2 copy moveto vpt 270 360 arc closepath fill
	2 copy moveto
	2 copy vpt 90 180 arc closepath fill
	vpt 0 360 arc closepath} bind def
/C11 {BL [] 0 setdash 2 copy moveto
	2 copy vpt 0 180 arc closepath fill
	2 copy moveto
	2 copy vpt 270 360 arc closepath fill
	vpt 0 360 arc closepath} bind def
/C12 {BL [] 0 setdash 2 copy moveto
	2 copy vpt 180 360 arc closepath fill
	vpt 0 360 arc closepath} bind def
/C13 {BL [] 0 setdash 2 copy moveto
	2 copy vpt 0 90 arc closepath fill
	2 copy moveto
	2 copy vpt 180 360 arc closepath fill
	vpt 0 360 arc closepath} bind def
/C14 {BL [] 0 setdash 2 copy moveto
	2 copy vpt 90 360 arc closepath fill
	vpt 0 360 arc} bind def
/C15 {BL [] 0 setdash 2 copy vpt 0 360 arc closepath fill
	vpt 0 360 arc closepath} bind def
/Rec {newpath 4 2 roll moveto 1 index 0 rlineto 0 exch rlineto
	neg 0 rlineto closepath} bind def
/Square {dup Rec} bind def
/Bsquare {vpt sub exch vpt sub exch vpt2 Square} bind def
/S0 {BL [] 0 setdash 2 copy moveto 0 vpt rlineto BL Bsquare} bind def
/S1 {BL [] 0 setdash 2 copy vpt Square fill Bsquare} bind def
/S2 {BL [] 0 setdash 2 copy exch vpt sub exch vpt Square fill Bsquare} bind def
/S3 {BL [] 0 setdash 2 copy exch vpt sub exch vpt2 vpt Rec fill Bsquare} bind def
/S4 {BL [] 0 setdash 2 copy exch vpt sub exch vpt sub vpt Square fill Bsquare} bind def
/S5 {BL [] 0 setdash 2 copy 2 copy vpt Square fill
	exch vpt sub exch vpt sub vpt Square fill Bsquare} bind def
/S6 {BL [] 0 setdash 2 copy exch vpt sub exch vpt sub vpt vpt2 Rec fill Bsquare} bind def
/S7 {BL [] 0 setdash 2 copy exch vpt sub exch vpt sub vpt vpt2 Rec fill
	2 copy vpt Square fill Bsquare} bind def
/S8 {BL [] 0 setdash 2 copy vpt sub vpt Square fill Bsquare} bind def
/S9 {BL [] 0 setdash 2 copy vpt sub vpt vpt2 Rec fill Bsquare} bind def
/S10 {BL [] 0 setdash 2 copy vpt sub vpt Square fill 2 copy exch vpt sub exch vpt Square fill
	Bsquare} bind def
/S11 {BL [] 0 setdash 2 copy vpt sub vpt Square fill 2 copy exch vpt sub exch vpt2 vpt Rec fill
	Bsquare} bind def
/S12 {BL [] 0 setdash 2 copy exch vpt sub exch vpt sub vpt2 vpt Rec fill Bsquare} bind def
/S13 {BL [] 0 setdash 2 copy exch vpt sub exch vpt sub vpt2 vpt Rec fill
	2 copy vpt Square fill Bsquare} bind def
/S14 {BL [] 0 setdash 2 copy exch vpt sub exch vpt sub vpt2 vpt Rec fill
	2 copy exch vpt sub exch vpt Square fill Bsquare} bind def
/S15 {BL [] 0 setdash 2 copy Bsquare fill Bsquare} bind def
/D0 {gsave translate 45 rotate 0 0 S0 stroke grestore} bind def
/D1 {gsave translate 45 rotate 0 0 S1 stroke grestore} bind def
/D2 {gsave translate 45 rotate 0 0 S2 stroke grestore} bind def
/D3 {gsave translate 45 rotate 0 0 S3 stroke grestore} bind def
/D4 {gsave translate 45 rotate 0 0 S4 stroke grestore} bind def
/D5 {gsave translate 45 rotate 0 0 S5 stroke grestore} bind def
/D6 {gsave translate 45 rotate 0 0 S6 stroke grestore} bind def
/D7 {gsave translate 45 rotate 0 0 S7 stroke grestore} bind def
/D8 {gsave translate 45 rotate 0 0 S8 stroke grestore} bind def
/D9 {gsave translate 45 rotate 0 0 S9 stroke grestore} bind def
/D10 {gsave translate 45 rotate 0 0 S10 stroke grestore} bind def
/D11 {gsave translate 45 rotate 0 0 S11 stroke grestore} bind def
/D12 {gsave translate 45 rotate 0 0 S12 stroke grestore} bind def
/D13 {gsave translate 45 rotate 0 0 S13 stroke grestore} bind def
/D14 {gsave translate 45 rotate 0 0 S14 stroke grestore} bind def
/D15 {gsave translate 45 rotate 0 0 S15 stroke grestore} bind def
/DiaE {stroke [] 0 setdash vpt add M
  hpt neg vpt neg V hpt vpt neg V
  hpt vpt V hpt neg vpt V closepath stroke} def
/BoxE {stroke [] 0 setdash exch hpt sub exch vpt add M
  0 vpt2 neg V hpt2 0 V 0 vpt2 V
  hpt2 neg 0 V closepath stroke} def
/TriUE {stroke [] 0 setdash vpt 1.12 mul add M
  hpt neg vpt -1.62 mul V
  hpt 2 mul 0 V
  hpt neg vpt 1.62 mul V closepath stroke} def
/TriDE {stroke [] 0 setdash vpt 1.12 mul sub M
  hpt neg vpt 1.62 mul V
  hpt 2 mul 0 V
  hpt neg vpt -1.62 mul V closepath stroke} def
/PentE {stroke [] 0 setdash gsave
  translate 0 hpt M 4 {72 rotate 0 hpt L} repeat
  closepath stroke grestore} def
/CircE {stroke [] 0 setdash 
  hpt 0 360 arc stroke} def
/Opaque {gsave closepath 1 setgray fill grestore 0 setgray closepath} def
/DiaW {stroke [] 0 setdash vpt add M
  hpt neg vpt neg V hpt vpt neg V
  hpt vpt V hpt neg vpt V Opaque stroke} def
/BoxW {stroke [] 0 setdash exch hpt sub exch vpt add M
  0 vpt2 neg V hpt2 0 V 0 vpt2 V
  hpt2 neg 0 V Opaque stroke} def
/TriUW {stroke [] 0 setdash vpt 1.12 mul add M
  hpt neg vpt -1.62 mul V
  hpt 2 mul 0 V
  hpt neg vpt 1.62 mul V Opaque stroke} def
/TriDW {stroke [] 0 setdash vpt 1.12 mul sub M
  hpt neg vpt 1.62 mul V
  hpt 2 mul 0 V
  hpt neg vpt -1.62 mul V Opaque stroke} def
/PentW {stroke [] 0 setdash gsave
  translate 0 hpt M 4 {72 rotate 0 hpt L} repeat
  Opaque stroke grestore} def
/CircW {stroke [] 0 setdash 
  hpt 0 360 arc Opaque stroke} def
/BoxFill {gsave Rec 1 setgray fill grestore} def
/Density {
  /Fillden exch def
  currentrgbcolor
  /ColB exch def /ColG exch def /ColR exch def
  /ColR ColR Fillden mul Fillden sub 1 add def
  /ColG ColG Fillden mul Fillden sub 1 add def
  /ColB ColB Fillden mul Fillden sub 1 add def
  ColR ColG ColB setrgbcolor} def
/BoxColFill {gsave Rec PolyFill} def
/PolyFill {gsave Density fill grestore grestore} def
/h {rlineto rlineto rlineto gsave closepath fill grestore} bind def
%
% PostScript Level 1 Pattern Fill routine for rectangles
% Usage: x y w h s a XX PatternFill
%	x,y = lower left corner of box to be filled
%	w,h = width and height of box
%	  a = angle in degrees between lines and x-axis
%	 XX = 0/1 for no/yes cross-hatch
%
/PatternFill {gsave /PFa [ 9 2 roll ] def
  PFa 0 get PFa 2 get 2 div add PFa 1 get PFa 3 get 2 div add translate
  PFa 2 get -2 div PFa 3 get -2 div PFa 2 get PFa 3 get Rec
  gsave 1 setgray fill grestore clip
  currentlinewidth 0.5 mul setlinewidth
  /PFs PFa 2 get dup mul PFa 3 get dup mul add sqrt def
  0 0 M PFa 5 get rotate PFs -2 div dup translate
  0 1 PFs PFa 4 get div 1 add floor cvi
	{PFa 4 get mul 0 M 0 PFs V} for
  0 PFa 6 get ne {
	0 1 PFs PFa 4 get div 1 add floor cvi
	{PFa 4 get mul 0 2 1 roll M PFs 0 V} for
 } if
  stroke grestore} def
%
/languagelevel where
 {pop languagelevel} {1} ifelse
 2 lt
	{/InterpretLevel1 true def}
	{/InterpretLevel1 Level1 def}
 ifelse
%
% PostScript level 2 pattern fill definitions
%
/Level2PatternFill {
/Tile8x8 {/PaintType 2 /PatternType 1 /TilingType 1 /BBox [0 0 8 8] /XStep 8 /YStep 8}
	bind def
/KeepColor {currentrgbcolor [/Pattern /DeviceRGB] setcolorspace} bind def
<< Tile8x8
 /PaintProc {0.5 setlinewidth pop 0 0 M 8 8 L 0 8 M 8 0 L stroke} 
>> matrix makepattern
/Pat1 exch def
<< Tile8x8
 /PaintProc {0.5 setlinewidth pop 0 0 M 8 8 L 0 8 M 8 0 L stroke
	0 4 M 4 8 L 8 4 L 4 0 L 0 4 L stroke}
>> matrix makepattern
/Pat2 exch def
<< Tile8x8
 /PaintProc {0.5 setlinewidth pop 0 0 M 0 8 L
	8 8 L 8 0 L 0 0 L fill}
>> matrix makepattern
/Pat3 exch def
<< Tile8x8
 /PaintProc {0.5 setlinewidth pop -4 8 M 8 -4 L
	0 12 M 12 0 L stroke}
>> matrix makepattern
/Pat4 exch def
<< Tile8x8
 /PaintProc {0.5 setlinewidth pop -4 0 M 8 12 L
	0 -4 M 12 8 L stroke}
>> matrix makepattern
/Pat5 exch def
<< Tile8x8
 /PaintProc {0.5 setlinewidth pop -2 8 M 4 -4 L
	0 12 M 8 -4 L 4 12 M 10 0 L stroke}
>> matrix makepattern
/Pat6 exch def
<< Tile8x8
 /PaintProc {0.5 setlinewidth pop -2 0 M 4 12 L
	0 -4 M 8 12 L 4 -4 M 10 8 L stroke}
>> matrix makepattern
/Pat7 exch def
<< Tile8x8
 /PaintProc {0.5 setlinewidth pop 8 -2 M -4 4 L
	12 0 M -4 8 L 12 4 M 0 10 L stroke}
>> matrix makepattern
/Pat8 exch def
<< Tile8x8
 /PaintProc {0.5 setlinewidth pop 0 -2 M 12 4 L
	-4 0 M 12 8 L -4 4 M 8 10 L stroke}
>> matrix makepattern
/Pat9 exch def
/Pattern1 {PatternBgnd KeepColor Pat1 setpattern} bind def
/Pattern2 {PatternBgnd KeepColor Pat2 setpattern} bind def
/Pattern3 {PatternBgnd KeepColor Pat3 setpattern} bind def
/Pattern4 {PatternBgnd KeepColor Landscape {Pat5} {Pat4} ifelse setpattern} bind def
/Pattern5 {PatternBgnd KeepColor Landscape {Pat4} {Pat5} ifelse setpattern} bind def
/Pattern6 {PatternBgnd KeepColor Landscape {Pat9} {Pat6} ifelse setpattern} bind def
/Pattern7 {PatternBgnd KeepColor Landscape {Pat8} {Pat7} ifelse setpattern} bind def
} def
%
%
%End of PostScript Level 2 code
%
/PatternBgnd {
  TransparentPatterns {} {gsave 1 setgray fill grestore} ifelse
} def
%
% Substitute for Level 2 pattern fill codes with
% grayscale if Level 2 support is not selected.
%
/Level1PatternFill {
/Pattern1 {0.250 Density} bind def
/Pattern2 {0.500 Density} bind def
/Pattern3 {0.750 Density} bind def
/Pattern4 {0.125 Density} bind def
/Pattern5 {0.375 Density} bind def
/Pattern6 {0.625 Density} bind def
/Pattern7 {0.875 Density} bind def
} def
%
% Now test for support of Level 2 code
%
Level1 {Level1PatternFill} {Level2PatternFill} ifelse
%
/Symbol-Oblique /Symbol findfont [1 0 .167 1 0 0] makefont
dup length dict begin {1 index /FID eq {pop pop} {def} ifelse} forall
currentdict end definefont pop
/MFshow {
   { dup 5 get 3 ge
     { 5 get 3 eq {gsave} {grestore} ifelse }
     {dup dup 0 get findfont exch 1 get scalefont setfont
     [ currentpoint ] exch dup 2 get 0 exch R dup 5 get 2 ne {dup dup 6
     get exch 4 get {Gshow} {stringwidth pop 0 R} ifelse }if dup 5 get 0 eq
     {dup 3 get {2 get neg 0 exch R pop} {pop aload pop M} ifelse} {dup 5
     get 1 eq {dup 2 get exch dup 3 get exch 6 get stringwidth pop -2 div
     dup 0 R} {dup 6 get stringwidth pop -2 div 0 R 6 get
     show 2 index {aload pop M neg 3 -1 roll neg R pop pop} {pop pop pop
     pop aload pop M} ifelse }ifelse }ifelse }
     ifelse }
   forall} def
/Gswidth {dup type /stringtype eq {stringwidth} {pop (n) stringwidth} ifelse} def
/MFwidth {0 exch { dup 5 get 3 ge { 5 get 3 eq { 0 } { pop } ifelse }
 {dup 3 get{dup dup 0 get findfont exch 1 get scalefont setfont
     6 get Gswidth pop add} {pop} ifelse} ifelse} forall} def
/MLshow { currentpoint stroke M
  0 exch R
  Blacktext {gsave 0 setgray MFshow grestore} {MFshow} ifelse } bind def
/MRshow { currentpoint stroke M
  exch dup MFwidth neg 3 -1 roll R
  Blacktext {gsave 0 setgray MFshow grestore} {MFshow} ifelse } bind def
/MCshow { currentpoint stroke M
  exch dup MFwidth -2 div 3 -1 roll R
  Blacktext {gsave 0 setgray MFshow grestore} {MFshow} ifelse } bind def
/XYsave    { [( ) 1 2 true false 3 ()] } bind def
/XYrestore { [( ) 1 2 true false 4 ()] } bind def
end
%%EndProlog
gnudict begin
gsave
doclip
50 50 translate
0.050 0.050 scale
0 setgray
newpath
(Helvetica) findfont 140 scalefont setfont
/Helvetica findfont 140 scalefont setfont
1.000 UL
LTb
798 280 M
63 0 V
6086 0 R
-63 0 V
stroke
714 280 M
[ [(Helvetica) 140.0 0.0 true true 0 ( 0)]
] -46.7 MRshow
1.000 UL
LTb
798 1198 M
63 0 V
6086 0 R
-63 0 V
stroke
714 1198 M
[ [(Helvetica) 140.0 0.0 true true 0 ( 50000)]
] -46.7 MRshow
1.000 UL
LTb
798 2116 M
63 0 V
6086 0 R
-63 0 V
stroke
714 2116 M
[ [(Helvetica) 140.0 0.0 true true 0 ( 100000)]
] -46.7 MRshow
1.000 UL
LTb
798 3035 M
63 0 V
6086 0 R
-63 0 V
stroke
714 3035 M
[ [(Helvetica) 140.0 0.0 true true 0 ( 150000)]
] -46.7 MRshow
1.000 UL
LTb
798 3953 M
63 0 V
6086 0 R
-63 0 V
stroke
714 3953 M
[ [(Helvetica) 140.0 0.0 true true 0 ( 200000)]
] -46.7 MRshow
1.000 UL
LTb
798 4871 M
63 0 V
6086 0 R
-63 0 V
stroke
714 4871 M
[ [(Helvetica) 140.0 0.0 true true 0 ( 250000)]
] -46.7 MRshow
1.000 UL
LTb
798 280 M
0 63 V
0 4528 R
0 -63 V
stroke
798 140 M
[ [(Helvetica) 140.0 0.0 true true 0 (-3000)]
] -46.7 MCshow
1.000 UL
LTb
1823 280 M
0 63 V
0 4528 R
0 -63 V
stroke
1823 140 M
[ [(Helvetica) 140.0 0.0 true true 0 (-2000)]
] -46.7 MCshow
1.000 UL
LTb
2848 280 M
0 63 V
0 4528 R
0 -63 V
stroke
2848 140 M
[ [(Helvetica) 140.0 0.0 true true 0 (-1000)]
] -46.7 MCshow
1.000 UL
LTb
3872 280 M
0 63 V
0 4528 R
0 -63 V
stroke
3872 140 M
[ [(Helvetica) 140.0 0.0 true true 0 ( 0)]
] -46.7 MCshow
1.000 UL
LTb
4897 280 M
0 63 V
0 4528 R
0 -63 V
stroke
4897 140 M
[ [(Helvetica) 140.0 0.0 true true 0 ( 1000)]
] -46.7 MCshow
1.000 UL
LTb
5922 280 M
0 63 V
0 4528 R
0 -63 V
stroke
5922 140 M
[ [(Helvetica) 140.0 0.0 true true 0 ( 2000)]
] -46.7 MCshow
1.000 UL
LTb
6947 280 M
0 63 V
0 4528 R
0 -63 V
stroke
6947 140 M
[ [(Helvetica) 140.0 0.0 true true 0 ( 3000)]
] -46.7 MCshow
1.000 UL
LTb
1.000 UL
LTb
798 4871 N
798 280 L
6149 0 V
0 4591 V
-6149 0 V
Z stroke
1.000 UP
1.000 UL
LTb
% Begin plot #1
1.000 UP
1.000 UL
LT0
/Helvetica findfont 140 scalefont setfont
LCb setrgbcolor
6296 4738 M
("1f3000_1.txt") Rshow
LT0
6947 315 Pls
6943 326 Pls
6939 326 Pls
6935 326 Pls
6931 326 Pls
6927 326 Pls
6922 326 Pls
6918 326 Pls
6914 326 Pls
6910 325 Pls
6906 325 Pls
6902 325 Pls
6898 325 Pls
6894 325 Pls
6890 324 Pls
6886 324 Pls
6881 324 Pls
6877 324 Pls
6873 324 Pls
6869 324 Pls
6865 323 Pls
6861 323 Pls
6857 323 Pls
6853 323 Pls
6849 323 Pls
6845 323 Pls
6840 323 Pls
6836 322 Pls
6832 322 Pls
6828 322 Pls
6824 322 Pls
6820 321 Pls
6816 321 Pls
6812 321 Pls
6808 321 Pls
6804 321 Pls
6799 321 Pls
6795 321 Pls
6791 321 Pls
6787 321 Pls
6783 321 Pls
6779 321 Pls
6775 321 Pls
6771 321 Pls
6767 321 Pls
6763 321 Pls
6758 321 Pls
6754 321 Pls
6750 321 Pls
6746 321 Pls
6742 321 Pls
6738 322 Pls
6734 321 Pls
6730 321 Pls
6726 322 Pls
6722 322 Pls
6717 322 Pls
6713 322 Pls
6709 322 Pls
6705 322 Pls
6701 322 Pls
6697 322 Pls
6693 323 Pls
6689 323 Pls
6685 323 Pls
6681 323 Pls
6676 324 Pls
6672 324 Pls
6668 324 Pls
6664 324 Pls
6660 324 Pls
6656 324 Pls
6652 325 Pls
6648 325 Pls
6644 325 Pls
6640 325 Pls
6635 325 Pls
6631 325 Pls
6627 325 Pls
6623 325 Pls
6619 325 Pls
6615 325 Pls
6611 326 Pls
6607 326 Pls
6603 326 Pls
6599 326 Pls
6594 327 Pls
6590 327 Pls
6586 328 Pls
6582 328 Pls
6578 328 Pls
6574 329 Pls
6570 329 Pls
6566 329 Pls
6562 329 Pls
6558 330 Pls
6553 330 Pls
6549 330 Pls
6545 331 Pls
6541 331 Pls
6537 331 Pls
6533 332 Pls
6529 332 Pls
6525 332 Pls
6521 332 Pls
6517 332 Pls
6512 332 Pls
6508 332 Pls
6504 332 Pls
6500 332 Pls
6496 332 Pls
6492 332 Pls
6488 332 Pls
6484 331 Pls
6480 331 Pls
6476 331 Pls
6471 331 Pls
6467 331 Pls
6463 331 Pls
6459 331 Pls
6455 331 Pls
6451 331 Pls
6447 330 Pls
6443 330 Pls
6439 330 Pls
6435 330 Pls
6430 329 Pls
6426 329 Pls
6422 329 Pls
6418 328 Pls
6414 328 Pls
6410 327 Pls
6406 327 Pls
6402 327 Pls
6398 326 Pls
6394 326 Pls
6389 326 Pls
6385 325 Pls
6381 325 Pls
6377 325 Pls
6373 325 Pls
6369 325 Pls
6365 324 Pls
6361 324 Pls
6357 324 Pls
6353 324 Pls
6348 323 Pls
6344 323 Pls
6340 323 Pls
6336 322 Pls
6332 322 Pls
6328 322 Pls
6324 321 Pls
6320 321 Pls
6316 321 Pls
6312 320 Pls
6308 320 Pls
6303 320 Pls
6299 319 Pls
6295 319 Pls
6291 319 Pls
6287 319 Pls
6283 318 Pls
6279 318 Pls
6275 318 Pls
6271 318 Pls
6267 318 Pls
6262 318 Pls
6258 318 Pls
6254 318 Pls
6250 318 Pls
6246 318 Pls
6242 318 Pls
6238 318 Pls
6234 318 Pls
6230 319 Pls
6226 319 Pls
6221 319 Pls
6217 319 Pls
6213 319 Pls
6209 319 Pls
6205 320 Pls
6201 320 Pls
6197 321 Pls
6193 321 Pls
6189 322 Pls
6185 322 Pls
6180 323 Pls
6176 324 Pls
6172 325 Pls
6168 325 Pls
6164 326 Pls
6160 327 Pls
6156 328 Pls
6152 328 Pls
6148 329 Pls
6144 330 Pls
6139 331 Pls
6135 332 Pls
6131 333 Pls
6127 334 Pls
6123 335 Pls
6119 337 Pls
6115 337 Pls
6111 338 Pls
6107 339 Pls
6103 340 Pls
6098 341 Pls
6094 341 Pls
6090 342 Pls
6086 342 Pls
6082 342 Pls
6078 343 Pls
6074 343 Pls
6070 344 Pls
6066 344 Pls
6062 344 Pls
6057 344 Pls
6053 344 Pls
6049 345 Pls
6045 345 Pls
6041 345 Pls
6037 345 Pls
6033 345 Pls
6029 345 Pls
6025 345 Pls
6021 345 Pls
6016 346 Pls
6012 345 Pls
6008 345 Pls
6004 345 Pls
6000 345 Pls
5996 345 Pls
5992 345 Pls
5988 345 Pls
5984 344 Pls
5980 344 Pls
5975 344 Pls
5971 344 Pls
5967 343 Pls
5963 343 Pls
5959 343 Pls
5955 342 Pls
5951 342 Pls
5947 341 Pls
5943 340 Pls
5939 340 Pls
5934 339 Pls
5930 338 Pls
5926 338 Pls
5922 337 Pls
5918 337 Pls
5914 336 Pls
5910 335 Pls
5906 334 Pls
5902 333 Pls
5898 332 Pls
5893 332 Pls
5889 331 Pls
5885 330 Pls
5881 329 Pls
5877 328 Pls
5873 326 Pls
5869 325 Pls
5865 324 Pls
5861 323 Pls
5857 323 Pls
5852 322 Pls
5848 321 Pls
5844 321 Pls
5840 320 Pls
5836 319 Pls
5832 319 Pls
5828 318 Pls
5824 318 Pls
5820 318 Pls
5816 317 Pls
5811 317 Pls
5807 317 Pls
5803 317 Pls
5799 317 Pls
5795 317 Pls
5791 317 Pls
5787 317 Pls
5783 317 Pls
5779 317 Pls
5775 317 Pls
5770 318 Pls
5766 319 Pls
5762 320 Pls
5758 320 Pls
5754 321 Pls
5750 322 Pls
5746 323 Pls
5742 324 Pls
5738 325 Pls
5734 327 Pls
5729 329 Pls
5725 330 Pls
5721 333 Pls
5717 335 Pls
5713 337 Pls
5709 339 Pls
5705 342 Pls
5701 344 Pls
5697 345 Pls
5693 348 Pls
5689 349 Pls
5684 351 Pls
5680 352 Pls
5676 354 Pls
5672 355 Pls
5668 357 Pls
5664 357 Pls
5660 359 Pls
5656 360 Pls
5652 361 Pls
5648 361 Pls
5643 363 Pls
5639 363 Pls
5635 364 Pls
5631 365 Pls
5627 365 Pls
5623 366 Pls
5619 366 Pls
5615 367 Pls
5611 368 Pls
5607 369 Pls
5602 369 Pls
5598 370 Pls
5594 370 Pls
5590 371 Pls
5586 371 Pls
5582 371 Pls
5578 371 Pls
5574 372 Pls
5570 372 Pls
5566 372 Pls
5561 372 Pls
5557 372 Pls
5553 372 Pls
5549 371 Pls
5545 371 Pls
5541 370 Pls
5537 370 Pls
5533 369 Pls
5529 369 Pls
5525 368 Pls
5520 367 Pls
5516 366 Pls
5512 365 Pls
5508 364 Pls
5504 362 Pls
5500 361 Pls
5496 360 Pls
5492 359 Pls
5488 357 Pls
5484 355 Pls
5479 353 Pls
5475 351 Pls
5471 350 Pls
5467 348 Pls
5463 345 Pls
5459 343 Pls
5455 341 Pls
5451 339 Pls
5447 336 Pls
5443 335 Pls
5438 333 Pls
5434 331 Pls
5430 330 Pls
5426 328 Pls
5422 327 Pls
5418 325 Pls
5414 324 Pls
5410 323 Pls
5406 322 Pls
5402 322 Pls
5397 321 Pls
5393 321 Pls
5389 320 Pls
5385 320 Pls
5381 320 Pls
5377 319 Pls
5373 319 Pls
5369 319 Pls
5365 320 Pls
5361 320 Pls
5356 321 Pls
5352 322 Pls
5348 324 Pls
5344 325 Pls
5340 327 Pls
5336 329 Pls
5332 331 Pls
5328 333 Pls
5324 336 Pls
5320 340 Pls
5315 344 Pls
5311 350 Pls
5307 355 Pls
5303 360 Pls
5299 366 Pls
5295 371 Pls
5291 377 Pls
5287 382 Pls
5283 388 Pls
5279 392 Pls
5274 397 Pls
5270 402 Pls
5266 406 Pls
5262 410 Pls
5258 413 Pls
5254 417 Pls
5250 420 Pls
5246 423 Pls
5242 427 Pls
5238 430 Pls
5233 433 Pls
5229 437 Pls
5225 440 Pls
5221 443 Pls
5217 446 Pls
5213 449 Pls
5209 451 Pls
5205 453 Pls
5201 456 Pls
5197 460 Pls
5192 463 Pls
5188 466 Pls
5184 468 Pls
5180 471 Pls
5176 473 Pls
5172 475 Pls
5168 477 Pls
5164 480 Pls
5160 482 Pls
5156 485 Pls
5151 487 Pls
5147 489 Pls
5143 491 Pls
5139 493 Pls
5135 494 Pls
5131 495 Pls
5127 496 Pls
5123 497 Pls
5119 498 Pls
5115 498 Pls
5110 498 Pls
5106 498 Pls
5102 498 Pls
5098 497 Pls
5094 496 Pls
5090 495 Pls
5086 494 Pls
5082 492 Pls
5078 490 Pls
5074 487 Pls
5070 485 Pls
5065 482 Pls
5061 479 Pls
5057 475 Pls
5053 472 Pls
5049 467 Pls
5045 463 Pls
5041 459 Pls
5037 454 Pls
5033 450 Pls
5029 446 Pls
5024 441 Pls
5020 437 Pls
5016 433 Pls
5012 429 Pls
5008 425 Pls
5004 421 Pls
5000 418 Pls
4996 415 Pls
4992 413 Pls
4988 411 Pls
4983 409 Pls
4979 407 Pls
4975 404 Pls
4971 401 Pls
4967 397 Pls
4963 394 Pls
4959 391 Pls
4955 388 Pls
4951 386 Pls
4947 385 Pls
4942 384 Pls
4938 383 Pls
4934 383 Pls
4930 383 Pls
4926 383 Pls
4922 384 Pls
4918 386 Pls
4914 388 Pls
4910 391 Pls
4906 396 Pls
4901 401 Pls
4897 407 Pls
4893 414 Pls
4889 422 Pls
4885 431 Pls
4881 439 Pls
4877 448 Pls
4873 456 Pls
4869 465 Pls
4865 474 Pls
4860 481 Pls
4856 489 Pls
4852 497 Pls
4848 504 Pls
4844 511 Pls
4840 518 Pls
4836 525 Pls
4832 533 Pls
4828 541 Pls
4824 547 Pls
4819 555 Pls
4815 563 Pls
4811 570 Pls
4807 577 Pls
4803 584 Pls
4799 590 Pls
4795 597 Pls
4791 604 Pls
4787 612 Pls
4783 619 Pls
4778 627 Pls
4774 634 Pls
4770 641 Pls
4766 648 Pls
4762 657 Pls
4758 666 Pls
4754 676 Pls
4750 686 Pls
4746 696 Pls
4742 706 Pls
4737 716 Pls
4733 725 Pls
4729 733 Pls
4725 741 Pls
4721 750 Pls
4717 757 Pls
4713 764 Pls
4709 771 Pls
4705 777 Pls
4701 783 Pls
4696 788 Pls
4692 793 Pls
4688 798 Pls
4684 802 Pls
4680 806 Pls
4676 810 Pls
4672 814 Pls
4668 816 Pls
4664 819 Pls
4660 821 Pls
4655 822 Pls
4651 823 Pls
4647 823 Pls
4643 821 Pls
4639 819 Pls
4635 816 Pls
4631 812 Pls
4627 808 Pls
4623 804 Pls
4619 799 Pls
4614 794 Pls
4610 788 Pls
4606 783 Pls
4602 776 Pls
4598 770 Pls
4594 764 Pls
4590 758 Pls
4586 752 Pls
4582 748 Pls
4578 744 Pls
4573 740 Pls
4569 735 Pls
4565 729 Pls
4561 721 Pls
4557 710 Pls
4553 700 Pls
4549 689 Pls
4545 679 Pls
4541 669 Pls
4537 660 Pls
4532 650 Pls
4528 642 Pls
4524 634 Pls
4520 627 Pls
4516 620 Pls
4512 614 Pls
4508 608 Pls
4504 602 Pls
4500 596 Pls
4496 591 Pls
4491 586 Pls
4487 583 Pls
4483 582 Pls
4479 582 Pls
4475 584 Pls
4471 587 Pls
4467 592 Pls
4463 597 Pls
4459 603 Pls
4455 609 Pls
4451 616 Pls
4446 623 Pls
4442 630 Pls
4438 637 Pls
4434 645 Pls
4430 653 Pls
4426 661 Pls
4422 670 Pls
4418 679 Pls
4414 689 Pls
4410 699 Pls
4405 709 Pls
4401 720 Pls
4397 730 Pls
4393 740 Pls
4389 750 Pls
4385 760 Pls
4381 772 Pls
4377 783 Pls
4373 796 Pls
4369 808 Pls
4364 822 Pls
4360 837 Pls
4356 853 Pls
4352 872 Pls
4348 893 Pls
4344 917 Pls
4340 941 Pls
4336 966 Pls
4332 991 Pls
4328 1017 Pls
4323 1042 Pls
4319 1066 Pls
4315 1090 Pls
4311 1113 Pls
4307 1138 Pls
4303 1162 Pls
4299 1187 Pls
4295 1212 Pls
4291 1234 Pls
4287 1257 Pls
4282 1280 Pls
4278 1305 Pls
4274 1329 Pls
4270 1355 Pls
4266 1382 Pls
4262 1409 Pls
4258 1436 Pls
4254 1465 Pls
4250 1495 Pls
4246 1525 Pls
4241 1555 Pls
4237 1586 Pls
4233 1616 Pls
4229 1646 Pls
4225 1675 Pls
4221 1702 Pls
4217 1728 Pls
4213 1752 Pls
4209 1776 Pls
4205 1796 Pls
4200 1820 Pls
4196 1840 Pls
4192 1858 Pls
4188 1878 Pls
4184 1895 Pls
4180 1912 Pls
4176 1928 Pls
4172 1939 Pls
4168 1948 Pls
4164 1946 Pls
4159 1966 Pls
4155 1977 Pls
4151 1996 Pls
4147 2014 Pls
4143 2033 Pls
4139 2051 Pls
4135 2067 Pls
4131 2081 Pls
4127 2096 Pls
4123 2111 Pls
4118 2123 Pls
4114 2136 Pls
4110 2148 Pls
4106 2160 Pls
4102 2172 Pls
4098 2184 Pls
4094 2197 Pls
4090 2215 Pls
4086 2232 Pls
4082 2250 Pls
4077 2267 Pls
4073 2287 Pls
4069 2306 Pls
4065 2324 Pls
4061 2342 Pls
4057 2359 Pls
4053 2378 Pls
4049 2389 Pls
4045 2412 Pls
4041 2423 Pls
4036 2443 Pls
4032 2459 Pls
4028 2474 Pls
4024 2489 Pls
4020 2504 Pls
4016 2517 Pls
4012 2532 Pls
4008 2549 Pls
4004 2565 Pls
4000 2581 Pls
3995 2596 Pls
3991 2615 Pls
3987 2632 Pls
3983 2647 Pls
3979 2659 Pls
3975 2672 Pls
3971 2690 Pls
3967 2707 Pls
3963 2726 Pls
3959 2742 Pls
3954 2759 Pls
3950 2783 Pls
3946 2810 Pls
3942 2840 Pls
3938 2867 Pls
3934 2905 Pls
3930 2940 Pls
3926 2974 Pls
3922 3005 Pls
3918 3039 Pls
3913 3073 Pls
3909 3110 Pls
3905 3144 Pls
3901 3174 Pls
3897 3202 Pls
3893 3238 Pls
3889 3279 Pls
3885 3313 Pls
3881 3338 Pls
3877 3362 Pls
3872 3391 Pls
3868 3428 Pls
3864 3469 Pls
3860 3508 Pls
3856 3537 Pls
3852 3562 Pls
3848 3599 Pls
3844 3639 Pls
3840 3684 Pls
3836 3726 Pls
3832 3767 Pls
3827 3808 Pls
3823 3846 Pls
3819 3878 Pls
3815 3906 Pls
3811 3929 Pls
3807 3958 Pls
3803 3995 Pls
3799 4038 Pls
3795 4077 Pls
3791 4110 Pls
3786 4139 Pls
3782 4160 Pls
3778 4173 Pls
3774 4179 Pls
3770 4181 Pls
3766 4183 Pls
3762 4179 Pls
3758 4178 Pls
3754 4177 Pls
3750 4178 Pls
3745 4176 Pls
3741 4175 Pls
3737 4177 Pls
3733 4178 Pls
3729 4177 Pls
3725 4174 Pls
3721 4173 Pls
3717 4170 Pls
3713 4166 Pls
3709 4162 Pls
3704 4161 Pls
3700 4159 Pls
3696 4150 Pls
3692 4162 Pls
3688 4161 Pls
3684 4158 Pls
3680 4145 Pls
3676 4122 Pls
3672 4075 Pls
3668 4016 Pls
3663 3958 Pls
3659 3916 Pls
3655 3885 Pls
3651 3854 Pls
3647 3819 Pls
3643 3786 Pls
3639 3753 Pls
3635 3719 Pls
3631 3684 Pls
3627 3648 Pls
3622 3617 Pls
3618 3589 Pls
3614 3564 Pls
3610 3542 Pls
3606 3518 Pls
3602 3493 Pls
3598 3465 Pls
3594 3436 Pls
3590 3407 Pls
3586 3381 Pls
3581 3358 Pls
3577 3336 Pls
3573 3315 Pls
3569 3297 Pls
3565 3276 Pls
3561 3253 Pls
3557 3230 Pls
3553 3207 Pls
3549 3182 Pls
3545 3157 Pls
3540 3128 Pls
3536 3099 Pls
3532 3065 Pls
3528 3028 Pls
3524 2991 Pls
3520 2957 Pls
3516 2926 Pls
3512 2895 Pls
3508 2866 Pls
3504 2838 Pls
3499 2811 Pls
3495 2786 Pls
3491 2762 Pls
3487 2738 Pls
3483 2714 Pls
3479 2692 Pls
3475 2670 Pls
3471 2651 Pls
3467 2633 Pls
3463 2615 Pls
3458 2596 Pls
3454 2578 Pls
3450 2559 Pls
3446 2541 Pls
3442 2524 Pls
3438 2506 Pls
3434 2490 Pls
3430 2472 Pls
3426 2456 Pls
3422 2441 Pls
3417 2426 Pls
3413 2411 Pls
3409 2397 Pls
3405 2384 Pls
3401 2371 Pls
3397 2359 Pls
3393 2346 Pls
3389 2336 Pls
3385 2326 Pls
3381 2318 Pls
3376 2308 Pls
3372 2299 Pls
3368 2291 Pls
3364 2282 Pls
3360 2275 Pls
3356 2267 Pls
3352 2256 Pls
3348 2256 Pls
3344 2252 Pls
3340 2246 Pls
3335 2238 Pls
3331 2228 Pls
3327 2216 Pls
3323 2204 Pls
3319 2190 Pls
3315 2176 Pls
3311 2164 Pls
3307 2151 Pls
3303 2137 Pls
3299 2123 Pls
3294 2109 Pls
3290 2095 Pls
3286 2080 Pls
3282 2065 Pls
3278 2049 Pls
3274 2032 Pls
3270 2010 Pls
3266 1982 Pls
3262 1951 Pls
3258 1919 Pls
3254 1888 Pls
3249 1856 Pls
3245 1825 Pls
3241 1794 Pls
3237 1764 Pls
3233 1734 Pls
3229 1706 Pls
3225 1679 Pls
3221 1653 Pls
3217 1630 Pls
3213 1607 Pls
3208 1586 Pls
3204 1565 Pls
3200 1544 Pls
3196 1523 Pls
3192 1502 Pls
3188 1480 Pls
3184 1459 Pls
3180 1438 Pls
3176 1418 Pls
3172 1398 Pls
3167 1380 Pls
3163 1361 Pls
3159 1345 Pls
3155 1328 Pls
3151 1311 Pls
3147 1293 Pls
3143 1276 Pls
3139 1255 Pls
3135 1233 Pls
3131 1208 Pls
3126 1180 Pls
3122 1151 Pls
3118 1122 Pls
3114 1093 Pls
3110 1066 Pls
3106 1039 Pls
3102 1014 Pls
3098 989 Pls
3094 966 Pls
3090 943 Pls
3085 922 Pls
3081 903 Pls
3077 884 Pls
3073 866 Pls
3069 848 Pls
3065 832 Pls
3061 817 Pls
3057 803 Pls
3053 789 Pls
3049 775 Pls
3044 763 Pls
3040 750 Pls
3036 738 Pls
3032 725 Pls
3028 714 Pls
3024 704 Pls
3020 695 Pls
3016 687 Pls
3012 679 Pls
3008 673 Pls
3003 667 Pls
2999 663 Pls
2995 661 Pls
2991 660 Pls
2987 660 Pls
2983 662 Pls
2979 664 Pls
2975 667 Pls
2971 670 Pls
2967 675 Pls
2962 680 Pls
2958 686 Pls
2954 692 Pls
2950 698 Pls
2946 705 Pls
2942 711 Pls
2938 715 Pls
2934 720 Pls
2930 725 Pls
2926 732 Pls
2921 741 Pls
2917 753 Pls
2913 766 Pls
2909 777 Pls
2905 790 Pls
2901 801 Pls
2897 812 Pls
2893 823 Pls
2889 833 Pls
2885 843 Pls
2880 852 Pls
2876 861 Pls
2872 869 Pls
2868 877 Pls
2864 885 Pls
2860 895 Pls
2856 906 Pls
2852 916 Pls
2848 925 Pls
2844 932 Pls
2839 938 Pls
2835 942 Pls
2831 946 Pls
2827 948 Pls
2823 948 Pls
2819 948 Pls
2815 947 Pls
2811 946 Pls
2807 944 Pls
2803 941 Pls
2798 940 Pls
2794 937 Pls
2790 934 Pls
2786 930 Pls
2782 926 Pls
2778 921 Pls
2774 916 Pls
2770 911 Pls
2766 906 Pls
2762 901 Pls
2757 896 Pls
2753 890 Pls
2749 886 Pls
2745 880 Pls
2741 874 Pls
2737 868 Pls
2733 861 Pls
2729 853 Pls
2725 845 Pls
2721 834 Pls
2716 822 Pls
2712 809 Pls
2708 795 Pls
2704 781 Pls
2700 767 Pls
2696 753 Pls
2692 740 Pls
2688 726 Pls
2684 713 Pls
2680 700 Pls
2675 687 Pls
2671 675 Pls
2667 662 Pls
2663 649 Pls
2659 638 Pls
2655 626 Pls
2651 615 Pls
2647 605 Pls
2643 593 Pls
2639 582 Pls
2635 571 Pls
2630 560 Pls
2626 549 Pls
2622 538 Pls
2618 526 Pls
2614 514 Pls
2610 503 Pls
2606 491 Pls
2602 481 Pls
2598 470 Pls
2594 461 Pls
2589 452 Pls
2585 443 Pls
2581 436 Pls
2577 430 Pls
2573 424 Pls
2569 420 Pls
2565 416 Pls
2561 413 Pls
2557 410 Pls
2553 408 Pls
2548 407 Pls
2544 406 Pls
2540 405 Pls
2536 406 Pls
2532 406 Pls
2528 406 Pls
2524 407 Pls
2520 408 Pls
2516 409 Pls
2512 411 Pls
2507 414 Pls
2503 417 Pls
2499 422 Pls
2495 426 Pls
2491 431 Pls
2487 437 Pls
2483 442 Pls
2479 447 Pls
2475 452 Pls
2471 457 Pls
2466 463 Pls
2462 468 Pls
2458 473 Pls
2454 479 Pls
2450 486 Pls
2446 495 Pls
2442 504 Pls
2438 513 Pls
2434 521 Pls
2430 529 Pls
2425 537 Pls
2421 544 Pls
2417 550 Pls
2413 556 Pls
2409 561 Pls
2405 564 Pls
2401 569 Pls
2397 572 Pls
2393 575 Pls
2389 577 Pls
2384 580 Pls
2380 581 Pls
2376 584 Pls
2372 585 Pls
2368 586 Pls
2364 587 Pls
2360 588 Pls
2356 589 Pls
2352 590 Pls
2348 590 Pls
2343 590 Pls
2339 590 Pls
2335 590 Pls
2331 590 Pls
2327 589 Pls
2323 589 Pls
2319 588 Pls
2315 586 Pls
2311 585 Pls
2307 583 Pls
2302 580 Pls
2298 576 Pls
2294 573 Pls
2290 569 Pls
2286 564 Pls
2282 560 Pls
2278 555 Pls
2274 550 Pls
2270 546 Pls
2266 540 Pls
2261 535 Pls
2257 530 Pls
2253 525 Pls
2249 520 Pls
2245 513 Pls
2241 508 Pls
2237 503 Pls
2233 497 Pls
2229 491 Pls
2225 485 Pls
2220 479 Pls
2216 472 Pls
2212 465 Pls
2208 458 Pls
2204 450 Pls
2200 442 Pls
2196 435 Pls
2192 427 Pls
2188 418 Pls
2184 411 Pls
2179 403 Pls
2175 396 Pls
2171 389 Pls
2167 382 Pls
2163 376 Pls
2159 371 Pls
2155 365 Pls
2151 360 Pls
2147 356 Pls
2143 352 Pls
2138 348 Pls
2134 345 Pls
2130 342 Pls
2126 339 Pls
2122 337 Pls
2118 335 Pls
2114 334 Pls
2110 333 Pls
2106 331 Pls
2102 329 Pls
2097 328 Pls
2093 327 Pls
2089 326 Pls
2085 326 Pls
2081 326 Pls
2077 326 Pls
2073 327 Pls
2069 329 Pls
2065 330 Pls
2061 332 Pls
2056 333 Pls
2052 335 Pls
2048 337 Pls
2044 339 Pls
2040 342 Pls
2036 346 Pls
2032 351 Pls
2028 355 Pls
2024 360 Pls
2020 365 Pls
2016 370 Pls
2011 375 Pls
2007 379 Pls
2003 383 Pls
1999 387 Pls
1995 390 Pls
1991 393 Pls
1987 396 Pls
1983 399 Pls
1979 402 Pls
1975 404 Pls
1970 406 Pls
1966 409 Pls
1962 410 Pls
1958 412 Pls
1954 414 Pls
1950 416 Pls
1946 418 Pls
1942 419 Pls
1938 421 Pls
1934 422 Pls
1929 423 Pls
1925 424 Pls
1921 425 Pls
1917 426 Pls
1913 427 Pls
1909 428 Pls
1905 429 Pls
1901 430 Pls
1897 431 Pls
1893 431 Pls
1888 431 Pls
1884 432 Pls
1880 431 Pls
1876 431 Pls
1872 431 Pls
1868 430 Pls
1864 429 Pls
1860 428 Pls
1856 427 Pls
1852 425 Pls
1847 424 Pls
1843 423 Pls
1839 421 Pls
1835 419 Pls
1831 417 Pls
1827 415 Pls
1823 413 Pls
1819 411 Pls
1815 409 Pls
1811 406 Pls
1806 404 Pls
1802 401 Pls
1798 398 Pls
1794 395 Pls
1790 392 Pls
1786 388 Pls
1782 384 Pls
1778 381 Pls
1774 377 Pls
1770 373 Pls
1765 369 Pls
1761 365 Pls
1757 362 Pls
1753 359 Pls
1749 356 Pls
1745 352 Pls
1741 350 Pls
1737 347 Pls
1733 344 Pls
1729 342 Pls
1724 340 Pls
1720 338 Pls
1716 336 Pls
1712 334 Pls
1708 332 Pls
1704 331 Pls
1700 330 Pls
1696 329 Pls
1692 327 Pls
1688 325 Pls
1683 323 Pls
1679 322 Pls
1675 321 Pls
1671 320 Pls
1667 319 Pls
1663 318 Pls
1659 318 Pls
1655 318 Pls
1651 318 Pls
1647 318 Pls
1642 318 Pls
1638 318 Pls
1634 319 Pls
1630 319 Pls
1626 320 Pls
1622 322 Pls
1618 323 Pls
1614 325 Pls
1610 327 Pls
1606 329 Pls
1601 331 Pls
1597 332 Pls
1593 334 Pls
1589 336 Pls
1585 338 Pls
1581 340 Pls
1577 341 Pls
1573 343 Pls
1569 344 Pls
1565 346 Pls
1560 347 Pls
1556 348 Pls
1552 349 Pls
1548 351 Pls
1544 352 Pls
1540 353 Pls
1536 354 Pls
1532 355 Pls
1528 356 Pls
1524 357 Pls
1519 358 Pls
1515 358 Pls
1511 359 Pls
1507 360 Pls
1503 361 Pls
1499 362 Pls
1495 363 Pls
1491 364 Pls
1487 366 Pls
1483 367 Pls
1478 368 Pls
1474 368 Pls
1470 369 Pls
1466 370 Pls
1462 370 Pls
1458 371 Pls
1454 371 Pls
1450 371 Pls
1446 371 Pls
1442 371 Pls
1437 371 Pls
1433 371 Pls
1429 370 Pls
1425 370 Pls
1421 369 Pls
1417 369 Pls
1413 368 Pls
1409 367 Pls
1405 367 Pls
1401 366 Pls
1397 365 Pls
1392 364 Pls
1388 363 Pls
1384 362 Pls
1380 360 Pls
1376 358 Pls
1372 357 Pls
1368 355 Pls
1364 353 Pls
1360 352 Pls
1356 350 Pls
1351 348 Pls
1347 347 Pls
1343 345 Pls
1339 343 Pls
1335 341 Pls
1331 340 Pls
1327 338 Pls
1323 337 Pls
1319 336 Pls
1315 334 Pls
1310 333 Pls
1306 332 Pls
1302 331 Pls
1298 330 Pls
1294 330 Pls
1290 329 Pls
1286 328 Pls
1282 327 Pls
1278 325 Pls
1274 324 Pls
1269 323 Pls
1265 322 Pls
1261 322 Pls
1257 321 Pls
1253 320 Pls
1249 320 Pls
1245 319 Pls
1241 319 Pls
1237 318 Pls
1233 318 Pls
1228 318 Pls
1224 318 Pls
1220 318 Pls
1216 318 Pls
1212 319 Pls
1208 319 Pls
1204 319 Pls
1200 320 Pls
1196 321 Pls
1192 322 Pls
1187 323 Pls
1183 323 Pls
1179 324 Pls
1175 325 Pls
1171 326 Pls
1167 327 Pls
1163 327 Pls
1159 328 Pls
1155 329 Pls
1151 330 Pls
1146 330 Pls
1142 331 Pls
1138 332 Pls
1134 333 Pls
1130 333 Pls
1126 334 Pls
1122 335 Pls
1118 335 Pls
1114 336 Pls
1110 337 Pls
1105 337 Pls
1101 338 Pls
1097 339 Pls
1093 339 Pls
1089 340 Pls
1085 341 Pls
1081 342 Pls
1077 343 Pls
1073 344 Pls
1069 345 Pls
1064 346 Pls
1060 347 Pls
1056 347 Pls
1052 348 Pls
1048 349 Pls
1044 350 Pls
1040 350 Pls
1036 350 Pls
1032 351 Pls
1028 352 Pls
1023 352 Pls
1019 353 Pls
1015 352 Pls
1011 353 Pls
1007 353 Pls
1003 353 Pls
999 353 Pls
995 353 Pls
991 353 Pls
987 353 Pls
982 353 Pls
978 353 Pls
974 353 Pls
970 352 Pls
966 352 Pls
962 352 Pls
958 351 Pls
954 350 Pls
950 350 Pls
946 349 Pls
941 348 Pls
937 347 Pls
933 346 Pls
929 346 Pls
925 345 Pls
921 344 Pls
917 343 Pls
913 342 Pls
909 341 Pls
905 341 Pls
900 340 Pls
896 339 Pls
892 338 Pls
888 338 Pls
884 337 Pls
880 337 Pls
876 336 Pls
872 335 Pls
868 334 Pls
864 333 Pls
859 332 Pls
855 331 Pls
851 330 Pls
847 330 Pls
843 329 Pls
839 328 Pls
835 328 Pls
831 328 Pls
827 327 Pls
823 327 Pls
818 326 Pls
814 326 Pls
810 325 Pls
806 325 Pls
802 324 Pls
6579 4738 Pls
% End plot #1
1.000 UL
LTb
798 4871 N
798 280 L
6149 0 V
0 4591 V
-6149 0 V
Z stroke
1.000 UP
1.000 UL
LTb
stroke
grestore
end
showpage
gnudict begin
gsave
doclip
50 50 translate
0.050 0.050 scale
0 setgray
newpath
(Helvetica) findfont 140 scalefont setfont
/Helvetica findfont 140 scalefont setfont
1.000 UL
LTb
714 280 M
63 0 V
6170 0 R
-63 0 V
stroke
630 280 M
[ [(Helvetica) 140.0 0.0 true true 0 ( 20000)]
] -46.7 MRshow
1.000 UL
LTb
714 854 M
63 0 V
6170 0 R
-63 0 V
stroke
630 854 M
[ [(Helvetica) 140.0 0.0 true true 0 ( 25000)]
] -46.7 MRshow
1.000 UL
LTb
714 1428 M
63 0 V
6170 0 R
-63 0 V
stroke
630 1428 M
[ [(Helvetica) 140.0 0.0 true true 0 ( 30000)]
] -46.7 MRshow
1.000 UL
LTb
714 2002 M
63 0 V
6170 0 R
-63 0 V
stroke
630 2002 M
[ [(Helvetica) 140.0 0.0 true true 0 ( 35000)]
] -46.7 MRshow
1.000 UL
LTb
714 2576 M
63 0 V
6170 0 R
-63 0 V
stroke
630 2576 M
[ [(Helvetica) 140.0 0.0 true true 0 ( 40000)]
] -46.7 MRshow
1.000 UL
LTb
714 3149 M
63 0 V
6170 0 R
-63 0 V
stroke
630 3149 M
[ [(Helvetica) 140.0 0.0 true true 0 ( 45000)]
] -46.7 MRshow
1.000 UL
LTb
714 3723 M
63 0 V
6170 0 R
-63 0 V
stroke
630 3723 M
[ [(Helvetica) 140.0 0.0 true true 0 ( 50000)]
] -46.7 MRshow
1.000 UL
LTb
714 4297 M
63 0 V
6170 0 R
-63 0 V
stroke
630 4297 M
[ [(Helvetica) 140.0 0.0 true true 0 ( 55000)]
] -46.7 MRshow
1.000 UL
LTb
714 4871 M
63 0 V
6170 0 R
-63 0 V
stroke
630 4871 M
[ [(Helvetica) 140.0 0.0 true true 0 ( 60000)]
] -46.7 MRshow
1.000 UL
LTb
714 280 M
0 63 V
0 4528 R
0 -63 V
stroke
714 140 M
[ [(Helvetica) 140.0 0.0 true true 0 (-900)]
] -46.7 MCshow
1.000 UL
LTb
2272 280 M
0 63 V
0 4528 R
0 -63 V
stroke
2272 140 M
[ [(Helvetica) 140.0 0.0 true true 0 (-850)]
] -46.7 MCshow
1.000 UL
LTb
3830 280 M
0 63 V
0 4528 R
0 -63 V
stroke
3830 140 M
[ [(Helvetica) 140.0 0.0 true true 0 (-800)]
] -46.7 MCshow
1.000 UL
LTb
5389 280 M
0 63 V
0 4528 R
0 -63 V
stroke
5389 140 M
[ [(Helvetica) 140.0 0.0 true true 0 (-750)]
] -46.7 MCshow
1.000 UL
LTb
6947 280 M
0 63 V
0 4528 R
0 -63 V
stroke
6947 140 M
[ [(Helvetica) 140.0 0.0 true true 0 (-700)]
] -46.7 MCshow
1.000 UL
LTb
1.000 UL
LTb
714 4871 N
714 280 L
6233 0 V
0 4591 V
-6233 0 V
Z stroke
1.000 UP
1.000 UL
LTb
% Begin plot #1
1.000 UP
1.000 UL
LT0
/Helvetica findfont 140 scalefont setfont
LCb setrgbcolor
6296 4738 M
("1f3000_1.txt") Rshow
LT0
6947 4536 Pls
6822 4429 Pls
6698 4318 Pls
6573 4208 Pls
6448 4079 Pls
6324 3942 Pls
6199 3784 Pls
6074 3612 Pls
5950 3427 Pls
5825 3249 Pls
5700 3069 Pls
5576 2897 Pls
5451 2731 Pls
5326 2571 Pls
5202 2416 Pls
5077 2270 Pls
4952 2130 Pls
4828 1999 Pls
4703 1878 Pls
4578 1759 Pls
4454 1645 Pls
4329 1537 Pls
4204 1432 Pls
4080 1342 Pls
3955 1252 Pls
3830 1167 Pls
3706 1081 Pls
3581 1002 Pls
3457 922 Pls
3332 844 Pls
3207 768 Pls
3083 695 Pls
2958 634 Pls
2833 578 Pls
2709 526 Pls
2584 478 Pls
2459 438 Pls
2335 401 Pls
2210 379 Pls
2085 368 Pls
1961 360 Pls
1836 362 Pls
1711 371 Pls
1587 384 Pls
1462 403 Pls
1337 424 Pls
1213 452 Pls
1088 484 Pls
963 519 Pls
839 557 Pls
714 598 Pls
6579 4738 Pls
% End plot #1
1.000 UL
LTb
714 4871 N
714 280 L
6233 0 V
0 4591 V
-6233 0 V
Z stroke
1.000 UP
1.000 UL
LTb
stroke
grestore
end
showpage
