\relax 
\select@language{italian}
\@writefile{toc}{\select@language{italian}}
\@writefile{lof}{\select@language{italian}}
\@writefile{lot}{\select@language{italian}}
\select@language{italian}
\@writefile{toc}{\select@language{italian}}
\@writefile{lof}{\select@language{italian}}
\@writefile{lot}{\select@language{italian}}
\@writefile{toc}{\contentsline {section}{\numberline {1}Obiettivi dell'esperienza}{1}}
\@writefile{toc}{\contentsline {section}{\numberline {2}Caratteristiche sperimentali}{1}}
\@writefile{toc}{\contentsline {section}{\numberline {3}Cenni teorici}{2}}
\newlabel{pene:interf}{{1}{3}}
\newlabel{pene:diffr}{{2}{3}}
\newlabel{pene:retic}{{3}{4}}
\@writefile{toc}{\contentsline {section}{\numberline {4}Procedura sperimentale}{4}}
\@writefile{toc}{\contentsline {section}{\numberline {5}Analisi dati}{5}}
\@writefile{lof}{\contentsline {figure}{\numberline {1}{\ignorespaces  Grafico delle misure di rumore\relax }}{5}}
\providecommand*\caption@xref[2]{\@setref\relax\@undefined{#1}}
\newlabel{im:rumore}{{1}{5}}
\@writefile{lof}{\contentsline {figure}{\numberline {2}{\ignorespaces  Grafico algoritmo dei tagli\relax }}{7}}
\newlabel{im:tagli}{{2}{7}}
\@writefile{lof}{\contentsline {figure}{\numberline {3}{\ignorespaces  Grafico dei dati una fenditura primo campione\relax }}{8}}
\newlabel{im:gr1a}{{3}{8}}
\@writefile{lof}{\contentsline {figure}{\numberline {4}{\ignorespaces  Grafico dei dati una fenditura secondo campione\relax }}{8}}
\newlabel{im:gr1b}{{4}{8}}
\@writefile{lof}{\contentsline {figure}{\numberline {5}{\ignorespaces  Grafico dei dati due fenditure \relax }}{9}}
\newlabel{im:gr2}{{5}{9}}
\@writefile{lof}{\contentsline {figure}{\numberline {6}{\ignorespaces  Grafico dei dati tre fenditure \relax }}{9}}
\newlabel{im:gr3}{{6}{9}}
\@writefile{lof}{\contentsline {figure}{\numberline {7}{\ignorespaces  Grafico dei dati quattro fenditure \relax }}{10}}
\newlabel{im:gr4}{{7}{10}}
\@writefile{toc}{\contentsline {subsection}{\numberline {5.1}Diffrazione}{10}}
\@writefile{lof}{\contentsline {figure}{\numberline {8}{\ignorespaces  Fit parabolico intorno al minimo\relax }}{11}}
\newlabel{im:parab}{{8}{11}}
\@writefile{lot}{\contentsline {table}{\numberline {1}{\ignorespaces  Valori del fit una fenditura campione 1\relax }}{12}}
\newlabel{tab:difmin1}{{1}{12}}
\@writefile{lot}{\contentsline {table}{\numberline {2}{\ignorespaces  Valori del fit una fenditura campione 2\relax }}{12}}
\newlabel{tab:difmin2}{{2}{12}}
\@writefile{lot}{\contentsline {table}{\numberline {3}{\ignorespaces  Risultati fit lineare una fenditura campione 1\relax }}{13}}
\newlabel{tab:fitmin1}{{3}{13}}
\@writefile{lot}{\contentsline {table}{\numberline {4}{\ignorespaces  Risultati fit lineare una fenditura campione 2\relax }}{13}}
\newlabel{tab:fitmin2}{{4}{13}}
\@writefile{lof}{\contentsline {figure}{\numberline {9}{\ignorespaces  Interpolazione lineare una fenditura primo campione\relax }}{14}}
\newlabel{im:retta}{{9}{14}}
\@writefile{lof}{\contentsline {figure}{\numberline {10}{\ignorespaces  Interpolazione lineare una fenditura secondo campione\relax }}{14}}
\newlabel{im:retta1}{{10}{14}}
\@writefile{toc}{\contentsline {subsection}{\numberline {5.2}Interferenza}{16}}
\@writefile{lof}{\contentsline {figure}{\numberline {11}{\ignorespaces  Interpolazione lineare due fenditure\relax }}{17}}
\newlabel{im:retta3}{{11}{17}}
\@writefile{lof}{\contentsline {figure}{\numberline {12}{\ignorespaces  Interpolazione lineare tre fenditure\relax }}{17}}
\newlabel{im:retta4}{{12}{17}}
\@writefile{lot}{\contentsline {table}{\numberline {5}{\ignorespaces  Valori del fit due fenditure\relax }}{18}}
\newlabel{tab:intermax1}{{5}{18}}
\@writefile{lot}{\contentsline {table}{\numberline {6}{\ignorespaces  Valori del fit tre fenditure\relax }}{19}}
\newlabel{tab:intermax2}{{6}{19}}
\@writefile{lot}{\contentsline {table}{\numberline {7}{\ignorespaces  Valori del fit quattro fenditure\relax }}{20}}
\newlabel{tab:intermax3}{{7}{20}}
\@writefile{lot}{\contentsline {table}{\numberline {8}{\ignorespaces  Risultati fit lineare due fenditure\relax }}{20}}
\newlabel{tab:fitmax1}{{8}{20}}
\@writefile{lot}{\contentsline {table}{\numberline {9}{\ignorespaces  Risultati fit lineare tre fenditure\relax }}{20}}
\newlabel{tab:fitmax2}{{9}{20}}
\@writefile{lof}{\contentsline {figure}{\numberline {13}{\ignorespaces  Interpolazione lineare quattro fenditure\relax }}{21}}
\newlabel{im:retta5}{{13}{21}}
\@writefile{lot}{\contentsline {table}{\numberline {10}{\ignorespaces  Risultati fit lineare quattro fenditure\relax }}{21}}
\newlabel{tab:fitmax3}{{10}{21}}
\@writefile{toc}{\contentsline {section}{\numberline {6}Conclusioni}{22}}
