Record Length,2.500000e+03,,   0.000000000000,   5.60000,
Sample Interval,1.000000e-05,,   0.000010000000,   6.40000,
Trigger Point,-0.000000000000e+00,,   0.000020000000,   6.40000,
,,,   0.000030000000,   6.40000,
,,,   0.000040000000,   6.40000,
,,,   0.000050000000,   6.48000,
Source,CH2,,   0.000060000000,   6.48000,
Vertical Units,V,,   0.000070000000,   6.48000,
Vertical Scale,2.000000e+00,,   0.000080000000,   6.48000,
Vertical Offset,0.000000e+00,,   0.000090000000,   6.48000,
Horizontal Units,s,,   0.000100000000,   6.48000,
Horizontal Scale,2.500000e-03,,   0.000110000000,   6.48000,
Pt Fmt,Y,,   0.000120000000,   6.48000,
Yzero,0.000000e+00,,   0.000130000000,   6.48000,
Probe Atten,1.000000e+01,,   0.000140000000,   6.48000,
Model Number,TBS1102B-EDU,,   0.000150000000,   6.48000,
Serial Number,C016431,,   0.000160000000,   6.48000,
Firmware Version,FV:v4.06,,   0.000170000000,   6.48000,
,,,0.000180000000,   6.48000,
,,,0.000190000000,   6.48000,
,,,0.000200000000,   6.48000,
,,,0.000210000000,   6.48000,
,,,0.000220000000,   6.48000,
,,,0.000230000000,   6.48000,
,,,0.000240000000,   6.48000,
,,,0.000250000000,   6.48000,
,,,0.000260000000,   6.48000,
,,,0.000270000000,   6.48000,
,,,0.000280000000,   6.48000,
,,,0.000290000000,   6.48000,
,,,0.000300000000,   6.48000,
,,,0.000310000000,   6.48000,
,,,0.000320000000,   6.48000,
,,,0.000330000000,   6.48000,
,,,0.000340000000,   6.48000,
,,,0.000350000000,   6.48000,
,,,0.000360000000,   6.48000,
,,,0.000370000000,   6.48000,
,,,0.000380000000,   6.48000,
,,,0.000390000000,   6.48000,
,,,0.000400000000,   6.48000,
,,,0.000410000000,   6.48000,
,,,0.000420000000,   6.48000,
,,,0.000430000000,   6.48000,
,,,0.000440000000,   6.48000,
,,,0.000450000000,   6.48000,
,,,0.000460000000,   6.48000,
,,,0.000470000000,   6.48000,
,,,0.000480000000,   6.48000,
,,,0.000490000000,   6.48000,
,,,0.000500000000,   6.48000,
,,,0.000510000000,   6.48000,
,,,0.000520000000,   6.48000,
,,,0.000530000000,   6.48000,
,,,0.000540000000,   6.48000,
,,,0.000550000000,   6.48000,
,,,0.000560000000,   6.48000,
,,,0.000570000000,   6.48000,
,,,0.000580000000,   6.48000,
,,,0.000590000000,   6.48000,
,,,0.000600000000,   6.48000,
,,,0.000610000000,   6.48000,
,,,0.000620000000,   6.48000,
,,,0.000630000000,   6.48000,
,,,0.000640000000,   6.48000,
,,,0.000650000000,   6.48000,
,,,0.000660000000,   6.48000,
,,,0.000670000000,   6.48000,
,,,0.000680000000,   6.48000,
,,,0.000690000000,   6.48000,
,,,0.000700000000,   6.48000,
,,,0.000710000000,   6.48000,
,,,0.000720000000,   6.48000,
,,,0.000730000000,   6.48000,
,,,0.000740000000,   6.48000,
,,,0.000750000000,   6.48000,
,,,0.000760000000,   6.48000,
,,,0.000770000000,   6.48000,
,,,0.000780000000,   6.48000,
,,,0.000790000000,   6.48000,
,,,0.000800000000,   6.48000,
,,,0.000810000000,   6.48000,
,,,0.000820000000,   6.48000,
,,,0.000830000000,   6.48000,
,,,0.000840000000,   6.48000,
,,,0.000850000000,   6.48000,
,,,0.000860000000,   6.48000,
,,,0.000870000000,   6.48000,
,,,0.000880000000,   6.48000,
,,,0.000890000000,   6.48000,
,,,0.000900000000,   6.48000,
,,,0.000910000000,   6.48000,
,,,0.000920000000,   6.48000,
,,,0.000930000000,   6.48000,
,,,0.000940000000,   6.48000,
,,,0.000950000000,   6.48000,
,,,0.000960000000,   6.48000,
,,,0.000970000000,   6.48000,
,,,0.000980000000,   6.48000,
,,,0.000990000000,   6.48000,
,,,0.001000000000,   6.48000,
,,,0.001010000000,   6.48000,
,,,0.001020000000,   6.48000,
,,,0.001030000000,   6.48000,
,,,0.001040000000,   6.48000,
,,,0.001050000000,   6.48000,
,,,0.001060000000,   6.48000,
,,,0.001070000000,   6.48000,
,,,0.001080000000,   6.48000,
,,,0.001090000000,   6.48000,
,,,0.001100000000,   6.48000,
,,,0.001110000000,   6.48000,
,,,0.001120000000,   6.48000,
,,,0.001130000000,   6.48000,
,,,0.001140000000,   6.48000,
,,,0.001150000000,   6.48000,
,,,0.001160000000,   6.48000,
,,,0.001170000000,   6.48000,
,,,0.001180000000,   6.48000,
,,,0.001190000000,   6.48000,
,,,0.001200000000,   6.48000,
,,,0.001210000000,   6.48000,
,,,0.001220000000,   6.48000,
,,,0.001230000000,   6.48000,
,,,0.001240000000,   6.48000,
,,,0.001250000000,   6.48000,
,,,0.001260000000,   6.48000,
,,,0.001270000000,   6.48000,
,,,0.001280000000,   6.48000,
,,,0.001290000000,   6.48000,
,,,0.001300000000,   6.48000,
,,,0.001310000000,   6.48000,
,,,0.001320000000,   6.48000,
,,,0.001330000000,   6.48000,
,,,0.001340000000,   6.48000,
,,,0.001350000000,   6.48000,
,,,0.001360000000,   6.48000,
,,,0.001370000000,   6.48000,
,,,0.001380000000,   6.48000,
,,,0.001390000000,   6.48000,
,,,0.001400000000,   6.48000,
,,,0.001410000000,   6.48000,
,,,0.001420000000,   6.48000,
,,,0.001430000000,   6.48000,
,,,0.001440000000,   6.48000,
,,,0.001450000000,   6.48000,
,,,0.001460000000,   6.48000,
,,,0.001470000000,   6.48000,
,,,0.001480000000,   6.48000,
,,,0.001490000000,   6.48000,
,,,0.001500000000,   6.48000,
,,,0.001510000000,   6.48000,
,,,0.001520000000,   6.48000,
,,,0.001530000000,   6.48000,
,,,0.001540000000,   6.48000,
,,,0.001550000000,   6.48000,
,,,0.001560000000,   6.48000,
,,,0.001570000000,   6.48000,
,,,0.001580000000,   6.48000,
,,,0.001590000000,   6.48000,
,,,0.001600000000,   6.48000,
,,,0.001610000000,   6.48000,
,,,0.001620000000,   6.48000,
,,,0.001630000000,   6.48000,
,,,0.001640000000,   6.48000,
,,,0.001650000000,   6.48000,
,,,0.001660000000,   6.48000,
,,,0.001670000000,   6.48000,
,,,0.001680000000,   6.48000,
,,,0.001690000000,   6.48000,
,,,0.001700000000,   6.48000,
,,,0.001710000000,   6.48000,
,,,0.001720000000,   6.48000,
,,,0.001730000000,   6.48000,
,,,0.001740000000,   6.48000,
,,,0.001750000000,   6.48000,
,,,0.001760000000,   6.48000,
,,,0.001770000000,   6.48000,
,,,0.001780000000,   6.48000,
,,,0.001790000000,   6.48000,
,,,0.001800000000,   6.48000,
,,,0.001810000000,   6.48000,
,,,0.001820000000,   6.48000,
,,,0.001830000000,   6.48000,
,,,0.001840000000,   6.48000,
,,,0.001850000000,   6.48000,
,,,0.001860000000,   6.48000,
,,,0.001870000000,   6.48000,
,,,0.001880000000,   6.48000,
,,,0.001890000000,   6.48000,
,,,0.001900000000,   6.48000,
,,,0.001910000000,   6.48000,
,,,0.001920000000,   6.48000,
,,,0.001930000000,   6.48000,
,,,0.001940000000,   6.48000,
,,,0.001950000000,   6.48000,
,,,0.001960000000,   6.48000,
,,,0.001970000000,   6.48000,
,,,0.001980000000,   6.48000,
,,,0.001990000000,   6.48000,
,,,0.002000000000,   6.48000,
,,,0.002010000000,   6.48000,
,,,0.002020000000,   6.48000,
,,,0.002030000000,   6.48000,
,,,0.002040000000,   6.48000,
,,,0.002050000000,   6.48000,
,,,0.002060000000,   6.48000,
,,,0.002070000000,   6.48000,
,,,0.002080000000,   6.48000,
,,,0.002090000000,   6.48000,
,,,0.002100000000,   6.48000,
,,,0.002110000000,   6.48000,
,,,0.002120000000,   6.48000,
,,,0.002130000000,   6.48000,
,,,0.002140000000,   6.48000,
,,,0.002150000000,   6.48000,
,,,0.002160000000,   6.48000,
,,,0.002170000000,   6.48000,
,,,0.002180000000,   6.48000,
,,,0.002190000000,   6.48000,
,,,0.002200000000,   6.48000,
,,,0.002210000000,   6.48000,
,,,0.002220000000,   6.48000,
,,,0.002230000000,   6.48000,
,,,0.002240000000,   6.48000,
,,,0.002250000000,   6.48000,
,,,0.002260000000,   6.48000,
,,,0.002270000000,   6.48000,
,,,0.002280000000,   6.48000,
,,,0.002290000000,   6.48000,
,,,0.002300000000,   6.48000,
,,,0.002310000000,   6.48000,
,,,0.002320000000,   6.48000,
,,,0.002330000000,   6.48000,
,,,0.002340000000,   6.48000,
,,,0.002350000000,   6.48000,
,,,0.002360000000,   6.48000,
,,,0.002370000000,   6.48000,
,,,0.002380000000,   6.48000,
,,,0.002390000000,   6.48000,
,,,0.002400000000,   6.48000,
,,,0.002410000000,   6.48000,
,,,0.002420000000,   6.48000,
,,,0.002430000000,   6.48000,
,,,0.002440000000,   6.48000,
,,,0.002450000000,   6.48000,
,,,0.002460000000,   6.48000,
,,,0.002470000000,   6.48000,
,,,0.002480000000,   6.48000,
,,,0.002490000000,   6.48000,
,,,0.002500000000,   6.48000,
,,,0.002510000000,   6.48000,
,,,0.002520000000,   6.48000,
,,,0.002530000000,   6.48000,
,,,0.002540000000,   6.48000,
,,,0.002550000000,   6.48000,
,,,0.002560000000,   6.48000,
,,,0.002570000000,   6.48000,
,,,0.002580000000,   6.48000,
,,,0.002590000000,   6.48000,
,,,0.002600000000,   6.48000,
,,,0.002610000000,   6.48000,
,,,0.002620000000,   6.48000,
,,,0.002630000000,   6.48000,
,,,0.002640000000,   6.48000,
,,,0.002650000000,   6.48000,
,,,0.002660000000,   6.48000,
,,,0.002670000000,   6.48000,
,,,0.002680000000,   6.48000,
,,,0.002690000000,   6.48000,
,,,0.002700000000,   6.48000,
,,,0.002710000000,   6.48000,
,,,0.002720000000,   6.48000,
,,,0.002730000000,   6.48000,
,,,0.002740000000,   6.48000,
,,,0.002750000000,   6.48000,
,,,0.002760000000,   6.48000,
,,,0.002770000000,   6.48000,
,,,0.002780000000,   6.48000,
,,,0.002790000000,   6.48000,
,,,0.002800000000,   6.48000,
,,,0.002810000000,   6.48000,
,,,0.002820000000,   6.48000,
,,,0.002830000000,   6.48000,
,,,0.002840000000,   6.48000,
,,,0.002850000000,   6.48000,
,,,0.002860000000,   6.48000,
,,,0.002870000000,   6.48000,
,,,0.002880000000,   6.48000,
,,,0.002890000000,   6.48000,
,,,0.002900000000,   6.48000,
,,,0.002910000000,   6.48000,
,,,0.002920000000,   6.48000,
,,,0.002930000000,   6.48000,
,,,0.002940000000,   6.48000,
,,,0.002950000000,   6.48000,
,,,0.002960000000,   6.48000,
,,,0.002970000000,   6.48000,
,,,0.002980000000,   6.48000,
,,,0.002990000000,   6.48000,
,,,0.003000000000,   6.48000,
,,,0.003010000000,   6.48000,
,,,0.003020000000,   6.48000,
,,,0.003030000000,   6.48000,
,,,0.003040000000,   6.48000,
,,,0.003050000000,   6.48000,
,,,0.003060000000,   6.48000,
,,,0.003070000000,   6.48000,
,,,0.003080000000,   6.48000,
,,,0.003090000000,   6.48000,
,,,0.003100000000,   6.48000,
,,,0.003110000000,   6.48000,
,,,0.003120000000,   6.48000,
,,,0.003130000000,   6.48000,
,,,0.003140000000,   6.48000,
,,,0.003150000000,   6.48000,
,,,0.003160000000,   6.48000,
,,,0.003170000000,   6.48000,
,,,0.003180000000,   6.48000,
,,,0.003190000000,   6.48000,
,,,0.003200000000,   6.48000,
,,,0.003210000000,   6.48000,
,,,0.003220000000,   6.48000,
,,,0.003230000000,   6.48000,
,,,0.003240000000,   6.48000,
,,,0.003250000000,   6.48000,
,,,0.003260000000,   6.48000,
,,,0.003270000000,   6.48000,
,,,0.003280000000,   6.48000,
,,,0.003290000000,   6.48000,
,,,0.003300000000,   5.28000,
,,,0.003310000000,   1.76000,
,,,0.003320000000,   1.76000,
,,,0.003330000000,   1.76000,
,,,0.003340000000,   1.68000,
,,,0.003350000000,   1.68000,
,,,0.003360000000,   1.68000,
,,,0.003370000000,   1.68000,
,,,0.003380000000,   1.68000,
,,,0.003390000000,   1.68000,
,,,0.003400000000,   1.68000,
,,,0.003410000000,   1.68000,
,,,0.003420000000,   1.68000,
,,,0.003430000000,   1.68000,
,,,0.003440000000,   1.68000,
,,,0.003450000000,   1.68000,
,,,0.003460000000,   1.68000,
,,,0.003470000000,   1.68000,
,,,0.003480000000,   1.68000,
,,,0.003490000000,   1.68000,
,,,0.003500000000,   1.68000,
,,,0.003510000000,   1.68000,
,,,0.003520000000,   1.68000,
,,,0.003530000000,   1.68000,
,,,0.003540000000,   1.68000,
,,,0.003550000000,   1.68000,
,,,0.003560000000,   1.68000,
,,,0.003570000000,   1.68000,
,,,0.003580000000,   1.68000,
,,,0.003590000000,   1.68000,
,,,0.003600000000,   1.68000,
,,,0.003610000000,   1.68000,
,,,0.003620000000,   1.68000,
,,,0.003630000000,   1.68000,
,,,0.003640000000,   1.68000,
,,,0.003650000000,   1.68000,
,,,0.003660000000,   1.68000,
,,,0.003670000000,   1.68000,
,,,0.003680000000,   1.68000,
,,,0.003690000000,   1.68000,
,,,0.003700000000,   1.68000,
,,,0.003710000000,   1.68000,
,,,0.003720000000,   1.68000,
,,,0.003730000000,   1.68000,
,,,0.003740000000,   1.68000,
,,,0.003750000000,   1.68000,
,,,0.003760000000,   1.68000,
,,,0.003770000000,   1.68000,
,,,0.003780000000,   1.68000,
,,,0.003790000000,   1.68000,
,,,0.003800000000,   1.68000,
,,,0.003810000000,   1.68000,
,,,0.003820000000,   1.68000,
,,,0.003830000000,   1.68000,
,,,0.003840000000,   1.68000,
,,,0.003850000000,   1.68000,
,,,0.003860000000,   1.68000,
,,,0.003870000000,   1.68000,
,,,0.003880000000,   1.68000,
,,,0.003890000000,   1.68000,
,,,0.003900000000,   1.68000,
,,,0.003910000000,   1.68000,
,,,0.003920000000,   1.68000,
,,,0.003930000000,   1.68000,
,,,0.003940000000,   1.68000,
,,,0.003950000000,   1.68000,
,,,0.003960000000,   1.68000,
,,,0.003970000000,   1.68000,
,,,0.003980000000,   1.68000,
,,,0.003990000000,   1.68000,
,,,0.004000000000,   1.68000,
,,,0.004010000000,   1.68000,
,,,0.004020000000,   1.68000,
,,,0.004030000000,   1.68000,
,,,0.004040000000,   1.68000,
,,,0.004050000000,   1.68000,
,,,0.004060000000,   1.68000,
,,,0.004070000000,   1.68000,
,,,0.004080000000,   1.68000,
,,,0.004090000000,   1.68000,
,,,0.004100000000,   1.68000,
,,,0.004110000000,   1.68000,
,,,0.004120000000,   1.68000,
,,,0.004130000000,   1.68000,
,,,0.004140000000,   1.68000,
,,,0.004150000000,   1.68000,
,,,0.004160000000,   1.68000,
,,,0.004170000000,   1.68000,
,,,0.004180000000,   1.68000,
,,,0.004190000000,   1.68000,
,,,0.004200000000,   1.68000,
,,,0.004210000000,   1.68000,
,,,0.004220000000,   1.68000,
,,,0.004230000000,   1.68000,
,,,0.004240000000,   1.68000,
,,,0.004250000000,   1.68000,
,,,0.004260000000,   1.68000,
,,,0.004270000000,   1.68000,
,,,0.004280000000,   1.68000,
,,,0.004290000000,   1.68000,
,,,0.004300000000,   1.68000,
,,,0.004310000000,   1.68000,
,,,0.004320000000,   1.68000,
,,,0.004330000000,   1.68000,
,,,0.004340000000,   1.68000,
,,,0.004350000000,   1.68000,
,,,0.004360000000,   1.68000,
,,,0.004370000000,   1.68000,
,,,0.004380000000,   1.68000,
,,,0.004390000000,   1.68000,
,,,0.004400000000,   1.68000,
,,,0.004410000000,   1.68000,
,,,0.004420000000,   1.68000,
,,,0.004430000000,   1.68000,
,,,0.004440000000,   1.68000,
,,,0.004450000000,   1.68000,
,,,0.004460000000,   1.68000,
,,,0.004470000000,   1.68000,
,,,0.004480000000,   1.68000,
,,,0.004490000000,   1.68000,
,,,0.004500000000,   1.68000,
,,,0.004510000000,   1.68000,
,,,0.004520000000,   1.68000,
,,,0.004530000000,   1.68000,
,,,0.004540000000,   1.68000,
,,,0.004550000000,   1.68000,
,,,0.004560000000,   1.68000,
,,,0.004570000000,   1.68000,
,,,0.004580000000,   1.68000,
,,,0.004590000000,   1.68000,
,,,0.004600000000,   1.68000,
,,,0.004610000000,   1.68000,
,,,0.004620000000,   1.68000,
,,,0.004630000000,   1.68000,
,,,0.004640000000,   1.68000,
,,,0.004650000000,   1.68000,
,,,0.004660000000,   1.68000,
,,,0.004670000000,   1.68000,
,,,0.004680000000,   1.68000,
,,,0.004690000000,   1.68000,
,,,0.004700000000,   1.68000,
,,,0.004710000000,   1.68000,
,,,0.004720000000,   1.68000,
,,,0.004730000000,   1.68000,
,,,0.004740000000,   1.68000,
,,,0.004750000000,   1.68000,
,,,0.004760000000,   1.68000,
,,,0.004770000000,   1.68000,
,,,0.004780000000,   1.68000,
,,,0.004790000000,   1.68000,
,,,0.004800000000,   1.68000,
,,,0.004810000000,   1.68000,
,,,0.004820000000,   1.68000,
,,,0.004830000000,   1.68000,
,,,0.004840000000,   1.68000,
,,,0.004850000000,   1.68000,
,,,0.004860000000,   1.68000,
,,,0.004870000000,   1.68000,
,,,0.004880000000,   1.68000,
,,,0.004890000000,   1.68000,
,,,0.004900000000,   1.68000,
,,,0.004910000000,   1.68000,
,,,0.004920000000,   1.68000,
,,,0.004930000000,   1.68000,
,,,0.004940000000,   1.68000,
,,,0.004950000000,   1.68000,
,,,0.004960000000,   1.68000,
,,,0.004970000000,   1.68000,
,,,0.004980000000,   1.68000,
,,,0.004990000000,   1.68000,
,,,0.005000000000,   1.68000,
,,,0.005010000000,   1.68000,
,,,0.005020000000,   1.68000,
,,,0.005030000000,   1.68000,
,,,0.005040000000,   1.68000,
,,,0.005050000000,   1.68000,
,,,0.005060000000,   1.68000,
,,,0.005070000000,   1.68000,
,,,0.005080000000,   1.68000,
,,,0.005090000000,   1.68000,
,,,0.005100000000,   1.68000,
,,,0.005110000000,   1.68000,
,,,0.005120000000,   1.68000,
,,,0.005130000000,   1.68000,
,,,0.005140000000,   1.68000,
,,,0.005150000000,   1.68000,
,,,0.005160000000,   1.68000,
,,,0.005170000000,   1.68000,
,,,0.005180000000,   1.68000,
,,,0.005190000000,   1.68000,
,,,0.005200000000,   1.68000,
,,,0.005210000000,   1.68000,
,,,0.005220000000,   1.68000,
,,,0.005230000000,   1.68000,
,,,0.005240000000,   1.68000,
,,,0.005250000000,   1.68000,
,,,0.005260000000,   1.68000,
,,,0.005270000000,   1.68000,
,,,0.005280000000,   1.68000,
,,,0.005290000000,   1.68000,
,,,0.005300000000,   1.68000,
,,,0.005310000000,   1.68000,
,,,0.005320000000,   1.68000,
,,,0.005330000000,   1.68000,
,,,0.005340000000,   1.68000,
,,,0.005350000000,   1.68000,
,,,0.005360000000,   1.68000,
,,,0.005370000000,   1.68000,
,,,0.005380000000,   1.68000,
,,,0.005390000000,   1.68000,
,,,0.005400000000,   1.68000,
,,,0.005410000000,   1.68000,
,,,0.005420000000,   1.68000,
,,,0.005430000000,   1.68000,
,,,0.005440000000,   1.68000,
,,,0.005450000000,   1.68000,
,,,0.005460000000,   1.68000,
,,,0.005470000000,   1.68000,
,,,0.005480000000,   1.68000,
,,,0.005490000000,   1.68000,
,,,0.005500000000,   1.68000,
,,,0.005510000000,   1.68000,
,,,0.005520000000,   1.68000,
,,,0.005530000000,   1.68000,
,,,0.005540000000,   1.68000,
,,,0.005550000000,   1.68000,
,,,0.005560000000,   1.68000,
,,,0.005570000000,   1.68000,
,,,0.005580000000,   1.68000,
,,,0.005590000000,   1.68000,
,,,0.005600000000,   1.68000,
,,,0.005610000000,   1.68000,
,,,0.005620000000,   1.68000,
,,,0.005630000000,   1.68000,
,,,0.005640000000,   1.68000,
,,,0.005650000000,   1.68000,
,,,0.005660000000,   1.68000,
,,,0.005670000000,   1.68000,
,,,0.005680000000,   1.68000,
,,,0.005690000000,   1.68000,
,,,0.005700000000,   1.68000,
,,,0.005710000000,   1.68000,
,,,0.005720000000,   1.68000,
,,,0.005730000000,   1.68000,
,,,0.005740000000,   1.68000,
,,,0.005750000000,   1.68000,
,,,0.005760000000,   1.68000,
,,,0.005770000000,   1.68000,
,,,0.005780000000,   1.68000,
,,,0.005790000000,   1.68000,
,,,0.005800000000,   1.68000,
,,,0.005810000000,   1.68000,
,,,0.005820000000,   1.68000,
,,,0.005830000000,   1.68000,
,,,0.005840000000,   1.68000,
,,,0.005850000000,   1.68000,
,,,0.005860000000,   1.68000,
,,,0.005870000000,   1.68000,
,,,0.005880000000,   1.68000,
,,,0.005890000000,   1.68000,
,,,0.005900000000,   1.68000,
,,,0.005910000000,   1.68000,
,,,0.005920000000,   1.68000,
,,,0.005930000000,   1.68000,
,,,0.005940000000,   1.68000,
,,,0.005950000000,   1.68000,
,,,0.005960000000,   1.68000,
,,,0.005970000000,   1.68000,
,,,0.005980000000,   1.68000,
,,,0.005990000000,   1.68000,
,,,0.006000000000,   1.68000,
,,,0.006010000000,   1.68000,
,,,0.006020000000,   1.68000,
,,,0.006030000000,   1.68000,
,,,0.006040000000,   1.68000,
,,,0.006050000000,   1.68000,
,,,0.006060000000,   1.68000,
,,,0.006070000000,   1.68000,
,,,0.006080000000,   1.68000,
,,,0.006090000000,   1.68000,
,,,0.006100000000,   1.68000,
,,,0.006110000000,   1.68000,
,,,0.006120000000,   1.68000,
,,,0.006130000000,   1.68000,
,,,0.006140000000,   1.68000,
,,,0.006150000000,   1.68000,
,,,0.006160000000,   1.68000,
,,,0.006170000000,   1.68000,
,,,0.006180000000,   1.68000,
,,,0.006190000000,   1.68000,
,,,0.006200000000,   1.68000,
,,,0.006210000000,   1.68000,
,,,0.006220000000,   1.68000,
,,,0.006230000000,   1.68000,
,,,0.006240000000,   1.68000,
,,,0.006250000000,   1.68000,
,,,0.006260000000,   1.68000,
,,,0.006270000000,   1.68000,
,,,0.006280000000,   1.68000,
,,,0.006290000000,   1.68000,
,,,0.006300000000,   1.68000,
,,,0.006310000000,   1.68000,
,,,0.006320000000,   1.68000,
,,,0.006330000000,   1.68000,
,,,0.006340000000,   1.68000,
,,,0.006350000000,   1.68000,
,,,0.006360000000,   1.68000,
,,,0.006370000000,   1.68000,
,,,0.006380000000,   1.68000,
,,,0.006390000000,   1.68000,
,,,0.006400000000,   1.68000,
,,,0.006410000000,   1.68000,
,,,0.006420000000,   1.68000,
,,,0.006430000000,   1.68000,
,,,0.006440000000,   1.68000,
,,,0.006450000000,   1.68000,
,,,0.006460000000,   1.68000,
,,,0.006470000000,   1.68000,
,,,0.006480000000,   1.68000,
,,,0.006490000000,   1.68000,
,,,0.006500000000,   1.68000,
,,,0.006510000000,   1.68000,
,,,0.006520000000,   1.68000,
,,,0.006530000000,   1.68000,
,,,0.006540000000,   1.68000,
,,,0.006550000000,   1.68000,
,,,0.006560000000,   1.68000,
,,,0.006570000000,   1.68000,
,,,0.006580000000,   1.68000,
,,,0.006590000000,   1.68000,
,,,0.006600000000,   1.68000,
,,,0.006610000000,   1.68000,
,,,0.006620000000,   1.68000,
,,,0.006630000000,   1.68000,
,,,0.006640000000,   1.68000,
,,,0.006650000000,   1.68000,
,,,0.006660000000,   1.68000,
,,,0.006670000000,   1.68000,
,,,0.006680000000,   1.68000,
,,,0.006690000000,   1.68000,
,,,0.006700000000,   1.68000,
,,,0.006710000000,   1.68000,
,,,0.006720000000,   1.68000,
,,,0.006730000000,   1.68000,
,,,0.006740000000,   1.68000,
,,,0.006750000000,   1.68000,
,,,0.006760000000,   1.68000,
,,,0.006770000000,   1.68000,
,,,0.006780000000,   1.68000,
,,,0.006790000000,   1.68000,
,,,0.006800000000,   1.68000,
,,,0.006810000000,   1.68000,
,,,0.006820000000,   1.68000,
,,,0.006830000000,   1.68000,
,,,0.006840000000,   1.68000,
,,,0.006850000000,   1.68000,
,,,0.006860000000,   1.68000,
,,,0.006870000000,   1.68000,
,,,0.006880000000,   1.68000,
,,,0.006890000000,   1.68000,
,,,0.006900000000,   1.68000,
,,,0.006910000000,   1.68000,
,,,0.006920000000,   1.68000,
,,,0.006930000000,   1.68000,
,,,0.006940000000,   1.68000,
,,,0.006950000000,   1.68000,
,,,0.006960000000,   1.68000,
,,,0.006970000000,   1.68000,
,,,0.006980000000,   1.68000,
,,,0.006990000000,   1.68000,
,,,0.007000000000,   1.68000,
,,,0.007010000000,   1.68000,
,,,0.007020000000,   1.68000,
,,,0.007030000000,   1.68000,
,,,0.007040000000,   1.68000,
,,,0.007050000000,   1.68000,
,,,0.007060000000,   1.68000,
,,,0.007070000000,   1.68000,
,,,0.007080000000,   1.68000,
,,,0.007090000000,   1.68000,
,,,0.007100000000,   1.68000,
,,,0.007110000000,   1.68000,
,,,0.007120000000,   1.68000,
,,,0.007130000000,   1.68000,
,,,0.007140000000,   1.68000,
,,,0.007150000000,   1.68000,
,,,0.007160000000,   1.68000,
,,,0.007170000000,   1.68000,
,,,0.007180000000,   1.68000,
,,,0.007190000000,   1.68000,
,,,0.007200000000,   1.68000,
,,,0.007210000000,   1.68000,
,,,0.007220000000,   1.68000,
,,,0.007230000000,   1.68000,
,,,0.007240000000,   1.68000,
,,,0.007250000000,   1.68000,
,,,0.007260000000,   1.68000,
,,,0.007270000000,   1.68000,
,,,0.007280000000,   1.68000,
,,,0.007290000000,   1.68000,
,,,0.007300000000,   1.68000,
,,,0.007310000000,   1.68000,
,,,0.007320000000,   1.68000,
,,,0.007330000000,   1.68000,
,,,0.007340000000,   1.68000,
,,,0.007350000000,   1.68000,
,,,0.007360000000,   1.68000,
,,,0.007370000000,   1.68000,
,,,0.007380000000,   1.68000,
,,,0.007390000000,   1.68000,
,,,0.007400000000,   1.68000,
,,,0.007410000000,   1.68000,
,,,0.007420000000,   1.68000,
,,,0.007430000000,   1.68000,
,,,0.007440000000,   1.68000,
,,,0.007450000000,   1.68000,
,,,0.007460000000,   1.68000,
,,,0.007470000000,   1.68000,
,,,0.007480000000,   1.68000,
,,,0.007490000000,   1.68000,
,,,0.007500000000,   1.68000,
,,,0.007510000000,   1.68000,
,,,0.007520000000,   1.68000,
,,,0.007530000000,   1.68000,
,,,0.007540000000,   1.68000,
,,,0.007550000000,   1.68000,
,,,0.007560000000,   1.68000,
,,,0.007570000000,   1.68000,
,,,0.007580000000,   1.68000,
,,,0.007590000000,   1.68000,
,,,0.007600000000,   1.68000,
,,,0.007610000000,   1.68000,
,,,0.007620000000,   1.68000,
,,,0.007630000000,   1.68000,
,,,0.007640000000,   1.68000,
,,,0.007650000000,   1.68000,
,,,0.007660000000,   1.68000,
,,,0.007670000000,   1.68000,
,,,0.007680000000,   1.68000,
,,,0.007690000000,   1.68000,
,,,0.007700000000,   1.68000,
,,,0.007710000000,   1.68000,
,,,0.007720000000,   1.68000,
,,,0.007730000000,   1.68000,
,,,0.007740000000,   1.68000,
,,,0.007750000000,   1.68000,
,,,0.007760000000,   1.68000,
,,,0.007770000000,   1.68000,
,,,0.007780000000,   1.68000,
,,,0.007790000000,   1.68000,
,,,0.007800000000,   1.68000,
,,,0.007810000000,   1.68000,
,,,0.007820000000,   1.68000,
,,,0.007830000000,   1.68000,
,,,0.007840000000,   1.68000,
,,,0.007850000000,   1.68000,
,,,0.007860000000,   1.68000,
,,,0.007870000000,   1.68000,
,,,0.007880000000,   1.68000,
,,,0.007890000000,   1.68000,
,,,0.007900000000,   1.68000,
,,,0.007910000000,   1.68000,
,,,0.007920000000,   1.68000,
,,,0.007930000000,   1.68000,
,,,0.007940000000,   1.68000,
,,,0.007950000000,   1.68000,
,,,0.007960000000,   1.68000,
,,,0.007970000000,   1.68000,
,,,0.007980000000,   1.68000,
,,,0.007990000000,   1.68000,
,,,0.008000000000,   1.68000,
,,,0.008010000000,   1.68000,
,,,0.008020000000,   1.68000,
,,,0.008030000000,   1.68000,
,,,0.008040000000,   1.68000,
,,,0.008050000000,   1.68000,
,,,0.008060000000,   1.68000,
,,,0.008070000000,   1.68000,
,,,0.008080000000,   1.68000,
,,,0.008090000000,   1.68000,
,,,0.008100000000,   1.68000,
,,,0.008110000000,   1.68000,
,,,0.008120000000,   1.68000,
,,,0.008130000000,   1.68000,
,,,0.008140000000,   1.68000,
,,,0.008150000000,   1.68000,
,,,0.008160000000,   1.68000,
,,,0.008170000000,   1.68000,
,,,0.008180000000,   1.68000,
,,,0.008190000000,   1.68000,
,,,0.008200000000,   1.68000,
,,,0.008210000000,   1.68000,
,,,0.008220000000,   1.68000,
,,,0.008230000000,   1.68000,
,,,0.008240000000,   1.68000,
,,,0.008250000000,   1.68000,
,,,0.008260000000,   1.68000,
,,,0.008270000000,   1.68000,
,,,0.008280000000,   1.68000,
,,,0.008290000000,   1.68000,
,,,0.008300000000,   1.68000,
,,,0.008310000000,   1.68000,
,,,0.008320000000,   1.68000,
,,,0.008330000000,   1.68000,
,,,0.008340000000,   1.68000,
,,,0.008350000000,   1.68000,
,,,0.008360000000,   1.68000,
,,,0.008370000000,   1.68000,
,,,0.008380000000,   1.68000,
,,,0.008390000000,   1.68000,
,,,0.008400000000,   1.68000,
,,,0.008410000000,   1.68000,
,,,0.008420000000,   1.68000,
,,,0.008430000000,   1.68000,
,,,0.008440000000,   1.68000,
,,,0.008450000000,   1.68000,
,,,0.008460000000,   1.68000,
,,,0.008470000000,   1.68000,
,,,0.008480000000,   1.68000,
,,,0.008490000000,   1.68000,
,,,0.008500000000,   1.68000,
,,,0.008510000000,   1.68000,
,,,0.008520000000,   1.68000,
,,,0.008530000000,   1.68000,
,,,0.008540000000,   1.68000,
,,,0.008550000000,   1.68000,
,,,0.008560000000,   1.68000,
,,,0.008570000000,   1.68000,
,,,0.008580000000,   1.68000,
,,,0.008590000000,   1.68000,
,,,0.008600000000,   1.68000,
,,,0.008610000000,   1.68000,
,,,0.008620000000,   1.68000,
,,,0.008630000000,   1.68000,
,,,0.008640000000,   1.68000,
,,,0.008650000000,   1.68000,
,,,0.008660000000,   1.68000,
,,,0.008670000000,   1.68000,
,,,0.008680000000,   1.68000,
,,,0.008690000000,   1.68000,
,,,0.008700000000,   1.68000,
,,,0.008710000000,   1.68000,
,,,0.008720000000,   1.68000,
,,,0.008730000000,   1.68000,
,,,0.008740000000,   1.68000,
,,,0.008750000000,   1.68000,
,,,0.008760000000,   1.68000,
,,,0.008770000000,   1.68000,
,,,0.008780000000,   1.68000,
,,,0.008790000000,   1.68000,
,,,0.008800000000,   1.68000,
,,,0.008810000000,   1.68000,
,,,0.008820000000,   1.68000,
,,,0.008830000000,   1.68000,
,,,0.008840000000,   1.68000,
,,,0.008850000000,   1.68000,
,,,0.008860000000,   1.68000,
,,,0.008870000000,   1.68000,
,,,0.008880000000,   1.68000,
,,,0.008890000000,   1.68000,
,,,0.008900000000,   1.68000,
,,,0.008910000000,   1.68000,
,,,0.008920000000,   1.68000,
,,,0.008930000000,   1.68000,
,,,0.008940000000,   1.68000,
,,,0.008950000000,   1.68000,
,,,0.008960000000,   1.68000,
,,,0.008970000000,   1.68000,
,,,0.008980000000,   1.68000,
,,,0.008990000000,   1.68000,
,,,0.009000000000,   1.68000,
,,,0.009010000000,   1.68000,
,,,0.009020000000,   1.68000,
,,,0.009030000000,   1.68000,
,,,0.009040000000,   1.68000,
,,,0.009050000000,   1.68000,
,,,0.009060000000,   1.68000,
,,,0.009070000000,   1.68000,
,,,0.009080000000,   1.68000,
,,,0.009090000000,   1.68000,
,,,0.009100000000,   1.68000,
,,,0.009110000000,   1.68000,
,,,0.009120000000,   1.68000,
,,,0.009130000000,   1.68000,
,,,0.009140000000,   1.68000,
,,,0.009150000000,   1.68000,
,,,0.009160000000,   1.68000,
,,,0.009170000000,   1.68000,
,,,0.009180000000,   1.68000,
,,,0.009190000000,   1.68000,
,,,0.009200000000,   1.68000,
,,,0.009210000000,   1.68000,
,,,0.009220000000,   1.68000,
,,,0.009230000000,   1.68000,
,,,0.009240000000,   1.68000,
,,,0.009250000000,   1.68000,
,,,0.009260000000,   1.68000,
,,,0.009270000000,   1.68000,
,,,0.009280000000,   1.68000,
,,,0.009290000000,   1.68000,
,,,0.009300000000,   1.68000,
,,,0.009310000000,   1.68000,
,,,0.009320000000,   1.68000,
,,,0.009330000000,   1.68000,
,,,0.009340000000,   1.68000,
,,,0.009350000000,   1.68000,
,,,0.009360000000,   1.68000,
,,,0.009370000000,   1.68000,
,,,0.009380000000,   1.68000,
,,,0.009390000000,   1.68000,
,,,0.009400000000,   1.68000,
,,,0.009410000000,   1.68000,
,,,0.009420000000,   1.68000,
,,,0.009430000000,   1.68000,
,,,0.009440000000,   1.68000,
,,,0.009450000000,   1.68000,
,,,0.009460000000,   1.68000,
,,,0.009470000000,   1.68000,
,,,0.009480000000,   1.68000,
,,,0.009490000000,   1.68000,
,,,0.009500000000,   1.68000,
,,,0.009510000000,   1.68000,
,,,0.009520000000,   1.68000,
,,,0.009530000000,   1.68000,
,,,0.009540000000,   1.68000,
,,,0.009550000000,   1.68000,
,,,0.009560000000,   1.68000,
,,,0.009570000000,   1.68000,
,,,0.009580000000,   1.68000,
,,,0.009590000000,   1.68000,
,,,0.009600000000,   1.68000,
,,,0.009610000000,   1.68000,
,,,0.009620000000,   1.68000,
,,,0.009630000000,   1.68000,
,,,0.009640000000,   1.68000,
,,,0.009650000000,   1.68000,
,,,0.009660000000,   1.68000,
,,,0.009670000000,   1.68000,
,,,0.009680000000,   1.68000,
,,,0.009690000000,   1.68000,
,,,0.009700000000,   1.68000,
,,,0.009710000000,   1.68000,
,,,0.009720000000,   1.68000,
,,,0.009730000000,   1.68000,
,,,0.009740000000,   1.68000,
,,,0.009750000000,   1.68000,
,,,0.009760000000,   1.68000,
,,,0.009770000000,   1.68000,
,,,0.009780000000,   1.68000,
,,,0.009790000000,   1.68000,
,,,0.009800000000,   1.68000,
,,,0.009810000000,   1.68000,
,,,0.009820000000,   1.68000,
,,,0.009830000000,   1.68000,
,,,0.009840000000,   1.68000,
,,,0.009850000000,   1.68000,
,,,0.009860000000,   1.68000,
,,,0.009870000000,   1.68000,
,,,0.009880000000,   1.68000,
,,,0.009890000000,   1.68000,
,,,0.009900000000,   1.68000,
,,,0.009910000000,   1.68000,
,,,0.009920000000,   1.68000,
,,,0.009930000000,   1.68000,
,,,0.009940000000,   1.68000,
,,,0.009950000000,   1.68000,
,,,0.009960000000,   1.68000,
,,,0.009970000000,   1.68000,
,,,0.009980000000,   1.68000,
,,,0.009990000000,   1.68000,
,,,0.010000000000,  -5.60000,
,,,0.010010000000,  -6.32000,
,,,0.010020000000,  -6.32000,
,,,0.010030000000,  -6.32000,
,,,0.010040000000,  -6.32000,
,,,0.010050000000,  -6.32000,
,,,0.010060000000,  -6.32000,
,,,0.010070000000,  -6.32000,
,,,0.010080000000,  -6.32000,
,,,0.010090000000,  -6.32000,
,,,0.010100000000,  -6.40000,
,,,0.010110000000,  -6.40000,
,,,0.010120000000,  -6.40000,
,,,0.010130000000,  -6.40000,
,,,0.010140000000,  -6.40000,
,,,0.010150000000,  -6.40000,
,,,0.010160000000,  -6.40000,
,,,0.010170000000,  -6.40000,
,,,0.010180000000,  -6.40000,
,,,0.010190000000,  -6.40000,
,,,0.010200000000,  -6.40000,
,,,0.010210000000,  -6.40000,
,,,0.010220000000,  -6.40000,
,,,0.010230000000,  -6.40000,
,,,0.010240000000,  -6.40000,
,,,0.010250000000,  -6.40000,
,,,0.010260000000,  -6.40000,
,,,0.010270000000,  -6.40000,
,,,0.010280000000,  -6.40000,
,,,0.010290000000,  -6.40000,
,,,0.010300000000,  -6.40000,
,,,0.010310000000,  -6.40000,
,,,0.010320000000,  -6.40000,
,,,0.010330000000,  -6.40000,
,,,0.010340000000,  -6.40000,
,,,0.010350000000,  -6.40000,
,,,0.010360000000,  -6.40000,
,,,0.010370000000,  -6.40000,
,,,0.010380000000,  -6.40000,
,,,0.010390000000,  -6.40000,
,,,0.010400000000,  -6.40000,
,,,0.010410000000,  -6.40000,
,,,0.010420000000,  -6.40000,
,,,0.010430000000,  -6.40000,
,,,0.010440000000,  -6.40000,
,,,0.010450000000,  -6.40000,
,,,0.010460000000,  -6.40000,
,,,0.010470000000,  -6.40000,
,,,0.010480000000,  -6.40000,
,,,0.010490000000,  -6.40000,
,,,0.010500000000,  -6.40000,
,,,0.010510000000,  -6.40000,
,,,0.010520000000,  -6.40000,
,,,0.010530000000,  -6.40000,
,,,0.010540000000,  -6.40000,
,,,0.010550000000,  -6.40000,
,,,0.010560000000,  -6.40000,
,,,0.010570000000,  -6.40000,
,,,0.010580000000,  -6.40000,
,,,0.010590000000,  -6.40000,
,,,0.010600000000,  -6.40000,
,,,0.010610000000,  -6.40000,
,,,0.010620000000,  -6.40000,
,,,0.010630000000,  -6.40000,
,,,0.010640000000,  -6.40000,
,,,0.010650000000,  -6.40000,
,,,0.010660000000,  -6.40000,
,,,0.010670000000,  -6.40000,
,,,0.010680000000,  -6.40000,
,,,0.010690000000,  -6.40000,
,,,0.010700000000,  -6.40000,
,,,0.010710000000,  -6.40000,
,,,0.010720000000,  -6.40000,
,,,0.010730000000,  -6.40000,
,,,0.010740000000,  -6.40000,
,,,0.010750000000,  -6.40000,
,,,0.010760000000,  -6.40000,
,,,0.010770000000,  -6.40000,
,,,0.010780000000,  -6.40000,
,,,0.010790000000,  -6.40000,
,,,0.010800000000,  -6.40000,
,,,0.010810000000,  -6.40000,
,,,0.010820000000,  -6.40000,
,,,0.010830000000,  -6.40000,
,,,0.010840000000,  -6.40000,
,,,0.010850000000,  -6.40000,
,,,0.010860000000,  -6.40000,
,,,0.010870000000,  -6.40000,
,,,0.010880000000,  -6.40000,
,,,0.010890000000,  -6.40000,
,,,0.010900000000,  -6.40000,
,,,0.010910000000,  -6.40000,
,,,0.010920000000,  -6.40000,
,,,0.010930000000,  -6.40000,
,,,0.010940000000,  -6.40000,
,,,0.010950000000,  -6.40000,
,,,0.010960000000,  -6.40000,
,,,0.010970000000,  -6.40000,
,,,0.010980000000,  -6.40000,
,,,0.010990000000,  -6.40000,
,,,0.011000000000,  -6.40000,
,,,0.011010000000,  -6.40000,
,,,0.011020000000,  -6.40000,
,,,0.011030000000,  -6.40000,
,,,0.011040000000,  -6.40000,
,,,0.011050000000,  -6.40000,
,,,0.011060000000,  -6.40000,
,,,0.011070000000,  -6.40000,
,,,0.011080000000,  -6.40000,
,,,0.011090000000,  -6.40000,
,,,0.011100000000,  -6.40000,
,,,0.011110000000,  -6.40000,
,,,0.011120000000,  -6.40000,
,,,0.011130000000,  -6.40000,
,,,0.011140000000,  -6.40000,
,,,0.011150000000,  -6.40000,
,,,0.011160000000,  -6.40000,
,,,0.011170000000,  -6.40000,
,,,0.011180000000,  -6.40000,
,,,0.011190000000,  -6.40000,
,,,0.011200000000,  -6.40000,
,,,0.011210000000,  -6.40000,
,,,0.011220000000,  -6.40000,
,,,0.011230000000,  -6.40000,
,,,0.011240000000,  -6.40000,
,,,0.011250000000,  -6.40000,
,,,0.011260000000,  -6.40000,
,,,0.011270000000,  -6.40000,
,,,0.011280000000,  -6.40000,
,,,0.011290000000,  -6.40000,
,,,0.011300000000,  -6.40000,
,,,0.011310000000,  -6.40000,
,,,0.011320000000,  -6.40000,
,,,0.011330000000,  -6.40000,
,,,0.011340000000,  -6.40000,
,,,0.011350000000,  -6.40000,
,,,0.011360000000,  -6.40000,
,,,0.011370000000,  -6.40000,
,,,0.011380000000,  -6.40000,
,,,0.011390000000,  -6.40000,
,,,0.011400000000,  -6.40000,
,,,0.011410000000,  -6.40000,
,,,0.011420000000,  -6.40000,
,,,0.011430000000,  -6.40000,
,,,0.011440000000,  -6.40000,
,,,0.011450000000,  -6.40000,
,,,0.011460000000,  -6.40000,
,,,0.011470000000,  -6.40000,
,,,0.011480000000,  -6.40000,
,,,0.011490000000,  -6.40000,
,,,0.011500000000,  -6.40000,
,,,0.011510000000,  -6.40000,
,,,0.011520000000,  -6.40000,
,,,0.011530000000,  -6.40000,
,,,0.011540000000,  -6.40000,
,,,0.011550000000,  -6.40000,
,,,0.011560000000,  -6.40000,
,,,0.011570000000,  -6.40000,
,,,0.011580000000,  -6.40000,
,,,0.011590000000,  -6.40000,
,,,0.011600000000,  -6.40000,
,,,0.011610000000,  -6.40000,
,,,0.011620000000,  -6.40000,
,,,0.011630000000,  -6.40000,
,,,0.011640000000,  -6.40000,
,,,0.011650000000,  -6.40000,
,,,0.011660000000,  -6.40000,
,,,0.011670000000,  -6.40000,
,,,0.011680000000,  -6.40000,
,,,0.011690000000,  -6.40000,
,,,0.011700000000,  -6.40000,
,,,0.011710000000,  -6.40000,
,,,0.011720000000,  -6.40000,
,,,0.011730000000,  -6.40000,
,,,0.011740000000,  -6.40000,
,,,0.011750000000,  -6.40000,
,,,0.011760000000,  -6.40000,
,,,0.011770000000,  -6.40000,
,,,0.011780000000,  -6.40000,
,,,0.011790000000,  -6.40000,
,,,0.011800000000,  -6.40000,
,,,0.011810000000,  -6.40000,
,,,0.011820000000,  -6.40000,
,,,0.011830000000,  -6.40000,
,,,0.011840000000,  -6.40000,
,,,0.011850000000,  -6.40000,
,,,0.011860000000,  -6.40000,
,,,0.011870000000,  -6.40000,
,,,0.011880000000,  -6.40000,
,,,0.011890000000,  -6.40000,
,,,0.011900000000,  -6.40000,
,,,0.011910000000,  -6.40000,
,,,0.011920000000,  -6.40000,
,,,0.011930000000,  -6.40000,
,,,0.011940000000,  -6.40000,
,,,0.011950000000,  -6.40000,
,,,0.011960000000,  -6.40000,
,,,0.011970000000,  -6.40000,
,,,0.011980000000,  -6.40000,
,,,0.011990000000,  -6.40000,
,,,0.012000000000,  -6.40000,
,,,0.012010000000,  -6.40000,
,,,0.012020000000,  -6.40000,
,,,0.012030000000,  -6.40000,
,,,0.012040000000,  -6.40000,
,,,0.012050000000,  -6.40000,
,,,0.012060000000,  -6.40000,
,,,0.012070000000,  -6.40000,
,,,0.012080000000,  -6.40000,
,,,0.012090000000,  -6.40000,
,,,0.012100000000,  -6.40000,
,,,0.012110000000,  -6.40000,
,,,0.012120000000,  -6.40000,
,,,0.012130000000,  -6.40000,
,,,0.012140000000,  -6.40000,
,,,0.012150000000,  -6.40000,
,,,0.012160000000,  -6.40000,
,,,0.012170000000,  -6.40000,
,,,0.012180000000,  -6.40000,
,,,0.012190000000,  -6.40000,
,,,0.012200000000,  -6.40000,
,,,0.012210000000,  -6.40000,
,,,0.012220000000,  -6.40000,
,,,0.012230000000,  -6.40000,
,,,0.012240000000,  -6.40000,
,,,0.012250000000,  -6.40000,
,,,0.012260000000,  -6.40000,
,,,0.012270000000,  -6.40000,
,,,0.012280000000,  -6.40000,
,,,0.012290000000,  -6.40000,
,,,0.012300000000,  -6.40000,
,,,0.012310000000,  -6.40000,
,,,0.012320000000,  -6.40000,
,,,0.012330000000,  -6.40000,
,,,0.012340000000,  -6.40000,
,,,0.012350000000,  -6.40000,
,,,0.012360000000,  -6.40000,
,,,0.012370000000,  -6.40000,
,,,0.012380000000,  -6.40000,
,,,0.012390000000,  -6.40000,
,,,0.012400000000,  -6.40000,
,,,0.012410000000,  -6.40000,
,,,0.012420000000,  -6.40000,
,,,0.012430000000,  -6.40000,
,,,0.012440000000,  -6.40000,
,,,0.012450000000,  -6.40000,
,,,0.012460000000,  -6.40000,
,,,0.012470000000,  -6.40000,
,,,0.012480000000,  -6.40000,
,,,0.012490000000,  -6.40000,
,,,0.012500000000,  -6.40000,
,,,0.012510000000,  -6.40000,
,,,0.012520000000,  -6.40000,
,,,0.012530000000,  -6.40000,
,,,0.012540000000,  -6.40000,
,,,0.012550000000,  -6.40000,
,,,0.012560000000,  -6.40000,
,,,0.012570000000,  -6.40000,
,,,0.012580000000,  -6.40000,
,,,0.012590000000,  -6.40000,
,,,0.012600000000,  -6.40000,
,,,0.012610000000,  -6.40000,
,,,0.012620000000,  -6.40000,
,,,0.012630000000,  -6.40000,
,,,0.012640000000,  -6.40000,
,,,0.012650000000,  -6.40000,
,,,0.012660000000,  -6.40000,
,,,0.012670000000,  -6.40000,
,,,0.012680000000,  -6.40000,
,,,0.012690000000,  -6.40000,
,,,0.012700000000,  -6.40000,
,,,0.012710000000,  -6.40000,
,,,0.012720000000,  -6.40000,
,,,0.012730000000,  -6.40000,
,,,0.012740000000,  -6.40000,
,,,0.012750000000,  -6.40000,
,,,0.012760000000,  -6.40000,
,,,0.012770000000,  -6.40000,
,,,0.012780000000,  -6.40000,
,,,0.012790000000,  -6.40000,
,,,0.012800000000,  -6.40000,
,,,0.012810000000,  -6.40000,
,,,0.012820000000,  -6.40000,
,,,0.012830000000,  -6.40000,
,,,0.012840000000,  -6.40000,
,,,0.012850000000,  -6.40000,
,,,0.012860000000,  -6.40000,
,,,0.012870000000,  -6.40000,
,,,0.012880000000,  -6.40000,
,,,0.012890000000,  -6.40000,
,,,0.012900000000,  -6.40000,
,,,0.012910000000,  -6.40000,
,,,0.012920000000,  -6.40000,
,,,0.012930000000,  -6.40000,
,,,0.012940000000,  -6.40000,
,,,0.012950000000,  -6.40000,
,,,0.012960000000,  -6.40000,
,,,0.012970000000,  -6.40000,
,,,0.012980000000,  -6.40000,
,,,0.012990000000,  -6.40000,
,,,0.013000000000,  -6.40000,
,,,0.013010000000,  -6.40000,
,,,0.013020000000,  -6.40000,
,,,0.013030000000,  -6.40000,
,,,0.013040000000,  -6.40000,
,,,0.013050000000,  -6.40000,
,,,0.013060000000,  -6.40000,
,,,0.013070000000,  -6.40000,
,,,0.013080000000,  -6.40000,
,,,0.013090000000,  -6.40000,
,,,0.013100000000,  -6.40000,
,,,0.013110000000,  -6.40000,
,,,0.013120000000,  -6.40000,
,,,0.013130000000,  -6.40000,
,,,0.013140000000,  -6.40000,
,,,0.013150000000,  -6.40000,
,,,0.013160000000,  -6.40000,
,,,0.013170000000,  -6.40000,
,,,0.013180000000,  -6.40000,
,,,0.013190000000,  -6.40000,
,,,0.013200000000,  -6.40000,
,,,0.013210000000,  -6.40000,
,,,0.013220000000,  -6.40000,
,,,0.013230000000,  -6.40000,
,,,0.013240000000,  -6.40000,
,,,0.013250000000,  -6.40000,
,,,0.013260000000,  -6.40000,
,,,0.013270000000,  -6.40000,
,,,0.013280000000,  -6.40000,
,,,0.013290000000,  -6.40000,
,,,0.013300000000,  -5.12000,
,,,0.013310000000,  -1.68000,
,,,0.013320000000,  -1.68000,
,,,0.013330000000,  -1.68000,
,,,0.013340000000,  -1.60000,
,,,0.013350000000,  -1.60000,
,,,0.013360000000,  -1.60000,
,,,0.013370000000,  -1.60000,
,,,0.013380000000,  -1.60000,
,,,0.013390000000,  -1.60000,
,,,0.013400000000,  -1.60000,
,,,0.013410000000,  -1.60000,
,,,0.013420000000,  -1.60000,
,,,0.013430000000,  -1.60000,
,,,0.013440000000,  -1.60000,
,,,0.013450000000,  -1.60000,
,,,0.013460000000,  -1.60000,
,,,0.013470000000,  -1.60000,
,,,0.013480000000,  -1.60000,
,,,0.013490000000,  -1.60000,
,,,0.013500000000,  -1.60000,
,,,0.013510000000,  -1.60000,
,,,0.013520000000,  -1.60000,
,,,0.013530000000,  -1.60000,
,,,0.013540000000,  -1.60000,
,,,0.013550000000,  -1.60000,
,,,0.013560000000,  -1.60000,
,,,0.013570000000,  -1.60000,
,,,0.013580000000,  -1.60000,
,,,0.013590000000,  -1.60000,
,,,0.013600000000,  -1.60000,
,,,0.013610000000,  -1.60000,
,,,0.013620000000,  -1.60000,
,,,0.013630000000,  -1.60000,
,,,0.013640000000,  -1.60000,
,,,0.013650000000,  -1.60000,
,,,0.013660000000,  -1.60000,
,,,0.013670000000,  -1.60000,
,,,0.013680000000,  -1.60000,
,,,0.013690000000,  -1.60000,
,,,0.013700000000,  -1.60000,
,,,0.013710000000,  -1.60000,
,,,0.013720000000,  -1.60000,
,,,0.013730000000,  -1.60000,
,,,0.013740000000,  -1.60000,
,,,0.013750000000,  -1.60000,
,,,0.013760000000,  -1.60000,
,,,0.013770000000,  -1.60000,
,,,0.013780000000,  -1.60000,
,,,0.013790000000,  -1.60000,
,,,0.013800000000,  -1.60000,
,,,0.013810000000,  -1.60000,
,,,0.013820000000,  -1.60000,
,,,0.013830000000,  -1.60000,
,,,0.013840000000,  -1.60000,
,,,0.013850000000,  -1.60000,
,,,0.013860000000,  -1.60000,
,,,0.013870000000,  -1.60000,
,,,0.013880000000,  -1.60000,
,,,0.013890000000,  -1.60000,
,,,0.013900000000,  -1.60000,
,,,0.013910000000,  -1.60000,
,,,0.013920000000,  -1.60000,
,,,0.013930000000,  -1.60000,
,,,0.013940000000,  -1.60000,
,,,0.013950000000,  -1.60000,
,,,0.013960000000,  -1.60000,
,,,0.013970000000,  -1.60000,
,,,0.013980000000,  -1.60000,
,,,0.013990000000,  -1.60000,
,,,0.014000000000,  -1.60000,
,,,0.014010000000,  -1.60000,
,,,0.014020000000,  -1.60000,
,,,0.014030000000,  -1.60000,
,,,0.014040000000,  -1.60000,
,,,0.014050000000,  -1.60000,
,,,0.014060000000,  -1.60000,
,,,0.014070000000,  -1.60000,
,,,0.014080000000,  -1.60000,
,,,0.014090000000,  -1.60000,
,,,0.014100000000,  -1.60000,
,,,0.014110000000,  -1.60000,
,,,0.014120000000,  -1.60000,
,,,0.014130000000,  -1.60000,
,,,0.014140000000,  -1.60000,
,,,0.014150000000,  -1.60000,
,,,0.014160000000,  -1.60000,
,,,0.014170000000,  -1.60000,
,,,0.014180000000,  -1.60000,
,,,0.014190000000,  -1.60000,
,,,0.014200000000,  -1.60000,
,,,0.014210000000,  -1.60000,
,,,0.014220000000,  -1.60000,
,,,0.014230000000,  -1.60000,
,,,0.014240000000,  -1.60000,
,,,0.014250000000,  -1.60000,
,,,0.014260000000,  -1.60000,
,,,0.014270000000,  -1.60000,
,,,0.014280000000,  -1.60000,
,,,0.014290000000,  -1.60000,
,,,0.014300000000,  -1.60000,
,,,0.014310000000,  -1.60000,
,,,0.014320000000,  -1.60000,
,,,0.014330000000,  -1.60000,
,,,0.014340000000,  -1.60000,
,,,0.014350000000,  -1.60000,
,,,0.014360000000,  -1.60000,
,,,0.014370000000,  -1.60000,
,,,0.014380000000,  -1.60000,
,,,0.014390000000,  -1.60000,
,,,0.014400000000,  -1.60000,
,,,0.014410000000,  -1.60000,
,,,0.014420000000,  -1.60000,
,,,0.014430000000,  -1.60000,
,,,0.014440000000,  -1.60000,
,,,0.014450000000,  -1.60000,
,,,0.014460000000,  -1.60000,
,,,0.014470000000,  -1.60000,
,,,0.014480000000,  -1.60000,
,,,0.014490000000,  -1.60000,
,,,0.014500000000,  -1.60000,
,,,0.014510000000,  -1.60000,
,,,0.014520000000,  -1.60000,
,,,0.014530000000,  -1.60000,
,,,0.014540000000,  -1.60000,
,,,0.014550000000,  -1.60000,
,,,0.014560000000,  -1.60000,
,,,0.014570000000,  -1.60000,
,,,0.014580000000,  -1.60000,
,,,0.014590000000,  -1.60000,
,,,0.014600000000,  -1.60000,
,,,0.014610000000,  -1.60000,
,,,0.014620000000,  -1.60000,
,,,0.014630000000,  -1.60000,
,,,0.014640000000,  -1.60000,
,,,0.014650000000,  -1.60000,
,,,0.014660000000,  -1.60000,
,,,0.014670000000,  -1.60000,
,,,0.014680000000,  -1.60000,
,,,0.014690000000,  -1.60000,
,,,0.014700000000,  -1.60000,
,,,0.014710000000,  -1.60000,
,,,0.014720000000,  -1.60000,
,,,0.014730000000,  -1.60000,
,,,0.014740000000,  -1.60000,
,,,0.014750000000,  -1.60000,
,,,0.014760000000,  -1.60000,
,,,0.014770000000,  -1.60000,
,,,0.014780000000,  -1.60000,
,,,0.014790000000,  -1.60000,
,,,0.014800000000,  -1.60000,
,,,0.014810000000,  -1.60000,
,,,0.014820000000,  -1.60000,
,,,0.014830000000,  -1.60000,
,,,0.014840000000,  -1.60000,
,,,0.014850000000,  -1.60000,
,,,0.014860000000,  -1.60000,
,,,0.014870000000,  -1.60000,
,,,0.014880000000,  -1.60000,
,,,0.014890000000,  -1.60000,
,,,0.014900000000,  -1.60000,
,,,0.014910000000,  -1.60000,
,,,0.014920000000,  -1.60000,
,,,0.014930000000,  -1.60000,
,,,0.014940000000,  -1.60000,
,,,0.014950000000,  -1.60000,
,,,0.014960000000,  -1.60000,
,,,0.014970000000,  -1.60000,
,,,0.014980000000,  -1.60000,
,,,0.014990000000,  -1.60000,
,,,0.015000000000,  -1.60000,
,,,0.015010000000,  -1.60000,
,,,0.015020000000,  -1.60000,
,,,0.015030000000,  -1.60000,
,,,0.015040000000,  -1.60000,
,,,0.015050000000,  -1.60000,
,,,0.015060000000,  -1.60000,
,,,0.015070000000,  -1.60000,
,,,0.015080000000,  -1.60000,
,,,0.015090000000,  -1.60000,
,,,0.015100000000,  -1.60000,
,,,0.015110000000,  -1.60000,
,,,0.015120000000,  -1.60000,
,,,0.015130000000,  -1.60000,
,,,0.015140000000,  -1.60000,
,,,0.015150000000,  -1.60000,
,,,0.015160000000,  -1.60000,
,,,0.015170000000,  -1.60000,
,,,0.015180000000,  -1.60000,
,,,0.015190000000,  -1.60000,
,,,0.015200000000,  -1.60000,
,,,0.015210000000,  -1.60000,
,,,0.015220000000,  -1.60000,
,,,0.015230000000,  -1.60000,
,,,0.015240000000,  -1.60000,
,,,0.015250000000,  -1.60000,
,,,0.015260000000,  -1.60000,
,,,0.015270000000,  -1.60000,
,,,0.015280000000,  -1.60000,
,,,0.015290000000,  -1.60000,
,,,0.015300000000,  -1.60000,
,,,0.015310000000,  -1.60000,
,,,0.015320000000,  -1.60000,
,,,0.015330000000,  -1.60000,
,,,0.015340000000,  -1.60000,
,,,0.015350000000,  -1.60000,
,,,0.015360000000,  -1.60000,
,,,0.015370000000,  -1.60000,
,,,0.015380000000,  -1.60000,
,,,0.015390000000,  -1.60000,
,,,0.015400000000,  -1.60000,
,,,0.015410000000,  -1.60000,
,,,0.015420000000,  -1.60000,
,,,0.015430000000,  -1.60000,
,,,0.015440000000,  -1.60000,
,,,0.015450000000,  -1.60000,
,,,0.015460000000,  -1.60000,
,,,0.015470000000,  -1.60000,
,,,0.015480000000,  -1.60000,
,,,0.015490000000,  -1.60000,
,,,0.015500000000,  -1.60000,
,,,0.015510000000,  -1.60000,
,,,0.015520000000,  -1.60000,
,,,0.015530000000,  -1.60000,
,,,0.015540000000,  -1.60000,
,,,0.015550000000,  -1.60000,
,,,0.015560000000,  -1.60000,
,,,0.015570000000,  -1.60000,
,,,0.015580000000,  -1.60000,
,,,0.015590000000,  -1.60000,
,,,0.015600000000,  -1.60000,
,,,0.015610000000,  -1.60000,
,,,0.015620000000,  -1.60000,
,,,0.015630000000,  -1.60000,
,,,0.015640000000,  -1.60000,
,,,0.015650000000,  -1.60000,
,,,0.015660000000,  -1.60000,
,,,0.015670000000,  -1.60000,
,,,0.015680000000,  -1.60000,
,,,0.015690000000,  -1.60000,
,,,0.015700000000,  -1.60000,
,,,0.015710000000,  -1.60000,
,,,0.015720000000,  -1.60000,
,,,0.015730000000,  -1.60000,
,,,0.015740000000,  -1.60000,
,,,0.015750000000,  -1.60000,
,,,0.015760000000,  -1.60000,
,,,0.015770000000,  -1.60000,
,,,0.015780000000,  -1.60000,
,,,0.015790000000,  -1.60000,
,,,0.015800000000,  -1.60000,
,,,0.015810000000,  -1.60000,
,,,0.015820000000,  -1.60000,
,,,0.015830000000,  -1.60000,
,,,0.015840000000,  -1.60000,
,,,0.015850000000,  -1.60000,
,,,0.015860000000,  -1.60000,
,,,0.015870000000,  -1.60000,
,,,0.015880000000,  -1.60000,
,,,0.015890000000,  -1.60000,
,,,0.015900000000,  -1.60000,
,,,0.015910000000,  -1.60000,
,,,0.015920000000,  -1.60000,
,,,0.015930000000,  -1.60000,
,,,0.015940000000,  -1.60000,
,,,0.015950000000,  -1.60000,
,,,0.015960000000,  -1.60000,
,,,0.015970000000,  -1.60000,
,,,0.015980000000,  -1.60000,
,,,0.015990000000,  -1.60000,
,,,0.016000000000,  -1.60000,
,,,0.016010000000,  -1.60000,
,,,0.016020000000,  -1.60000,
,,,0.016030000000,  -1.60000,
,,,0.016040000000,  -1.60000,
,,,0.016050000000,  -1.60000,
,,,0.016060000000,  -1.60000,
,,,0.016070000000,  -1.60000,
,,,0.016080000000,  -1.60000,
,,,0.016090000000,  -1.60000,
,,,0.016100000000,  -1.60000,
,,,0.016110000000,  -1.60000,
,,,0.016120000000,  -1.60000,
,,,0.016130000000,  -1.60000,
,,,0.016140000000,  -1.60000,
,,,0.016150000000,  -1.60000,
,,,0.016160000000,  -1.60000,
,,,0.016170000000,  -1.60000,
,,,0.016180000000,  -1.60000,
,,,0.016190000000,  -1.60000,
,,,0.016200000000,  -1.60000,
,,,0.016210000000,  -1.60000,
,,,0.016220000000,  -1.60000,
,,,0.016230000000,  -1.60000,
,,,0.016240000000,  -1.60000,
,,,0.016250000000,  -1.60000,
,,,0.016260000000,  -1.60000,
,,,0.016270000000,  -1.60000,
,,,0.016280000000,  -1.60000,
,,,0.016290000000,  -1.60000,
,,,0.016300000000,  -1.60000,
,,,0.016310000000,  -1.60000,
,,,0.016320000000,  -1.60000,
,,,0.016330000000,  -1.60000,
,,,0.016340000000,  -1.60000,
,,,0.016350000000,  -1.60000,
,,,0.016360000000,  -1.60000,
,,,0.016370000000,  -1.60000,
,,,0.016380000000,  -1.60000,
,,,0.016390000000,  -1.60000,
,,,0.016400000000,  -1.60000,
,,,0.016410000000,  -1.60000,
,,,0.016420000000,  -1.60000,
,,,0.016430000000,  -1.60000,
,,,0.016440000000,  -1.60000,
,,,0.016450000000,  -1.60000,
,,,0.016460000000,  -1.60000,
,,,0.016470000000,  -1.60000,
,,,0.016480000000,  -1.60000,
,,,0.016490000000,  -1.60000,
,,,0.016500000000,  -1.60000,
,,,0.016510000000,  -1.60000,
,,,0.016520000000,  -1.60000,
,,,0.016530000000,  -1.60000,
,,,0.016540000000,  -1.60000,
,,,0.016550000000,  -1.60000,
,,,0.016560000000,  -1.60000,
,,,0.016570000000,  -1.60000,
,,,0.016580000000,  -1.60000,
,,,0.016590000000,  -1.60000,
,,,0.016600000000,  -1.60000,
,,,0.016610000000,  -1.60000,
,,,0.016620000000,  -1.60000,
,,,0.016630000000,  -1.60000,
,,,0.016640000000,  -1.60000,
,,,0.016650000000,  -1.60000,
,,,0.016660000000,  -1.60000,
,,,0.016670000000,  -1.60000,
,,,0.016680000000,  -1.60000,
,,,0.016690000000,  -1.60000,
,,,0.016700000000,  -1.60000,
,,,0.016710000000,  -1.60000,
,,,0.016720000000,  -1.60000,
,,,0.016730000000,  -1.60000,
,,,0.016740000000,  -1.60000,
,,,0.016750000000,  -1.60000,
,,,0.016760000000,  -1.60000,
,,,0.016770000000,  -1.60000,
,,,0.016780000000,  -1.60000,
,,,0.016790000000,  -1.60000,
,,,0.016800000000,  -1.60000,
,,,0.016810000000,  -1.60000,
,,,0.016820000000,  -1.60000,
,,,0.016830000000,  -1.60000,
,,,0.016840000000,  -1.60000,
,,,0.016850000000,  -1.60000,
,,,0.016860000000,  -1.60000,
,,,0.016870000000,  -1.60000,
,,,0.016880000000,  -1.60000,
,,,0.016890000000,  -1.60000,
,,,0.016900000000,  -1.60000,
,,,0.016910000000,  -1.60000,
,,,0.016920000000,  -1.60000,
,,,0.016930000000,  -1.60000,
,,,0.016940000000,  -1.60000,
,,,0.016950000000,  -1.60000,
,,,0.016960000000,  -1.60000,
,,,0.016970000000,  -1.60000,
,,,0.016980000000,  -1.60000,
,,,0.016990000000,  -1.60000,
,,,0.017000000000,  -1.60000,
,,,0.017010000000,  -1.60000,
,,,0.017020000000,  -1.60000,
,,,0.017030000000,  -1.60000,
,,,0.017040000000,  -1.60000,
,,,0.017050000000,  -1.60000,
,,,0.017060000000,  -1.60000,
,,,0.017070000000,  -1.60000,
,,,0.017080000000,  -1.60000,
,,,0.017090000000,  -1.60000,
,,,0.017100000000,  -1.60000,
,,,0.017110000000,  -1.60000,
,,,0.017120000000,  -1.60000,
,,,0.017130000000,  -1.60000,
,,,0.017140000000,  -1.60000,
,,,0.017150000000,  -1.60000,
,,,0.017160000000,  -1.60000,
,,,0.017170000000,  -1.60000,
,,,0.017180000000,  -1.60000,
,,,0.017190000000,  -1.60000,
,,,0.017200000000,  -1.60000,
,,,0.017210000000,  -1.60000,
,,,0.017220000000,  -1.60000,
,,,0.017230000000,  -1.60000,
,,,0.017240000000,  -1.60000,
,,,0.017250000000,  -1.60000,
,,,0.017260000000,  -1.60000,
,,,0.017270000000,  -1.60000,
,,,0.017280000000,  -1.60000,
,,,0.017290000000,  -1.60000,
,,,0.017300000000,  -1.60000,
,,,0.017310000000,  -1.60000,
,,,0.017320000000,  -1.60000,
,,,0.017330000000,  -1.60000,
,,,0.017340000000,  -1.60000,
,,,0.017350000000,  -1.60000,
,,,0.017360000000,  -1.60000,
,,,0.017370000000,  -1.60000,
,,,0.017380000000,  -1.60000,
,,,0.017390000000,  -1.60000,
,,,0.017400000000,  -1.60000,
,,,0.017410000000,  -1.60000,
,,,0.017420000000,  -1.60000,
,,,0.017430000000,  -1.60000,
,,,0.017440000000,  -1.60000,
,,,0.017450000000,  -1.60000,
,,,0.017460000000,  -1.60000,
,,,0.017470000000,  -1.60000,
,,,0.017480000000,  -1.60000,
,,,0.017490000000,  -1.60000,
,,,0.017500000000,  -1.60000,
,,,0.017510000000,  -1.60000,
,,,0.017520000000,  -1.60000,
,,,0.017530000000,  -1.60000,
,,,0.017540000000,  -1.60000,
,,,0.017550000000,  -1.60000,
,,,0.017560000000,  -1.60000,
,,,0.017570000000,  -1.60000,
,,,0.017580000000,  -1.60000,
,,,0.017590000000,  -1.60000,
,,,0.017600000000,  -1.60000,
,,,0.017610000000,  -1.60000,
,,,0.017620000000,  -1.60000,
,,,0.017630000000,  -1.60000,
,,,0.017640000000,  -1.60000,
,,,0.017650000000,  -1.60000,
,,,0.017660000000,  -1.60000,
,,,0.017670000000,  -1.60000,
,,,0.017680000000,  -1.60000,
,,,0.017690000000,  -1.60000,
,,,0.017700000000,  -1.60000,
,,,0.017710000000,  -1.60000,
,,,0.017720000000,  -1.60000,
,,,0.017730000000,  -1.60000,
,,,0.017740000000,  -1.60000,
,,,0.017750000000,  -1.60000,
,,,0.017760000000,  -1.60000,
,,,0.017770000000,  -1.60000,
,,,0.017780000000,  -1.60000,
,,,0.017790000000,  -1.60000,
,,,0.017800000000,  -1.60000,
,,,0.017810000000,  -1.60000,
,,,0.017820000000,  -1.60000,
,,,0.017830000000,  -1.60000,
,,,0.017840000000,  -1.60000,
,,,0.017850000000,  -1.60000,
,,,0.017860000000,  -1.60000,
,,,0.017870000000,  -1.60000,
,,,0.017880000000,  -1.60000,
,,,0.017890000000,  -1.60000,
,,,0.017900000000,  -1.60000,
,,,0.017910000000,  -1.60000,
,,,0.017920000000,  -1.60000,
,,,0.017930000000,  -1.60000,
,,,0.017940000000,  -1.60000,
,,,0.017950000000,  -1.60000,
,,,0.017960000000,  -1.60000,
,,,0.017970000000,  -1.60000,
,,,0.017980000000,  -1.60000,
,,,0.017990000000,  -1.60000,
,,,0.018000000000,  -1.60000,
,,,0.018010000000,  -1.60000,
,,,0.018020000000,  -1.60000,
,,,0.018030000000,  -1.60000,
,,,0.018040000000,  -1.60000,
,,,0.018050000000,  -1.60000,
,,,0.018060000000,  -1.60000,
,,,0.018070000000,  -1.60000,
,,,0.018080000000,  -1.60000,
,,,0.018090000000,  -1.60000,
,,,0.018100000000,  -1.60000,
,,,0.018110000000,  -1.60000,
,,,0.018120000000,  -1.60000,
,,,0.018130000000,  -1.60000,
,,,0.018140000000,  -1.60000,
,,,0.018150000000,  -1.60000,
,,,0.018160000000,  -1.60000,
,,,0.018170000000,  -1.60000,
,,,0.018180000000,  -1.60000,
,,,0.018190000000,  -1.60000,
,,,0.018200000000,  -1.60000,
,,,0.018210000000,  -1.60000,
,,,0.018220000000,  -1.60000,
,,,0.018230000000,  -1.60000,
,,,0.018240000000,  -1.60000,
,,,0.018250000000,  -1.60000,
,,,0.018260000000,  -1.60000,
,,,0.018270000000,  -1.60000,
,,,0.018280000000,  -1.60000,
,,,0.018290000000,  -1.60000,
,,,0.018300000000,  -1.60000,
,,,0.018310000000,  -1.60000,
,,,0.018320000000,  -1.60000,
,,,0.018330000000,  -1.60000,
,,,0.018340000000,  -1.60000,
,,,0.018350000000,  -1.60000,
,,,0.018360000000,  -1.60000,
,,,0.018370000000,  -1.60000,
,,,0.018380000000,  -1.60000,
,,,0.018390000000,  -1.60000,
,,,0.018400000000,  -1.60000,
,,,0.018410000000,  -1.60000,
,,,0.018420000000,  -1.60000,
,,,0.018430000000,  -1.60000,
,,,0.018440000000,  -1.60000,
,,,0.018450000000,  -1.60000,
,,,0.018460000000,  -1.60000,
,,,0.018470000000,  -1.60000,
,,,0.018480000000,  -1.60000,
,,,0.018490000000,  -1.60000,
,,,0.018500000000,  -1.60000,
,,,0.018510000000,  -1.60000,
,,,0.018520000000,  -1.60000,
,,,0.018530000000,  -1.60000,
,,,0.018540000000,  -1.60000,
,,,0.018550000000,  -1.60000,
,,,0.018560000000,  -1.60000,
,,,0.018570000000,  -1.60000,
,,,0.018580000000,  -1.60000,
,,,0.018590000000,  -1.60000,
,,,0.018600000000,  -1.60000,
,,,0.018610000000,  -1.60000,
,,,0.018620000000,  -1.60000,
,,,0.018630000000,  -1.60000,
,,,0.018640000000,  -1.60000,
,,,0.018650000000,  -1.60000,
,,,0.018660000000,  -1.60000,
,,,0.018670000000,  -1.60000,
,,,0.018680000000,  -1.60000,
,,,0.018690000000,  -1.60000,
,,,0.018700000000,  -1.60000,
,,,0.018710000000,  -1.60000,
,,,0.018720000000,  -1.60000,
,,,0.018730000000,  -1.60000,
,,,0.018740000000,  -1.60000,
,,,0.018750000000,  -1.60000,
,,,0.018760000000,  -1.60000,
,,,0.018770000000,  -1.60000,
,,,0.018780000000,  -1.60000,
,,,0.018790000000,  -1.60000,
,,,0.018800000000,  -1.60000,
,,,0.018810000000,  -1.60000,
,,,0.018820000000,  -1.60000,
,,,0.018830000000,  -1.60000,
,,,0.018840000000,  -1.60000,
,,,0.018850000000,  -1.60000,
,,,0.018860000000,  -1.60000,
,,,0.018870000000,  -1.60000,
,,,0.018880000000,  -1.60000,
,,,0.018890000000,  -1.60000,
,,,0.018900000000,  -1.60000,
,,,0.018910000000,  -1.60000,
,,,0.018920000000,  -1.60000,
,,,0.018930000000,  -1.60000,
,,,0.018940000000,  -1.60000,
,,,0.018950000000,  -1.60000,
,,,0.018960000000,  -1.60000,
,,,0.018970000000,  -1.60000,
,,,0.018980000000,  -1.60000,
,,,0.018990000000,  -1.60000,
,,,0.019000000000,  -1.60000,
,,,0.019010000000,  -1.60000,
,,,0.019020000000,  -1.60000,
,,,0.019030000000,  -1.60000,
,,,0.019040000000,  -1.60000,
,,,0.019050000000,  -1.60000,
,,,0.019060000000,  -1.60000,
,,,0.019070000000,  -1.60000,
,,,0.019080000000,  -1.60000,
,,,0.019090000000,  -1.60000,
,,,0.019100000000,  -1.60000,
,,,0.019110000000,  -1.60000,
,,,0.019120000000,  -1.60000,
,,,0.019130000000,  -1.60000,
,,,0.019140000000,  -1.60000,
,,,0.019150000000,  -1.60000,
,,,0.019160000000,  -1.60000,
,,,0.019170000000,  -1.60000,
,,,0.019180000000,  -1.60000,
,,,0.019190000000,  -1.60000,
,,,0.019200000000,  -1.60000,
,,,0.019210000000,  -1.60000,
,,,0.019220000000,  -1.60000,
,,,0.019230000000,  -1.60000,
,,,0.019240000000,  -1.60000,
,,,0.019250000000,  -1.60000,
,,,0.019260000000,  -1.60000,
,,,0.019270000000,  -1.60000,
,,,0.019280000000,  -1.60000,
,,,0.019290000000,  -1.60000,
,,,0.019300000000,  -1.60000,
,,,0.019310000000,  -1.60000,
,,,0.019320000000,  -1.60000,
,,,0.019330000000,  -1.60000,
,,,0.019340000000,  -1.60000,
,,,0.019350000000,  -1.60000,
,,,0.019360000000,  -1.60000,
,,,0.019370000000,  -1.60000,
,,,0.019380000000,  -1.60000,
,,,0.019390000000,  -1.60000,
,,,0.019400000000,  -1.60000,
,,,0.019410000000,  -1.60000,
,,,0.019420000000,  -1.60000,
,,,0.019430000000,  -1.60000,
,,,0.019440000000,  -1.60000,
,,,0.019450000000,  -1.60000,
,,,0.019460000000,  -1.60000,
,,,0.019470000000,  -1.60000,
,,,0.019480000000,  -1.60000,
,,,0.019490000000,  -1.60000,
,,,0.019500000000,  -1.60000,
,,,0.019510000000,  -1.60000,
,,,0.019520000000,  -1.60000,
,,,0.019530000000,  -1.60000,
,,,0.019540000000,  -1.60000,
,,,0.019550000000,  -1.60000,
,,,0.019560000000,  -1.60000,
,,,0.019570000000,  -1.60000,
,,,0.019580000000,  -1.60000,
,,,0.019590000000,  -1.60000,
,,,0.019600000000,  -1.60000,
,,,0.019610000000,  -1.60000,
,,,0.019620000000,  -1.60000,
,,,0.019630000000,  -1.60000,
,,,0.019640000000,  -1.60000,
,,,0.019650000000,  -1.60000,
,,,0.019660000000,  -1.60000,
,,,0.019670000000,  -1.60000,
,,,0.019680000000,  -1.60000,
,,,0.019690000000,  -1.60000,
,,,0.019700000000,  -1.60000,
,,,0.019710000000,  -1.60000,
,,,0.019720000000,  -1.60000,
,,,0.019730000000,  -1.60000,
,,,0.019740000000,  -1.60000,
,,,0.019750000000,  -1.60000,
,,,0.019760000000,  -1.60000,
,,,0.019770000000,  -1.60000,
,,,0.019780000000,  -1.60000,
,,,0.019790000000,  -1.60000,
,,,0.019800000000,  -1.60000,
,,,0.019810000000,  -1.60000,
,,,0.019820000000,  -1.60000,
,,,0.019830000000,  -1.60000,
,,,0.019840000000,  -1.60000,
,,,0.019850000000,  -1.60000,
,,,0.019860000000,  -1.60000,
,,,0.019870000000,  -1.60000,
,,,0.019880000000,  -1.60000,
,,,0.019890000000,  -1.60000,
,,,0.019900000000,  -1.60000,
,,,0.019910000000,  -1.60000,
,,,0.019920000000,  -1.60000,
,,,0.019930000000,  -1.60000,
,,,0.019940000000,  -1.60000,
,,,0.019950000000,  -1.60000,
,,,0.019960000000,  -1.60000,
,,,0.019970000000,  -1.60000,
,,,0.019980000000,  -1.60000,
,,,0.019990000000,  -1.60000,
,,,0.020000000000,   5.76000,
,,,0.020010000000,   6.40000,
,,,0.020020000000,   6.40000,
,,,0.020030000000,   6.40000,
,,,0.020040000000,   6.40000,
,,,0.020050000000,   6.48000,
,,,0.020060000000,   6.48000,
,,,0.020070000000,   6.48000,
,,,0.020080000000,   6.48000,
,,,0.020090000000,   6.48000,
,,,0.020100000000,   6.48000,
,,,0.020110000000,   6.48000,
,,,0.020120000000,   6.48000,
,,,0.020130000000,   6.48000,
,,,0.020140000000,   6.48000,
,,,0.020150000000,   6.48000,
,,,0.020160000000,   6.48000,
,,,0.020170000000,   6.48000,
,,,0.020180000000,   6.48000,
,,,0.020190000000,   6.48000,
,,,0.020200000000,   6.48000,
,,,0.020210000000,   6.48000,
,,,0.020220000000,   6.48000,
,,,0.020230000000,   6.48000,
,,,0.020240000000,   6.48000,
,,,0.020250000000,   6.48000,
,,,0.020260000000,   6.48000,
,,,0.020270000000,   6.48000,
,,,0.020280000000,   6.48000,
,,,0.020290000000,   6.48000,
,,,0.020300000000,   6.48000,
,,,0.020310000000,   6.48000,
,,,0.020320000000,   6.48000,
,,,0.020330000000,   6.48000,
,,,0.020340000000,   6.48000,
,,,0.020350000000,   6.48000,
,,,0.020360000000,   6.48000,
,,,0.020370000000,   6.48000,
,,,0.020380000000,   6.48000,
,,,0.020390000000,   6.48000,
,,,0.020400000000,   6.48000,
,,,0.020410000000,   6.48000,
,,,0.020420000000,   6.48000,
,,,0.020430000000,   6.48000,
,,,0.020440000000,   6.48000,
,,,0.020450000000,   6.48000,
,,,0.020460000000,   6.48000,
,,,0.020470000000,   6.48000,
,,,0.020480000000,   6.48000,
,,,0.020490000000,   6.48000,
,,,0.020500000000,   6.48000,
,,,0.020510000000,   6.48000,
,,,0.020520000000,   6.48000,
,,,0.020530000000,   6.48000,
,,,0.020540000000,   6.48000,
,,,0.020550000000,   6.48000,
,,,0.020560000000,   6.48000,
,,,0.020570000000,   6.48000,
,,,0.020580000000,   6.48000,
,,,0.020590000000,   6.48000,
,,,0.020600000000,   6.48000,
,,,0.020610000000,   6.48000,
,,,0.020620000000,   6.48000,
,,,0.020630000000,   6.48000,
,,,0.020640000000,   6.48000,
,,,0.020650000000,   6.48000,
,,,0.020660000000,   6.48000,
,,,0.020670000000,   6.48000,
,,,0.020680000000,   6.48000,
,,,0.020690000000,   6.48000,
,,,0.020700000000,   6.48000,
,,,0.020710000000,   6.48000,
,,,0.020720000000,   6.48000,
,,,0.020730000000,   6.48000,
,,,0.020740000000,   6.48000,
,,,0.020750000000,   6.48000,
,,,0.020760000000,   6.48000,
,,,0.020770000000,   6.48000,
,,,0.020780000000,   6.48000,
,,,0.020790000000,   6.48000,
,,,0.020800000000,   6.48000,
,,,0.020810000000,   6.48000,
,,,0.020820000000,   6.48000,
,,,0.020830000000,   6.48000,
,,,0.020840000000,   6.48000,
,,,0.020850000000,   6.48000,
,,,0.020860000000,   6.48000,
,,,0.020870000000,   6.48000,
,,,0.020880000000,   6.48000,
,,,0.020890000000,   6.48000,
,,,0.020900000000,   6.48000,
,,,0.020910000000,   6.48000,
,,,0.020920000000,   6.48000,
,,,0.020930000000,   6.48000,
,,,0.020940000000,   6.48000,
,,,0.020950000000,   6.48000,
,,,0.020960000000,   6.48000,
,,,0.020970000000,   6.48000,
,,,0.020980000000,   6.48000,
,,,0.020990000000,   6.48000,
,,,0.021000000000,   6.48000,
,,,0.021010000000,   6.48000,
,,,0.021020000000,   6.48000,
,,,0.021030000000,   6.48000,
,,,0.021040000000,   6.48000,
,,,0.021050000000,   6.48000,
,,,0.021060000000,   6.48000,
,,,0.021070000000,   6.48000,
,,,0.021080000000,   6.48000,
,,,0.021090000000,   6.48000,
,,,0.021100000000,   6.48000,
,,,0.021110000000,   6.48000,
,,,0.021120000000,   6.48000,
,,,0.021130000000,   6.48000,
,,,0.021140000000,   6.48000,
,,,0.021150000000,   6.48000,
,,,0.021160000000,   6.48000,
,,,0.021170000000,   6.48000,
,,,0.021180000000,   6.48000,
,,,0.021190000000,   6.48000,
,,,0.021200000000,   6.48000,
,,,0.021210000000,   6.48000,
,,,0.021220000000,   6.48000,
,,,0.021230000000,   6.48000,
,,,0.021240000000,   6.48000,
,,,0.021250000000,   6.48000,
,,,0.021260000000,   6.48000,
,,,0.021270000000,   6.48000,
,,,0.021280000000,   6.48000,
,,,0.021290000000,   6.48000,
,,,0.021300000000,   6.48000,
,,,0.021310000000,   6.48000,
,,,0.021320000000,   6.48000,
,,,0.021330000000,   6.48000,
,,,0.021340000000,   6.48000,
,,,0.021350000000,   6.48000,
,,,0.021360000000,   6.48000,
,,,0.021370000000,   6.48000,
,,,0.021380000000,   6.48000,
,,,0.021390000000,   6.48000,
,,,0.021400000000,   6.48000,
,,,0.021410000000,   6.48000,
,,,0.021420000000,   6.48000,
,,,0.021430000000,   6.48000,
,,,0.021440000000,   6.48000,
,,,0.021450000000,   6.48000,
,,,0.021460000000,   6.48000,
,,,0.021470000000,   6.48000,
,,,0.021480000000,   6.48000,
,,,0.021490000000,   6.48000,
,,,0.021500000000,   6.48000,
,,,0.021510000000,   6.48000,
,,,0.021520000000,   6.48000,
,,,0.021530000000,   6.48000,
,,,0.021540000000,   6.48000,
,,,0.021550000000,   6.48000,
,,,0.021560000000,   6.48000,
,,,0.021570000000,   6.48000,
,,,0.021580000000,   6.48000,
,,,0.021590000000,   6.48000,
,,,0.021600000000,   6.48000,
,,,0.021610000000,   6.48000,
,,,0.021620000000,   6.48000,
,,,0.021630000000,   6.48000,
,,,0.021640000000,   6.48000,
,,,0.021650000000,   6.48000,
,,,0.021660000000,   6.48000,
,,,0.021670000000,   6.48000,
,,,0.021680000000,   6.48000,
,,,0.021690000000,   6.48000,
,,,0.021700000000,   6.48000,
,,,0.021710000000,   6.48000,
,,,0.021720000000,   6.48000,
,,,0.021730000000,   6.48000,
,,,0.021740000000,   6.48000,
,,,0.021750000000,   6.48000,
,,,0.021760000000,   6.48000,
,,,0.021770000000,   6.48000,
,,,0.021780000000,   6.48000,
,,,0.021790000000,   6.48000,
,,,0.021800000000,   6.48000,
,,,0.021810000000,   6.48000,
,,,0.021820000000,   6.48000,
,,,0.021830000000,   6.48000,
,,,0.021840000000,   6.48000,
,,,0.021850000000,   6.48000,
,,,0.021860000000,   6.48000,
,,,0.021870000000,   6.48000,
,,,0.021880000000,   6.48000,
,,,0.021890000000,   6.48000,
,,,0.021900000000,   6.48000,
,,,0.021910000000,   6.48000,
,,,0.021920000000,   6.48000,
,,,0.021930000000,   6.48000,
,,,0.021940000000,   6.48000,
,,,0.021950000000,   6.48000,
,,,0.021960000000,   6.48000,
,,,0.021970000000,   6.48000,
,,,0.021980000000,   6.48000,
,,,0.021990000000,   6.48000,
,,,0.022000000000,   6.48000,
,,,0.022010000000,   6.48000,
,,,0.022020000000,   6.48000,
,,,0.022030000000,   6.48000,
,,,0.022040000000,   6.48000,
,,,0.022050000000,   6.48000,
,,,0.022060000000,   6.48000,
,,,0.022070000000,   6.48000,
,,,0.022080000000,   6.48000,
,,,0.022090000000,   6.48000,
,,,0.022100000000,   6.48000,
,,,0.022110000000,   6.48000,
,,,0.022120000000,   6.48000,
,,,0.022130000000,   6.48000,
,,,0.022140000000,   6.48000,
,,,0.022150000000,   6.48000,
,,,0.022160000000,   6.48000,
,,,0.022170000000,   6.48000,
,,,0.022180000000,   6.48000,
,,,0.022190000000,   6.48000,
,,,0.022200000000,   6.48000,
,,,0.022210000000,   6.48000,
,,,0.022220000000,   6.48000,
,,,0.022230000000,   6.48000,
,,,0.022240000000,   6.48000,
,,,0.022250000000,   6.48000,
,,,0.022260000000,   6.48000,
,,,0.022270000000,   6.48000,
,,,0.022280000000,   6.48000,
,,,0.022290000000,   6.48000,
,,,0.022300000000,   6.48000,
,,,0.022310000000,   6.48000,
,,,0.022320000000,   6.48000,
,,,0.022330000000,   6.48000,
,,,0.022340000000,   6.48000,
,,,0.022350000000,   6.48000,
,,,0.022360000000,   6.48000,
,,,0.022370000000,   6.48000,
,,,0.022380000000,   6.48000,
,,,0.022390000000,   6.48000,
,,,0.022400000000,   6.48000,
,,,0.022410000000,   6.48000,
,,,0.022420000000,   6.48000,
,,,0.022430000000,   6.48000,
,,,0.022440000000,   6.48000,
,,,0.022450000000,   6.48000,
,,,0.022460000000,   6.48000,
,,,0.022470000000,   6.48000,
,,,0.022480000000,   6.48000,
,,,0.022490000000,   6.48000,
,,,0.022500000000,   6.48000,
,,,0.022510000000,   6.48000,
,,,0.022520000000,   6.48000,
,,,0.022530000000,   6.48000,
,,,0.022540000000,   6.48000,
,,,0.022550000000,   6.48000,
,,,0.022560000000,   6.48000,
,,,0.022570000000,   6.48000,
,,,0.022580000000,   6.48000,
,,,0.022590000000,   6.48000,
,,,0.022600000000,   6.48000,
,,,0.022610000000,   6.48000,
,,,0.022620000000,   6.48000,
,,,0.022630000000,   6.48000,
,,,0.022640000000,   6.48000,
,,,0.022650000000,   6.48000,
,,,0.022660000000,   6.48000,
,,,0.022670000000,   6.48000,
,,,0.022680000000,   6.48000,
,,,0.022690000000,   6.48000,
,,,0.022700000000,   6.48000,
,,,0.022710000000,   6.48000,
,,,0.022720000000,   6.48000,
,,,0.022730000000,   6.48000,
,,,0.022740000000,   6.48000,
,,,0.022750000000,   6.48000,
,,,0.022760000000,   6.48000,
,,,0.022770000000,   6.48000,
,,,0.022780000000,   6.48000,
,,,0.022790000000,   6.48000,
,,,0.022800000000,   6.48000,
,,,0.022810000000,   6.48000,
,,,0.022820000000,   6.48000,
,,,0.022830000000,   6.48000,
,,,0.022840000000,   6.48000,
,,,0.022850000000,   6.48000,
,,,0.022860000000,   6.48000,
,,,0.022870000000,   6.48000,
,,,0.022880000000,   6.48000,
,,,0.022890000000,   6.48000,
,,,0.022900000000,   6.48000,
,,,0.022910000000,   6.48000,
,,,0.022920000000,   6.48000,
,,,0.022930000000,   6.48000,
,,,0.022940000000,   6.48000,
,,,0.022950000000,   6.48000,
,,,0.022960000000,   6.48000,
,,,0.022970000000,   6.48000,
,,,0.022980000000,   6.48000,
,,,0.022990000000,   6.48000,
,,,0.023000000000,   6.48000,
,,,0.023010000000,   6.48000,
,,,0.023020000000,   6.48000,
,,,0.023030000000,   6.48000,
,,,0.023040000000,   6.48000,
,,,0.023050000000,   6.48000,
,,,0.023060000000,   6.48000,
,,,0.023070000000,   6.48000,
,,,0.023080000000,   6.48000,
,,,0.023090000000,   6.48000,
,,,0.023100000000,   6.48000,
,,,0.023110000000,   6.48000,
,,,0.023120000000,   6.48000,
,,,0.023130000000,   6.48000,
,,,0.023140000000,   6.48000,
,,,0.023150000000,   6.48000,
,,,0.023160000000,   6.48000,
,,,0.023170000000,   6.48000,
,,,0.023180000000,   6.48000,
,,,0.023190000000,   6.48000,
,,,0.023200000000,   6.48000,
,,,0.023210000000,   6.48000,
,,,0.023220000000,   6.48000,
,,,0.023230000000,   6.48000,
,,,0.023240000000,   6.48000,
,,,0.023250000000,   6.48000,
,,,0.023260000000,   6.48000,
,,,0.023270000000,   6.48000,
,,,0.023280000000,   6.48000,
,,,0.023290000000,   6.48000,
,,,0.023300000000,   5.20000,
,,,0.023310000000,   1.76000,
,,,0.023320000000,   1.76000,
,,,0.023330000000,   1.76000,
,,,0.023340000000,   1.68000,
,,,0.023350000000,   1.68000,
,,,0.023360000000,   1.68000,
,,,0.023370000000,   1.68000,
,,,0.023380000000,   1.68000,
,,,0.023390000000,   1.68000,
,,,0.023400000000,   1.68000,
,,,0.023410000000,   1.68000,
,,,0.023420000000,   1.68000,
,,,0.023430000000,   1.68000,
,,,0.023440000000,   1.68000,
,,,0.023450000000,   1.68000,
,,,0.023460000000,   1.68000,
,,,0.023470000000,   1.68000,
,,,0.023480000000,   1.68000,
,,,0.023490000000,   1.68000,
,,,0.023500000000,   1.68000,
,,,0.023510000000,   1.68000,
,,,0.023520000000,   1.68000,
,,,0.023530000000,   1.68000,
,,,0.023540000000,   1.68000,
,,,0.023550000000,   1.68000,
,,,0.023560000000,   1.68000,
,,,0.023570000000,   1.68000,
,,,0.023580000000,   1.68000,
,,,0.023590000000,   1.68000,
,,,0.023600000000,   1.68000,
,,,0.023610000000,   1.68000,
,,,0.023620000000,   1.68000,
,,,0.023630000000,   1.68000,
,,,0.023640000000,   1.68000,
,,,0.023650000000,   1.68000,
,,,0.023660000000,   1.68000,
,,,0.023670000000,   1.68000,
,,,0.023680000000,   1.68000,
,,,0.023690000000,   1.68000,
,,,0.023700000000,   1.68000,
,,,0.023710000000,   1.68000,
,,,0.023720000000,   1.68000,
,,,0.023730000000,   1.68000,
,,,0.023740000000,   1.68000,
,,,0.023750000000,   1.68000,
,,,0.023760000000,   1.68000,
,,,0.023770000000,   1.68000,
,,,0.023780000000,   1.68000,
,,,0.023790000000,   1.68000,
,,,0.023800000000,   1.68000,
,,,0.023810000000,   1.68000,
,,,0.023820000000,   1.68000,
,,,0.023830000000,   1.68000,
,,,0.023840000000,   1.68000,
,,,0.023850000000,   1.68000,
,,,0.023860000000,   1.68000,
,,,0.023870000000,   1.68000,
,,,0.023880000000,   1.68000,
,,,0.023890000000,   1.68000,
,,,0.023900000000,   1.68000,
,,,0.023910000000,   1.68000,
,,,0.023920000000,   1.68000,
,,,0.023930000000,   1.68000,
,,,0.023940000000,   1.68000,
,,,0.023950000000,   1.68000,
,,,0.023960000000,   1.68000,
,,,0.023970000000,   1.68000,
,,,0.023980000000,   1.68000,
,,,0.023990000000,   1.68000,
,,,0.024000000000,   1.68000,
,,,0.024010000000,   1.68000,
,,,0.024020000000,   1.68000,
,,,0.024030000000,   1.68000,
,,,0.024040000000,   1.68000,
,,,0.024050000000,   1.68000,
,,,0.024060000000,   1.68000,
,,,0.024070000000,   1.68000,
,,,0.024080000000,   1.68000,
,,,0.024090000000,   1.68000,
,,,0.024100000000,   1.68000,
,,,0.024110000000,   1.68000,
,,,0.024120000000,   1.68000,
,,,0.024130000000,   1.68000,
,,,0.024140000000,   1.68000,
,,,0.024150000000,   1.68000,
,,,0.024160000000,   1.68000,
,,,0.024170000000,   1.68000,
,,,0.024180000000,   1.68000,
,,,0.024190000000,   1.68000,
,,,0.024200000000,   1.68000,
,,,0.024210000000,   1.68000,
,,,0.024220000000,   1.68000,
,,,0.024230000000,   1.68000,
,,,0.024240000000,   1.68000,
,,,0.024250000000,   1.68000,
,,,0.024260000000,   1.68000,
,,,0.024270000000,   1.68000,
,,,0.024280000000,   1.68000,
,,,0.024290000000,   1.68000,
,,,0.024300000000,   1.68000,
,,,0.024310000000,   1.68000,
,,,0.024320000000,   1.68000,
,,,0.024330000000,   1.68000,
,,,0.024340000000,   1.68000,
,,,0.024350000000,   1.68000,
,,,0.024360000000,   1.68000,
,,,0.024370000000,   1.68000,
,,,0.024380000000,   1.68000,
,,,0.024390000000,   1.68000,
,,,0.024400000000,   1.68000,
,,,0.024410000000,   1.68000,
,,,0.024420000000,   1.68000,
,,,0.024430000000,   1.68000,
,,,0.024440000000,   1.68000,
,,,0.024450000000,   1.68000,
,,,0.024460000000,   1.68000,
,,,0.024470000000,   1.68000,
,,,0.024480000000,   1.68000,
,,,0.024490000000,   1.68000,
,,,0.024500000000,   1.68000,
,,,0.024510000000,   1.68000,
,,,0.024520000000,   1.68000,
,,,0.024530000000,   1.68000,
,,,0.024540000000,   1.68000,
,,,0.024550000000,   1.68000,
,,,0.024560000000,   1.68000,
,,,0.024570000000,   1.68000,
,,,0.024580000000,   1.68000,
,,,0.024590000000,   1.68000,
,,,0.024600000000,   1.68000,
,,,0.024610000000,   1.68000,
,,,0.024620000000,   1.68000,
,,,0.024630000000,   1.68000,
,,,0.024640000000,   1.68000,
,,,0.024650000000,   1.68000,
,,,0.024660000000,   1.68000,
,,,0.024670000000,   1.68000,
,,,0.024680000000,   1.68000,
,,,0.024690000000,   1.68000,
,,,0.024700000000,   1.68000,
,,,0.024710000000,   1.68000,
,,,0.024720000000,   1.68000,
,,,0.024730000000,   1.68000,
,,,0.024740000000,   1.68000,
,,,0.024750000000,   1.68000,
,,,0.024760000000,   1.68000,
,,,0.024770000000,   1.68000,
,,,0.024780000000,   1.68000,
,,,0.024790000000,   1.68000,
,,,0.024800000000,   1.68000,
,,,0.024810000000,   1.68000,
,,,0.024820000000,   1.68000,
,,,0.024830000000,   1.68000,
,,,0.024840000000,   1.68000,
,,,0.024850000000,   1.68000,
,,,0.024860000000,   1.68000,
,,,0.024870000000,   1.68000,
,,,0.024880000000,   1.68000,
,,,0.024890000000,   1.68000,
,,,0.024900000000,   1.68000,
,,,0.024910000000,   1.68000,
,,,0.024920000000,   1.68000,
,,,0.024930000000,   1.68000,
,,,0.024940000000,   1.68000,
,,,0.024950000000,   1.68000,
,,,0.024960000000,   1.68000,
,,,0.024970000000,   1.68000,
,,,0.024980000000,   1.68000,
,,,0.024990000000,   1.68000,
