\relax 
\select@language{italian}
\@writefile{toc}{\select@language{italian}}
\@writefile{lof}{\select@language{italian}}
\@writefile{lot}{\select@language{italian}}
\select@language{italian}
\@writefile{toc}{\select@language{italian}}
\@writefile{lof}{\select@language{italian}}
\@writefile{lot}{\select@language{italian}}
\@writefile{toc}{\contentsline {section}{\numberline {1}Obiettivi dell'esperienza}{1}}
\@writefile{toc}{\contentsline {section}{\numberline {2}Descrizione dell'apparato sperimentale}{1}}
\@writefile{lof}{\contentsline {figure}{\numberline {1}{\ignorespaces  Schema dello spettrometro di diffrazione\relax }}{2}}
\providecommand*\caption@xref[2]{\@setref\relax\@undefined{#1}}
\newlabel{im:app}{{1}{2}}
\@writefile{toc}{\contentsline {section}{\numberline {3}Cenni teorici}{2}}
\newlabel{eq:cauchy}{{1}{3}}
\@writefile{lof}{\contentsline {figure}{\numberline {2}{\ignorespaces  Schema diffrazione nel prisma\relax }}{3}}
\newlabel{im:prisma}{{2}{3}}
\newlabel{eq:n1}{{2}{4}}
\newlabel{eq:nfin}{{3}{4}}
\@writefile{toc}{\contentsline {section}{\numberline {4}Procedura sperimentale}{5}}
\@writefile{toc}{\contentsline {section}{\numberline {5}Analisi dati}{6}}
\@writefile{lot}{\contentsline {table}{\numberline {1}{\ignorespaces  Misure angoli di minima deflessione campione 1\relax }}{6}}
\newlabel{tab:datiJ1}{{1}{6}}
\@writefile{lot}{\contentsline {table}{\numberline {2}{\ignorespaces  Misure angoli di minima deflessione campione 2\relax }}{6}}
\newlabel{tab:datiJ2}{{2}{6}}
\@writefile{lot}{\contentsline {table}{\numberline {3}{\ignorespaces  Angoli di minima deflessione campione 1\relax }}{7}}
\newlabel{tab:J1}{{3}{7}}
\@writefile{lot}{\contentsline {table}{\numberline {4}{\ignorespaces  Angoli di minima deflessione campione 2\relax }}{7}}
\newlabel{tab:J2}{{4}{7}}
\@writefile{lot}{\contentsline {table}{\numberline {5}{\ignorespaces  Misure posizioni di riflessione campione 1\relax }}{7}}
\newlabel{tab:alfa1}{{5}{7}}
\@writefile{lot}{\contentsline {table}{\numberline {6}{\ignorespaces  Misure posizioni di riflessione campione 2\relax }}{7}}
\newlabel{tab:alfa2}{{6}{7}}
\@writefile{lot}{\contentsline {table}{\numberline {7}{\ignorespaces  Indici di rifrazione campione 1\relax }}{9}}
\newlabel{tab:n1}{{7}{9}}
\@writefile{lot}{\contentsline {table}{\numberline {8}{\ignorespaces  Indici di rifrazione campione 2\relax }}{9}}
\newlabel{tab:n2}{{8}{9}}
\@writefile{lot}{\contentsline {table}{\numberline {9}{\ignorespaces  Risultati interpolazione lineare campione 1\relax }}{9}}
\newlabel{tab:fitlin1}{{9}{9}}
\@writefile{lot}{\contentsline {table}{\numberline {10}{\ignorespaces  Risultati interpolazione lineare campione 2\relax }}{9}}
\newlabel{tab:fitlin2}{{10}{9}}
\@writefile{lot}{\contentsline {table}{\numberline {11}{\ignorespaces  Risultati fit con errore a posteriori campione 1\relax }}{10}}
\newlabel{tab:fitlincorr1}{{11}{10}}
\@writefile{lot}{\contentsline {table}{\numberline {12}{\ignorespaces  Risultati fit con errore a posteriori campione 2\relax }}{10}}
\newlabel{tab:fitlincorr2}{{12}{10}}
\@writefile{lof}{\contentsline {figure}{\numberline {3}{\ignorespaces  Fit lineare stima dei parametri campione 1\relax }}{11}}
\newlabel{im:fit1}{{3}{11}}
\@writefile{lof}{\contentsline {figure}{\numberline {4}{\ignorespaces  Fit lineare stima dei parametri campione 2\relax }}{11}}
\newlabel{im:fit2}{{4}{11}}
\@writefile{lof}{\contentsline {figure}{\numberline {5}{\ignorespaces  Curva di dispersione campione 1\relax }}{12}}
\newlabel{im:fitcauchy1}{{5}{12}}
\@writefile{lof}{\contentsline {figure}{\numberline {6}{\ignorespaces  Curva di dispersione campione 2\relax }}{12}}
\newlabel{im:fitcauchy2}{{6}{12}}
\@writefile{toc}{\contentsline {section}{\numberline {6}Conclusioni}{13}}
\@writefile{lot}{\contentsline {table}{\numberline {13}{\ignorespaces  Valori finali indici di rifrazione $n(\lambda )$\relax }}{13}}
\newlabel{tab:cipolla}{{13}{13}}
\@writefile{lof}{\contentsline {figure}{\numberline {7}{\ignorespaces  Curva di dispersione del materiale\relax }}{14}}
\newlabel{im:kurwa}{{7}{14}}
