\relax 
\providecommand\hyper@newdestlabel[2]{}
\providecommand\HyperFirstAtBeginDocument{\AtBeginDocument}
\HyperFirstAtBeginDocument{\ifx\hyper@anchor\@undefined
\global\let\oldcontentsline\contentsline
\gdef\contentsline#1#2#3#4{\oldcontentsline{#1}{#2}{#3}}
\global\let\oldnewlabel\newlabel
\gdef\newlabel#1#2{\newlabelxx{#1}#2}
\gdef\newlabelxx#1#2#3#4#5#6{\oldnewlabel{#1}{{#2}{#3}}}
\AtEndDocument{\ifx\hyper@anchor\@undefined
\let\contentsline\oldcontentsline
\let\newlabel\oldnewlabel
\fi}
\fi}
\global\let\hyper@last\relax 
\gdef\HyperFirstAtBeginDocument#1{#1}
\providecommand\HyField@AuxAddToFields[1]{}
\providecommand\HyField@AuxAddToCoFields[2]{}
\select@language{italian}
\@writefile{toc}{\select@language{italian}}
\@writefile{lof}{\select@language{italian}}
\@writefile{lot}{\select@language{italian}}
\select@language{italian}
\@writefile{toc}{\select@language{italian}}
\@writefile{lof}{\select@language{italian}}
\@writefile{lot}{\select@language{italian}}
\@writefile{toc}{\contentsline {section}{\numberline {1}Obiettivi dell'esperienza}{1}{section.1}}
\@writefile{toc}{\contentsline {section}{\numberline {2}Analisi dati}{1}{section.2}}
\@writefile{toc}{\contentsline {subsection}{\numberline {2.1}Calibrazione in energia del rivelatore}{1}{subsection.2.1}}
\@writefile{lot}{\contentsline {table}{\numberline {1}{\ignorespaces Valori energetici gamma emessi dalle sorgenti $^{60}$Co e $^{22}$Na\relax }}{1}{table.caption.1}}
\providecommand*\caption@xref[2]{\@setref\relax\@undefined{#1}}
\newlabel{tab:CoNa}{{1}{1}{Valori energetici gamma emessi dalle sorgenti $^{60}$Co e $^{22}$Na\relax }{table.caption.1}{}}
\@writefile{lof}{\contentsline {figure}{\numberline {1}{\ignorespaces Spettro energetico $^{60}$Co \relax }}{2}{figure.1}}
\newlabel{fig:Co}{{1}{2}{Spettro energetico $^{60}$Co \relax }{figure.1}{}}
\@writefile{lof}{\contentsline {figure}{\numberline {2}{\ignorespaces Spettro energetico $^{22}$Na\relax }}{2}{figure.2}}
\newlabel{fig:Na}{{2}{2}{Spettro energetico $^{22}$Na\relax }{figure.2}{}}
\@writefile{lof}{\contentsline {figure}{\numberline {3}{\ignorespaces Fit gaussiano picco $\gamma _{1,0}$(Ni) del $^{60}$Co \relax }}{2}{figure.3}}
\newlabel{fig:Cofit}{{3}{2}{Fit gaussiano picco $\gamma _{1,0}$(Ni) del $^{60}$Co \relax }{figure.3}{}}
\@writefile{lof}{\contentsline {figure}{\numberline {4}{\ignorespaces Fit gaussiano picco $\gamma _{1,0}$(Ne) del $^{22}$Na\relax }}{2}{figure.4}}
\newlabel{fig:Nafit}{{4}{2}{Fit gaussiano picco $\gamma _{1,0}$(Ne) del $^{22}$Na\relax }{figure.4}{}}
\@writefile{lot}{\contentsline {table}{\numberline {2}{\ignorespaces Valori fit lineare per la calibrazione\relax }}{2}{table.caption.2}}
\newlabel{tab:calib}{{2}{2}{Valori fit lineare per la calibrazione\relax }{table.caption.2}{}}
\@writefile{lof}{\contentsline {figure}{\numberline {5}{\ignorespaces Fit lineare di calibrazione \relax }}{3}{figure.5}}
\newlabel{fig:calibline}{{5}{3}{Fit lineare di calibrazione \relax }{figure.5}{}}
\@writefile{lof}{\contentsline {figure}{\numberline {6}{\ignorespaces Grafico dei residui fit calibrazione\relax }}{3}{figure.6}}
\newlabel{fig:calibres}{{6}{3}{Grafico dei residui fit calibrazione\relax }{figure.6}{}}
\@writefile{lof}{\contentsline {figure}{\numberline {7}{\ignorespaces Fit lineare di calibrazione non pesato\relax }}{3}{figure.7}}
\newlabel{fig:caliblineunw}{{7}{3}{Fit lineare di calibrazione non pesato\relax }{figure.7}{}}
\@writefile{lof}{\contentsline {figure}{\numberline {8}{\ignorespaces residui fit di calibrazione con errore a posteriori\relax }}{3}{figure.8}}
\newlabel{fig:calibresunw}{{8}{3}{residui fit di calibrazione con errore a posteriori\relax }{figure.8}{}}
\@writefile{toc}{\contentsline {subsection}{\numberline {2.2}Riconoscimento emissioni $\gamma $ del $^{137}$Cs e $^{152}$Eu}{3}{subsection.2.2}}
\@writefile{lof}{\contentsline {figure}{\numberline {9}{\ignorespaces Spettro energetico $^{137}$Cs\relax }}{4}{figure.9}}
\newlabel{fig:Cs}{{9}{4}{Spettro energetico $^{137}$Cs\relax }{figure.9}{}}
\@writefile{lof}{\contentsline {figure}{\numberline {10}{\ignorespaces Spettro energetico $^{152}$Eu\relax }}{4}{figure.10}}
\newlabel{fig:Eu}{{10}{4}{Spettro energetico $^{152}$Eu\relax }{figure.10}{}}
\@writefile{lot}{\contentsline {table}{\numberline {3}{\ignorespaces Valori energetici gamma emessi dalle sorgenti $^{137}$Cs e $^{152}$Eu\relax }}{4}{table.caption.3}}
\newlabel{tab:CsEu}{{3}{4}{Valori energetici gamma emessi dalle sorgenti $^{137}$Cs e $^{152}$Eu\relax }{table.caption.3}{}}
\@writefile{lot}{\contentsline {table}{\numberline {4}{\ignorespaces Valori energetici gamma emessi dalle sorgenti $^{137}$Cs e $^{152}$Eu ottenuti dalla calibrazione e compatibilit\IeC {\`a} con i valori tabulati\relax }}{5}{table.caption.4}}
\newlabel{tab:CsEucomp}{{4}{5}{Valori energetici gamma emessi dalle sorgenti $^{137}$Cs e $^{152}$Eu ottenuti dalla calibrazione e compatibilità con i valori tabulati\relax }{table.caption.4}{}}
\@writefile{toc}{\contentsline {subsection}{\numberline {2.3}Stima dell'efficienza di fotopicco}{5}{subsection.2.3}}
\@writefile{lot}{\contentsline {table}{\numberline {5}{\ignorespaces Valori utili per lo studio del $^{40}$K e del KCl\relax }}{5}{table.5}}
\newlabel{tab:K}{{5}{5}{Valori utili per lo studio del $^{40}$K e del KCl\relax }{table.5}{}}
\@writefile{lof}{\contentsline {figure}{\numberline {11}{\ignorespaces Schema di decadimento del $^{40}$K\relax }}{5}{figure.11}}
\newlabel{fig:K40}{{11}{5}{Schema di decadimento del $^{40}$K\relax }{figure.11}{}}
\@writefile{lof}{\contentsline {figure}{\numberline {12}{\ignorespaces Spettro energetico fondo ambientale\relax }}{6}{figure.12}}
\newlabel{fig:bkg}{{12}{6}{Spettro energetico fondo ambientale\relax }{figure.12}{}}
\@writefile{lot}{\contentsline {table}{\numberline {6}{\ignorespaces Posizioni centroidi spettro di fondo e KCl\relax }}{6}{table.6}}
\newlabel{tab:net}{{6}{6}{Posizioni centroidi spettro di fondo e KCl\relax }{table.6}{}}
\@writefile{lof}{\contentsline {figure}{\numberline {13}{\ignorespaces Spettro netto del KCl$^{(1)}$\relax }}{6}{figure.13}}
\newlabel{fig:KCl1}{{13}{6}{Spettro netto del KCl$^{(1)}$\relax }{figure.13}{}}
\@writefile{lof}{\contentsline {figure}{\numberline {14}{\ignorespaces Spettro netto del KCl$^{(2)}$\relax }}{6}{figure.14}}
\newlabel{fig:KCl2}{{14}{6}{Spettro netto del KCl$^{(2)}$\relax }{figure.14}{}}
\@writefile{lot}{\contentsline {table}{\numberline {7}{\ignorespaces Risultati efficienza dei due campioni di KCl\relax }}{6}{table.7}}
\newlabel{tab:eff}{{7}{6}{Risultati efficienza dei due campioni di KCl\relax }{table.7}{}}
\@writefile{toc}{\contentsline {subsection}{\numberline {2.4}Stima della quantit\IeC {\`a} di potassio nella cioccolata fondente}{7}{subsection.2.4}}
\@writefile{lof}{\contentsline {figure}{\numberline {15}{\ignorespaces Spettro energetico netto cioccolata \relax }}{7}{figure.15}}
\newlabel{fig:choco}{{15}{7}{Spettro energetico netto cioccolata \relax }{figure.15}{}}
\@writefile{lot}{\contentsline {table}{\numberline {8}{\ignorespaces Risultati campione di cioccolata\relax }}{7}{table.8}}
\newlabel{tab:choco}{{8}{7}{Risultati campione di cioccolata\relax }{table.8}{}}
\@writefile{toc}{\contentsline {subsection}{\numberline {2.5}Misure in coincidenza con $^{60}$Co e stima della risoluzione temporale}{7}{subsection.2.5}}
\@writefile{lof}{\contentsline {figure}{\numberline {16}{\ignorespaces Spettro energetico misure in coincidenza rivelatore A\relax }}{8}{figure.16}}
\newlabel{fig:coinc0}{{16}{8}{Spettro energetico misure in coincidenza rivelatore A\relax }{figure.16}{}}
\@writefile{lof}{\contentsline {figure}{\numberline {17}{\ignorespaces Spettro energetico misure in coincidenza rivelatore B\relax }}{8}{figure.17}}
\newlabel{fig:coinc1}{{17}{8}{Spettro energetico misure in coincidenza rivelatore B\relax }{figure.17}{}}
\@writefile{lof}{\contentsline {figure}{\numberline {18}{\ignorespaces Segnali nei canali A e B coi colori corrispondenti allo stesso evento in coincidenza\relax }}{8}{figure.18}}
\newlabel{fig:sgn}{{18}{8}{Segnali nei canali A e B coi colori corrispondenti allo stesso evento in coincidenza\relax }{figure.18}{}}
\@writefile{lof}{\contentsline {figure}{\numberline {19}{\ignorespaces Spettri energetici A e B in coincidenza con il fotopicco a 1332 keV\relax }}{9}{figure.19}}
\newlabel{fig:coincpicchi}{{19}{9}{Spettri energetici A e B in coincidenza con il fotopicco a 1332 keV\relax }{figure.19}{}}
\@writefile{lof}{\contentsline {figure}{\numberline {20}{\ignorespaces Bidimensionale $E_\gamma ^A$ vs $E_\gamma ^B$\relax }}{9}{figure.20}}
\newlabel{fig:bidim}{{20}{9}{Bidimensionale $E_\gamma ^A$ vs $E_\gamma ^B$\relax }{figure.20}{}}
\@writefile{lof}{\contentsline {figure}{\numberline {21}{\ignorespaces Istogramma differenze di tempo $\Delta t$ di tutti gli eventi in coincidenza\relax }}{10}{figure.21}}
\newlabel{fig:difftot}{{21}{10}{Istogramma differenze di tempo $\Delta t$ di tutti gli eventi in coincidenza\relax }{figure.21}{}}
\@writefile{lof}{\contentsline {figure}{\numberline {22}{\ignorespaces Istogramma differenze di tempo $\Delta t$ relativi ai gamma caratteristici dello stesso nucleo : a sinistra i fotoni $\gamma _{3,1}$(Ni) in A e $\gamma _{1,0}$(Ni) in B, a destra il viceversa\relax }}{10}{figure.22}}
\newlabel{fig:diffsing}{{22}{10}{Istogramma differenze di tempo $\Delta t$ relativi ai gamma caratteristici dello stesso nucleo : a sinistra i fotoni $\gamma _{3,1}$(Ni) in A e $\gamma _{1,0}$(Ni) in B, a destra il viceversa\relax }{figure.22}{}}
\@writefile{toc}{\contentsline {section}{\numberline {3}Conclusioni}{10}{section.3}}
