1.022	0.003168180339985	1.01390E-03	6.57752652192803E-07
2.03	0.005972785503152	1.06790E-03	6.75737291753731E-07
3.016	0.008782679925095	1.08000E-03	6.79827429082803E-07
4.027	0.011682154838328	1.08800E-03	6.8254332219037E-07
5.006	0.014497136498863	1.09370E-03	6.84483990949874E-07
6.001	0.017361835780431	1.09860E-03	6.86155972161821E-07
7.03	0.023348965002044	1.10370E-03	6.8789978960117E-07
8.02	0.025871541636839	1.10890E-03	6.8968154351604E-07
9.02	0.028483972101283	1.11370E-03	6.91329569645814E-07
10	0.031091263510296	1.11760E-03	6.92670928700394E-07
11	0.033788558221189	1.12220E-03	6.94255720802261E-07
