\relax 
\providecommand\hyper@newdestlabel[2]{}
\providecommand\HyperFirstAtBeginDocument{\AtBeginDocument}
\HyperFirstAtBeginDocument{\ifx\hyper@anchor\@undefined
\global\let\oldcontentsline\contentsline
\gdef\contentsline#1#2#3#4{\oldcontentsline{#1}{#2}{#3}}
\global\let\oldnewlabel\newlabel
\gdef\newlabel#1#2{\newlabelxx{#1}#2}
\gdef\newlabelxx#1#2#3#4#5#6{\oldnewlabel{#1}{{#2}{#3}}}
\AtEndDocument{\ifx\hyper@anchor\@undefined
\let\contentsline\oldcontentsline
\let\newlabel\oldnewlabel
\fi}
\fi}
\global\let\hyper@last\relax 
\gdef\HyperFirstAtBeginDocument#1{#1}
\providecommand\HyField@AuxAddToFields[1]{}
\providecommand\HyField@AuxAddToCoFields[2]{}
\select@language{italian}
\@writefile{toc}{\select@language{italian}}
\@writefile{lof}{\select@language{italian}}
\@writefile{lot}{\select@language{italian}}
\select@language{italian}
\@writefile{toc}{\select@language{italian}}
\@writefile{lof}{\select@language{italian}}
\@writefile{lot}{\select@language{italian}}
\@writefile{toc}{\contentsline {section}{\numberline {1}Obiettivo dell'esperienza}{1}{section.1}}
\@writefile{toc}{\contentsline {section}{\numberline {2}Strumentazione e materiale utilizzato}{1}{section.2}}
\@writefile{toc}{\contentsline {section}{\numberline {3}Analisi Dati}{1}{section.3}}
\@writefile{toc}{\contentsline {subsection}{\numberline {3.1}Caratterizzazione del transistor nel punto di lavoro}{1}{subsection.3.1}}
\newlabel{Qpt}{{3.1}{1}{Caratterizzazione del transistor nel punto di lavoro}{subsection.3.1}{}}
\@writefile{toc}{\contentsline {subsubsection}{\numberline {3.1.1}Determinazione sperimentale del punto di lavoro}{1}{subsubsection.3.1.1}}
\@writefile{lot}{\contentsline {table}{\numberline {1}{\ignorespaces Coordinate del punto di lavoro misurato\relax }}{2}{table.1}}
\newlabel{tab:Qpt}{{1}{2}{Coordinate del punto di lavoro misurato\relax }{table.1}{}}
\@writefile{lof}{\contentsline {figure}{\numberline {1}{\ignorespaces Circuito per determinare i parametri di M1\relax }}{2}{figure.1}}
\newlabel{circ:1}{{1}{2}{Circuito per determinare i parametri di M1\relax }{figure.1}{}}
\@writefile{toc}{\contentsline {subsubsection}{\numberline {3.1.2}Determinazione sperimentale dei parametri del transistor}{2}{subsubsection.3.1.2}}
\newlabel{eq:Id}{{1}{2}{Determinazione sperimentale dei parametri del transistor}{equation.3.1}{}}
\@writefile{lot}{\contentsline {table}{\numberline {2}{\ignorespaces Dati curva caratteristica $I_D$ vs. $V_\mathit  {DS}$\relax }}{2}{table.caption.1}}
\providecommand*\caption@xref[2]{\@setref\relax\@undefined{#1}}
\newlabel{tab:1.2}{{2}{2}{Dati curva caratteristica $I_D$ vs. $V_\mathit {DS}$\relax }{table.caption.1}{}}
\@writefile{lof}{\contentsline {figure}{\numberline {2}{\ignorespaces  Fit lineare pesato (a) e non pesato (b) curva caratteristica $I_D(V_\mathit  {DS})$ di M1 con residui\relax }}{3}{figure.caption.2}}
\newlabel{graf:1.2}{{2}{3}{Fit lineare pesato (a) e non pesato (b) curva caratteristica $I_D(V_\mathit {DS})$ di M1 con residui\relax }{figure.caption.2}{}}
\@writefile{lot}{\contentsline {table}{\numberline {3}{\ignorespaces Dati curva caratteristica $I_D$ vs. $V_\mathit  {GS}$\relax }}{4}{table.caption.3}}
\newlabel{tab:1.3}{{3}{4}{Dati curva caratteristica $I_D$ vs. $V_\mathit {GS}$\relax }{table.caption.3}{}}
\@writefile{lof}{\contentsline {figure}{\numberline {3}{\ignorespaces  Fit lineare pesato (a) e non pesato (b) curva caratteristica $I_D(V_\mathit  {GS})$ di M1\relax }}{4}{figure.caption.4}}
\newlabel{graf:1.3}{{3}{4}{Fit lineare pesato (a) e non pesato (b) curva caratteristica $I_D(V_\mathit {GS})$ di M1\relax }{figure.caption.4}{}}
\newlabel{gmconId}{{2}{4}{Determinazione sperimentale dei parametri del transistor}{equation.3.2}{}}
\@writefile{toc}{\contentsline {subsection}{\numberline {3.2}Studio di un nMOS in conduzione e saturazione}{4}{subsection.3.2}}
\@writefile{toc}{\contentsline {subsubsection}{\numberline {3.2.1}Studio di un inverter nMOS}{4}{subsubsection.3.2.1}}
\@writefile{lof}{\contentsline {figure}{\numberline {4}{\ignorespaces  Confronto dati sperimentali e simulazione SPICE curve $I_D(V_\mathit  {GS})$ e$I_D(V_\mathit  {DS})$ di M1\relax }}{5}{figure.caption.5}}
\newlabel{graf:1spice}{{4}{5}{Confronto dati sperimentali e simulazione SPICE curve $I_D(V_\mathit {GS})$ e$I_D(V_\mathit {DS})$ di M1\relax }{figure.caption.5}{}}
\@writefile{lof}{\contentsline {figure}{\numberline {5}{\ignorespaces  Tabella di verit\IeC {\`a} inverter nMOS\relax }}{5}{figure.caption.5}}
\newlabel{verit\IeC {\`a}}{{5}{5}{Tabella di verità inverter nMOS\relax }{figure.caption.5}{}}
\@writefile{lof}{\contentsline {figure}{\numberline {6}{\ignorespaces Valori tensione circuito inverter nMOS\relax }}{5}{figure.caption.5}}
\newlabel{tab:2.1}{{6}{5}{Valori tensione circuito inverter nMOS\relax }{figure.caption.5}{}}
\@writefile{lof}{\contentsline {figure}{\numberline {7}{\ignorespaces Circuito inverter nMOS\relax }}{5}{figure.7}}
\newlabel{circ:2.1}{{7}{5}{Circuito inverter nMOS\relax }{figure.7}{}}
\@writefile{lof}{\contentsline {figure}{\numberline {8}{\ignorespaces Circuito amplificatore di tensione\relax }}{5}{figure.8}}
\newlabel{circ:2.2}{{8}{5}{Circuito amplificatore di tensione\relax }{figure.8}{}}
\@writefile{toc}{\contentsline {subsubsection}{\numberline {3.2.2}Studio di un nMOS in saturazione}{6}{subsubsection.3.2.2}}
\@writefile{lot}{\contentsline {table}{\numberline {4}{\ignorespaces  Misure circuito nMOS in saturazione\relax }}{6}{table.caption.6}}
\newlabel{tab:2.2}{{4}{6}{Misure circuito nMOS in saturazione\relax }{table.caption.6}{}}
\@writefile{lot}{\contentsline {table}{\numberline {5}{\ignorespaces  Valori sperimentali di voltaggio e amplificazione\relax }}{6}{table.caption.6}}
\newlabel{tab:2.2.2}{{5}{6}{Valori sperimentali di voltaggio e amplificazione\relax }{table.caption.6}{}}
\newlabel{Asper}{{3}{6}{Studio di un nMOS in saturazione}{equation.3.3}{}}
\newlabel{piccolo}{{4}{6}{Studio di un nMOS in saturazione}{equation.3.4}{}}
\newlabel{eq:gm_ro}{{5}{6}{Studio di un nMOS in saturazione}{equation.3.5}{}}
\newlabel{Ath}{{9}{6}{Studio di un nMOS in saturazione}{equation.3.9}{}}
\@writefile{lof}{\contentsline {figure}{\numberline {9}{\ignorespaces  Simulazione SPICE amplificatore nMOS in saturazione\relax }}{7}{figure.caption.7}}
\newlabel{graf:2.2spice}{{9}{7}{Simulazione SPICE amplificatore nMOS in saturazione\relax }{figure.caption.7}{}}
\@writefile{lof}{\contentsline {figure}{\numberline {10}{\ignorespaces Valori del $Q_\mathit  {pt}$ misurati e simulati\relax }}{7}{figure.caption.7}}
\newlabel{tab:2.2spiceqpt}{{10}{7}{Valori del $Q_\mathit {pt}$ misurati e simulati\relax }{figure.caption.7}{}}
\@writefile{toc}{\contentsline {subsection}{\numberline {3.3}Studio di un amplificatore common-source (CS)}{7}{subsection.3.3}}
\newlabel{CS}{{3.3}{7}{Studio di un amplificatore common-source (CS)}{subsection.3.3}{}}
\@writefile{toc}{\contentsline {subsubsection}{\numberline {3.3.1}Configurazione con capacit\IeC {\`a} di bypass}{7}{subsubsection.3.3.1}}
\@writefile{lof}{\contentsline {figure}{\numberline {11}{\ignorespaces Amplificatore common-source con bypass\relax }}{8}{figure.11}}
\newlabel{circ:3.1}{{11}{8}{Amplificatore common-source con bypass\relax }{figure.11}{}}
\@writefile{lof}{\contentsline {figure}{\numberline {12}{\ignorespaces Amplificatore common-drain\relax }}{8}{figure.12}}
\newlabel{circ:CD}{{12}{8}{Amplificatore common-drain\relax }{figure.12}{}}
\@writefile{lot}{\contentsline {table}{\numberline {6}{\ignorespaces Componenti circuiti del paragrafo \ref  {CS}\relax }}{8}{table.caption.8}}
\newlabel{tab:3.1comp}{{6}{8}{Componenti circuiti del paragrafo \ref {CS}\relax }{table.caption.8}{}}
\@writefile{lot}{\contentsline {table}{\numberline {7}{\ignorespaces  Valori misurati di tensione del paragrafo \ref  {CS}\relax }}{8}{table.caption.8}}
\newlabel{tab:3.1tensioni}{{7}{8}{Valori misurati di tensione del paragrafo \ref {CS}\relax }{table.caption.8}{}}
\@writefile{lof}{\contentsline {figure}{\numberline {13}{\ignorespaces  Simulazione SPICE amplificatore CS con capacit\IeC {\`a} di bypass\relax }}{9}{figure.caption.9}}
\newlabel{graf:3.1spice}{{13}{9}{Simulazione SPICE amplificatore CS con capacità di bypass\relax }{figure.caption.9}{}}
\newlabel{Rout}{{10}{9}{Configurazione con capacità di bypass}{equation.3.10}{}}
\@writefile{toc}{\contentsline {subsubsection}{\numberline {3.3.2}Configurazione senza capacit\IeC {\`a} di bypass}{9}{subsubsection.3.3.2}}
\newlabel{noby}{{3.3.2}{9}{Configurazione senza capacità di bypass}{subsubsection.3.3.2}{}}
\@writefile{lof}{\contentsline {figure}{\numberline {14}{\ignorespaces  Simulazione SPICE amplificatore CS senza bypass e CD\relax }}{10}{figure.caption.10}}
\newlabel{graf:CSnobyCD}{{14}{10}{Simulazione SPICE amplificatore CS senza bypass e CD\relax }{figure.caption.10}{}}
\@writefile{toc}{\contentsline {subsubsection}{\numberline {3.3.3}Configurazione common-drain}{10}{subsubsection.3.3.3}}
\newlabel{CD}{{3.3.3}{10}{Configurazione common-drain}{subsubsection.3.3.3}{}}
\@writefile{toc}{\contentsline {subsubsection}{\numberline {3.3.4}Misura della banda passante del CS}{10}{subsubsection.3.3.4}}
\@writefile{lot}{\contentsline {table}{\numberline {8}{\ignorespaces  Dati misura della banda passante\relax }}{11}{table.caption.11}}
\newlabel{tab:bandadossi}{{8}{11}{Dati misura della banda passante\relax }{table.caption.11}{}}
\@writefile{lof}{\contentsline {figure}{\numberline {15}{\ignorespaces  Simulazione SPICE banda passante\relax }}{12}{figure.caption.12}}
\newlabel{graf:bandadossi}{{15}{12}{Simulazione SPICE banda passante\relax }{figure.caption.12}{}}
\@writefile{toc}{\contentsline {subsection}{\numberline {3.4}Studio di un amplificatore differenziale con due nMOS}{12}{subsection.3.4}}
\@writefile{lot}{\contentsline {table}{\numberline {9}{\ignorespaces Valori misurati amplificatore differenziale con due nMOS\relax }}{13}{table.9}}
\newlabel{tab:4.1}{{9}{13}{Valori misurati amplificatore differenziale con due nMOS\relax }{table.9}{}}
\@writefile{lof}{\contentsline {figure}{\numberline {16}{\ignorespaces Circuito amplificatore differenziale con due nMOS\relax }}{13}{figure.16}}
\newlabel{circ:4.1}{{16}{13}{Circuito amplificatore differenziale con due nMOS\relax }{figure.16}{}}
\@writefile{lot}{\contentsline {table}{\numberline {10}{\ignorespaces Misure in modo differenziale con l'ingresso $v_2$ a massa\relax }}{14}{table.caption.13}}
\newlabel{tab:4.2}{{10}{14}{Misure in modo differenziale con l'ingresso $v_2$ a massa\relax }{table.caption.13}{}}
\@writefile{lot}{\contentsline {table}{\numberline {11}{\ignorespaces Misure in modo differenziale con l'ingresso $v_1$ a massa\relax }}{14}{table.caption.13}}
\newlabel{tab:4.3}{{11}{14}{Misure in modo differenziale con l'ingresso $v_1$ a massa\relax }{table.caption.13}{}}
\@writefile{lof}{\contentsline {figure}{\numberline {17}{\ignorespaces  Simulazione SPICE amplificatore differenziale\relax }}{14}{figure.caption.14}}
\newlabel{graf:4.1spice}{{17}{14}{Simulazione SPICE amplificatore differenziale\relax }{figure.caption.14}{}}
\@writefile{toc}{\contentsline {section}{\numberline {4}Conclusioni}{14}{section.4}}
