* C:\Program Files (x86)\LTC\LTspiceIV\OPAMP_3raddrizzatore.asc
VIN1 N003 0 SINE(0 5 1k)
R1 N002 V1 10k
R2 V2 N002 10k
R4 OUT N001 10k
R5 N001 V1 10k
D1 Voprimo N002 D
XU2 0 N001 Vcc Vee OUT LTC1151
XU1 0 N002 Vcc Vee Voprimo LTC1151
D2 V2 Voprimo D
R3 N001 V2 5k
Rg V1 N003 50
Vcc Vcc 0 +15
Vee Vee 0 -15
.model D D
.lib C:\Program Files (x86)\LTC\LTspiceIV\lib\cmp\standard.dio
.tran 0.002
.lib LTC.lib
.backanno
.end
