* C:\Program Files (x86)\LTC\LTspiceIV\OPAMP_2-2sommatoreinvertente.asc
R1b N002 V2 9.836k
R1 N002 V1 9.897k
Rf OUT N002 9.955k
R3b V2 0 46.83
Rg2 V2 N001 50
Vg2 N001 0 PULSE(1 -1 10m 1n 1n 10m 20m)
R3 V1 0 46.9
XU1 0 N002 Vcc Vee OUT LT1001
Vg1 N003 0 PULSE(-0.6 +0.6 5m 1n 1n 10m 20m)
Rg N003 V1 50
Vee Vee 0 -15
Vcc Vcc 0 +15
.tran 30m
.lib LTC.lib
.backanno
.end
