Version 4
SHEET 1 948 680
WIRE -272 -320 -384 -320
WIRE -80 -320 -192 -320
WIRE -16 -320 -80 -320
WIRE 272 -320 64 -320
WIRE -384 -256 -384 -320
WIRE -80 -224 -80 -320
WIRE -384 -144 -384 -176
WIRE -80 -112 -80 -144
WIRE -256 -32 -352 -32
WIRE 0 -32 -176 -32
WIRE 144 -32 0 -32
WIRE 272 -32 272 -320
WIRE 272 -32 224 -32
WIRE 304 -32 272 -32
WIRE 448 -32 384 -32
WIRE -352 16 -352 -32
WIRE 0 16 0 -32
WIRE 704 16 672 16
WIRE 864 16 784 16
WIRE 384 32 352 32
WIRE 352 64 352 32
WIRE 272 80 272 -32
WIRE 320 80 272 80
WIRE 448 96 448 -32
WIRE 448 96 384 96
WIRE 464 96 448 96
WIRE 864 96 864 16
WIRE 928 96 864 96
WIRE 320 112 272 112
WIRE 0 128 0 96
WIRE 928 128 928 96
WIRE -352 144 -352 96
WIRE 352 160 352 128
WIRE 384 160 352 160
WIRE 704 192 672 192
WIRE 864 192 864 96
WIRE 864 192 784 192
WIRE 272 288 272 112
FLAG -384 -144 0
FLAG -80 -112 0
FLAG 0 128 0
FLAG 464 96 OUT
FLAG -80 -320 V2
FLAG -352 144 0
FLAG 272 288 0
FLAG 0 -32 V1
FLAG 928 128 0
FLAG 672 16 Vcc
FLAG 672 192 Vee
FLAG 384 32 Vcc
FLAG 384 160 Vee
SYMBOL res 80 -336 R90
WINDOW 0 0 56 VBottom 2
WINDOW 3 32 56 VTop 2
SYMATTR InstName R1b
SYMATTR Value 9.836k
SYMBOL res 240 -48 R90
WINDOW 0 0 56 VBottom 2
WINDOW 3 32 56 VTop 2
SYMATTR InstName R1
SYMATTR Value 9.897k
SYMBOL res 400 -48 R90
WINDOW 0 0 56 VBottom 2
WINDOW 3 32 56 VTop 2
SYMATTR InstName Rf
SYMATTR Value 9.955k
SYMBOL res -96 -240 R0
SYMATTR InstName R3b
SYMATTR Value 46.83
SYMBOL res -176 -336 R90
WINDOW 0 0 56 VBottom 2
WINDOW 3 32 56 VTop 2
SYMATTR InstName Rg2
SYMATTR Value 50
SYMBOL voltage -384 -272 R0
WINDOW 123 0 0 Left 2
WINDOW 39 0 0 Left 2
WINDOW 3 -208 568 Left 2
SYMATTR Value PULSE(1 -1 10m 1n 1n 10m 20m)
SYMATTR InstName Vg2
SYMBOL res -16 0 R0
SYMATTR InstName R3
SYMATTR Value 46.9
SYMBOL Opamps\\LT1001A 352 32 R0
WINDOW 3 340 366 Left 2
SYMATTR InstName U1
SYMBOL voltage -352 0 R0
WINDOW 123 0 0 Left 2
WINDOW 39 0 0 Left 2
WINDOW 3 -269 261 Left 2
SYMATTR InstName Vg1
SYMATTR Value PULSE(-0.6 +0.6 5m 1n 1n 10m 20m)
SYMBOL res -272 -16 R270
WINDOW 0 32 56 VTop 2
WINDOW 3 0 56 VBottom 2
SYMATTR InstName Rg
SYMATTR Value 50
SYMBOL voltage 688 192 R270
WINDOW 0 32 56 VTop 2
WINDOW 3 -32 56 VBottom 2
SYMATTR InstName Vee
SYMATTR Value -15
SYMBOL voltage 688 16 R270
WINDOW 0 32 56 VTop 2
WINDOW 3 -32 56 VBottom 2
SYMATTR InstName Vcc
SYMATTR Value +15
TEXT -600 336 Left 2 !.tran 30m
