\relax 
\select@language{italian}
\@writefile{toc}{\select@language{italian}}
\@writefile{lof}{\select@language{italian}}
\@writefile{lot}{\select@language{italian}}
\select@language{italian}
\@writefile{toc}{\select@language{italian}}
\@writefile{lof}{\select@language{italian}}
\@writefile{lot}{\select@language{italian}}
\@writefile{toc}{\contentsline {section}{\numberline {1}Obiettivo dell'esperienza}{1}}
\@writefile{toc}{\contentsline {section}{\numberline {2}Descrizione dell'apparato sperimentale}{1}}
\@writefile{lot}{\contentsline {table}{\numberline {1}{\ignorespaces  Fluke 111\relax }}{2}}
\providecommand*\caption@xref[2]{\@setref\relax\@undefined{#1}}
\newlabel{tab:fluke}{{1}{2}}
\@writefile{lot}{\contentsline {table}{\numberline {2}{\ignorespaces  Agilent U1232A\relax }}{2}}
\newlabel{tab:Agilent U1232A}{{2}{2}}
\@writefile{toc}{\contentsline {section}{\numberline {3}Misure dirette di resistenza}{3}}
\@writefile{toc}{\contentsline {subsection}{\numberline {3.1}Procedura sperimentale}{3}}
\@writefile{toc}{\contentsline {subsection}{\numberline {3.2}Analisi dati}{3}}
\@writefile{lot}{\contentsline {table}{\numberline {3}{\ignorespaces  Misure dirette di resistenze\relax }}{3}}
\newlabel{tab:datiRdir}{{3}{3}}
\newlabel{eq:delta}{{1}{3}}
\@writefile{lot}{\contentsline {table}{\numberline {4}{\ignorespaces  Misure dirette di resistenze\relax }}{4}}
\newlabel{tab:datiRdir2}{{4}{4}}
\newlabel{eq:propsolita}{{3}{4}}
\@writefile{lof}{\contentsline {figure}{\numberline {1}{\ignorespaces  Schema del circuito\relax }}{7}}
\newlabel{im:circuito}{{1}{7}}
\@writefile{toc}{\contentsline {section}{\numberline {4}Misure voltamperometriche di una resistenza}{7}}
\@writefile{toc}{\contentsline {subsection}{\numberline {4.1}Procedura sperimentale}{7}}
\@writefile{lot}{\contentsline {table}{\numberline {5}{\ignorespaces  Valori circuito per misura a $R_C$ massima\relax }}{8}}
\newlabel{tab:misuracost}{{5}{8}}
\@writefile{toc}{\contentsline {subsection}{\numberline {4.2}Analisi dati}{8}}
\newlabel{eq:propsolitaV}{{4}{8}}
\@writefile{lot}{\contentsline {table}{\numberline {6}{\ignorespaces  Misure di voltaggio e corrente ai capi di $R_x$ variando $R_C$\relax }}{9}}
\newlabel{tab:voltamp}{{6}{9}}
\@writefile{lot}{\contentsline {table}{\numberline {7}{\ignorespaces  Risultati fit lineare dopo reiezione\relax }}{10}}
\newlabel{tab:fit}{{7}{10}}
\@writefile{lof}{\contentsline {figure}{\numberline {2}{\ignorespaces  Fit lineare misure voltamperometriche\relax }}{11}}
\newlabel{graf:fitnoncorr}{{2}{11}}
\@writefile{lof}{\contentsline {figure}{\numberline {3}{\ignorespaces  Grafico dei residui fit lineare misure voltamperometriche\relax }}{11}}
\newlabel{graf:residui}{{3}{11}}
\@writefile{lof}{\contentsline {figure}{\numberline {4}{\ignorespaces  Fit lineare corretto misure voltamperometriche\relax }}{12}}
\newlabel{graf:fitcorr}{{4}{12}}
\@writefile{lof}{\contentsline {figure}{\numberline {5}{\ignorespaces  Grafico dei residui fit lineare corretto misure voltamperometriche\relax }}{12}}
\newlabel{graf:residui2}{{5}{12}}
\@writefile{toc}{\contentsline {section}{\numberline {5}Misure di resistenze interne}{14}}
\@writefile{toc}{\contentsline {subsection}{\numberline {5.1}Procedura sperimentale}{14}}
\@writefile{lof}{\contentsline {figure}{\numberline {6}{\ignorespaces  Schema del circuito misura resistenza interna generatore\relax }}{15}}
\newlabel{im:circuitoresG}{{6}{15}}
\@writefile{lof}{\contentsline {figure}{\numberline {7}{\ignorespaces  Schema del circuito misura resistenza interna del voltmetro\relax }}{15}}
\newlabel{im:circuitoresV}{{7}{15}}
\@writefile{lot}{\contentsline {table}{\numberline {8}{\ignorespaces  Valori per la misura resistenza del generatore di tensione\relax }}{16}}
\newlabel{tab:misureresG}{{8}{16}}
\@writefile{toc}{\contentsline {subsection}{\numberline {5.2}Analisi dati}{16}}
\@writefile{lot}{\contentsline {table}{\numberline {9}{\ignorespaces  Valori per la misura resistenza interna del voltmetro del Fluke\relax }}{17}}
\newlabel{tab:misureresV}{{9}{17}}
\@writefile{toc}{\contentsline {section}{\numberline {6}Conclusioni}{18}}
