%!PS-Adobe-2.0 EPSF-2.0
%%BoundingBox:  0 0 567 383
%%Title: Cs-137_hq0.eps: Cs-137_hq0
%%Creator: ROOT Version 6.12/06
%%CreationDate: Sun May 13 11:29:46 2018
%%DocumentNeededResources: ProcSet (FontSetInit)
%%EndComments
%%BeginProlog
80 dict begin
/s {stroke} def /l {lineto} def /m {moveto} def /t {translate} def
/r {rotate} def /rl {roll}  def /R {repeat} def
/d {rlineto} def /rm {rmoveto} def /gr {grestore} def /f {eofill} def
/c {setrgbcolor} def /black {0 setgray} def /sd {setdash} def
/cl {closepath} def /sf {scalefont setfont} def /lw {setlinewidth} def
/box {m dup 0 exch d exch 0 d 0 exch neg d cl} def
/NC{systemdict begin initclip end}def/C{NC box clip newpath}def
/bl {box s} def /bf {gsave box gsave f grestore 1 lw [] 0 sd s grestore} def /Y { 0 exch d} def /X { 0 d} def 
/K {{pop pop 0 moveto} exch kshow} bind def
/ita {/ang 15 def gsave [1 0 ang dup sin exch cos div 1 0 0] concat} def 
/mp {newpath /y exch def /x exch def} def
/side {[w .77 mul w .23 mul] .385 w mul sd w 0 l currentpoint t -144 r} def
/mr {mp x y w2 0 360 arc} def /m24 {mr s} def /m20 {mr f} def
/mb {mp x y w2 add m w2 neg 0 d 0 w neg d w 0 d 0 w d cl} def
/mt {mp x y w2 add m w2 neg w neg d w 0 d cl} def
/w4 {w 4 div} def
/w6 {w 6 div} def
/w8 {w 8 div} def
/m21 {mb f} def /m25 {mb s} def /m22 {mt f} def /m26{mt s} def
/m23 {mp x y w2 sub m w2 w d w neg 0 d cl f} def
/m27 {mp x y w2 add m w3 neg w2 neg d w3 w2 neg d w3 w2 d cl s} def
/m28 {mp x w2 sub y w2 sub w3 add m w3 0 d  0 w3 neg d w3 0 d 0 w3 d w3 0 d  0 w3 d w3 neg 0 d 0 w3 d w3 neg 0 d 0 w3 neg d w3 neg 0 d cl s } def
/m29 {mp gsave x w2 sub y w2 add w3 sub m currentpoint t 4 {side} repeat cl fill gr} def
/m30 {mp gsave x w2 sub y w2 add w3 sub m currentpoint t 4 {side} repeat cl s gr} def
/m31 {mp x y w2 sub m 0 w d x w2 sub y m w 0 d x w2 sub y w2 add m w w neg d x w2 sub y w2 sub m w w d s} def
/m32 {mp x y w2 sub m w2 w d w neg 0 d cl s} def
/m33 {mp x y w2 add m w3 neg w2 neg d w3 w2 neg d w3 w2 d cl f} def
/m34 {mp x w2 sub y w2 sub w3 add m w3 0 d  0 w3 neg d w3 0 d 0 w3 d w3 0 d  0 w3 d w3 neg 0 d 0 w3 d w3 neg 0 d 0 w3 neg d w3 neg 0 d cl f } def
/m35 {mp x y w2 add m w2 neg w2 neg d w2 w2 neg d w2 w2 d w2 neg w2 d x y w2 sub m 0 w d x w2 sub y m w 0 d s} def
/m36 {mb x w2 sub y w2 add m w w neg d x w2 sub y w2 sub m w w d s} def
/m37 {mp x y m w4 neg w2 d w4 neg w2 neg d w2 0 d  w4 neg w2 neg d w2 0 d w4 neg w2 d w2 0 d w4 neg w2 d w4 neg w2 neg d cl s} def
/m38 {mp x w4 sub y w2 add m w4 neg w4 neg d 0 w2 neg d w4 w4 neg d w2 0 d w4 w4 d 0 w2 d w4 neg w4 d w2 neg 0 d x y w2 sub m 0 w d x w2 sub y m w 0 d cl s} def
/m39 {mp x y m w4 neg w2 d w4 neg w2 neg d w2 0 d  w4 neg w2 neg d w2 0 d w4 neg w2 d w2 0 d w4 neg w2 d w4 neg w2 neg d cl f} def
/m40 {mp x y m w4 w2 d w4 w4 neg d w2 neg w4 neg d w2 w4 neg d w4 neg w4 neg d w4 neg w2 d w4 neg w2 neg d w4 neg w4 d w2 w4 d w2 neg w4 d w4 w4 d w4 w2 neg d cl s} def
/m41 {mp x y m w4 w2 d w4 w4 neg d w2 neg w4 neg d w2 w4 neg d w4 neg w4 neg d w4 neg w2 d w4 neg w2 neg d w4 neg w4 d w2 w4 d w2 neg w4 d w4 w4 d w4 w2 neg d cl f} def
/m42 {mp x y w2 add m w8 neg w2 -3 4 div mul d w2 -3 4 div mul w8 neg d w2 3 4 div mul w8 neg d w8 w2 -3 4 div mul d w8 w2 3 4 div mul d w2 3 4 div mul w8 d w2 -3 4 div mul w8 d w8 neg w2 3 4 div mul d cl s} def
/m43 {mp x y w2 add m w8 neg w2 -3 4 div mul d w2 -3 4 div mul w8 neg d w2 3 4 div mul w8 neg d w8 w2 -3 4 div mul d w8 w2 3 4 div mul d w2 3 4 div mul w8 d w2 -3 4 div mul w8 d w8 neg w2 3 4 div mul d cl f} def
/m44 {mp x y m w6 neg w2 d w2 2 3 div mul 0 d w6 neg w2 neg d w2 w6 d 0 w2 -2 3 div mul d w2 neg w6 d w6 w2 neg d w2 -2 3 div mul 0 d w6 w2 d w2 neg w6 neg d 0 w2 2 3 div mul d w2 w6 neg d cl s} def
/m45 {mp x y m w6 neg w2 d w2 2 3 div mul 0 d w6 neg w2 neg d w2 w6 d 0 w2 -2 3 div mul d w2 neg w6 d w6 w2 neg d w2 -2 3 div mul 0 d w6 w2 d w2 neg w6 neg d 0 w2 2 3 div mul d w2 w6 neg d cl f} def
/m46 {mp x y w4 add m w4 neg w4 d w4 neg w4 neg d  w4 w4 neg d w4 neg w4 neg d w4 w4 neg d w4 w4 d w4 w4 neg d w4 w4 d w4 neg w4 d w4 w4 d w4 neg w4 d w4 neg w4 neg d cl s} def
/m47 {mp x y w4 add m w4 neg w4 d w4 neg w4 neg d w4 w4 neg d w4 neg w4 neg d  w4 w4 neg d w4 w4 d w4 w4 neg d w4 w4 d w4 neg w4 d w4 w4 d w4 neg w4 d w4 neg w4 neg d cl f} def
/m48 {mp x y w4 add m w4 neg w4 d w4 neg w4 neg d w4 w4 neg d  w4 neg w4 neg d w4 w4 neg d w4 w4 d w4 w4 neg d w4 w4 d w4 neg w4 d w4 w4 d w4 neg w4 d w4 neg w4 neg d  w4 w4 neg d w4 neg w4 neg d w4 neg w4 d w4 w4 d cl f} def
/m49 {mp x w2 sub w3 add y w2 sub w3 add m  0 w3 neg d w3 0 d 0 w3 d w3 0 d 0 w3 d w3 neg 0 d 0 w3 d w3 neg 0 d 0 w3 neg d w3 neg 0 d 0 w3 neg d w3 0 d 0 w3 d w3 0 d 0 w3 neg d w3 neg 0 d cl f } def
/m2 {mp x y w2 sub m 0 w d x w2 sub y m w 0 d s} def
/m5 {mp x w2 sub y w2 sub m w w d x w2 sub y w2 add m w w neg d s} def
%%IncludeResource: ProcSet (FontSetInit)
%%IncludeResource: font Times-Roman
%%IncludeResource: font Times-Italic
%%IncludeResource: font Times-Bold
%%IncludeResource: font Times-BoldItalic
%%IncludeResource: font Helvetica
%%IncludeResource: font Helvetica-Oblique
%%IncludeResource: font Helvetica-Bold
%%IncludeResource: font Helvetica-BoldOblique
%%IncludeResource: font Courier
%%IncludeResource: font Courier-Oblique
%%IncludeResource: font Courier-Bold
%%IncludeResource: font Courier-BoldOblique
%%IncludeResource: font Symbol
%%IncludeResource: font ZapfDingbats
/reEncode {exch findfont dup length dict begin {1 index /FID eq  {pop pop} {def} ifelse } forall /Encoding exch def currentdict end dup /FontName get exch definefont pop } def [/Times-Bold /Times-Italic /Times-BoldItalic /Helvetica /Helvetica-Oblique
 /Helvetica-Bold /Helvetica-BoldOblique /Courier /Courier-Oblique /Courier-Bold /Courier-BoldOblique /Times-Roman /AvantGarde-Book /AvantGarde-BookOblique /AvantGarde-Demi /AvantGarde-DemiOblique /Bookman-Demi /Bookman-DemiItalic /Bookman-Light
 /Bookman-LightItalic /Helvetica-Narrow /Helvetica-Narrow-Bold /Helvetica-Narrow-BoldOblique /Helvetica-Narrow-Oblique /NewCenturySchlbk-Roman /NewCenturySchlbk-Bold /NewCenturySchlbk-BoldItalic /NewCenturySchlbk-Italic /Palatino-Bold
 /Palatino-BoldItalic /Palatino-Italic /Palatino-Roman ] {ISOLatin1Encoding reEncode } forall
%%EndProlog
%%BeginSetup
%%EndSetup
newpath  gsave  .25 .25 scale  gsave  0 0 t black[  ] 0 sd 3 lw 1 1 1 c 2268 1530 0 0 bf black 1 1 1 c 1814 1224 227 153 bf black 1814 1224 227 153 bl 1 1 1 c 1814 1224 227 153 bf black 1814 1224 227 153 bl 0 0 0.6 c 1 1 1 c black 0 0 0.6 c 229 153 m
 80 X 1 1 d 23 X 1 1 d 6 X -1 Y 6 X 1 1 d 15 X 2 -1 d 2 X 1 Y 17 X 1 1 d 3 X 1 -1 d 1 X 1 1 d 4 X 1 Y -1 Y 20 X 1 1 d 5 X 1 Y 8 X 1 1 d 2 X s 431 159 m 2 2 d 2 X 4 1 d 2 X 2 2 d 4 1 d 3 2 d 1 X 5 4 d 4 2 d 4 2 d 4 3 d 4 3 d 2 1 d 2 3 d 3 3 d 1 1 d 4
 2 d 2 2 d 2 4 d 1 1 d 1 1 d 2 1 d 1 1 d 1 1 d 3 6 d 4 6 d 1 2 d 1 4 d 1 3 d 1 2 d 1 1 d 2 2 d 1 1 d 1 1 d 1 3 d 2 7 d 1 Y 4 11 d 4 11 d 1 1 d 1 4 d 3 11 d 1 5 d 1 5 d 1 3 d 1 2 d 4 1 d 1 1 d 3 Y 1 5 d 1 4 d 1 2 d 1 2 d 2 3 d 1 1 d 2 Y 1 2 d 1 4 d 1
 8 d 1 3 d 1 Y 1 2 d 3 4 d 4 4 d 1 1 d 2 Y 1 4 d 2 5 d 1 Y 1 2 d 1 X 3 -1 d 1 X 3 2 d 2 1 d 1 1 d 1 1 d 1 -1 d 3 -3 d 1 X 2 2 d 5 X 1 1 d 1 2 d 1 3 d 1 1 d 1 1 d -1 Y 1 -1 d 3 -5 d 2 -2 d 3 X 1 1 d 2 2 d 1 Y 2 2 d 1 X 1 -1 d 1 X 1 -3 d 1 -3 d 1 -2 d
 2 X 2 2 d 1 1 d 1 3 d 2 2 d 1 Y 1 X 4 -4 d 3 -3 d 1 X 2 -1 d 2 X 1 1 d 2 1 d 1 1 d s 633 363 m 1 1 d 2 Y 1 1 d 3 X -1 Y 1 -3 d 1 -2 d 1 -1 d 2 X 1 1 d 1 1 d 4 X 3 -2 d 1 -1 d 1 X 1 Y 1 1 d 1 3 d 1 1 d 1 X 1 -1 d 2 -3 d 2 X 2 1 d 1 1 d 1 -1 d -1 Y 2
 -2 d 2 X 1 1 d 1 1 d 1 1 d 1 2 d 2 2 d 1 Y 2 X -1 Y 2 -2 d -2 Y 1 -1 d 2 X 1 1 d 1 2 d 5 3 d 1 Y 2 3 d 1 X 1 Y 1 X -1 Y 1 -1 d -2 Y 2 -3 d -2 Y 2 X 1 1 d 1 2 d 1 X 1 -1 d -2 Y 2 -4 d -1 Y 1 -1 d 1 X 1 Y 1 1 d 3 Y 1 2 d 1 2 d 1 1 d 1 1 d 1 X 1 1 d 1
 -1 d 1 -1 d 1 -1 d 1 -1 d 1 Y 1 X 1 1 d 3 Y 1 2 d 1 1 d 1 1 d 4 -10 d 1 -1 d 1 X 1 -1 d 1 X 1 Y 1 1 d 1 2 d 1 X 1 Y 1 X -1 Y 1 -1 d 1 -2 d 1 -6 d 1 -1 d -1 Y 1 X -1 Y 1 X 2 1 d 4 X 3 -1 d 1 -1 d 1 -1 d 4 -6 d -1 Y 2 -1 d 1 X 1 -1 d 1 -1 d 1 -2 d 1
 -2 d 1 -1 d 1 -2 d 3 -9 d 2 -5 d 1 -2 d 1 -1 d 1 -1 d 3 X -1 Y 1 -1 d 1 -1 d 1 -3 d 1 -5 d 3 -9 d 1 -2 d -2 Y 1 X 1 -1 d 1 X 1 -1 d 1 X -1 Y 2 -3 d 2 -4 d 1 -2 d 2 -4 d -1 Y 1 -1 d 4 X 1 -1 d 2 -5 d 1 -1 d 4 X 4 -5 d 1 -1 d 3 -1 d -1 Y 5 -6 d 1 1 d
 2 1 d 1 X -1 Y 1 -1 d 2 -5 d 1 X 1 -1 d 1 -1 d 2 X s 835 247 m 4 -1 d 4 X 4 1 d 4 -4 d 5 3 d 4 -5 d 4 -2 d 4 3 d 4 -6 d 4 2 d 4 -7 d 2 2 d 2 5 d 5 X 4 2 d 4 2 d 4 -3 d 4 3 d 4 X 4 5 d 4 2 d 2 4 d 2 6 d 1 1 d 4 -1 d 4 7 d 4 3 d 3 7 d 1 4 d 4 16 d 4
 19 d 4 18 d 3 16 d 2 12 d 3 24 d 1 9 d 2 21 d 2 23 d 2 27 d 2 29 d 2 41 d 2 25 d 3 58 d 1 15 d 3 61 d 1 16 d 2 31 d 2 63 d 4 92 d 2 45 d 3 58 d 2 61 d 2 33 d 4 77 d 3 Y 1 27 d 2 43 d 1 18 d 5 Y 1 18 d 1 14 d 1 11 d 1 5 d 1 5 d 1 1 d 2 -1 d 2 -3 d 2
 -10 d 3 -9 d 1 -6 d -3 Y 2 -12 d 1 -16 d 1 -20 d 1 -6 d 1 -19 d 3 -70 d 3 -65 d 1 -28 d 1 -40 d 2 -43 d 1 -34 d s 1037 935 m 2 -46 d 1 -45 d 1 -25 d 1 -33 d 3 -68 d 4 -101 d 3 -72 d 1 -25 d 2 -25 d 2 -32 d 1 -18 d 2 -34 d 1 -22 d 1 -8 d 1 -18 d 2
 -23 d 1 -6 d 2 -18 d 2 -20 d 3 -27 d 1 -6 d 2 -12 d 2 -10 d 3 -11 d 1 -4 d 3 -9 d 1 -3 d 5 -7 d 4 -7 d 4 -8 d 8 X -1 Y 4 -7 d 2 X 2 1 d 4 -4 d 5 -2 d 4 -6 d 1 1 d 3 3 d 4 -3 d 4 1 d 4 -2 d 4 1 d 4 -4 d 4 -1 d 1 1 d 4 1 d 4 1 d 4 -1 d 4 1 d 4 -1 d 4
 X 4 1 d 5 -3 d 4 1 d 4 X 4 2 d 4 -1 d 4 -1 d 4 2 d 4 X 5 1 d 4 -2 d 4 -1 d 4 2 d 4 X s 1239 172 m 1 X -1 Y 5 X 1 Y 4 X 2 -1 d 7 X 1 -1 d 3 X 1 1 d 3 X 1 Y 10 X -1 Y 2 X 1 -1 d 2 X -1 Y 1 -1 d 1 X -1 Y 3 X 1 Y 1 X 1 Y 3 X 1 1 d 3 X 1 1 d 3 X 3 -1 d 2
 X 1 1 d 2 X -1 Y 2 X -1 Y 3 X 1 1 d 5 X 1 -1 d 5 X 1 1 d 10 X 4 -2 d 3 X 1 1 d 10 X 1 -1 d 11 X 1 1 d 3 X -1 Y 1 X -1 Y 2 X -1 Y 2 X 1 1 d 3 X 1 Y 3 X 3 -1 d 2 X 1 -1 d 3 X 1 1 d 3 X 2 -1 d 6 X 1 1 d 3 X 1 1 d 3 X -1 Y 1 X 1 -1 d -1 Y 4 X 1 1 d 1 X
 1 Y 2 X 1 Y 2 X -1 Y 1 X -1 Y 1 -1 d 1 X -1 Y 1 X 1 1 d 1 1 d 3 X 1 -1 d 3 X 1 1 d 6 X s 1441 166 m 8 X 2 -1 d 8 X 1 1 d 11 X 3 -1 d 2 X -1 Y 2 X 1 1 d 8 X 1 -1 d 12 X 1 1 d 3 X -1 Y 2 X -1 Y 3 X 1 Y 12 X 2 -1 d 9 X 1 -1 d 4 X 1 Y 14 X 1 -1 d 12 X 1
 Y 1 X -1 Y 2 X 1 -1 d 5 X 1 Y 5 X 3 -1 d 1 X 2 -1 d 5 X 1 1 d 4 X 4 -1 d 1 X 1 1 d 14 X -1 Y 4 X 1 1 d 12 X 4 -2 d 2 X 1 Y 6 X s 1643 160 m 1 X 1 Y 5 X -1 Y 2 X -1 Y 5 X 1 Y 1 X 1 1 d 5 X -1 Y 7 X 1 1 d 5 X 4 -1 d 2 X 1 Y 2 X 1 1 d 4 X 1 1 d 3 X -1
 Y 1 X 1 -1 d 5 X 1 Y 9 X 4 -2 d 1 Y 2 X 1 1 d 1 Y 2 X 3 -1 d 5 X 2 -1 d 3 X 1 Y 12 X 1 1 d 1 X 1 Y 2 X 3 -1 d 1 -1 d 14 X 1 1 d 7 X 1 1 d 15 X 1 1 d 2 X 1 Y 1 -1 d 4 X -1 Y 2 X -1 Y 3 X -1 Y 3 X 1 Y 2 X 1 1 d 13 X 2 1 d 1 X 5 -2 d 1 -1 d 5 X 1 Y 1 X
 1 Y 3 X 1 Y 2 X -1 Y 3 X -1 Y 1 X -2 Y s 1845 161 m 5 X 2 -1 d 6 X 1 -1 d 12 X 3 -2 d 1 X 1 -1 d 15 X 2 -1 d 4 X 1 1 d 1 X -1 Y 14 X 2 -1 d 6 X 1 -1 d 3 X 1 1 d 14 X 4 -1 d 13 X 1 1 d 4 X 2 -1 d 2 X 2 1 d 10 X 3 -1 d 1 X 1 1 d 7 X 3 -1 d 14 X 2 1 d
 5 X 4 -1 d 2 X 1 1 d 3 X 1 -1 d 12 X 1 Y 2 X s black 1 1 1 c 453 429 1769 1002 bf black 1769 1002 m 453 X s 2222 1002 m 429 Y s 2222 1431 m -453 X s 1769 1431 m -429 Y s 1 1 1 c black
 gsave  2268 1530 0 0 C 1790.13 1354.78 t 0 r /Helvetica findfont 74.7242 sf 0 0 m (Cs\255137_hq0) show NC gr  1769 1324 m 453 X s
 gsave  2268 1530 0 0 C 1790.13 1250.82 t 0 r /Helvetica findfont 51.982 sf 0 0 m (Entries ) show NC gr 
 gsave  2268 1530 0 0 C 2011.06 1250.82 t 0 r /Helvetica findfont 51.982 sf 0 0 m ( 610460) show NC gr 
 gsave  2268 1530 0 0 C 1790.13 1143.6 t 0 r /Helvetica findfont 51.982 sf 0 0 m (Mean  ) show NC gr 
 gsave  2268 1530 0 0 C 2040.3 1143.6 t 0 r /Helvetica findfont 51.982 sf 0 0 m (   4064) show NC gr 
 gsave  2268 1530 0 0 C 1790.13 1033.14 t 0 r /Helvetica findfont 51.982 sf 0 0 m (Std Dev   ) show NC gr 
 gsave  2268 1530 0 0 C 2040.3 1036.39 t 0 r /Helvetica findfont 51.982 sf 0 0 m (   1384) show NC gr  227 153 m 1814 X s 227 190 m -37 Y s 309 171 m -18 Y s 392 171 m -18 Y s 474 171 m -18 Y s 557 190 m -37 Y s 639 171 m -18 Y s 722 171 m -18 Y s
 804 171 m -18 Y s 886 190 m -37 Y s 969 171 m -18 Y s 1051 171 m -18 Y s 1134 171 m -18 Y s 1216 190 m -37 Y s 1299 171 m -18 Y s 1381 171 m -18 Y s 1464 171 m -18 Y s 1546 190 m -37 Y s 1629 171 m -18 Y s 1711 171 m -18 Y s 1794 171 m -18 Y s 1876
 190 m -37 Y s 1876 190 m -37 Y s 1958 171 m -18 Y s
 gsave  2268 1530 0 0 C 211.177 103.964 t 0 r /Helvetica findfont 48.7332 sf 0 0 m (0) show NC gr 
 gsave  2268 1530 0 0 C 500.327 103.964 t 0 r /Helvetica findfont 48.7332 sf 0 0 m (2000) show NC gr 
 gsave  2268 1530 0 0 C 828.464 103.964 t 0 r /Helvetica findfont 48.7332 sf 0 0 m (4000) show NC gr 
 gsave  2268 1530 0 0 C 1159.85 103.964 t 0 r /Helvetica findfont 48.7332 sf 0 0 m (6000) show NC gr 
 gsave  2268 1530 0 0 C 1487.99 103.964 t 0 r /Helvetica findfont 48.7332 sf 0 0 m (8000) show NC gr 
 gsave  2268 1530 0 0 C 1806.38 103.964 t 0 r /Helvetica findfont 48.7332 sf 0 0 m (10000) show NC gr 
 gsave  2268 1530 0 0 C 1764.14 51.982 t 0 r /Helvetica findfont 48.7332 sf 0 0 m (Energy [a.u.]) show NC gr  227 153 m 1224 Y s 281 153 m -54 X s 254 186 m -27 X s 254 219 m -27 X s 254 251 m -27 X s 281 284 m -54 X s 254 317 m -27 X s 254 350 m -27
 X s 254 382 m -27 X s 281 415 m -54 X s 254 448 m -27 X s 254 481 m -27 X s 254 513 m -27 X s 281 546 m -54 X s 254 579 m -27 X s 254 612 m -27 X s 254 644 m -27 X s 281 677 m -54 X s 254 710 m -27 X s 254 743 m -27 X s 254 775 m -27 X s 281 808 m
 -54 X s 254 841 m -27 X s 254 874 m -27 X s 254 906 m -27 X s 281 939 m -54 X s 254 972 m -27 X s 254 1005 m -27 X s 254 1037 m -27 X s 281 1070 m -54 X s 254 1103 m -27 X s 254 1136 m -27 X s 254 1168 m -27 X s 281 1201 m -54 X s 254 1234 m -27 X s
 254 1267 m -27 X s 254 1299 m -27 X s 281 1332 m -54 X s 281 1332 m -54 X s 254 1365 m -27 X s
 gsave  2268 1530 0 0 C 188.435 136.453 t 0 r /Helvetica findfont 48.7332 sf 0 0 m (0) show NC gr 
 gsave  2268 1530 0 0 C 107.213 266.408 t 0 r /Helvetica findfont 48.7332 sf 0 0 m (2000) show NC gr 
 gsave  2268 1530 0 0 C 107.213 396.363 t 0 r /Helvetica findfont 48.7332 sf 0 0 m (4000) show NC gr 
 gsave  2268 1530 0 0 C 107.213 529.567 t 0 r /Helvetica findfont 48.7332 sf 0 0 m (6000) show NC gr 
 gsave  2268 1530 0 0 C 107.213 659.522 t 0 r /Helvetica findfont 48.7332 sf 0 0 m (8000) show NC gr 
 gsave  2268 1530 0 0 C 77.9731 789.477 t 0 r /Helvetica findfont 48.7332 sf 0 0 m (10000) show NC gr 
 gsave  2268 1530 0 0 C 77.9731 922.681 t 0 r /Helvetica findfont 48.7332 sf 0 0 m (12000) show NC gr 
 gsave  2268 1530 0 0 C 77.9731 1052.64 t 0 r /Helvetica findfont 48.7332 sf 0 0 m (14000) show NC gr 
 gsave  2268 1530 0 0 C 77.9731 1182.59 t 0 r /Helvetica findfont 48.7332 sf 0 0 m (16000) show NC gr 
 gsave  2268 1530 0 0 C 77.9731 1315.8 t 0 r /Helvetica findfont 48.7332 sf 0 0 m (18000) show NC gr 
 gsave  2268 1530 0 0 C 29.2399 688.762 t 90 r /Helvetica findfont 48.7332 sf 0 0 m (Counts) show NC gr  1 1 1 c 453 429 1769 1002 bf black 1769 1002 m 453 X s 2222 1002 m 429 Y s 2222 1431 m -453 X s 1769 1431 m -429 Y s 1 1 1 c black
 gsave  2268 1530 0 0 C 1790.13 1354.78 t 0 r /Helvetica findfont 74.7242 sf 0 0 m (Cs\255137_hq0) show NC gr  1769 1324 m 453 X s
 gsave  2268 1530 0 0 C 1790.13 1250.82 t 0 r /Helvetica findfont 51.982 sf 0 0 m (Entries ) show NC gr 
 gsave  2268 1530 0 0 C 2011.06 1250.82 t 0 r /Helvetica findfont 51.982 sf 0 0 m ( 610460) show NC gr 
 gsave  2268 1530 0 0 C 1790.13 1143.6 t 0 r /Helvetica findfont 51.982 sf 0 0 m (Mean  ) show NC gr 
 gsave  2268 1530 0 0 C 2040.3 1143.6 t 0 r /Helvetica findfont 51.982 sf 0 0 m (   4064) show NC gr 
 gsave  2268 1530 0 0 C 1790.13 1033.14 t 0 r /Helvetica findfont 51.982 sf 0 0 m (Std Dev   ) show NC gr 
 gsave  2268 1530 0 0 C 2040.3 1036.39 t 0 r /Helvetica findfont 51.982 sf 0 0 m (   1384) show NC gr  1 1 1 c black
 gsave  2268 1530 0 0 C 929.179 1455.5 t 0 r /Helvetica findfont 74.7242 sf 0 0 m (Cs\255137_hq0) show NC gr 
 gr  gr showpage
end
%%EOF
