%!PS-Adobe-2.0 EPSF-2.0
%%BoundingBox:  0 0 567 383
%%Title: net_chocolate_hq0.eps: net_chocolate_hq0
%%Creator: ROOT Version 6.12/06
%%CreationDate: Sun May 13 11:29:47 2018
%%DocumentNeededResources: ProcSet (FontSetInit)
%%EndComments
%%BeginProlog
80 dict begin
/s {stroke} def /l {lineto} def /m {moveto} def /t {translate} def
/r {rotate} def /rl {roll}  def /R {repeat} def
/d {rlineto} def /rm {rmoveto} def /gr {grestore} def /f {eofill} def
/c {setrgbcolor} def /black {0 setgray} def /sd {setdash} def
/cl {closepath} def /sf {scalefont setfont} def /lw {setlinewidth} def
/box {m dup 0 exch d exch 0 d 0 exch neg d cl} def
/NC{systemdict begin initclip end}def/C{NC box clip newpath}def
/bl {box s} def /bf {gsave box gsave f grestore 1 lw [] 0 sd s grestore} def /Y { 0 exch d} def /X { 0 d} def 
/K {{pop pop 0 moveto} exch kshow} bind def
/ita {/ang 15 def gsave [1 0 ang dup sin exch cos div 1 0 0] concat} def 
/mp {newpath /y exch def /x exch def} def
/side {[w .77 mul w .23 mul] .385 w mul sd w 0 l currentpoint t -144 r} def
/mr {mp x y w2 0 360 arc} def /m24 {mr s} def /m20 {mr f} def
/mb {mp x y w2 add m w2 neg 0 d 0 w neg d w 0 d 0 w d cl} def
/mt {mp x y w2 add m w2 neg w neg d w 0 d cl} def
/w4 {w 4 div} def
/w6 {w 6 div} def
/w8 {w 8 div} def
/m21 {mb f} def /m25 {mb s} def /m22 {mt f} def /m26{mt s} def
/m23 {mp x y w2 sub m w2 w d w neg 0 d cl f} def
/m27 {mp x y w2 add m w3 neg w2 neg d w3 w2 neg d w3 w2 d cl s} def
/m28 {mp x w2 sub y w2 sub w3 add m w3 0 d  0 w3 neg d w3 0 d 0 w3 d w3 0 d  0 w3 d w3 neg 0 d 0 w3 d w3 neg 0 d 0 w3 neg d w3 neg 0 d cl s } def
/m29 {mp gsave x w2 sub y w2 add w3 sub m currentpoint t 4 {side} repeat cl fill gr} def
/m30 {mp gsave x w2 sub y w2 add w3 sub m currentpoint t 4 {side} repeat cl s gr} def
/m31 {mp x y w2 sub m 0 w d x w2 sub y m w 0 d x w2 sub y w2 add m w w neg d x w2 sub y w2 sub m w w d s} def
/m32 {mp x y w2 sub m w2 w d w neg 0 d cl s} def
/m33 {mp x y w2 add m w3 neg w2 neg d w3 w2 neg d w3 w2 d cl f} def
/m34 {mp x w2 sub y w2 sub w3 add m w3 0 d  0 w3 neg d w3 0 d 0 w3 d w3 0 d  0 w3 d w3 neg 0 d 0 w3 d w3 neg 0 d 0 w3 neg d w3 neg 0 d cl f } def
/m35 {mp x y w2 add m w2 neg w2 neg d w2 w2 neg d w2 w2 d w2 neg w2 d x y w2 sub m 0 w d x w2 sub y m w 0 d s} def
/m36 {mb x w2 sub y w2 add m w w neg d x w2 sub y w2 sub m w w d s} def
/m37 {mp x y m w4 neg w2 d w4 neg w2 neg d w2 0 d  w4 neg w2 neg d w2 0 d w4 neg w2 d w2 0 d w4 neg w2 d w4 neg w2 neg d cl s} def
/m38 {mp x w4 sub y w2 add m w4 neg w4 neg d 0 w2 neg d w4 w4 neg d w2 0 d w4 w4 d 0 w2 d w4 neg w4 d w2 neg 0 d x y w2 sub m 0 w d x w2 sub y m w 0 d cl s} def
/m39 {mp x y m w4 neg w2 d w4 neg w2 neg d w2 0 d  w4 neg w2 neg d w2 0 d w4 neg w2 d w2 0 d w4 neg w2 d w4 neg w2 neg d cl f} def
/m40 {mp x y m w4 w2 d w4 w4 neg d w2 neg w4 neg d w2 w4 neg d w4 neg w4 neg d w4 neg w2 d w4 neg w2 neg d w4 neg w4 d w2 w4 d w2 neg w4 d w4 w4 d w4 w2 neg d cl s} def
/m41 {mp x y m w4 w2 d w4 w4 neg d w2 neg w4 neg d w2 w4 neg d w4 neg w4 neg d w4 neg w2 d w4 neg w2 neg d w4 neg w4 d w2 w4 d w2 neg w4 d w4 w4 d w4 w2 neg d cl f} def
/m42 {mp x y w2 add m w8 neg w2 -3 4 div mul d w2 -3 4 div mul w8 neg d w2 3 4 div mul w8 neg d w8 w2 -3 4 div mul d w8 w2 3 4 div mul d w2 3 4 div mul w8 d w2 -3 4 div mul w8 d w8 neg w2 3 4 div mul d cl s} def
/m43 {mp x y w2 add m w8 neg w2 -3 4 div mul d w2 -3 4 div mul w8 neg d w2 3 4 div mul w8 neg d w8 w2 -3 4 div mul d w8 w2 3 4 div mul d w2 3 4 div mul w8 d w2 -3 4 div mul w8 d w8 neg w2 3 4 div mul d cl f} def
/m44 {mp x y m w6 neg w2 d w2 2 3 div mul 0 d w6 neg w2 neg d w2 w6 d 0 w2 -2 3 div mul d w2 neg w6 d w6 w2 neg d w2 -2 3 div mul 0 d w6 w2 d w2 neg w6 neg d 0 w2 2 3 div mul d w2 w6 neg d cl s} def
/m45 {mp x y m w6 neg w2 d w2 2 3 div mul 0 d w6 neg w2 neg d w2 w6 d 0 w2 -2 3 div mul d w2 neg w6 d w6 w2 neg d w2 -2 3 div mul 0 d w6 w2 d w2 neg w6 neg d 0 w2 2 3 div mul d w2 w6 neg d cl f} def
/m46 {mp x y w4 add m w4 neg w4 d w4 neg w4 neg d  w4 w4 neg d w4 neg w4 neg d w4 w4 neg d w4 w4 d w4 w4 neg d w4 w4 d w4 neg w4 d w4 w4 d w4 neg w4 d w4 neg w4 neg d cl s} def
/m47 {mp x y w4 add m w4 neg w4 d w4 neg w4 neg d w4 w4 neg d w4 neg w4 neg d  w4 w4 neg d w4 w4 d w4 w4 neg d w4 w4 d w4 neg w4 d w4 w4 d w4 neg w4 d w4 neg w4 neg d cl f} def
/m48 {mp x y w4 add m w4 neg w4 d w4 neg w4 neg d w4 w4 neg d  w4 neg w4 neg d w4 w4 neg d w4 w4 d w4 w4 neg d w4 w4 d w4 neg w4 d w4 w4 d w4 neg w4 d w4 neg w4 neg d  w4 w4 neg d w4 neg w4 neg d w4 neg w4 d w4 w4 d cl f} def
/m49 {mp x w2 sub w3 add y w2 sub w3 add m  0 w3 neg d w3 0 d 0 w3 d w3 0 d 0 w3 d w3 neg 0 d 0 w3 d w3 neg 0 d 0 w3 neg d w3 neg 0 d 0 w3 neg d w3 0 d 0 w3 d w3 0 d 0 w3 neg d w3 neg 0 d cl f } def
/m2 {mp x y w2 sub m 0 w d x w2 sub y m w 0 d s} def
/m5 {mp x w2 sub y w2 sub m w w d x w2 sub y w2 add m w w neg d s} def
%%IncludeResource: ProcSet (FontSetInit)
%%IncludeResource: font Times-Roman
%%IncludeResource: font Times-Italic
%%IncludeResource: font Times-Bold
%%IncludeResource: font Times-BoldItalic
%%IncludeResource: font Helvetica
%%IncludeResource: font Helvetica-Oblique
%%IncludeResource: font Helvetica-Bold
%%IncludeResource: font Helvetica-BoldOblique
%%IncludeResource: font Courier
%%IncludeResource: font Courier-Oblique
%%IncludeResource: font Courier-Bold
%%IncludeResource: font Courier-BoldOblique
%%IncludeResource: font Symbol
%%IncludeResource: font ZapfDingbats
/reEncode {exch findfont dup length dict begin {1 index /FID eq  {pop pop} {def} ifelse } forall /Encoding exch def currentdict end dup /FontName get exch definefont pop } def [/Times-Bold /Times-Italic /Times-BoldItalic /Helvetica /Helvetica-Oblique
 /Helvetica-Bold /Helvetica-BoldOblique /Courier /Courier-Oblique /Courier-Bold /Courier-BoldOblique /Times-Roman /AvantGarde-Book /AvantGarde-BookOblique /AvantGarde-Demi /AvantGarde-DemiOblique /Bookman-Demi /Bookman-DemiItalic /Bookman-Light
 /Bookman-LightItalic /Helvetica-Narrow /Helvetica-Narrow-Bold /Helvetica-Narrow-BoldOblique /Helvetica-Narrow-Oblique /NewCenturySchlbk-Roman /NewCenturySchlbk-Bold /NewCenturySchlbk-BoldItalic /NewCenturySchlbk-Italic /Palatino-Bold
 /Palatino-BoldItalic /Palatino-Italic /Palatino-Roman ] {ISOLatin1Encoding reEncode } forall
%%EndProlog
%%BeginSetup
%%EndSetup
newpath  gsave  .25 .25 scale  gsave  0 0 t black[  ] 0 sd 3 lw 1 1 1 c 2268 1530 0 0 bf black 1 1 1 c 1814 1224 227 153 bf black 1814 1224 227 153 bl 1 1 1 c 1814 1224 227 153 bf black 1814 1224 227 153 bl 0 0 1 c 1 1 1 c black 0 0 1 c 289 464 m 16
 Y s 289 480 m 17 Y s 287 480 m 2 X s 289 480 m 1 X s black /w 2 def /w2 {w 2 div} def /w3 {w 3 div} def 289 480 m20 0 0 1 c 292 470 m 18 Y s 292 488 m 17 Y s 290 488 m 2 X s 292 488 m 1 X s black 292 488 m20 0 0 1 c 295 464 m 16 Y s 295 480 m 16 Y s
 293 480 m 2 X s 295 480 m 1 X s black 295 480 m20 0 0 1 c 298 477 m 18 Y s 298 495 m 17 Y s 296 495 m 2 X s 298 495 m 1 X s black 298 495 m20 0 0 1 c 301 455 m 15 Y s 301 470 m 15 Y s 299 470 m 2 X s 301 470 m 1 X s black 301 470 m20 0 0 1 c 304 480
 m 18 Y s 304 498 m 19 Y s 302 498 m 2 X s 304 498 m 1 X s black 304 498 m20 0 0 1 c 307 459 m 15 Y s 307 474 m 15 Y s 305 474 m 2 X s 307 474 m 1 X s black 307 474 m20 0 0 1 c 310 457 m 15 Y s 310 472 m 14 Y s 308 472 m 2 X s 310 472 m 1 X s black
 310 472 m20 0 0 1 c 313 436 m 11 Y s 313 447 m 11 Y s 311 447 m 2 X s 313 447 m 1 X s black 313 447 m20 0 0 1 c 316 480 m 18 Y s 316 498 m 19 Y s 314 498 m 2 X s 316 498 m 1 X s black 316 498 m20 0 0 1 c 319 460 m 15 Y s 319 475 m 15 Y s 317 475 m 2
 X s 319 475 m 2 X s black 319 475 m20 0 0 1 c 322 436 m 11 Y s 322 447 m 10 Y s 321 447 m 1 X s 322 447 m 2 X s black 322 447 m20 0 0 1 c 325 430 m 10 Y s 325 440 m 9 Y s 324 440 m 1 X s 325 440 m 2 X s black 325 440 m20 0 0 1 c 328 443 m 11 Y s 328
 454 m 12 Y s 327 454 m 1 X s 328 454 m 2 X s black 328 454 m20 0 0 1 c 331 449 m 13 Y s 331 462 m 13 Y s 330 462 m 1 X s 331 462 m 2 X s black 331 462 m20 0 0 1 c 334 439 m 11 Y s 334 450 m 11 Y s 333 450 m 1 X s 334 450 m 2 X s black 334 450 m20 0
 0 1 c 337 458 m 15 Y s 337 473 m 16 Y s 336 473 m 1 X s 337 473 m 2 X s black 337 473 m20 0 0 1 c 340 437 m 11 Y s 340 448 m 11 Y s 339 448 m 1 X s 340 448 m 2 X s black 340 448 m20 0 0 1 c 343 428 m 9 Y s 343 437 m 8 Y s 342 437 m 1 X s 343 437 m 2
 X s black 343 437 m20 0 0 1 c 346 426 m 8 Y s 346 434 m 9 Y s 345 434 m 1 X s 346 434 m 2 X s black 346 434 m20 0 0 1 c 349 429 m 8 Y s 349 437 m 9 Y s 348 437 m 1 X s 349 437 m 2 X s black 349 437 m20 0 0 1 c 352 427 m 8 Y s 352 435 m 9 Y s 351 435
 m 1 X s 352 435 m 2 X s black 352 435 m20 0 0 1 c 355 429 m 10 Y s 355 439 m 9 Y s 354 439 m 1 X s 355 439 m 2 X s black 355 439 m20 0 0 1 c 358 433 m 10 Y s 358 443 m 11 Y s 357 443 m 1 X s 358 443 m 2 X s black 358 443 m20 0 0 1 c 361 428 m 10 Y s
 361 438 m 9 Y s 360 438 m 1 X s 361 438 m 2 X s black 361 438 m20 0 0 1 c 364 447 m 14 Y s 364 461 m 13 Y s 363 461 m 1 X s 364 461 m 2 X s black 364 461 m20 0 0 1 c 367 434 m 10 Y s 367 444 m 10 Y s 366 444 m 1 X s 367 444 m 2 X s black 367 444 m20
 0 0 1 c 370 427 m 9 Y s 370 436 m 8 Y s 369 436 m 1 X s 370 436 m 2 X s black 370 436 m20 0 0 1 c 373 441 m 12 Y s 373 453 m 12 Y s 372 453 m 1 X s 373 453 m 2 X s black 373 453 m20 0 0 1 c 376 438 m 11 Y s 376 449 m 11 Y s 375 449 m 1 X s 376 449 m
 2 X s black 376 449 m20 0 0 1 c 379 437 m 12 Y s 379 449 m 11 Y s 378 449 m 1 X s 379 449 m 2 X s black 379 449 m20 0 0 1 c 382 435 m 11 Y s 382 446 m 10 Y s 381 446 m 1 X s 382 446 m 2 X s black 382 446 m20 0 0 1 c 386 423 m 7 Y s 386 430 m 8 Y s
 384 430 m 2 X s 386 430 m 1 X s black 386 430 m20 0 0 1 c 389 433 m 10 Y s 389 443 m 11 Y s 387 443 m 2 X s 389 443 m 1 X s black 389 443 m20 0 0 1 c 392 451 m 14 Y s 392 465 m 15 Y s 390 465 m 2 X s 392 465 m 1 X s black 392 465 m20 0 0 1 c 395 465
 m 17 Y s 395 482 m 16 Y s 393 482 m 2 X s 395 482 m 1 X s black 395 482 m20 0 0 1 c 398 454 m 14 Y s 398 468 m 15 Y s 396 468 m 2 X s 398 468 m 1 X s black 398 468 m20 0 0 1 c 401 470 m 18 Y s 401 488 m 17 Y s 399 488 m 2 X s 401 488 m 1 X s black
 401 488 m20 0 0 1 c 404 483 m 20 Y s 404 503 m 19 Y s 402 503 m 2 X s 404 503 m 1 X s black 404 503 m20 0 0 1 c 407 486 m 20 Y s 407 506 m 19 Y s 405 506 m 2 X s 407 506 m 1 X s black 407 506 m20 0 0 1 c 410 526 m 24 Y s 410 550 m 24 Y s 408 550 m 2
 X s 410 550 m 1 X s black 410 550 m20 0 0 1 c 413 562 m 28 Y s 413 590 m 27 Y s 411 590 m 2 X s 413 590 m 1 X s black 413 590 m20 0 0 1 c 416 537 m 26 Y s 416 563 m 25 Y s 414 563 m 2 X s 416 563 m 1 X s black 416 563 m20 0 0 1 c 419 572 m 28 Y s
 419 600 m 28 Y s 417 600 m 2 X s 419 600 m 1 X s black 419 600 m20 0 0 1 c 422 633 m 33 Y s 422 666 m 33 Y s 420 666 m 2 X s 422 666 m 1 X s black 422 666 m20 0 0 1 c 425 708 m 38 Y s 425 746 m 38 Y s 423 746 m 2 X s 425 746 m 1 X s black 425 746
 m20 0 0 1 c 428 680 m 37 Y s 428 717 m 37 Y s 426 717 m 2 X s 428 717 m 1 X s black 428 717 m20 0 0 1 c 431 745 m 41 Y s 431 786 m 40 Y s 429 786 m 2 X s 431 786 m 1 X s black 431 786 m20 0 0 1 c 434 891 m 48 Y s 434 939 m 49 Y s 432 939 m 2 X s 434
 939 m 1 X s black 434 939 m20 0 0 1 c 437 901 m 49 Y s 437 950 m 49 Y s 435 950 m 2 X s 437 950 m 1 X s black 437 950 m20 0 0 1 c 440 956 m 52 Y s 440 1008 m 52 Y s 438 1008 m 2 X s 440 1008 m 1 X s black 440 1008 m20 0 0 1 c 443 1029 m 56 Y s 443
 1085 m 55 Y s 441 1085 m 2 X s 443 1085 m 1 X s black 443 1085 m20 0 0 1 c 446 978 m 54 Y s 446 1032 m 53 Y s 444 1032 m 2 X s 446 1032 m 1 X s black 446 1032 m20 0 0 1 c 449 1158 m 61 Y s 449 1219 m 61 Y s 447 1219 m 2 X s 449 1219 m 2 X s black
 449 1219 m20 0 0 1 c 452 1187 m 63 Y s 452 1250 m 63 Y s 451 1250 m 1 X s 452 1250 m 2 X s black 452 1250 m20 0 0 1 c 455 1114 m 61 Y s 455 1175 m 60 Y s 454 1175 m 1 X s 455 1175 m 2 X s black 455 1175 m20 0 0 1 c 458 1111 m 62 Y s 458 1173 m 61 Y
 s 457 1173 m 1 X s 458 1173 m 2 X s black 458 1173 m20 0 0 1 c 461 1157 m 64 Y s 461 1221 m 65 Y s 460 1221 m 1 X s 461 1221 m 2 X s black 461 1221 m20 0 0 1 c 464 1156 m 66 Y s 464 1222 m 65 Y s 463 1222 m 1 X s 464 1222 m 2 X s black 464 1222 m20
 0 0 1 c 467 1183 m 68 Y s 467 1251 m 68 Y s 466 1251 m 1 X s 467 1251 m 2 X s black 467 1251 m20 0 0 1 c 470 1002 m 63 Y s 470 1065 m 63 Y s 469 1065 m 1 X s 470 1065 m 2 X s black 470 1065 m20 0 0 1 c 473 1034 m 66 Y s 473 1100 m 66 Y s 472 1100 m
 1 X s 473 1100 m 2 X s black 473 1100 m20 0 0 1 c 476 1010 m 66 Y s 476 1076 m 67 Y s 475 1076 m 1 X s 476 1076 m 2 X s black 476 1076 m20 0 0 1 c 479 900 m 65 Y s 479 965 m 65 Y s 478 965 m 1 X s 479 965 m 2 X s black 479 965 m20 0 0 1 c 482 827 m
 64 Y s 482 891 m 64 Y s 481 891 m 1 X s 482 891 m 2 X s black 482 891 m20 0 0 1 c 485 821 m 67 Y s 485 888 m 67 Y s 484 888 m 1 X s 485 888 m 2 X s black 485 888 m20 0 0 1 c 488 742 m 66 Y s 488 808 m 66 Y s 487 808 m 1 X s 488 808 m 2 X s black 488
 808 m20 0 0 1 c 491 700 m 65 Y s 491 765 m 66 Y s 490 765 m 1 X s 491 765 m 2 X s black 491 765 m20 0 0 1 c 494 547 m 62 Y s 494 609 m 62 Y s 493 609 m 1 X s 494 609 m 2 X s black 494 609 m20 0 0 1 c 497 416 m 59 Y s 497 475 m 60 Y s 496 475 m 1 X s
 497 475 m 2 X s black 497 475 m20 0 0 1 c 500 401 m 60 Y s 500 461 m 59 Y s 499 461 m 1 X s 500 461 m 2 X s black 500 461 m20 0 0 1 c 503 480 m 64 Y s 503 544 m 64 Y s 502 544 m 1 X s 503 544 m 2 X s black 503 544 m20 0 0 1 c 506 377 m 63 Y s 506
 440 m 62 Y s 505 440 m 1 X s 506 440 m 2 X s black 506 440 m20 0 0 1 c 509 356 m 62 Y s 509 418 m 61 Y s 508 418 m 1 X s 509 418 m 2 X s black 509 418 m20 0 0 1 c 513 360 m 63 Y s 513 423 m 62 Y s 511 423 m 2 X s 513 423 m 1 X s black 513 423 m20 0
 0 1 c 516 409 m 64 Y s 516 473 m 64 Y s 514 473 m 2 X s 516 473 m 1 X s black 516 473 m20 0 0 1 c 519 348 m 63 Y s 519 411 m 62 Y s 517 411 m 2 X s 519 411 m 1 X s black 519 411 m20 0 0 1 c 522 354 m 63 Y s 522 417 m 63 Y s 520 417 m 2 X s 522 417 m
 1 X s black 522 417 m20 0 0 1 c 525 390 m 63 Y s 525 453 m 63 Y s 523 453 m 2 X s 525 453 m 1 X s black 525 453 m20 0 0 1 c 528 363 m 61 Y s 528 424 m 62 Y s 526 424 m 2 X s 528 424 m 1 X s black 528 424 m20 0 0 1 c 531 298 m 60 Y s 531 358 m 59 Y s
 529 358 m 2 X s 531 358 m 1 X s black 531 358 m20 0 0 1 c 534 330 m 60 Y s 534 390 m 60 Y s 532 390 m 2 X s 534 390 m 1 X s black 534 390 m20 0 0 1 c 537 297 m 58 Y s 537 355 m 58 Y s 535 355 m 2 X s 537 355 m 1 X s black 537 355 m20 0 0 1 c 540 281
 m 56 Y s 540 337 m 57 Y s 538 337 m 2 X s 540 337 m 1 X s black 540 337 m20 0 0 1 c 543 275 m 55 Y s 543 330 m 56 Y s 541 330 m 2 X s 543 330 m 1 X s black 543 330 m20 0 0 1 c 546 429 m 59 Y s 546 488 m 58 Y s 544 488 m 2 X s 546 488 m 1 X s black
 546 488 m20 0 0 1 c 549 289 m 54 Y s 549 343 m 54 Y s 547 343 m 2 X s 549 343 m 1 X s black 549 343 m20 0 0 1 c 552 214 m 51 Y s 552 265 m 51 Y s 550 265 m 2 X s 552 265 m 1 X s black 552 265 m20 0 0 1 c 555 294 m 55 Y s 555 349 m 54 Y s 553 349 m 2
 X s 555 349 m 1 X s black 555 349 m20 0 0 1 c 558 301 m 54 Y s 558 355 m 54 Y s 556 355 m 2 X s 558 355 m 1 X s black 558 355 m20 0 0 1 c 561 337 m 54 Y s 561 391 m 54 Y s 559 391 m 2 X s 561 391 m 1 X s black 561 391 m20 0 0 1 c 564 296 m 51 Y s
 564 347 m 52 Y s 562 347 m 2 X s 564 347 m 1 X s black 564 347 m20 0 0 1 c 567 376 m 54 Y s 567 430 m 55 Y s 565 430 m 2 X s 567 430 m 1 X s black 567 430 m20 0 0 1 c 570 298 m 52 Y s 570 350 m 52 Y s 568 350 m 2 X s 570 350 m 1 X s black 570 350
 m20 0 0 1 c 573 272 m 51 Y s 573 323 m 51 Y s 571 323 m 2 X s 573 323 m 1 X s black 573 323 m20 0 0 1 c 576 339 m 52 Y s 576 391 m 53 Y s 574 391 m 2 X s 576 391 m 2 X s black 576 391 m20 0 0 1 c 579 226 m 48 Y s 579 274 m 48 Y s 578 274 m 1 X s 579
 274 m 2 X s black 579 274 m20 0 0 1 c 582 247 m 48 Y s 582 295 m 47 Y s 581 295 m 1 X s 582 295 m 2 X s black 582 295 m20 0 0 1 c 585 325 m 51 Y s 585 376 m 51 Y s 584 376 m 1 X s 585 376 m 2 X s black 585 376 m20 0 0 1 c 588 349 m 52 Y s 588 401 m
 52 Y s 587 401 m 1 X s 588 401 m 2 X s black 588 401 m20 0 0 1 c 591 266 m 48 Y s 591 314 m 48 Y s 590 314 m 1 X s 591 314 m 2 X s black 591 314 m20 0 0 1 c 594 264 m 48 Y s 594 312 m 49 Y s 593 312 m 1 X s 594 312 m 2 X s black 594 312 m20 0 0 1 c
 597 299 m 49 Y s 597 348 m 50 Y s 596 348 m 1 X s 597 348 m 2 X s black 597 348 m20 0 0 1 c 600 274 m 47 Y s 600 321 m 47 Y s 599 321 m 1 X s 600 321 m 2 X s black 600 321 m20 0 0 1 c 603 336 m 50 Y s 603 386 m 50 Y s 602 386 m 1 X s 603 386 m 2 X s
 black 603 386 m20 0 0 1 c 606 340 m 50 Y s 606 390 m 50 Y s 605 390 m 1 X s 606 390 m 2 X s black 606 390 m20 0 0 1 c 609 415 m 52 Y s 609 467 m 53 Y s 608 467 m 1 X s 609 467 m 2 X s black 609 467 m20 0 0 1 c 612 320 m 49 Y s 612 369 m 49 Y s 611
 369 m 1 X s 612 369 m 2 X s black 612 369 m20 0 0 1 c 615 438 m 54 Y s 615 492 m 54 Y s 614 492 m 1 X s 615 492 m 2 X s black 615 492 m20 0 0 1 c 618 374 m 51 Y s 618 425 m 51 Y s 617 425 m 1 X s 618 425 m 2 X s black 618 425 m20 0 0 1 c 621 313 m
 48 Y s 621 361 m 48 Y s 620 361 m 1 X s 621 361 m 2 X s black 621 361 m20 0 0 1 c 624 384 m 50 Y s 624 434 m 50 Y s 623 434 m 1 X s 624 434 m 2 X s black 624 434 m20 0 0 1 c 627 332 m 48 Y s 627 380 m 49 Y s 626 380 m 1 X s 627 380 m 2 X s black 627
 380 m20 0 0 1 c 630 303 m 46 Y s 630 349 m 46 Y s 629 349 m 1 X s 630 349 m 2 X s black 630 349 m20 0 0 1 c 633 209 m 43 Y s 633 252 m 43 Y s 632 252 m 1 X s 633 252 m 2 X s black 633 252 m20 0 0 1 c 636 315 m 48 Y s 636 363 m 48 Y s 635 363 m 1 X s
 636 363 m 2 X s black 636 363 m20 0 0 1 c 639 329 m 50 Y s 639 379 m 49 Y s 638 379 m 1 X s 639 379 m 2 X s black 639 379 m20 0 0 1 c 643 314 m 49 Y s 643 363 m 48 Y s 641 363 m 2 X s 643 363 m 1 X s black 643 363 m20 0 0 1 c 646 276 m 48 Y s 646
 324 m 48 Y s 644 324 m 2 X s 646 324 m 1 X s black 646 324 m20 0 0 1 c 649 320 m 50 Y s 649 370 m 50 Y s 647 370 m 2 X s 649 370 m 1 X s black 649 370 m20 0 0 1 c 652 304 m 50 Y s 652 354 m 50 Y s 650 354 m 2 X s 652 354 m 1 X s black 652 354 m20 0
 0 1 c 655 300 m 49 Y s 655 349 m 48 Y s 653 349 m 2 X s 655 349 m 1 X s black 655 349 m20 0 0 1 c 658 341 m 51 Y s 658 392 m 50 Y s 656 392 m 2 X s 658 392 m 1 X s black 658 392 m20 0 0 1 c 661 300 m 50 Y s 661 350 m 49 Y s 659 350 m 2 X s 661 350 m
 1 X s black 661 350 m20 0 0 1 c 664 328 m 48 Y s 664 376 m 49 Y s 662 376 m 2 X s 664 376 m 1 X s black 664 376 m20 0 0 1 c 667 370 m 50 Y s 667 420 m 50 Y s 665 420 m 2 X s 667 420 m 1 X s black 667 420 m20 0 0 1 c 670 305 m 45 Y s 670 350 m 46 Y s
 668 350 m 2 X s 670 350 m 1 X s black 670 350 m20 0 0 1 c 673 285 m 44 Y s 673 329 m 45 Y s 671 329 m 2 X s 673 329 m 1 X s black 673 329 m20 0 0 1 c 676 322 m 44 Y s 676 366 m 45 Y s 674 366 m 2 X s 676 366 m 1 X s black 676 366 m20 0 0 1 c 679 280
 m 43 Y s 679 323 m 42 Y s 677 323 m 2 X s 679 323 m 1 X s black 679 323 m20 0 0 1 c 682 364 m 45 Y s 682 409 m 44 Y s 680 409 m 2 X s 682 409 m 1 X s black 682 409 m20 0 0 1 c 685 349 m 44 Y s 685 393 m 44 Y s 683 393 m 2 X s 685 393 m 1 X s black
 685 393 m20 0 0 1 c 688 330 m 44 Y s 688 374 m 44 Y s 686 374 m 2 X s 688 374 m 1 X s black 688 374 m20 0 0 1 c 691 378 m 45 Y s 691 423 m 45 Y s 689 423 m 2 X s 691 423 m 1 X s black 691 423 m20 0 0 1 c 694 352 m 44 Y s 694 396 m 44 Y s 692 396 m 2
 X s 694 396 m 1 X s black 694 396 m20 0 0 1 c 697 315 m 42 Y s 697 357 m 42 Y s 695 357 m 2 X s 697 357 m 1 X s black 697 357 m20 0 0 1 c 700 321 m 41 Y s 700 362 m 42 Y s 698 362 m 2 X s 700 362 m 1 X s black 700 362 m20 0 0 1 c 703 392 m 45 Y s
 703 437 m 45 Y s 701 437 m 2 X s 703 437 m 2 X s black 703 437 m20 0 0 1 c 706 345 m 43 Y s 706 388 m 43 Y s 705 388 m 1 X s 706 388 m 2 X s black 706 388 m20 0 0 1 c 709 358 m 46 Y s 709 404 m 45 Y s 708 404 m 1 X s 709 404 m 2 X s black 709 404
 m20 0 0 1 c 712 302 m 42 Y s 712 344 m 42 Y s 711 344 m 1 X s 712 344 m 2 X s black 712 344 m20 0 0 1 c 715 383 m 45 Y s 715 428 m 44 Y s 714 428 m 1 X s 715 428 m 2 X s black 715 428 m20 0 0 1 c 718 343 m 44 Y s 718 387 m 45 Y s 717 387 m 1 X s 718
 387 m 2 X s black 718 387 m20 0 0 1 c 721 372 m 46 Y s 721 418 m 46 Y s 720 418 m 1 X s 721 418 m 2 X s black 721 418 m20 0 0 1 c 724 321 m 43 Y s 724 364 m 43 Y s 723 364 m 1 X s 724 364 m 2 X s black 724 364 m20 0 0 1 c 727 380 m 45 Y s 727 425 m
 46 Y s 726 425 m 1 X s 727 425 m 2 X s black 727 425 m20 0 0 1 c 730 417 m 48 Y s 730 465 m 47 Y s 729 465 m 1 X s 730 465 m 2 X s black 730 465 m20 0 0 1 c 733 325 m 43 Y s 733 368 m 43 Y s 732 368 m 1 X s 733 368 m 2 X s black 733 368 m20 0 0 1 c
 736 278 m 40 Y s 736 318 m 41 Y s 735 318 m 1 X s 736 318 m 2 X s black 736 318 m20 0 0 1 c 739 341 m 43 Y s 739 384 m 42 Y s 738 384 m 1 X s 739 384 m 2 X s black 739 384 m20 0 0 1 c 742 324 m 41 Y s 742 365 m 42 Y s 741 365 m 1 X s 742 365 m 2 X s
 black 742 365 m20 0 0 1 c 745 329 m 42 Y s 745 371 m 41 Y s 744 371 m 1 X s 745 371 m 2 X s black 745 371 m20 0 0 1 c 748 349 m 43 Y s 748 392 m 44 Y s 747 392 m 1 X s 748 392 m 2 X s black 748 392 m20 0 0 1 c 751 331 m 39 Y s 751 370 m 40 Y s 750
 370 m 1 X s 751 370 m 2 X s black 751 370 m20 0 0 1 c 754 386 m 42 Y s 754 428 m 43 Y s 753 428 m 1 X s 754 428 m 2 X s black 754 428 m20 0 0 1 c 757 405 m 42 Y s 757 447 m 42 Y s 756 447 m 1 X s 757 447 m 2 X s black 757 447 m20 0 0 1 c 760 442 m
 44 Y s 760 486 m 45 Y s 759 486 m 1 X s 760 486 m 2 X s black 760 486 m20 0 0 1 c 763 297 m 35 Y s 763 332 m 35 Y s 762 332 m 1 X s 763 332 m 2 X s black 763 332 m20 0 0 1 c 766 320 m 37 Y s 766 357 m 37 Y s 765 357 m 1 X s 766 357 m 2 X s black 766
 357 m20 0 0 1 c 770 367 m 37 Y s 770 404 m 37 Y s 768 404 m 2 X s 770 404 m 1 X s black 770 404 m20 0 0 1 c 773 395 m 39 Y s 773 434 m 39 Y s 771 434 m 2 X s 773 434 m 1 X s black 773 434 m20 0 0 1 c 776 338 m 36 Y s 776 374 m 35 Y s 774 374 m 2 X s
 776 374 m 1 X s black 776 374 m20 0 0 1 c 779 391 m 38 Y s 779 429 m 38 Y s 777 429 m 2 X s 779 429 m 1 X s black 779 429 m20 0 0 1 c 782 313 m 34 Y s 782 347 m 34 Y s 780 347 m 2 X s 782 347 m 1 X s black 782 347 m20 0 0 1 c 785 350 m 36 Y s 785
 386 m 35 Y s 783 386 m 2 X s 785 386 m 1 X s black 785 386 m20 0 0 1 c 788 390 m 37 Y s 788 427 m 37 Y s 786 427 m 2 X s 788 427 m 1 X s black 788 427 m20 0 0 1 c 791 353 m 34 Y s 791 387 m 35 Y s 789 387 m 2 X s 791 387 m 1 X s black 791 387 m20 0
 0 1 c 794 398 m 38 Y s 794 436 m 37 Y s 792 436 m 2 X s 794 436 m 1 X s black 794 436 m20 0 0 1 c 797 378 m 37 Y s 797 415 m 36 Y s 795 415 m 2 X s 797 415 m 1 X s black 797 415 m20 0 0 1 c 800 390 m 36 Y s 800 426 m 36 Y s 798 426 m 2 X s 800 426 m
 1 X s black 800 426 m20 0 0 1 c 803 337 m 32 Y s 803 369 m 33 Y s 801 369 m 2 X s 803 369 m 1 X s black 803 369 m20 0 0 1 c 806 362 m 36 Y s 806 398 m 35 Y s 804 398 m 2 X s 806 398 m 1 X s black 806 398 m20 0 0 1 c 809 363 m 35 Y s 809 398 m 35 Y s
 807 398 m 2 X s 809 398 m 1 X s black 809 398 m20 0 0 1 c 812 354 m 34 Y s 812 388 m 34 Y s 810 388 m 2 X s 812 388 m 1 X s black 812 388 m20 0 0 1 c 815 344 m 32 Y s 815 376 m 33 Y s 813 376 m 2 X s 815 376 m 1 X s black 815 376 m20 0 0 1 c 818 373
 m 36 Y s 818 409 m 36 Y s 816 409 m 2 X s 818 409 m 1 X s black 818 409 m20 0 0 1 c 821 345 m 33 Y s 821 378 m 33 Y s 819 378 m 2 X s 821 378 m 1 X s black 821 378 m20 0 0 1 c 824 432 m 38 Y s 824 470 m 39 Y s 822 470 m 2 X s 824 470 m 1 X s black
 824 470 m20 0 0 1 c 827 343 m 32 Y s 827 375 m 32 Y s 825 375 m 2 X s 827 375 m 1 X s black 827 375 m20 0 0 1 c 830 299 m 28 Y s 830 327 m 29 Y s 828 327 m 2 X s 830 327 m 1 X s black 830 327 m20 0 0 1 c 833 350 m 35 Y s 833 385 m 34 Y s 831 385 m 2
 X s 833 385 m 2 X s black 833 385 m20 0 0 1 c 836 389 m 35 Y s 836 424 m 35 Y s 835 424 m 1 X s 836 424 m 2 X s black 836 424 m20 0 0 1 c 839 327 m 31 Y s 839 358 m 30 Y s 838 358 m 1 X s 839 358 m 2 X s black 839 358 m20 0 0 1 c 842 385 m 34 Y s
 842 419 m 33 Y s 841 419 m 1 X s 842 419 m 2 X s black 842 419 m20 0 0 1 c 845 361 m 33 Y s 845 394 m 34 Y s 844 394 m 1 X s 845 394 m 2 X s black 845 394 m20 0 0 1 c 848 385 m 35 Y s 848 420 m 34 Y s 847 420 m 1 X s 848 420 m 2 X s black 848 420
 m20 0 0 1 c 851 326 m 31 Y s 851 357 m 31 Y s 850 357 m 1 X s 851 357 m 2 X s black 851 357 m20 0 0 1 c 854 399 m 35 Y s 854 434 m 34 Y s 853 434 m 1 X s 854 434 m 2 X s black 854 434 m20 0 0 1 c 857 332 m 31 Y s 857 363 m 31 Y s 856 363 m 1 X s 857
 363 m 2 X s black 857 363 m20 0 0 1 c 860 369 m 33 Y s 860 402 m 34 Y s 859 402 m 1 X s 860 402 m 2 X s black 860 402 m20 0 0 1 c 863 372 m 34 Y s 863 406 m 33 Y s 862 406 m 1 X s 863 406 m 2 X s black 863 406 m20 0 0 1 c 866 385 m 34 Y s 866 419 m
 34 Y s 865 419 m 1 X s 866 419 m 2 X s black 866 419 m20 0 0 1 c 869 363 m 33 Y s 869 396 m 33 Y s 868 396 m 1 X s 869 396 m 2 X s black 869 396 m20 0 0 1 c 872 374 m 33 Y s 872 407 m 33 Y s 871 407 m 1 X s 872 407 m 2 X s black 872 407 m20 0 0 1 c
 875 429 m 36 Y s 875 465 m 37 Y s 874 465 m 1 X s 875 465 m 2 X s black 875 465 m20 0 0 1 c 878 373 m 34 Y s 878 407 m 35 Y s 877 407 m 1 X s 878 407 m 2 X s black 878 407 m20 0 0 1 c 881 364 m 31 Y s 881 395 m 32 Y s 880 395 m 1 X s 881 395 m 2 X s
 black 881 395 m20 0 0 1 c 884 380 m 34 Y s 884 414 m 33 Y s 883 414 m 1 X s 884 414 m 2 X s black 884 414 m20 0 0 1 c 887 339 m 32 Y s 887 371 m 31 Y s 886 371 m 1 X s 887 371 m 2 X s black 887 371 m20 0 0 1 c 890 389 m 35 Y s 890 424 m 34 Y s 889
 424 m 1 X s 890 424 m 2 X s black 890 424 m20 0 0 1 c 893 395 m 34 Y s 893 429 m 35 Y s 892 429 m 1 X s 893 429 m 2 X s black 893 429 m20 0 0 1 c 897 406 m 34 Y s 897 440 m 34 Y s 895 440 m 2 X s 897 440 m 1 X s black 897 440 m20 0 0 1 c 900 391 m
 34 Y s 900 425 m 34 Y s 898 425 m 2 X s 900 425 m 1 X s black 900 425 m20 0 0 1 c 903 331 m 29 Y s 903 360 m 29 Y s 901 360 m 2 X s 903 360 m 1 X s black 903 360 m20 0 0 1 c 906 374 m 32 Y s 906 406 m 32 Y s 904 406 m 2 X s 906 406 m 1 X s black 906
 406 m20 0 0 1 c 909 437 m 36 Y s 909 473 m 36 Y s 907 473 m 2 X s 909 473 m 1 X s black 909 473 m20 0 0 1 c 912 407 m 32 Y s 912 439 m 33 Y s 910 439 m 2 X s 912 439 m 1 X s black 912 439 m20 0 0 1 c 915 346 m 30 Y s 915 376 m 30 Y s 913 376 m 2 X s
 915 376 m 1 X s black 915 376 m20 0 0 1 c 918 363 m 30 Y s 918 393 m 30 Y s 916 393 m 2 X s 918 393 m 1 X s black 918 393 m20 0 0 1 c 921 347 m 28 Y s 921 375 m 29 Y s 919 375 m 2 X s 921 375 m 1 X s black 921 375 m20 0 0 1 c 924 448 m 36 Y s 924
 484 m 35 Y s 922 484 m 2 X s 924 484 m 1 X s black 924 484 m20 0 0 1 c 927 377 m 31 Y s 927 408 m 31 Y s 925 408 m 2 X s 927 408 m 1 X s black 927 408 m20 0 0 1 c 930 386 m 32 Y s 930 418 m 32 Y s 928 418 m 2 X s 930 418 m 1 X s black 930 418 m20 0
 0 1 c 933 414 m 34 Y s 933 448 m 33 Y s 931 448 m 2 X s 933 448 m 1 X s black 933 448 m20 0 0 1 c 936 398 m 33 Y s 936 431 m 33 Y s 934 431 m 2 X s 936 431 m 1 X s black 936 431 m20 0 0 1 c 939 424 m 33 Y s 939 457 m 34 Y s 937 457 m 2 X s 939 457 m
 1 X s black 939 457 m20 0 0 1 c 942 424 m 33 Y s 942 457 m 33 Y s 940 457 m 2 X s 942 457 m 1 X s black 942 457 m20 0 0 1 c 945 348 m 29 Y s 945 377 m 28 Y s 943 377 m 2 X s 945 377 m 1 X s black 945 377 m20 0 0 1 c 948 353 m 29 Y s 948 382 m 28 Y s
 946 382 m 2 X s 948 382 m 1 X s black 948 382 m20 0 0 1 c 951 384 m 31 Y s 951 415 m 32 Y s 949 415 m 2 X s 951 415 m 1 X s black 951 415 m20 0 0 1 c 954 417 m 34 Y s 954 451 m 33 Y s 952 451 m 2 X s 954 451 m 1 X s black 954 451 m20 0 0 1 c 957 370
 m 29 Y s 957 399 m 30 Y s 955 399 m 2 X s 957 399 m 1 X s black 957 399 m20 0 0 1 c 960 385 m 31 Y s 960 416 m 31 Y s 958 416 m 2 X s 960 416 m 2 X s black 960 416 m20 0 0 1 c 963 378 m 29 Y s 963 407 m 29 Y s 962 407 m 1 X s 963 407 m 2 X s black
 963 407 m20 0 0 1 c 966 332 m 27 Y s 966 359 m 27 Y s 965 359 m 1 X s 966 359 m 2 X s black 966 359 m20 0 0 1 c 969 356 m 28 Y s 969 384 m 28 Y s 968 384 m 1 X s 969 384 m 2 X s black 969 384 m20 0 0 1 c 972 368 m 30 Y s 972 398 m 30 Y s 971 398 m 1
 X s 972 398 m 2 X s black 972 398 m20 0 0 1 c 975 402 m 32 Y s 975 434 m 33 Y s 974 434 m 1 X s 975 434 m 2 X s black 975 434 m20 0 0 1 c 978 397 m 32 Y s 978 429 m 32 Y s 977 429 m 1 X s 978 429 m 2 X s black 978 429 m20 0 0 1 c 981 354 m 30 Y s
 981 384 m 29 Y s 980 384 m 1 X s 981 384 m 2 X s black 981 384 m20 0 0 1 c 984 442 m 35 Y s 984 477 m 35 Y s 983 477 m 1 X s 984 477 m 2 X s black 984 477 m20 0 0 1 c 987 369 m 31 Y s 987 400 m 31 Y s 986 400 m 1 X s 987 400 m 2 X s black 987 400
 m20 0 0 1 c 990 380 m 31 Y s 990 411 m 31 Y s 989 411 m 1 X s 990 411 m 2 X s black 990 411 m20 0 0 1 c 993 346 m 31 Y s 993 377 m 30 Y s 992 377 m 1 X s 993 377 m 2 X s black 993 377 m20 0 0 1 c 996 348 m 30 Y s 996 378 m 29 Y s 995 378 m 1 X s 996
 378 m 2 X s black 996 378 m20 0 0 1 c 999 357 m 29 Y s 999 386 m 30 Y s 998 386 m 1 X s 999 386 m 2 X s black 999 386 m20 0 0 1 c 1002 353 m 30 Y s 1002 383 m 29 Y s 1001 383 m 1 X s 1002 383 m 2 X s black 1002 383 m20 0 0 1 c 1005 313 m 26 Y s 1005
 339 m 25 Y s 1004 339 m 1 X s 1005 339 m 2 X s black 1005 339 m20 0 0 1 c 1008 395 m 33 Y s 1008 428 m 32 Y s 1007 428 m 1 X s 1008 428 m 2 X s black 1008 428 m20 0 0 1 c 1011 351 m 29 Y s 1011 380 m 29 Y s 1010 380 m 1 X s 1011 380 m 2 X s black
 1011 380 m20 0 0 1 c 1014 416 m 32 Y s 1014 448 m 32 Y s 1013 448 m 1 X s 1014 448 m 2 X s black 1014 448 m20 0 0 1 c 1017 374 m 32 Y s 1017 406 m 32 Y s 1016 406 m 1 X s 1017 406 m 2 X s black 1017 406 m20 0 0 1 c 1020 383 m 31 Y s 1020 414 m 31 Y
 s 1019 414 m 1 X s 1020 414 m 2 X s black 1020 414 m20 0 0 1 c 1023 386 m 31 Y s 1023 417 m 31 Y s 1022 417 m 1 X s 1023 417 m 2 X s black 1023 417 m20 0 0 1 c 1027 376 m 29 Y s 1027 405 m 30 Y s 1025 405 m 2 X s 1027 405 m 1 X s black 1027 405 m20
 0 0 1 c 1030 450 m 34 Y s 1030 484 m 34 Y s 1028 484 m 2 X s 1030 484 m 1 X s black 1030 484 m20 0 0 1 c 1033 377 m 30 Y s 1033 407 m 31 Y s 1031 407 m 2 X s 1033 407 m 1 X s black 1033 407 m20 0 0 1 c 1036 401 m 30 Y s 1036 431 m 30 Y s 1034 431 m
 2 X s 1036 431 m 1 X s black 1036 431 m20 0 0 1 c 1039 363 m 29 Y s 1039 392 m 29 Y s 1037 392 m 2 X s 1039 392 m 1 X s black 1039 392 m20 0 0 1 c 1042 352 m 28 Y s 1042 380 m 29 Y s 1040 380 m 2 X s 1042 380 m 1 X s black 1042 380 m20 0 0 1 c 1045
 392 m 30 Y s 1045 422 m 30 Y s 1043 422 m 2 X s 1045 422 m 1 X s black 1045 422 m20 0 0 1 c 1048 365 m 28 Y s 1048 393 m 28 Y s 1046 393 m 2 X s 1048 393 m 1 X s black 1048 393 m20 0 0 1 c 1051 370 m 27 Y s 1051 397 m 27 Y s 1049 397 m 2 X s 1051
 397 m 1 X s black 1051 397 m20 0 0 1 c 1054 380 m 29 Y s 1054 409 m 29 Y s 1052 409 m 2 X s 1054 409 m 1 X s black 1054 409 m20 0 0 1 c 1057 369 m 27 Y s 1057 396 m 28 Y s 1055 396 m 2 X s 1057 396 m 1 X s black 1057 396 m20 0 0 1 c 1060 402 m 29 Y
 s 1060 431 m 29 Y s 1058 431 m 2 X s 1060 431 m 1 X s black 1060 431 m20 0 0 1 c 1063 373 m 27 Y s 1063 400 m 28 Y s 1061 400 m 2 X s 1063 400 m 1 X s black 1063 400 m20 0 0 1 c 1066 436 m 31 Y s 1066 467 m 30 Y s 1064 467 m 2 X s 1066 467 m 1 X s
 black 1066 467 m20 0 0 1 c 1069 383 m 27 Y s 1069 410 m 27 Y s 1067 410 m 2 X s 1069 410 m 1 X s black 1069 410 m20 0 0 1 c 1072 392 m 29 Y s 1072 421 m 29 Y s 1070 421 m 2 X s 1072 421 m 1 X s black 1072 421 m20 0 0 1 c 1075 380 m 28 Y s 1075 408 m
 28 Y s 1073 408 m 2 X s 1075 408 m 1 X s black 1075 408 m20 0 0 1 c 1078 383 m 26 Y s 1078 409 m 27 Y s 1076 409 m 2 X s 1078 409 m 1 X s black 1078 409 m20 0 0 1 c 1081 426 m 28 Y s 1081 454 m 28 Y s 1079 454 m 2 X s 1081 454 m 1 X s black 1081 454
 m20 0 0 1 c 1084 391 m 26 Y s 1084 417 m 26 Y s 1082 417 m 2 X s 1084 417 m 1 X s black 1084 417 m20 0 0 1 c 1087 393 m 26 Y s 1087 419 m 27 Y s 1085 419 m 2 X s 1087 419 m 2 X s black 1087 419 m20 0 0 1 c 1090 397 m 26 Y s 1090 423 m 26 Y s 1089
 423 m 1 X s 1090 423 m 2 X s black 1090 423 m20 0 0 1 c 1093 399 m 28 Y s 1093 427 m 28 Y s 1092 427 m 1 X s 1093 427 m 2 X s black 1093 427 m20 0 0 1 c 1096 386 m 26 Y s 1096 412 m 26 Y s 1095 412 m 1 X s 1096 412 m 2 X s black 1096 412 m20 0 0 1 c
 1099 378 m 25 Y s 1099 403 m 25 Y s 1098 403 m 1 X s 1099 403 m 2 X s black 1099 403 m20 0 0 1 c 1102 420 m 27 Y s 1102 447 m 28 Y s 1101 447 m 1 X s 1102 447 m 2 X s black 1102 447 m20 0 0 1 c 1105 392 m 26 Y s 1105 418 m 25 Y s 1104 418 m 1 X s
 1105 418 m 2 X s black 1105 418 m20 0 0 1 c 1108 396 m 27 Y s 1108 423 m 27 Y s 1107 423 m 1 X s 1108 423 m 2 X s black 1108 423 m20 0 0 1 c 1111 410 m 27 Y s 1111 437 m 28 Y s 1110 437 m 1 X s 1111 437 m 2 X s black 1111 437 m20 0 0 1 c 1114 387 m
 25 Y s 1114 412 m 25 Y s 1113 412 m 1 X s 1114 412 m 2 X s black 1114 412 m20 0 0 1 c 1117 406 m 27 Y s 1117 433 m 27 Y s 1116 433 m 1 X s 1117 433 m 2 X s black 1117 433 m20 0 0 1 c 1120 386 m 25 Y s 1120 411 m 25 Y s 1119 411 m 1 X s 1120 411 m 2
 X s black 1120 411 m20 0 0 1 c 1123 399 m 28 Y s 1123 427 m 28 Y s 1122 427 m 1 X s 1123 427 m 2 X s black 1123 427 m20 0 0 1 c 1126 381 m 26 Y s 1126 407 m 25 Y s 1125 407 m 1 X s 1126 407 m 2 X s black 1126 407 m20 0 0 1 c 1129 363 m 22 Y s 1129
 385 m 23 Y s 1128 385 m 1 X s 1129 385 m 2 X s black 1129 385 m20 0 0 1 c 1132 438 m 29 Y s 1132 467 m 30 Y s 1131 467 m 1 X s 1132 467 m 2 X s black 1132 467 m20 0 0 1 c 1135 404 m 26 Y s 1135 430 m 26 Y s 1134 430 m 1 X s 1135 430 m 2 X s black
 1135 430 m20 0 0 1 c 1138 447 m 30 Y s 1138 477 m 31 Y s 1137 477 m 1 X s 1138 477 m 2 X s black 1138 477 m20 0 0 1 c 1141 394 m 26 Y s 1141 420 m 27 Y s 1140 420 m 1 X s 1141 420 m 2 X s black 1141 420 m20 0 0 1 c 1144 391 m 26 Y s 1144 417 m 26 Y
 s 1143 417 m 1 X s 1144 417 m 2 X s black 1144 417 m20 0 0 1 c 1147 384 m 25 Y s 1147 409 m 26 Y s 1146 409 m 1 X s 1147 409 m 2 X s black 1147 409 m20 0 0 1 c 1150 407 m 28 Y s 1150 435 m 27 Y s 1149 435 m 1 X s 1150 435 m 2 X s black 1150 435 m20
 0 0 1 c 1154 397 m 26 Y s 1154 423 m 26 Y s 1152 423 m 2 X s 1154 423 m 1 X s black 1154 423 m20 0 0 1 c 1157 398 m 27 Y s 1157 425 m 27 Y s 1155 425 m 2 X s 1157 425 m 1 X s black 1157 425 m20 0 0 1 c 1160 434 m 30 Y s 1160 464 m 30 Y s 1158 464 m
 2 X s 1160 464 m 1 X s black 1160 464 m20 0 0 1 c 1163 406 m 28 Y s 1163 434 m 28 Y s 1161 434 m 2 X s 1163 434 m 1 X s black 1163 434 m20 0 0 1 c 1166 388 m 27 Y s 1166 415 m 26 Y s 1164 415 m 2 X s 1166 415 m 1 X s black 1166 415 m20 0 0 1 c 1169
 413 m 28 Y s 1169 441 m 28 Y s 1167 441 m 2 X s 1169 441 m 1 X s black 1169 441 m20 0 0 1 c 1172 412 m 29 Y s 1172 441 m 29 Y s 1170 441 m 2 X s 1172 441 m 1 X s black 1172 441 m20 0 0 1 c 1175 386 m 25 Y s 1175 411 m 25 Y s 1173 411 m 2 X s 1175
 411 m 1 X s black 1175 411 m20 0 0 1 c 1178 411 m 27 Y s 1178 438 m 28 Y s 1176 438 m 2 X s 1178 438 m 1 X s black 1178 438 m20 0 0 1 c 1181 383 m 24 Y s 1181 407 m 25 Y s 1179 407 m 2 X s 1181 407 m 1 X s black 1181 407 m20 0 0 1 c 1184 426 m 30 Y
 s 1184 456 m 30 Y s 1182 456 m 2 X s 1184 456 m 1 X s black 1184 456 m20 0 0 1 c 1187 379 m 26 Y s 1187 405 m 25 Y s 1185 405 m 2 X s 1187 405 m 1 X s black 1187 405 m20 0 0 1 c 1190 437 m 29 Y s 1190 466 m 29 Y s 1188 466 m 2 X s 1190 466 m 1 X s
 black 1190 466 m20 0 0 1 c 1193 428 m 30 Y s 1193 458 m 29 Y s 1191 458 m 2 X s 1193 458 m 1 X s black 1193 458 m20 0 0 1 c 1196 401 m 27 Y s 1196 428 m 26 Y s 1194 428 m 2 X s 1196 428 m 1 X s black 1196 428 m20 0 0 1 c 1199 379 m 23 Y s 1199 402 m
 24 Y s 1197 402 m 2 X s 1199 402 m 1 X s black 1199 402 m20 0 0 1 c 1202 406 m 26 Y s 1202 432 m 27 Y s 1200 432 m 2 X s 1202 432 m 1 X s black 1202 432 m20 0 0 1 c 1205 390 m 25 Y s 1205 415 m 25 Y s 1203 415 m 2 X s 1205 415 m 1 X s black 1205 415
 m20 0 0 1 c 1208 400 m 25 Y s 1208 425 m 24 Y s 1206 425 m 2 X s 1208 425 m 1 X s black 1208 425 m20 0 0 1 c 1211 379 m 23 Y s 1211 402 m 24 Y s 1209 402 m 2 X s 1211 402 m 1 X s black 1211 402 m20 0 0 1 c 1214 429 m 27 Y s 1214 456 m 28 Y s 1212
 456 m 2 X s 1214 456 m 1 X s black 1214 456 m20 0 0 1 c 1217 428 m 27 Y s 1217 455 m 26 Y s 1215 455 m 2 X s 1217 455 m 2 X s black 1217 455 m20 0 0 1 c 1220 376 m 22 Y s 1220 398 m 22 Y s 1219 398 m 1 X s 1220 398 m 2 X s black 1220 398 m20 0 0 1 c
 1223 405 m 25 Y s 1223 430 m 24 Y s 1222 430 m 1 X s 1223 430 m 2 X s black 1223 430 m20 0 0 1 c 1226 417 m 27 Y s 1226 444 m 26 Y s 1225 444 m 1 X s 1226 444 m 2 X s black 1226 444 m20 0 0 1 c 1229 409 m 25 Y s 1229 434 m 25 Y s 1228 434 m 1 X s
 1229 434 m 2 X s black 1229 434 m20 0 0 1 c 1232 431 m 26 Y s 1232 457 m 27 Y s 1231 457 m 1 X s 1232 457 m 2 X s black 1232 457 m20 0 0 1 c 1235 399 m 24 Y s 1235 423 m 24 Y s 1234 423 m 1 X s 1235 423 m 2 X s black 1235 423 m20 0 0 1 c 1238 395 m
 24 Y s 1238 419 m 24 Y s 1237 419 m 1 X s 1238 419 m 2 X s black 1238 419 m20 0 0 1 c 1241 422 m 27 Y s 1241 449 m 26 Y s 1240 449 m 1 X s 1241 449 m 2 X s black 1241 449 m20 0 0 1 c 1244 369 m 21 Y s 1244 390 m 20 Y s 1243 390 m 1 X s 1244 390 m 2
 X s black 1244 390 m20 0 0 1 c 1247 394 m 24 Y s 1247 418 m 24 Y s 1246 418 m 1 X s 1247 418 m 2 X s black 1247 418 m20 0 0 1 c 1250 417 m 26 Y s 1250 443 m 26 Y s 1249 443 m 1 X s 1250 443 m 2 X s black 1250 443 m20 0 0 1 c 1253 407 m 23 Y s 1253
 430 m 24 Y s 1252 430 m 1 X s 1253 430 m 2 X s black 1253 430 m20 0 0 1 c 1256 372 m 22 Y s 1256 394 m 21 Y s 1255 394 m 1 X s 1256 394 m 2 X s black 1256 394 m20 0 0 1 c 1259 419 m 24 Y s 1259 443 m 25 Y s 1258 443 m 1 X s 1259 443 m 2 X s black
 1259 443 m20 0 0 1 c 1262 421 m 26 Y s 1262 447 m 25 Y s 1261 447 m 1 X s 1262 447 m 2 X s black 1262 447 m20 0 0 1 c 1265 399 m 23 Y s 1265 422 m 23 Y s 1264 422 m 1 X s 1265 422 m 2 X s black 1265 422 m20 0 0 1 c 1268 370 m 21 Y s 1268 391 m 20 Y
 s 1267 391 m 1 X s 1268 391 m 2 X s black 1268 391 m20 0 0 1 c 1271 403 m 22 Y s 1271 425 m 23 Y s 1270 425 m 1 X s 1271 425 m 2 X s black 1271 425 m20 0 0 1 c 1274 380 m 22 Y s 1274 402 m 22 Y s 1273 402 m 1 X s 1274 402 m 2 X s black 1274 402 m20
 0 0 1 c 1277 413 m 24 Y s 1277 437 m 25 Y s 1276 437 m 1 X s 1277 437 m 2 X s black 1277 437 m20 0 0 1 c 1281 375 m 19 Y s 1281 394 m 18 Y s 1279 394 m 2 X s 1281 394 m 1 X s black 1281 394 m20 0 0 1 c 1284 411 m 22 Y s 1284 433 m 23 Y s 1282 433 m
 2 X s 1284 433 m 1 X s black 1284 433 m20 0 0 1 c 1287 425 m 24 Y s 1287 449 m 25 Y s 1285 449 m 2 X s 1287 449 m 1 X s black 1287 449 m20 0 0 1 c 1290 402 m 21 Y s 1290 423 m 22 Y s 1288 423 m 2 X s 1290 423 m 1 X s black 1290 423 m20 0 0 1 c 1293
 397 m 21 Y s 1293 418 m 21 Y s 1291 418 m 2 X s 1293 418 m 1 X s black 1293 418 m20 0 0 1 c 1296 398 m 22 Y s 1296 420 m 22 Y s 1294 420 m 2 X s 1296 420 m 1 X s black 1296 420 m20 0 0 1 c 1299 381 m 20 Y s 1299 401 m 19 Y s 1297 401 m 2 X s 1299
 401 m 1 X s black 1299 401 m20 0 0 1 c 1302 379 m 18 Y s 1302 397 m 19 Y s 1300 397 m 2 X s 1302 397 m 1 X s black 1302 397 m20 0 0 1 c 1305 416 m 23 Y s 1305 439 m 23 Y s 1303 439 m 2 X s 1305 439 m 1 X s black 1305 439 m20 0 0 1 c 1308 429 m 23 Y
 s 1308 452 m 23 Y s 1306 452 m 2 X s 1308 452 m 1 X s black 1308 452 m20 0 0 1 c 1311 396 m 20 Y s 1311 416 m 19 Y s 1309 416 m 2 X s 1311 416 m 1 X s black 1311 416 m20 0 0 1 c 1314 422 m 22 Y s 1314 444 m 21 Y s 1312 444 m 2 X s 1314 444 m 1 X s
 black 1314 444 m20 0 0 1 c 1317 378 m 17 Y s 1317 395 m 17 Y s 1315 395 m 2 X s 1317 395 m 1 X s black 1317 395 m20 0 0 1 c 1320 429 m 23 Y s 1320 452 m 23 Y s 1318 452 m 2 X s 1320 452 m 1 X s black 1320 452 m20 0 0 1 c 1323 381 m 17 Y s 1323 398 m
 16 Y s 1321 398 m 2 X s 1323 398 m 1 X s black 1323 398 m20 0 0 1 c 1326 396 m 20 Y s 1326 416 m 20 Y s 1324 416 m 2 X s 1326 416 m 1 X s black 1326 416 m20 0 0 1 c 1329 389 m 19 Y s 1329 408 m 19 Y s 1327 408 m 2 X s 1329 408 m 1 X s black 1329 408
 m20 0 0 1 c 1332 418 m 22 Y s 1332 440 m 21 Y s 1330 440 m 2 X s 1332 440 m 1 X s black 1332 440 m20 0 0 1 c 1335 379 m 17 Y s 1335 396 m 17 Y s 1333 396 m 2 X s 1335 396 m 1 X s black 1335 396 m20 0 0 1 c 1338 441 m 24 Y s 1338 465 m 23 Y s 1336
 465 m 2 X s 1338 465 m 1 X s black 1338 465 m20 0 0 1 c 1341 401 m 19 Y s 1341 420 m 19 Y s 1339 420 m 2 X s 1341 420 m 1 X s black 1341 420 m20 0 0 1 c 1344 381 m 17 Y s 1344 398 m 17 Y s 1342 398 m 2 X s 1344 398 m 2 X s black 1344 398 m20 0 0 1 c
 1347 380 m 16 Y s 1347 396 m 17 Y s 1346 396 m 1 X s 1347 396 m 2 X s black 1347 396 m20 0 0 1 c 1350 418 m 21 Y s 1350 439 m 21 Y s 1349 439 m 1 X s 1350 439 m 2 X s black 1350 439 m20 0 0 1 c 1353 412 m 20 Y s 1353 432 m 20 Y s 1352 432 m 1 X s
 1353 432 m 2 X s black 1353 432 m20 0 0 1 c 1356 429 m 22 Y s 1356 451 m 22 Y s 1355 451 m 1 X s 1356 451 m 2 X s black 1356 451 m20 0 0 1 c 1359 390 m 19 Y s 1359 409 m 18 Y s 1358 409 m 1 X s 1359 409 m 2 X s black 1359 409 m20 0 0 1 c 1362 408 m
 20 Y s 1362 428 m 20 Y s 1361 428 m 1 X s 1362 428 m 2 X s black 1362 428 m20 0 0 1 c 1365 420 m 21 Y s 1365 441 m 21 Y s 1364 441 m 1 X s 1365 441 m 2 X s black 1365 441 m20 0 0 1 c 1368 385 m 18 Y s 1368 403 m 18 Y s 1367 403 m 1 X s 1368 403 m 2
 X s black 1368 403 m20 0 0 1 c 1371 422 m 21 Y s 1371 443 m 22 Y s 1370 443 m 1 X s 1371 443 m 2 X s black 1371 443 m20 0 0 1 c 1374 399 m 20 Y s 1374 419 m 19 Y s 1373 419 m 1 X s 1374 419 m 2 X s black 1374 419 m20 0 0 1 c 1377 411 m 22 Y s 1377
 433 m 21 Y s 1376 433 m 1 X s 1377 433 m 2 X s black 1377 433 m20 0 0 1 c 1380 410 m 20 Y s 1380 430 m 21 Y s 1379 430 m 1 X s 1380 430 m 2 X s black 1380 430 m20 0 0 1 c 1383 435 m 23 Y s 1383 458 m 24 Y s 1382 458 m 1 X s 1383 458 m 2 X s black
 1383 458 m20 0 0 1 c 1386 392 m 19 Y s 1386 411 m 19 Y s 1385 411 m 1 X s 1386 411 m 2 X s black 1386 411 m20 0 0 1 c 1389 402 m 21 Y s 1389 423 m 21 Y s 1388 423 m 1 X s 1389 423 m 2 X s black 1389 423 m20 0 0 1 c 1392 401 m 20 Y s 1392 421 m 20 Y
 s 1391 421 m 1 X s 1392 421 m 2 X s black 1392 421 m20 0 0 1 c 1395 410 m 22 Y s 1395 432 m 21 Y s 1394 432 m 1 X s 1395 432 m 2 X s black 1395 432 m20 0 0 1 c 1398 418 m 23 Y s 1398 441 m 22 Y s 1397 441 m 1 X s 1398 441 m 2 X s black 1398 441 m20
 0 0 1 c 1401 418 m 22 Y s 1401 440 m 22 Y s 1400 440 m 1 X s 1401 440 m 2 X s black 1401 440 m20 0 0 1 c 1404 444 m 25 Y s 1404 469 m 25 Y s 1403 469 m 1 X s 1404 469 m 2 X s black 1404 469 m20 0 0 1 c 1407 449 m 27 Y s 1407 476 m 27 Y s 1406 476 m
 1 X s 1407 476 m 2 X s black 1407 476 m20 0 0 1 c 1411 447 m 26 Y s 1411 473 m 27 Y s 1409 473 m 2 X s 1411 473 m 1 X s black 1411 473 m20 0 0 1 c 1414 461 m 28 Y s 1414 489 m 28 Y s 1412 489 m 2 X s 1414 489 m 1 X s black 1414 489 m20 0 0 1 c 1417
 428 m 25 Y s 1417 453 m 26 Y s 1415 453 m 2 X s 1417 453 m 1 X s black 1417 453 m20 0 0 1 c 1420 415 m 25 Y s 1420 440 m 26 Y s 1418 440 m 2 X s 1420 440 m 1 X s black 1420 440 m20 0 0 1 c 1423 471 m 31 Y s 1423 502 m 31 Y s 1421 502 m 2 X s 1423
 502 m 1 X s black 1423 502 m20 0 0 1 c 1426 528 m 35 Y s 1426 563 m 35 Y s 1424 563 m 2 X s 1426 563 m 1 X s black 1426 563 m20 0 0 1 c 1429 463 m 31 Y s 1429 494 m 32 Y s 1427 494 m 2 X s 1429 494 m 1 X s black 1429 494 m20 0 0 1 c 1432 428 m 29 Y
 s 1432 457 m 29 Y s 1430 457 m 2 X s 1432 457 m 1 X s black 1432 457 m20 0 0 1 c 1435 485 m 35 Y s 1435 520 m 34 Y s 1433 520 m 2 X s 1435 520 m 1 X s black 1435 520 m20 0 0 1 c 1438 488 m 36 Y s 1438 524 m 35 Y s 1436 524 m 2 X s 1438 524 m 1 X s
 black 1438 524 m20 0 0 1 c 1441 461 m 35 Y s 1441 496 m 34 Y s 1439 496 m 2 X s 1441 496 m 1 X s black 1441 496 m20 0 0 1 c 1444 522 m 38 Y s 1444 560 m 38 Y s 1442 560 m 2 X s 1444 560 m 1 X s black 1444 560 m20 0 0 1 c 1447 497 m 38 Y s 1447 535 m
 39 Y s 1445 535 m 2 X s 1447 535 m 1 X s black 1447 535 m20 0 0 1 c 1450 476 m 37 Y s 1450 513 m 38 Y s 1448 513 m 2 X s 1450 513 m 1 X s black 1450 513 m20 0 0 1 c 1453 512 m 39 Y s 1453 551 m 39 Y s 1451 551 m 2 X s 1453 551 m 1 X s black 1453 551
 m20 0 0 1 c 1456 431 m 36 Y s 1456 467 m 35 Y s 1454 467 m 2 X s 1456 467 m 1 X s black 1456 467 m20 0 0 1 c 1459 437 m 36 Y s 1459 473 m 35 Y s 1457 473 m 2 X s 1459 473 m 1 X s black 1459 473 m20 0 0 1 c 1462 464 m 38 Y s 1462 502 m 38 Y s 1460
 502 m 2 X s 1462 502 m 1 X s black 1462 502 m20 0 0 1 c 1465 430 m 36 Y s 1465 466 m 35 Y s 1463 466 m 2 X s 1465 466 m 1 X s black 1465 466 m20 0 0 1 c 1468 445 m 35 Y s 1468 480 m 35 Y s 1466 480 m 2 X s 1468 480 m 1 X s black 1468 480 m20 0 0 1 c
 1471 431 m 35 Y s 1471 466 m 35 Y s 1469 466 m 2 X s 1471 466 m 2 X s black 1471 466 m20 0 0 1 c 1474 387 m 32 Y s 1474 419 m 31 Y s 1473 419 m 1 X s 1474 419 m 2 X s black 1474 419 m20 0 0 1 c 1477 390 m 31 Y s 1477 421 m 30 Y s 1476 421 m 1 X s
 1477 421 m 2 X s black 1477 421 m20 0 0 1 c 1480 371 m 30 Y s 1480 401 m 30 Y s 1479 401 m 1 X s 1480 401 m 2 X s black 1480 401 m20 0 0 1 c 1483 406 m 31 Y s 1483 437 m 31 Y s 1482 437 m 1 X s 1483 437 m 2 X s black 1483 437 m20 0 0 1 c 1486 399 m
 28 Y s 1486 427 m 28 Y s 1485 427 m 1 X s 1486 427 m 2 X s black 1486 427 m20 0 0 1 c 1489 406 m 29 Y s 1489 435 m 30 Y s 1488 435 m 1 X s 1489 435 m 2 X s black 1489 435 m20 0 0 1 c 1492 393 m 25 Y s 1492 418 m 26 Y s 1491 418 m 1 X s 1492 418 m 2
 X s black 1492 418 m20 0 0 1 c 1495 400 m 26 Y s 1495 426 m 26 Y s 1494 426 m 1 X s 1495 426 m 2 X s black 1495 426 m20 0 0 1 c 1498 384 m 22 Y s 1498 406 m 21 Y s 1497 406 m 1 X s 1498 406 m 2 X s black 1498 406 m20 0 0 1 c 1501 357 m 18 Y s 1501
 375 m 18 Y s 1500 375 m 1 X s 1501 375 m 2 X s black 1501 375 m20 0 0 1 c 1504 381 m 21 Y s 1504 402 m 20 Y s 1503 402 m 1 X s 1504 402 m 2 X s black 1504 402 m20 0 0 1 c 1507 399 m 21 Y s 1507 420 m 22 Y s 1506 420 m 1 X s 1507 420 m 2 X s black
 1507 420 m20 0 0 1 c 1510 402 m 20 Y s 1510 422 m 20 Y s 1509 422 m 1 X s 1510 422 m 2 X s black 1510 422 m20 0 0 1 c 1513 410 m 20 Y s 1513 430 m 20 Y s 1512 430 m 1 X s 1513 430 m 2 X s black 1513 430 m20 0 0 1 c 1516 368 m 15 Y s 1516 383 m 15 Y
 s 1515 383 m 1 X s 1516 383 m 2 X s black 1516 383 m20 0 0 1 c 1519 401 m 16 Y s 1519 417 m 15 Y s 1518 417 m 1 X s 1519 417 m 2 X s black 1519 417 m20 0 0 1 c 1522 387 m 13 Y s 1522 400 m 14 Y s 1521 400 m 1 X s 1522 400 m 2 X s black 1522 400 m20
 0 0 1 c 1525 393 m 15 Y s 1525 408 m 15 Y s 1524 408 m 1 X s 1525 408 m 2 X s black 1525 408 m20 0 0 1 c 1528 409 m 15 Y s 1528 424 m 16 Y s 1527 424 m 1 X s 1528 424 m 2 X s black 1528 424 m20 0 0 1 c 1531 400 m 15 Y s 1531 415 m 15 Y s 1530 415 m
 1 X s 1531 415 m 2 X s black 1531 415 m20 0 0 1 c 1534 394 m 15 Y s 1534 409 m 14 Y s 1533 409 m 1 X s 1534 409 m 2 X s black 1534 409 m20 0 0 1 c 1538 407 m 16 Y s 1538 423 m 16 Y s 1536 423 m 2 X s 1538 423 m 1 X s black 1538 423 m20 0 0 1 c 1541
 375 m 9 Y s 1541 384 m 10 Y s 1539 384 m 2 X s 1541 384 m 1 X s black 1541 384 m20 0 0 1 c 1544 400 m 15 Y s 1544 415 m 14 Y s 1542 415 m 2 X s 1544 415 m 1 X s black 1544 415 m20 0 0 1 c 1547 395 m 14 Y s 1547 409 m 14 Y s 1545 409 m 2 X s 1547 409
 m 1 X s black 1547 409 m20 0 0 1 c 1550 412 m 16 Y s 1550 428 m 15 Y s 1548 428 m 2 X s 1550 428 m 1 X s black 1550 428 m20 0 0 1 c 1553 413 m 15 Y s 1553 428 m 15 Y s 1551 428 m 2 X s 1553 428 m 1 X s black 1553 428 m20 0 0 1 c 1556 404 m 14 Y s
 1556 418 m 15 Y s 1554 418 m 2 X s 1556 418 m 1 X s black 1556 418 m20 0 0 1 c 1559 425 m 17 Y s 1559 442 m 17 Y s 1557 442 m 2 X s 1559 442 m 1 X s black 1559 442 m20 0 0 1 c 1562 399 m 14 Y s 1562 413 m 14 Y s 1560 413 m 2 X s 1562 413 m 1 X s
 black 1562 413 m20 0 0 1 c 1565 394 m 13 Y s 1565 407 m 13 Y s 1563 407 m 2 X s 1565 407 m 1 X s black 1565 407 m20 0 0 1 c 1568 430 m 18 Y s 1568 448 m 18 Y s 1566 448 m 2 X s 1568 448 m 1 X s black 1568 448 m20 0 0 1 c 1571 385 m 12 Y s 1571 397 m
 12 Y s 1569 397 m 2 X s 1571 397 m 1 X s black 1571 397 m20 0 0 1 c 1574 407 m 15 Y s 1574 422 m 15 Y s 1572 422 m 2 X s 1574 422 m 1 X s black 1574 422 m20 0 0 1 c 1577 404 m 15 Y s 1577 419 m 15 Y s 1575 419 m 2 X s 1577 419 m 1 X s black 1577 419
 m20 0 0 1 c 1580 394 m 12 Y s 1580 406 m 13 Y s 1578 406 m 2 X s 1580 406 m 1 X s black 1580 406 m20 0 0 1 c 1583 399 m 14 Y s 1583 413 m 14 Y s 1581 413 m 2 X s 1583 413 m 1 X s black 1583 413 m20 0 0 1 c 1586 422 m 16 Y s 1586 438 m 17 Y s 1584
 438 m 2 X s 1586 438 m 1 X s black 1586 438 m20 0 0 1 c 1589 417 m 15 Y s 1589 432 m 16 Y s 1587 432 m 2 X s 1589 432 m 1 X s black 1589 432 m20 0 0 1 c 1592 385 m 10 Y s 1592 395 m 10 Y s 1590 395 m 2 X s 1592 395 m 1 X s black 1592 395 m20 0 0 1 c
 1595 437 m 18 Y s 1595 455 m 17 Y s 1593 455 m 2 X s 1595 455 m 1 X s black 1595 455 m20 0 0 1 c 1598 387 m 10 Y s 1598 397 m 10 Y s 1596 397 m 2 X s 1598 397 m 1 X s black 1598 397 m20 0 0 1 c 1601 415 m 15 Y s 1601 430 m 15 Y s 1599 430 m 2 X s
 1601 430 m 2 X s black 1601 430 m20 0 0 1 c 1604 395 m 12 Y s 1604 407 m 11 Y s 1603 407 m 1 X s 1604 407 m 2 X s black 1604 407 m20 0 0 1 c 1607 402 m 13 Y s 1607 415 m 13 Y s 1606 415 m 1 X s 1607 415 m 2 X s black 1607 415 m20 0 0 1 c 1610 406 m
 14 Y s 1610 420 m 13 Y s 1609 420 m 1 X s 1610 420 m 2 X s black 1610 420 m20 0 0 1 c 1613 389 m 10 Y s 1613 399 m 10 Y s 1612 399 m 1 X s 1613 399 m 2 X s black 1613 399 m20 0 0 1 c 1616 406 m 13 Y s 1616 419 m 13 Y s 1615 419 m 1 X s 1616 419 m 2
 X s black 1616 419 m20 0 0 1 c 1619 393 m 11 Y s 1619 404 m 11 Y s 1618 404 m 1 X s 1619 404 m 2 X s black 1619 404 m20 0 0 1 c 1622 422 m 16 Y s 1622 438 m 16 Y s 1621 438 m 1 X s 1622 438 m 2 X s black 1622 438 m20 0 0 1 c 1625 413 m 14 Y s 1625
 427 m 15 Y s 1624 427 m 1 X s 1625 427 m 2 X s black 1625 427 m20 0 0 1 c 1628 387 m 8 Y s 1628 395 m 8 Y s 1627 395 m 1 X s 1628 395 m 2 X s black 1628 395 m20 0 0 1 c 1631 410 m 15 Y s 1631 425 m 14 Y s 1630 425 m 1 X s 1631 425 m 2 X s black 1631
 425 m20 0 0 1 c 1634 406 m 13 Y s 1634 419 m 13 Y s 1633 419 m 1 X s 1634 419 m 2 X s black 1634 419 m20 0 0 1 c 1637 433 m 17 Y s 1637 450 m 17 Y s 1636 450 m 1 X s 1637 450 m 2 X s black 1637 450 m20 0 0 1 c 1640 394 m 10 Y s 1640 404 m 10 Y s
 1639 404 m 1 X s 1640 404 m 2 X s black 1640 404 m20 0 0 1 c 1643 424 m 14 Y s 1643 438 m 14 Y s 1642 438 m 1 X s 1643 438 m 2 X s black 1643 438 m20 0 0 1 c 1646 400 m 12 Y s 1646 412 m 13 Y s 1645 412 m 1 X s 1646 412 m 2 X s black 1646 412 m20 0
 0 1 c 1649 397 m 13 Y s 1649 410 m 12 Y s 1648 410 m 1 X s 1649 410 m 2 X s black 1649 410 m20 0 0 1 c 1652 399 m 12 Y s 1652 411 m 11 Y s 1651 411 m 1 X s 1652 411 m 2 X s black 1652 411 m20 0 0 1 c 1655 431 m 18 Y s 1655 449 m 17 Y s 1654 449 m 1
 X s 1655 449 m 2 X s black 1655 449 m20 0 0 1 c 1658 400 m 12 Y s 1658 412 m 13 Y s 1657 412 m 1 X s 1658 412 m 2 X s black 1658 412 m20 0 0 1 c 1661 413 m 14 Y s 1661 427 m 14 Y s 1660 427 m 1 X s 1661 427 m 2 X s black 1661 427 m20 0 0 1 c 1665
 428 m 17 Y s 1665 445 m 17 Y s 1663 445 m 2 X s 1665 445 m 1 X s black 1665 445 m20 0 0 1 c 1668 402 m 12 Y s 1668 414 m 13 Y s 1666 414 m 2 X s 1668 414 m 1 X s black 1668 414 m20 0 0 1 c 1671 392 m 11 Y s 1671 403 m 11 Y s 1669 403 m 2 X s 1671
 403 m 1 X s black 1671 403 m20 0 0 1 c 1674 405 m 13 Y s 1674 418 m 14 Y s 1672 418 m 2 X s 1674 418 m 1 X s black 1674 418 m20 0 0 1 c 1677 394 m 11 Y s 1677 405 m 10 Y s 1675 405 m 2 X s 1677 405 m 1 X s black 1677 405 m20 0 0 1 c 1680 423 m 17 Y
 s 1680 440 m 16 Y s 1678 440 m 2 X s 1680 440 m 1 X s black 1680 440 m20 0 0 1 c 1683 417 m 15 Y s 1683 432 m 15 Y s 1681 432 m 2 X s 1683 432 m 1 X s black 1683 432 m20 0 0 1 c 1686 420 m 15 Y s 1686 435 m 16 Y s 1684 435 m 2 X s 1686 435 m 1 X s
 black 1686 435 m20 0 0 1 c 1689 415 m 15 Y s 1689 430 m 15 Y s 1687 430 m 2 X s 1689 430 m 1 X s black 1689 430 m20 0 0 1 c 1692 405 m 16 Y s 1692 421 m 15 Y s 1690 421 m 2 X s 1692 421 m 1 X s black 1692 421 m20 0 0 1 c 1695 404 m 14 Y s 1695 418 m
 15 Y s 1693 418 m 2 X s 1695 418 m 1 X s black 1695 418 m20 0 0 1 c 1698 410 m 15 Y s 1698 425 m 16 Y s 1696 425 m 2 X s 1698 425 m 1 X s black 1698 425 m20 0 0 1 c 1701 385 m 12 Y s 1701 397 m 12 Y s 1699 397 m 2 X s 1701 397 m 1 X s black 1701 397
 m20 0 0 1 c 1704 404 m 15 Y s 1704 419 m 16 Y s 1702 419 m 2 X s 1704 419 m 1 X s black 1704 419 m20 0 0 1 c 1707 390 m 12 Y s 1707 402 m 13 Y s 1705 402 m 2 X s 1707 402 m 1 X s black 1707 402 m20 0 0 1 c 1710 383 m 13 Y s 1710 396 m 14 Y s 1708
 396 m 2 X s 1710 396 m 1 X s black 1710 396 m20 0 0 1 c 1713 408 m 17 Y s 1713 425 m 16 Y s 1711 425 m 2 X s 1713 425 m 1 X s black 1713 425 m20 0 0 1 c 1716 397 m 13 Y s 1716 410 m 13 Y s 1714 410 m 2 X s 1716 410 m 1 X s black 1716 410 m20 0 0 1 c
 1719 412 m 17 Y s 1719 429 m 16 Y s 1717 429 m 2 X s 1719 429 m 1 X s black 1719 429 m20 0 0 1 c 1722 424 m 17 Y s 1722 441 m 17 Y s 1720 441 m 2 X s 1722 441 m 1 X s black 1722 441 m20 0 0 1 c 1725 396 m 13 Y s 1725 409 m 13 Y s 1723 409 m 2 X s
 1725 409 m 1 X s black 1725 409 m20 0 0 1 c 1728 402 m 12 Y s 1728 414 m 13 Y s 1726 414 m 2 X s 1728 414 m 2 X s black 1728 414 m20 0 0 1 c 1731 401 m 12 Y s 1731 413 m 13 Y s 1730 413 m 1 X s 1731 413 m 2 X s black 1731 413 m20 0 0 1 c 1734 396 m
 13 Y s 1734 409 m 12 Y s 1733 409 m 1 X s 1734 409 m 2 X s black 1734 409 m20 0 0 1 c 1737 405 m 14 Y s 1737 419 m 14 Y s 1736 419 m 1 X s 1737 419 m 2 X s black 1737 419 m20 0 0 1 c 1740 397 m 12 Y s 1740 409 m 12 Y s 1739 409 m 1 X s 1740 409 m 2
 X s black 1740 409 m20 0 0 1 c 1743 408 m 13 Y s 1743 421 m 13 Y s 1742 421 m 1 X s 1743 421 m 2 X s black 1743 421 m20 0 0 1 c 1746 396 m 12 Y s 1746 408 m 11 Y s 1745 408 m 1 X s 1746 408 m 2 X s black 1746 408 m20 0 0 1 c 1749 402 m 13 Y s 1749
 415 m 13 Y s 1748 415 m 1 X s 1749 415 m 2 X s black 1749 415 m20 0 0 1 c 1752 411 m 14 Y s 1752 425 m 14 Y s 1751 425 m 1 X s 1752 425 m 2 X s black 1752 425 m20 0 0 1 c 1755 421 m 15 Y s 1755 436 m 14 Y s 1754 436 m 1 X s 1755 436 m 2 X s black
 1755 436 m20 0 0 1 c 1758 405 m 12 Y s 1758 417 m 12 Y s 1757 417 m 1 X s 1758 417 m 2 X s black 1758 417 m20 0 0 1 c 1761 392 m 9 Y s 1761 401 m 9 Y s 1760 401 m 1 X s 1761 401 m 2 X s black 1761 401 m20 0 0 1 c 1764 394 m 9 Y s 1764 403 m 9 Y s
 1763 403 m 1 X s 1764 403 m 2 X s black 1764 403 m20 0 0 1 c 1767 413 m 13 Y s 1767 426 m 13 Y s 1766 426 m 1 X s 1767 426 m 2 X s black 1767 426 m20 0 0 1 c 1770 413 m 13 Y s 1770 426 m 13 Y s 1769 426 m 1 X s 1770 426 m 2 X s black 1770 426 m20 0
 0 1 c 1773 411 m 12 Y s 1773 423 m 13 Y s 1772 423 m 1 X s 1773 423 m 2 X s black 1773 423 m20 0 0 1 c 1776 419 m 13 Y s 1776 432 m 12 Y s 1775 432 m 1 X s 1776 432 m 2 X s black 1776 432 m20 0 0 1 c 1779 425 m 14 Y s 1779 439 m 15 Y s 1778 439 m 1
 X s 1779 439 m 2 X s black 1779 439 m20 0 0 1 c 1782 412 m 13 Y s 1782 425 m 13 Y s 1781 425 m 1 X s 1782 425 m 2 X s black 1782 425 m20 0 0 1 c 1785 406 m 12 Y s 1785 418 m 11 Y s 1784 418 m 1 X s 1785 418 m 2 X s black 1785 418 m20 0 0 1 c 1788
 413 m 11 Y s 1788 424 m 12 Y s 1787 424 m 1 X s 1788 424 m 2 X s black 1788 424 m20 0 0 1 c 1791 399 m 9 Y s 1791 408 m 9 Y s 1790 408 m 1 X s 1791 408 m 2 X s black 1791 408 m20 0 0 1 c 1795 405 m 13 Y s 1795 418 m 12 Y s 1793 418 m 2 X s 1795 418
 m 1 X s black 1795 418 m20 0 0 1 c 1798 410 m 12 Y s 1798 422 m 12 Y s 1796 422 m 2 X s 1798 422 m 1 X s black 1798 422 m20 0 0 1 c 1801 406 m 13 Y s 1801 419 m 12 Y s 1799 419 m 2 X s 1801 419 m 1 X s black 1801 419 m20 0 0 1 c 1804 406 m 9 Y s
 1804 415 m 10 Y s 1802 415 m 2 X s 1804 415 m 1 X s black 1804 415 m20 0 0 1 c 1807 415 m 12 Y s 1807 427 m 12 Y s 1805 427 m 2 X s 1807 427 m 1 X s black 1807 427 m20 0 0 1 c 1810 422 m 13 Y s 1810 435 m 14 Y s 1808 435 m 2 X s 1810 435 m 1 X s
 black 1810 435 m20 0 0 1 c 1813 410 m 11 Y s 1813 421 m 12 Y s 1811 421 m 2 X s 1813 421 m 1 X s black 1813 421 m20 0 0 1 c 1816 420 m 13 Y s 1816 433 m 14 Y s 1814 433 m 2 X s 1816 433 m 1 X s black 1816 433 m20 0 0 1 c 1819 412 m 11 Y s 1819 423 m
 12 Y s 1817 423 m 2 X s 1819 423 m 1 X s black 1819 423 m20 0 0 1 c 1822 408 m 11 Y s 1822 419 m 11 Y s 1820 419 m 2 X s 1822 419 m 1 X s black 1822 419 m20 0 0 1 c 1825 403 m 9 Y s 1825 412 m 9 Y s 1823 412 m 2 X s 1825 412 m 1 X s black 1825 412
 m20 0 0 1 c 1828 415 m 11 Y s 1828 426 m 10 Y s 1826 426 m 2 X s 1828 426 m 1 X s black 1828 426 m20 0 0 1 c 1831 407 m 11 Y s 1831 418 m 11 Y s 1829 418 m 2 X s 1831 418 m 1 X s black 1831 418 m20 0 0 1 c 1834 401 m 8 Y s 1834 409 m 9 Y s 1832 409
 m 2 X s 1834 409 m 1 X s black 1834 409 m20 0 0 1 c 1837 412 m 10 Y s 1837 422 m 11 Y s 1835 422 m 2 X s 1837 422 m 1 X s black 1837 422 m20 0 0 1 c 1840 414 m 10 Y s 1840 424 m 11 Y s 1838 424 m 2 X s 1840 424 m 1 X s black 1840 424 m20 0 0 1 c
 1843 405 m 12 Y s 1843 417 m 11 Y s 1841 417 m 2 X s 1843 417 m 1 X s black 1843 417 m20 0 0 1 c 1846 421 m 13 Y s 1846 434 m 13 Y s 1844 434 m 2 X s 1846 434 m 1 X s black 1846 434 m20 0 0 1 c 1849 402 m 9 Y s 1849 411 m 9 Y s 1847 411 m 2 X s 1849
 411 m 1 X s black 1849 411 m20 0 0 1 c 1852 401 m 7 Y s 1852 408 m 7 Y s 1850 408 m 2 X s 1852 408 m 1 X s black 1852 408 m20 0 0 1 c 1855 408 m 11 Y s 1855 419 m 12 Y s 1853 419 m 2 X s 1855 419 m 2 X s black 1855 419 m20 0 0 1 c 1858 422 m 13 Y s
 1858 435 m 13 Y s 1857 435 m 1 X s 1858 435 m 2 X s black 1858 435 m20 0 0 1 c 1861 419 m 12 Y s 1861 431 m 12 Y s 1860 431 m 1 X s 1861 431 m 2 X s black 1861 431 m20 0 0 1 c 1864 413 m 11 Y s 1864 424 m 12 Y s 1863 424 m 1 X s 1864 424 m 2 X s
 black 1864 424 m20 0 0 1 c 1867 424 m 13 Y s 1867 437 m 13 Y s 1866 437 m 1 X s 1867 437 m 2 X s black 1867 437 m20 0 0 1 c 1870 407 m 9 Y s 1870 416 m 9 Y s 1869 416 m 1 X s 1870 416 m 2 X s black 1870 416 m20 0 0 1 c 1873 399 m 8 Y s 1873 407 m 8
 Y s 1872 407 m 1 X s 1873 407 m 2 X s black 1873 407 m20 0 0 1 c 1876 435 m 14 Y s 1876 449 m 15 Y s 1875 449 m 1 X s 1876 449 m 2 X s black 1876 449 m20 0 0 1 c 1879 407 m 11 Y s 1879 418 m 11 Y s 1878 418 m 1 X s 1879 418 m 2 X s black 1879 418
 m20 0 0 1 c 1882 420 m 12 Y s 1882 432 m 12 Y s 1881 432 m 1 X s 1882 432 m 2 X s black 1882 432 m20 0 0 1 c 1885 404 m 7 Y s 1885 411 m 8 Y s 1884 411 m 1 X s 1885 411 m 2 X s black 1885 411 m20 0 0 1 c 1888 402 m 7 Y s 1888 409 m 8 Y s 1887 409 m
 1 X s 1888 409 m 2 X s black 1888 409 m20 0 0 1 c 1891 415 m 12 Y s 1891 427 m 12 Y s 1890 427 m 1 X s 1891 427 m 2 X s black 1891 427 m20 0 0 1 c 1894 427 m 13 Y s 1894 440 m 14 Y s 1893 440 m 1 X s 1894 440 m 2 X s black 1894 440 m20 0 0 1 c 1897
 414 m 10 Y s 1897 424 m 11 Y s 1896 424 m 1 X s 1897 424 m 2 X s black 1897 424 m20 0 0 1 c 1900 415 m 10 Y s 1900 425 m 11 Y s 1899 425 m 1 X s 1900 425 m 2 X s black 1900 425 m20 0 0 1 c 1903 403 m 6 Y s 1903 409 m 7 Y s 1902 409 m 1 X s 1903 409
 m 2 X s black 1903 409 m20 0 0 1 c 1906 399 m 6 Y s 1906 405 m 7 Y s 1905 405 m 1 X s 1906 405 m 2 X s black 1906 405 m20 0 0 1 c 1909 427 m 14 Y s 1909 441 m 14 Y s 1908 441 m 1 X s 1909 441 m 2 X s black 1909 441 m20 0 0 1 c 1912 416 m 10 Y s 1912
 426 m 11 Y s 1911 426 m 1 X s 1912 426 m 2 X s black 1912 426 m20 0 0 1 c 1915 407 m 9 Y s 1915 416 m 9 Y s 1914 416 m 1 X s 1915 416 m 2 X s black 1915 416 m20 0 0 1 c 1918 413 m 10 Y s 1918 423 m 11 Y s 1917 423 m 1 X s 1918 423 m 2 X s black 1918
 423 m20 0 0 1 c 1922 422 m 13 Y s 1922 435 m 13 Y s 1920 435 m 2 X s 1922 435 m 1 X s black 1922 435 m20 0 0 1 c 1925 425 m 13 Y s 1925 438 m 14 Y s 1923 438 m 2 X s 1925 438 m 1 X s black 1925 438 m20 0 0 1 c 1928 427 m 14 Y s 1928 441 m 15 Y s
 1926 441 m 2 X s 1928 441 m 1 X s black 1928 441 m20 0 0 1 c 1931 426 m 13 Y s 1931 439 m 14 Y s 1929 439 m 2 X s 1931 439 m 1 X s black 1931 439 m20 0 0 1 c 1934 410 m 11 Y s 1934 421 m 12 Y s 1932 421 m 2 X s 1934 421 m 1 X s black 1934 421 m20 0
 0 1 c 1937 396 m 9 Y s 1937 405 m 9 Y s 1935 405 m 2 X s 1937 405 m 1 X s black 1937 405 m20 0 0 1 c 1940 410 m 9 Y s 1940 419 m 10 Y s 1938 419 m 2 X s 1940 419 m 1 X s black 1940 419 m20 0 0 1 c 1943 398 m 9 Y s 1943 407 m 9 Y s 1941 407 m 2 X s
 1943 407 m 1 X s black 1943 407 m20 0 0 1 c 1946 408 m 10 Y s 1946 418 m 11 Y s 1944 418 m 2 X s 1946 418 m 1 X s black 1946 418 m20 0 0 1 c 1949 417 m 12 Y s 1949 429 m 12 Y s 1947 429 m 2 X s 1949 429 m 1 X s black 1949 429 m20 0 0 1 c 1952 418 m
 13 Y s 1952 431 m 14 Y s 1950 431 m 2 X s 1952 431 m 1 X s black 1952 431 m20 0 0 1 c 1955 412 m 10 Y s 1955 422 m 10 Y s 1953 422 m 2 X s 1955 422 m 1 X s black 1955 422 m20 0 0 1 c 1958 415 m 12 Y s 1958 427 m 13 Y s 1956 427 m 2 X s 1958 427 m 1
 X s black 1958 427 m20 0 0 1 c 1961 403 m 11 Y s 1961 414 m 11 Y s 1959 414 m 2 X s 1961 414 m 1 X s black 1961 414 m20 0 0 1 c 1964 402 m 11 Y s 1964 413 m 11 Y s 1962 413 m 2 X s 1964 413 m 1 X s black 1964 413 m20 0 0 1 c 1967 396 m 11 Y s 1967
 407 m 11 Y s 1965 407 m 2 X s 1967 407 m 1 X s black 1967 407 m20 0 0 1 c 1970 402 m 10 Y s 1970 412 m 10 Y s 1968 412 m 2 X s 1970 412 m 1 X s black 1970 412 m20 0 0 1 c 1973 414 m 14 Y s 1973 428 m 13 Y s 1971 428 m 2 X s 1973 428 m 1 X s black
 1973 428 m20 0 0 1 c 1976 406 m 12 Y s 1976 418 m 13 Y s 1974 418 m 2 X s 1976 418 m 1 X s black 1976 418 m20 0 0 1 c 1979 398 m 9 Y s 1979 407 m 9 Y s 1977 407 m 2 X s 1979 407 m 1 X s black 1979 407 m20 0 0 1 c 1982 397 m 10 Y s 1982 407 m 10 Y s
 1980 407 m 2 X s 1982 407 m 1 X s black 1982 407 m20 0 0 1 c 1985 387 m 7 Y s 1985 394 m 7 Y s 1983 394 m 2 X s 1985 394 m 2 X s black 1985 394 m20 0 0 1 c 1988 418 m 14 Y s 1988 432 m 14 Y s 1987 432 m 1 X s 1988 432 m 2 X s black 1988 432 m20 0 0
 1 c 1991 384 m 7 Y s 1991 391 m 7 Y s 1990 391 m 1 X s 1991 391 m 2 X s black 1991 391 m20 0 0 1 c 1994 413 m 12 Y s 1994 425 m 12 Y s 1993 425 m 1 X s 1994 425 m 2 X s black 1994 425 m20 0 0 1 c 1997 406 m 11 Y s 1997 417 m 10 Y s 1996 417 m 1 X s
 1997 417 m 2 X s black 1997 417 m20 0 0 1 c 2000 402 m 11 Y s 2000 413 m 11 Y s 1999 413 m 1 X s 2000 413 m 2 X s black 2000 413 m20 0 0 1 c 2003 399 m 10 Y s 2003 409 m 10 Y s 2002 409 m 1 X s 2003 409 m 2 X s black 2003 409 m20 0 0 1 c 2006 402 m
 10 Y s 2006 412 m 10 Y s 2005 412 m 1 X s 2006 412 m 2 X s black 2006 412 m20 0 0 1 c 2009 392 m 9 Y s 2009 401 m 9 Y s 2008 401 m 1 X s 2009 401 m 2 X s black 2009 401 m20 0 0 1 c 2012 419 m 13 Y s 2012 432 m 13 Y s 2011 432 m 1 X s 2012 432 m 2 X
 s black 2012 432 m20 0 0 1 c 2015 414 m 12 Y s 2015 426 m 12 Y s 2014 426 m 1 X s 2015 426 m 2 X s black 2015 426 m20 0 0 1 c 2018 421 m 14 Y s 2018 435 m 14 Y s 2017 435 m 1 X s 2018 435 m 2 X s black 2018 435 m20 0 0 1 c 2021 402 m 10 Y s 2021 412
 m 10 Y s 2020 412 m 1 X s 2021 412 m 2 X s black 2021 412 m20 0 0 1 c 2024 413 m 13 Y s 2024 426 m 13 Y s 2023 426 m 1 X s 2024 426 m 2 X s black 2024 426 m20 0 0 1 c 2027 406 m 11 Y s 2027 417 m 11 Y s 2026 417 m 1 X s 2027 417 m 2 X s black 2027
 417 m20 0 0 1 c 2030 424 m 14 Y s 2030 438 m 14 Y s 2029 438 m 1 X s 2030 438 m 2 X s black 2030 438 m20 0 0 1 c 2033 411 m 10 Y s 2033 421 m 11 Y s 2032 421 m 1 X s 2033 421 m 2 X s black 2033 421 m20 0 0 1 c 2036 406 m 10 Y s 2036 416 m 10 Y s
 2035 416 m 1 X s 2036 416 m 2 X s black 2036 416 m20 0 0 1 c 2039 399 m 9 Y s 2039 408 m 9 Y s 2038 408 m 1 X s 2039 408 m 2 X s black 2039 408 m20 1 1 1 c 453 429 1769 1002 bf black 1769 1002 m 453 X s 2222 1002 m 429 Y s 2222 1431 m -453 X s 1769
 1431 m -429 Y s 1 1 1 c black
 gsave  2268 1530 0 0 C 1790.13 1358.03 t 0 r /Helvetica findfont 68.2264 sf 0 0 m (net_spectrum) show NC gr  1769 1324 m 453 X s
 gsave  2268 1530 0 0 C 1790.13 1247.57 t 0 r /Helvetica findfont 55.2309 sf 0 0 m (Entries ) show NC gr 
 gsave  2268 1530 0 0 C 2092.28 1247.57 t 0 r /Helvetica findfont 55.2309 sf 0 0 m ( 226) show NC gr 
 gsave  2268 1530 0 0 C 1790.13 1140.36 t 0 r /Helvetica findfont 55.2309 sf 0 0 m (Mean  ) show NC gr 
 gsave  2268 1530 0 0 C 2030.55 1140.36 t 0 r /Helvetica findfont 55.2309 sf 0 0 m (  931.3) show NC gr 
 gsave  2268 1530 0 0 C 1790.13 1033.14 t 0 r /Helvetica findfont 55.2309 sf 0 0 m (Std Dev   ) show NC gr 
 gsave  2268 1530 0 0 C 2030.55 1033.14 t 0 r /Helvetica findfont 55.2309 sf 0 0 m (   2122) show NC gr  227 153 m 1814 X s 227 190 m -37 Y s 287 171 m -18 Y s 348 171 m -18 Y s 408 171 m -18 Y s 469 190 m -37 Y s 529 171 m -18 Y s 590 171 m -18 Y s
 650 171 m -18 Y s 711 190 m -37 Y s 771 171 m -18 Y s 831 171 m -18 Y s 892 171 m -18 Y s 952 190 m -37 Y s 1013 171 m -18 Y s 1073 171 m -18 Y s 1134 171 m -18 Y s 1194 190 m -37 Y s 1255 171 m -18 Y s 1315 171 m -18 Y s 1376 171 m -18 Y s 1436 190
 m -37 Y s 1497 171 m -18 Y s 1557 171 m -18 Y s 1618 171 m -18 Y s 1678 190 m -37 Y s 1739 171 m -18 Y s 1799 171 m -18 Y s 1860 171 m -18 Y s 1920 190 m -37 Y s 1920 190 m -37 Y s 1980 171 m -18 Y s 2041 171 m -18 Y s
 gsave  2268 1530 0 0 C 211.177 103.964 t 0 r /Helvetica findfont 48.7332 sf 0 0 m (0) show NC gr 
 gsave  2268 1530 0 0 C 412.607 103.964 t 0 r /Helvetica findfont 48.7332 sf 0 0 m (2000) show NC gr 
 gsave  2268 1530 0 0 C 653.024 103.964 t 0 r /Helvetica findfont 48.7332 sf 0 0 m (4000) show NC gr 
 gsave  2268 1530 0 0 C 896.69 103.964 t 0 r /Helvetica findfont 48.7332 sf 0 0 m (6000) show NC gr 
 gsave  2268 1530 0 0 C 1137.11 103.964 t 0 r /Helvetica findfont 48.7332 sf 0 0 m (8000) show NC gr 
 gsave  2268 1530 0 0 C 1367.78 103.964 t 0 r /Helvetica findfont 48.7332 sf 0 0 m (10000) show NC gr 
 gsave  2268 1530 0 0 C 1608.19 103.964 t 0 r /Helvetica findfont 48.7332 sf 0 0 m (12000) show NC gr 
 gsave  2268 1530 0 0 C 1848.61 103.964 t 0 r /Helvetica findfont 48.7332 sf 0 0 m (14000) show NC gr 
 gsave  2268 1530 0 0 C 1764.14 51.982 t 0 r /Helvetica findfont 48.7332 sf 0 0 m (Energy [a.u.]) show NC gr  227 153 m 1224 Y s 281 215 m -54 X s 254 257 m -27 X s 254 299 m -27 X s 254 341 m -27 X s 254 383 m -27 X s 281 425 m -54 X s 254 467 m -27
 X s 254 509 m -27 X s 254 551 m -27 X s 254 593 m -27 X s 281 634 m -54 X s 254 676 m -27 X s 254 718 m -27 X s 254 760 m -27 X s 254 802 m -27 X s 281 844 m -54 X s 254 886 m -27 X s 254 928 m -27 X s 254 970 m -27 X s 254 1011 m -27 X s 281 1053 m
 -54 X s 254 1095 m -27 X s 254 1137 m -27 X s 254 1179 m -27 X s 254 1221 m -27 X s 281 1263 m -54 X s 281 215 m -54 X s 254 174 m -27 X s 281 1263 m -54 X s 254 1305 m -27 X s 254 1347 m -27 X s
 gsave  2268 1530 0 0 C 159.195 198.182 t 0 r /Helvetica findfont 48.7332 sf 0 0 m (50) show NC gr 
 gsave  2268 1530 0 0 C 129.955 198.182 t 0 r /Symbol findfont 48.7332 sf 0 0 m (-) show NC gr 
 gsave  2268 1530 0 0 C 188.435 406.11 t 0 r /Helvetica findfont 48.7332 sf 0 0 m (0) show NC gr 
 gsave  2268 1530 0 0 C 159.195 617.287 t 0 r /Helvetica findfont 48.7332 sf 0 0 m (50) show NC gr 
 gsave  2268 1530 0 0 C 133.204 825.215 t 0 r /Helvetica findfont 48.7332 sf 0 0 m (100) show NC gr 
 gsave  2268 1530 0 0 C 133.204 1036.39 t 0 r /Helvetica findfont 48.7332 sf 0 0 m (150) show NC gr 
 gsave  2268 1530 0 0 C 133.204 1244.32 t 0 r /Helvetica findfont 48.7332 sf 0 0 m (200) show NC gr  1 1 1 c 453 429 1769 1002 bf black 1769 1002 m 453 X s 2222 1002 m 429 Y s 2222 1431 m -453 X s 1769 1431 m -429 Y s 1 1 1 c black
 gsave  2268 1530 0 0 C 1790.13 1358.03 t 0 r /Helvetica findfont 68.2264 sf 0 0 m (net_spectrum) show NC gr  1769 1324 m 453 X s
 gsave  2268 1530 0 0 C 1790.13 1247.57 t 0 r /Helvetica findfont 55.2309 sf 0 0 m (Entries ) show NC gr 
 gsave  2268 1530 0 0 C 2092.28 1247.57 t 0 r /Helvetica findfont 55.2309 sf 0 0 m ( 226) show NC gr 
 gsave  2268 1530 0 0 C 1790.13 1140.36 t 0 r /Helvetica findfont 55.2309 sf 0 0 m (Mean  ) show NC gr 
 gsave  2268 1530 0 0 C 2030.55 1140.36 t 0 r /Helvetica findfont 55.2309 sf 0 0 m (  931.3) show NC gr 
 gsave  2268 1530 0 0 C 1790.13 1033.14 t 0 r /Helvetica findfont 55.2309 sf 0 0 m (Std Dev   ) show NC gr 
 gsave  2268 1530 0 0 C 2030.55 1033.14 t 0 r /Helvetica findfont 55.2309 sf 0 0 m (   2122) show NC gr  1 1 1 c black
 gsave  2268 1530 0 0 C 415.856 1458.75 t 0 r /Helvetica findfont 61.7287 sf 0 0 m (Spettro chocolate al netto della sottrazione del fondo) show NC gr 
 gr  gr showpage
end
%%EOF
