%!PS-Adobe-2.0 EPSF-2.0
%%BoundingBox:  0 0 567 383
%%Title: net_KCl_2_hq0.eps: net_KCl_2_hq0
%%Creator: ROOT Version 6.12/06
%%CreationDate: Sun May 13 11:29:47 2018
%%DocumentNeededResources: ProcSet (FontSetInit)
%%EndComments
%%BeginProlog
80 dict begin
/s {stroke} def /l {lineto} def /m {moveto} def /t {translate} def
/r {rotate} def /rl {roll}  def /R {repeat} def
/d {rlineto} def /rm {rmoveto} def /gr {grestore} def /f {eofill} def
/c {setrgbcolor} def /black {0 setgray} def /sd {setdash} def
/cl {closepath} def /sf {scalefont setfont} def /lw {setlinewidth} def
/box {m dup 0 exch d exch 0 d 0 exch neg d cl} def
/NC{systemdict begin initclip end}def/C{NC box clip newpath}def
/bl {box s} def /bf {gsave box gsave f grestore 1 lw [] 0 sd s grestore} def /Y { 0 exch d} def /X { 0 d} def 
/K {{pop pop 0 moveto} exch kshow} bind def
/ita {/ang 15 def gsave [1 0 ang dup sin exch cos div 1 0 0] concat} def 
/mp {newpath /y exch def /x exch def} def
/side {[w .77 mul w .23 mul] .385 w mul sd w 0 l currentpoint t -144 r} def
/mr {mp x y w2 0 360 arc} def /m24 {mr s} def /m20 {mr f} def
/mb {mp x y w2 add m w2 neg 0 d 0 w neg d w 0 d 0 w d cl} def
/mt {mp x y w2 add m w2 neg w neg d w 0 d cl} def
/w4 {w 4 div} def
/w6 {w 6 div} def
/w8 {w 8 div} def
/m21 {mb f} def /m25 {mb s} def /m22 {mt f} def /m26{mt s} def
/m23 {mp x y w2 sub m w2 w d w neg 0 d cl f} def
/m27 {mp x y w2 add m w3 neg w2 neg d w3 w2 neg d w3 w2 d cl s} def
/m28 {mp x w2 sub y w2 sub w3 add m w3 0 d  0 w3 neg d w3 0 d 0 w3 d w3 0 d  0 w3 d w3 neg 0 d 0 w3 d w3 neg 0 d 0 w3 neg d w3 neg 0 d cl s } def
/m29 {mp gsave x w2 sub y w2 add w3 sub m currentpoint t 4 {side} repeat cl fill gr} def
/m30 {mp gsave x w2 sub y w2 add w3 sub m currentpoint t 4 {side} repeat cl s gr} def
/m31 {mp x y w2 sub m 0 w d x w2 sub y m w 0 d x w2 sub y w2 add m w w neg d x w2 sub y w2 sub m w w d s} def
/m32 {mp x y w2 sub m w2 w d w neg 0 d cl s} def
/m33 {mp x y w2 add m w3 neg w2 neg d w3 w2 neg d w3 w2 d cl f} def
/m34 {mp x w2 sub y w2 sub w3 add m w3 0 d  0 w3 neg d w3 0 d 0 w3 d w3 0 d  0 w3 d w3 neg 0 d 0 w3 d w3 neg 0 d 0 w3 neg d w3 neg 0 d cl f } def
/m35 {mp x y w2 add m w2 neg w2 neg d w2 w2 neg d w2 w2 d w2 neg w2 d x y w2 sub m 0 w d x w2 sub y m w 0 d s} def
/m36 {mb x w2 sub y w2 add m w w neg d x w2 sub y w2 sub m w w d s} def
/m37 {mp x y m w4 neg w2 d w4 neg w2 neg d w2 0 d  w4 neg w2 neg d w2 0 d w4 neg w2 d w2 0 d w4 neg w2 d w4 neg w2 neg d cl s} def
/m38 {mp x w4 sub y w2 add m w4 neg w4 neg d 0 w2 neg d w4 w4 neg d w2 0 d w4 w4 d 0 w2 d w4 neg w4 d w2 neg 0 d x y w2 sub m 0 w d x w2 sub y m w 0 d cl s} def
/m39 {mp x y m w4 neg w2 d w4 neg w2 neg d w2 0 d  w4 neg w2 neg d w2 0 d w4 neg w2 d w2 0 d w4 neg w2 d w4 neg w2 neg d cl f} def
/m40 {mp x y m w4 w2 d w4 w4 neg d w2 neg w4 neg d w2 w4 neg d w4 neg w4 neg d w4 neg w2 d w4 neg w2 neg d w4 neg w4 d w2 w4 d w2 neg w4 d w4 w4 d w4 w2 neg d cl s} def
/m41 {mp x y m w4 w2 d w4 w4 neg d w2 neg w4 neg d w2 w4 neg d w4 neg w4 neg d w4 neg w2 d w4 neg w2 neg d w4 neg w4 d w2 w4 d w2 neg w4 d w4 w4 d w4 w2 neg d cl f} def
/m42 {mp x y w2 add m w8 neg w2 -3 4 div mul d w2 -3 4 div mul w8 neg d w2 3 4 div mul w8 neg d w8 w2 -3 4 div mul d w8 w2 3 4 div mul d w2 3 4 div mul w8 d w2 -3 4 div mul w8 d w8 neg w2 3 4 div mul d cl s} def
/m43 {mp x y w2 add m w8 neg w2 -3 4 div mul d w2 -3 4 div mul w8 neg d w2 3 4 div mul w8 neg d w8 w2 -3 4 div mul d w8 w2 3 4 div mul d w2 3 4 div mul w8 d w2 -3 4 div mul w8 d w8 neg w2 3 4 div mul d cl f} def
/m44 {mp x y m w6 neg w2 d w2 2 3 div mul 0 d w6 neg w2 neg d w2 w6 d 0 w2 -2 3 div mul d w2 neg w6 d w6 w2 neg d w2 -2 3 div mul 0 d w6 w2 d w2 neg w6 neg d 0 w2 2 3 div mul d w2 w6 neg d cl s} def
/m45 {mp x y m w6 neg w2 d w2 2 3 div mul 0 d w6 neg w2 neg d w2 w6 d 0 w2 -2 3 div mul d w2 neg w6 d w6 w2 neg d w2 -2 3 div mul 0 d w6 w2 d w2 neg w6 neg d 0 w2 2 3 div mul d w2 w6 neg d cl f} def
/m46 {mp x y w4 add m w4 neg w4 d w4 neg w4 neg d  w4 w4 neg d w4 neg w4 neg d w4 w4 neg d w4 w4 d w4 w4 neg d w4 w4 d w4 neg w4 d w4 w4 d w4 neg w4 d w4 neg w4 neg d cl s} def
/m47 {mp x y w4 add m w4 neg w4 d w4 neg w4 neg d w4 w4 neg d w4 neg w4 neg d  w4 w4 neg d w4 w4 d w4 w4 neg d w4 w4 d w4 neg w4 d w4 w4 d w4 neg w4 d w4 neg w4 neg d cl f} def
/m48 {mp x y w4 add m w4 neg w4 d w4 neg w4 neg d w4 w4 neg d  w4 neg w4 neg d w4 w4 neg d w4 w4 d w4 w4 neg d w4 w4 d w4 neg w4 d w4 w4 d w4 neg w4 d w4 neg w4 neg d  w4 w4 neg d w4 neg w4 neg d w4 neg w4 d w4 w4 d cl f} def
/m49 {mp x w2 sub w3 add y w2 sub w3 add m  0 w3 neg d w3 0 d 0 w3 d w3 0 d 0 w3 d w3 neg 0 d 0 w3 d w3 neg 0 d 0 w3 neg d w3 neg 0 d 0 w3 neg d w3 0 d 0 w3 d w3 0 d 0 w3 neg d w3 neg 0 d cl f } def
/m2 {mp x y w2 sub m 0 w d x w2 sub y m w 0 d s} def
/m5 {mp x w2 sub y w2 sub m w w d x w2 sub y w2 add m w w neg d s} def
%%IncludeResource: ProcSet (FontSetInit)
%%IncludeResource: font Times-Roman
%%IncludeResource: font Times-Italic
%%IncludeResource: font Times-Bold
%%IncludeResource: font Times-BoldItalic
%%IncludeResource: font Helvetica
%%IncludeResource: font Helvetica-Oblique
%%IncludeResource: font Helvetica-Bold
%%IncludeResource: font Helvetica-BoldOblique
%%IncludeResource: font Courier
%%IncludeResource: font Courier-Oblique
%%IncludeResource: font Courier-Bold
%%IncludeResource: font Courier-BoldOblique
%%IncludeResource: font Symbol
%%IncludeResource: font ZapfDingbats
/reEncode {exch findfont dup length dict begin {1 index /FID eq  {pop pop} {def} ifelse } forall /Encoding exch def currentdict end dup /FontName get exch definefont pop } def [/Times-Bold /Times-Italic /Times-BoldItalic /Helvetica /Helvetica-Oblique
 /Helvetica-Bold /Helvetica-BoldOblique /Courier /Courier-Oblique /Courier-Bold /Courier-BoldOblique /Times-Roman /AvantGarde-Book /AvantGarde-BookOblique /AvantGarde-Demi /AvantGarde-DemiOblique /Bookman-Demi /Bookman-DemiItalic /Bookman-Light
 /Bookman-LightItalic /Helvetica-Narrow /Helvetica-Narrow-Bold /Helvetica-Narrow-BoldOblique /Helvetica-Narrow-Oblique /NewCenturySchlbk-Roman /NewCenturySchlbk-Bold /NewCenturySchlbk-BoldItalic /NewCenturySchlbk-Italic /Palatino-Bold
 /Palatino-BoldItalic /Palatino-Italic /Palatino-Roman ] {ISOLatin1Encoding reEncode } forall
%%EndProlog
%%BeginSetup
%%EndSetup
newpath  gsave  .25 .25 scale  gsave  0 0 t black[  ] 0 sd 3 lw 1 1 1 c 2268 1530 0 0 bf black 1 1 1 c 1814 1224 227 153 bf black 1814 1224 227 153 bl 1 1 1 c 1814 1224 227 153 bf black 1814 1224 227 153 bl 0 0 1 c 1 1 1 c black 0 0 1 c 289 225 m 5 Y
 s 289 230 m 4 Y s 287 230 m 2 X s 289 230 m 1 X s black /w 2 def /w2 {w 2 div} def /w3 {w 3 div} def 289 230 m20 0 0 1 c 292 223 m 3 Y s 292 226 m 3 Y s 290 226 m 2 X s 292 226 m 1 X s black 292 226 m20 0 0 1 c 295 223 m 3 Y s 295 226 m 4 Y s 293
 226 m 2 X s 295 226 m 1 X s black 295 226 m20 0 0 1 c 298 223 m 1 Y s 298 224 m s 296 224 m 2 X s 298 224 m 1 X s black 298 224 m20 0 0 1 c 301 231 m 6 Y s 301 237 m 7 Y s 299 237 m 2 X s 301 237 m 1 X s black 301 237 m20 0 0 1 c 304 223 m 1 Y s 304
 224 m s 302 224 m 2 X s 304 224 m 1 X s black 304 224 m20 0 0 1 c 307 224 m 3 Y s 307 227 m 4 Y s 305 227 m 2 X s 307 227 m 1 X s black 307 227 m20 0 0 1 c 310 225 m 3 Y s 310 228 m 3 Y s 308 228 m 2 X s 310 228 m 1 X s black 310 228 m20 0 0 1 c 313
 223 m s 313 223 m 1 Y s 311 223 m 2 X s 313 223 m 1 X s black 313 223 m20 0 0 1 c 316 223 m 1 Y s 316 224 m s 314 224 m 2 X s 316 224 m 1 X s black 316 224 m20 0 0 1 c 319 226 m 5 Y s 319 231 m 4 Y s 317 231 m 2 X s 319 231 m 2 X s black 319 231 m20
 0 0 1 c 322 224 m 1 Y s 322 225 m s 321 225 m 1 X s 322 225 m 2 X s black 322 225 m20 0 0 1 c 325 226 m 4 Y s 325 230 m 5 Y s 324 230 m 1 X s 325 230 m 2 X s black 325 230 m20 0 0 1 c 328 225 m 3 Y s 328 228 m 3 Y s 327 228 m 1 X s 328 228 m 2 X s
 black 328 228 m20 0 0 1 c 331 226 m 5 Y s 331 231 m 4 Y s 330 231 m 1 X s 331 231 m 2 X s black 331 231 m20 0 0 1 c 334 224 m s 334 224 m 1 Y s 333 224 m 1 X s 334 224 m 2 X s black 334 224 m20 0 0 1 c 337 224 m 3 Y s 337 227 m 3 Y s 336 227 m 1 X s
 337 227 m 2 X s black 337 227 m20 0 0 1 c 340 226 m 4 Y s 340 230 m 5 Y s 339 230 m 1 X s 340 230 m 2 X s black 340 230 m20 0 0 1 c 343 226 m 5 Y s 343 231 m 4 Y s 342 231 m 1 X s 343 231 m 2 X s black 343 231 m20 0 0 1 c 346 225 m 5 Y s 346 230 m 4
 Y s 345 230 m 1 X s 346 230 m 2 X s black 346 230 m20 0 0 1 c 349 226 m 5 Y s 349 231 m 4 Y s 348 231 m 1 X s 349 231 m 2 X s black 349 231 m20 0 0 1 c 352 224 m 3 Y s 352 227 m 3 Y s 351 227 m 1 X s 352 227 m 2 X s black 352 227 m20 0 0 1 c 355 225
 m 5 Y s 355 230 m 4 Y s 354 230 m 1 X s 355 230 m 2 X s black 355 230 m20 0 0 1 c 358 223 m s 358 223 m 1 Y s 357 223 m 1 X s 358 223 m 2 X s black 358 223 m20 0 0 1 c 361 229 m 7 Y s 361 236 m 6 Y s 360 236 m 1 X s 361 236 m 2 X s black 361 236 m20
 0 0 1 c 364 224 m 3 Y s 364 227 m 3 Y s 363 227 m 1 X s 364 227 m 2 X s black 364 227 m20 0 0 1 c 367 233 m 7 Y s 367 240 m 7 Y s 366 240 m 1 X s 367 240 m 2 X s black 367 240 m20 0 0 1 c 370 226 m 4 Y s 370 230 m 5 Y s 369 230 m 1 X s 370 230 m 2 X
 s black 370 230 m20 0 0 1 c 373 233 m 7 Y s 373 240 m 7 Y s 372 240 m 1 X s 373 240 m 2 X s black 373 240 m20 0 0 1 c 376 226 m 4 Y s 376 230 m 5 Y s 375 230 m 1 X s 376 230 m 2 X s black 376 230 m20 0 0 1 c 379 233 m 7 Y s 379 240 m 7 Y s 378 240 m
 1 X s 379 240 m 2 X s black 379 240 m20 0 0 1 c 382 226 m 5 Y s 382 231 m 5 Y s 381 231 m 1 X s 382 231 m 2 X s black 382 231 m20 0 0 1 c 386 235 m 8 Y s 386 243 m 8 Y s 384 243 m 2 X s 386 243 m 1 X s black 386 243 m20 0 0 1 c 389 232 m 8 Y s 389
 240 m 7 Y s 387 240 m 2 X s 389 240 m 1 X s black 389 240 m20 0 0 1 c 392 242 m 9 Y s 392 251 m 10 Y s 390 251 m 2 X s 392 251 m 1 X s black 392 251 m20 0 0 1 c 395 233 m 7 Y s 395 240 m 7 Y s 393 240 m 2 X s 395 240 m 1 X s black 395 240 m20 0 0 1
 c 398 265 m 13 Y s 398 278 m 14 Y s 396 278 m 2 X s 398 278 m 1 X s black 398 278 m20 0 0 1 c 401 276 m 15 Y s 401 291 m 15 Y s 399 291 m 2 X s 401 291 m 1 X s black 401 291 m20 0 0 1 c 404 264 m 13 Y s 404 277 m 13 Y s 402 277 m 2 X s 404 277 m 1 X
 s black 404 277 m20 0 0 1 c 407 286 m 16 Y s 407 302 m 17 Y s 405 302 m 2 X s 407 302 m 1 X s black 407 302 m20 0 0 1 c 410 296 m 17 Y s 410 313 m 17 Y s 408 313 m 2 X s 410 313 m 1 X s black 410 313 m20 0 0 1 c 413 316 m 19 Y s 413 335 m 19 Y s 411
 335 m 2 X s 413 335 m 1 X s black 413 335 m20 0 0 1 c 416 346 m 22 Y s 416 368 m 22 Y s 414 368 m 2 X s 416 368 m 1 X s black 416 368 m20 0 0 1 c 419 359 m 23 Y s 419 382 m 23 Y s 417 382 m 2 X s 419 382 m 1 X s black 419 382 m20 0 0 1 c 422 428 m
 28 Y s 422 456 m 28 Y s 420 456 m 2 X s 422 456 m 1 X s black 422 456 m20 0 0 1 c 425 461 m 29 Y s 425 490 m 30 Y s 423 490 m 2 X s 425 490 m 1 X s black 425 490 m20 0 0 1 c 428 479 m 31 Y s 428 510 m 31 Y s 426 510 m 2 X s 428 510 m 1 X s black 428
 510 m20 0 0 1 c 431 556 m 35 Y s 431 591 m 35 Y s 429 591 m 2 X s 431 591 m 1 X s black 431 591 m20 0 0 1 c 434 605 m 37 Y s 434 642 m 37 Y s 432 642 m 2 X s 434 642 m 1 X s black 434 642 m20 0 0 1 c 437 610 m 38 Y s 437 648 m 37 Y s 435 648 m 2 X s
 437 648 m 1 X s black 437 648 m20 0 0 1 c 440 689 m 41 Y s 440 730 m 41 Y s 438 730 m 2 X s 440 730 m 1 X s black 440 730 m20 0 0 1 c 443 779 m 45 Y s 443 824 m 45 Y s 441 824 m 2 X s 443 824 m 1 X s black 443 824 m20 0 0 1 c 446 825 m 46 Y s 446
 871 m 47 Y s 444 871 m 2 X s 446 871 m 1 X s black 446 871 m20 0 0 1 c 449 888 m 49 Y s 449 937 m 49 Y s 447 937 m 2 X s 449 937 m 2 X s black 449 937 m20 0 0 1 c 452 979 m 52 Y s 452 1031 m 53 Y s 451 1031 m 1 X s 452 1031 m 2 X s black 452 1031
 m20 0 0 1 c 455 918 m 50 Y s 455 968 m 51 Y s 454 968 m 1 X s 455 968 m 2 X s black 455 968 m20 0 0 1 c 458 832 m 48 Y s 458 880 m 48 Y s 457 880 m 1 X s 458 880 m 2 X s black 458 880 m20 0 0 1 c 461 864 m 49 Y s 461 913 m 50 Y s 460 913 m 1 X s 461
 913 m 2 X s black 461 913 m20 0 0 1 c 464 834 m 49 Y s 464 883 m 49 Y s 463 883 m 1 X s 464 883 m 2 X s black 464 883 m20 0 0 1 c 467 827 m 49 Y s 467 876 m 50 Y s 466 876 m 1 X s 467 876 m 2 X s black 467 876 m20 0 0 1 c 470 809 m 49 Y s 470 858 m
 49 Y s 469 858 m 1 X s 470 858 m 2 X s black 470 858 m20 0 0 1 c 473 798 m 49 Y s 473 847 m 49 Y s 472 847 m 1 X s 473 847 m 2 X s black 473 847 m20 0 0 1 c 476 868 m 52 Y s 476 920 m 52 Y s 475 920 m 1 X s 476 920 m 2 X s black 476 920 m20 0 0 1 c
 479 713 m 48 Y s 479 761 m 48 Y s 478 761 m 1 X s 479 761 m 2 X s black 479 761 m20 0 0 1 c 482 691 m 48 Y s 482 739 m 48 Y s 481 739 m 1 X s 482 739 m 2 X s black 482 739 m20 0 0 1 c 485 621 m 47 Y s 485 668 m 47 Y s 484 668 m 1 X s 485 668 m 2 X s
 black 485 668 m20 0 0 1 c 488 635 m 47 Y s 488 682 m 48 Y s 487 682 m 1 X s 488 682 m 2 X s black 488 682 m20 0 0 1 c 491 522 m 44 Y s 491 566 m 44 Y s 490 566 m 1 X s 491 566 m 2 X s black 491 566 m20 0 0 1 c 494 535 m 45 Y s 494 580 m 45 Y s 493
 580 m 1 X s 494 580 m 2 X s black 494 580 m20 0 0 1 c 497 562 m 47 Y s 497 609 m 47 Y s 496 609 m 1 X s 497 609 m 2 X s black 497 609 m20 0 0 1 c 500 569 m 47 Y s 500 616 m 47 Y s 499 616 m 1 X s 500 616 m 2 X s black 500 616 m20 0 0 1 c 503 481 m
 45 Y s 503 526 m 44 Y s 502 526 m 1 X s 503 526 m 2 X s black 503 526 m20 0 0 1 c 506 542 m 48 Y s 506 590 m 48 Y s 505 590 m 1 X s 506 590 m 2 X s black 506 590 m20 0 0 1 c 509 475 m 45 Y s 509 520 m 46 Y s 508 520 m 1 X s 509 520 m 2 X s black 509
 520 m20 0 0 1 c 513 396 m 42 Y s 513 438 m 43 Y s 511 438 m 2 X s 513 438 m 1 X s black 513 438 m20 0 0 1 c 516 441 m 44 Y s 516 485 m 45 Y s 514 485 m 2 X s 516 485 m 1 X s black 516 485 m20 0 0 1 c 519 481 m 46 Y s 519 527 m 46 Y s 517 527 m 2 X s
 519 527 m 1 X s black 519 527 m20 0 0 1 c 522 476 m 46 Y s 522 522 m 46 Y s 520 522 m 2 X s 522 522 m 1 X s black 522 522 m20 0 0 1 c 525 522 m 47 Y s 525 569 m 48 Y s 523 569 m 2 X s 525 569 m 1 X s black 525 569 m20 0 0 1 c 528 366 m 41 Y s 528
 407 m 41 Y s 526 407 m 2 X s 528 407 m 1 X s black 528 407 m20 0 0 1 c 531 395 m 42 Y s 531 437 m 43 Y s 529 437 m 2 X s 531 437 m 1 X s black 531 437 m20 0 0 1 c 534 420 m 43 Y s 534 463 m 43 Y s 532 463 m 2 X s 534 463 m 1 X s black 534 463 m20 0
 0 1 c 537 319 m 38 Y s 537 357 m 39 Y s 535 357 m 2 X s 537 357 m 1 X s black 537 357 m20 0 0 1 c 540 384 m 41 Y s 540 425 m 41 Y s 538 425 m 2 X s 540 425 m 1 X s black 540 425 m20 0 0 1 c 543 467 m 44 Y s 543 511 m 44 Y s 541 511 m 2 X s 543 511 m
 1 X s black 543 511 m20 0 0 1 c 546 451 m 42 Y s 546 493 m 42 Y s 544 493 m 2 X s 546 493 m 1 X s black 546 493 m20 0 0 1 c 549 482 m 44 Y s 549 526 m 43 Y s 547 526 m 2 X s 549 526 m 1 X s black 549 526 m20 0 0 1 c 552 383 m 40 Y s 552 423 m 40 Y s
 550 423 m 2 X s 552 423 m 1 X s black 552 423 m20 0 0 1 c 555 424 m 41 Y s 555 465 m 41 Y s 553 465 m 2 X s 555 465 m 1 X s black 555 465 m20 0 0 1 c 558 353 m 39 Y s 558 392 m 38 Y s 556 392 m 2 X s 558 392 m 1 X s black 558 392 m20 0 0 1 c 561 341
 m 37 Y s 561 378 m 37 Y s 559 378 m 2 X s 561 378 m 1 X s black 561 378 m20 0 0 1 c 564 354 m 38 Y s 564 392 m 37 Y s 562 392 m 2 X s 564 392 m 1 X s black 564 392 m20 0 0 1 c 567 427 m 40 Y s 567 467 m 41 Y s 565 467 m 2 X s 567 467 m 1 X s black
 567 467 m20 0 0 1 c 570 366 m 38 Y s 570 404 m 38 Y s 568 404 m 2 X s 570 404 m 1 X s black 570 404 m20 0 0 1 c 573 370 m 38 Y s 573 408 m 39 Y s 571 408 m 2 X s 573 408 m 1 X s black 573 408 m20 0 0 1 c 576 397 m 39 Y s 576 436 m 39 Y s 574 436 m 2
 X s 576 436 m 2 X s black 576 436 m20 0 0 1 c 579 348 m 37 Y s 579 385 m 36 Y s 578 385 m 1 X s 579 385 m 2 X s black 579 385 m20 0 0 1 c 582 422 m 40 Y s 582 462 m 40 Y s 581 462 m 1 X s 582 462 m 2 X s black 582 462 m20 0 0 1 c 585 384 m 38 Y s
 585 422 m 38 Y s 584 422 m 1 X s 585 422 m 2 X s black 585 422 m20 0 0 1 c 588 350 m 37 Y s 588 387 m 36 Y s 587 387 m 1 X s 588 387 m 2 X s black 588 387 m20 0 0 1 c 591 437 m 41 Y s 591 478 m 40 Y s 590 478 m 1 X s 591 478 m 2 X s black 591 478
 m20 0 0 1 c 594 380 m 37 Y s 594 417 m 38 Y s 593 417 m 1 X s 594 417 m 2 X s black 594 417 m20 0 0 1 c 597 379 m 38 Y s 597 417 m 37 Y s 596 417 m 1 X s 597 417 m 2 X s black 597 417 m20 0 0 1 c 600 405 m 38 Y s 600 443 m 38 Y s 599 443 m 1 X s 600
 443 m 2 X s black 600 443 m20 0 0 1 c 603 339 m 36 Y s 603 375 m 35 Y s 602 375 m 1 X s 603 375 m 2 X s black 603 375 m20 0 0 1 c 606 382 m 38 Y s 606 420 m 37 Y s 605 420 m 1 X s 606 420 m 2 X s black 606 420 m20 0 0 1 c 609 414 m 39 Y s 609 453 m
 38 Y s 608 453 m 1 X s 609 453 m 2 X s black 609 453 m20 0 0 1 c 612 397 m 37 Y s 612 434 m 38 Y s 611 434 m 1 X s 612 434 m 2 X s black 612 434 m20 0 0 1 c 615 427 m 39 Y s 615 466 m 39 Y s 614 466 m 1 X s 615 466 m 2 X s black 615 466 m20 0 0 1 c
 618 394 m 38 Y s 618 432 m 37 Y s 617 432 m 1 X s 618 432 m 2 X s black 618 432 m20 0 0 1 c 621 318 m 34 Y s 621 352 m 34 Y s 620 352 m 1 X s 621 352 m 2 X s black 621 352 m20 0 0 1 c 624 363 m 35 Y s 624 398 m 36 Y s 623 398 m 1 X s 624 398 m 2 X s
 black 624 398 m20 0 0 1 c 627 327 m 34 Y s 627 361 m 34 Y s 626 361 m 1 X s 627 361 m 2 X s black 627 361 m20 0 0 1 c 630 427 m 38 Y s 630 465 m 39 Y s 629 465 m 1 X s 630 465 m 2 X s black 630 465 m20 0 0 1 c 633 421 m 39 Y s 633 460 m 39 Y s 632
 460 m 1 X s 633 460 m 2 X s black 633 460 m20 0 0 1 c 636 401 m 38 Y s 636 439 m 37 Y s 635 439 m 1 X s 636 439 m 2 X s black 636 439 m20 0 0 1 c 639 357 m 36 Y s 639 393 m 36 Y s 638 393 m 1 X s 639 393 m 2 X s black 639 393 m20 0 0 1 c 643 380 m
 37 Y s 643 417 m 37 Y s 641 417 m 2 X s 643 417 m 1 X s black 643 417 m20 0 0 1 c 646 345 m 36 Y s 646 381 m 36 Y s 644 381 m 2 X s 646 381 m 1 X s black 646 381 m20 0 0 1 c 649 401 m 38 Y s 649 439 m 39 Y s 647 439 m 2 X s 649 439 m 1 X s black 649
 439 m20 0 0 1 c 652 383 m 38 Y s 652 421 m 37 Y s 650 421 m 2 X s 652 421 m 1 X s black 652 421 m20 0 0 1 c 655 396 m 38 Y s 655 434 m 39 Y s 653 434 m 2 X s 655 434 m 1 X s black 655 434 m20 0 0 1 c 658 394 m 38 Y s 658 432 m 38 Y s 656 432 m 2 X s
 658 432 m 1 X s black 658 432 m20 0 0 1 c 661 403 m 38 Y s 661 441 m 39 Y s 659 441 m 2 X s 661 441 m 1 X s black 661 441 m20 0 0 1 c 664 330 m 35 Y s 664 365 m 34 Y s 662 365 m 2 X s 664 365 m 1 X s black 664 365 m20 0 0 1 c 667 334 m 34 Y s 667
 368 m 35 Y s 665 368 m 2 X s 667 368 m 1 X s black 667 368 m20 0 0 1 c 670 329 m 34 Y s 670 363 m 33 Y s 668 363 m 2 X s 670 363 m 1 X s black 670 363 m20 0 0 1 c 673 332 m 34 Y s 673 366 m 34 Y s 671 366 m 2 X s 673 366 m 1 X s black 673 366 m20 0
 0 1 c 676 391 m 36 Y s 676 427 m 36 Y s 674 427 m 2 X s 676 427 m 1 X s black 676 427 m20 0 0 1 c 679 295 m 31 Y s 679 326 m 31 Y s 677 326 m 2 X s 679 326 m 1 X s black 679 326 m20 0 0 1 c 682 421 m 37 Y s 682 458 m 36 Y s 680 458 m 2 X s 682 458 m
 1 X s black 682 458 m20 0 0 1 c 685 425 m 37 Y s 685 462 m 36 Y s 683 462 m 2 X s 685 462 m 1 X s black 685 462 m20 0 0 1 c 688 370 m 34 Y s 688 404 m 35 Y s 686 404 m 2 X s 688 404 m 1 X s black 688 404 m20 0 0 1 c 691 342 m 33 Y s 691 375 m 32 Y s
 689 375 m 2 X s 691 375 m 1 X s black 691 375 m20 0 0 1 c 694 378 m 35 Y s 694 413 m 34 Y s 692 413 m 2 X s 694 413 m 1 X s black 694 413 m20 0 0 1 c 697 382 m 35 Y s 697 417 m 35 Y s 695 417 m 2 X s 697 417 m 1 X s black 697 417 m20 0 0 1 c 700 319
 m 31 Y s 700 350 m 31 Y s 698 350 m 2 X s 700 350 m 1 X s black 700 350 m20 0 0 1 c 703 352 m 33 Y s 703 385 m 33 Y s 701 385 m 2 X s 703 385 m 2 X s black 703 385 m20 0 0 1 c 706 389 m 35 Y s 706 424 m 35 Y s 705 424 m 1 X s 706 424 m 2 X s black
 706 424 m20 0 0 1 c 709 362 m 34 Y s 709 396 m 34 Y s 708 396 m 1 X s 709 396 m 2 X s black 709 396 m20 0 0 1 c 712 374 m 35 Y s 712 409 m 34 Y s 711 409 m 1 X s 712 409 m 2 X s black 712 409 m20 0 0 1 c 715 324 m 31 Y s 715 355 m 32 Y s 714 355 m 1
 X s 715 355 m 2 X s black 715 355 m20 0 0 1 c 718 304 m 31 Y s 718 335 m 31 Y s 717 335 m 1 X s 718 335 m 2 X s black 718 335 m20 0 0 1 c 721 376 m 35 Y s 721 411 m 35 Y s 720 411 m 1 X s 721 411 m 2 X s black 721 411 m20 0 0 1 c 724 332 m 33 Y s
 724 365 m 32 Y s 723 365 m 1 X s 724 365 m 2 X s black 724 365 m20 0 0 1 c 727 331 m 32 Y s 727 363 m 32 Y s 726 363 m 1 X s 727 363 m 2 X s black 727 363 m20 0 0 1 c 730 357 m 34 Y s 730 391 m 33 Y s 729 391 m 1 X s 730 391 m 2 X s black 730 391
 m20 0 0 1 c 733 311 m 31 Y s 733 342 m 31 Y s 732 342 m 1 X s 733 342 m 2 X s black 733 342 m20 0 0 1 c 736 336 m 32 Y s 736 368 m 33 Y s 735 368 m 1 X s 736 368 m 2 X s black 736 368 m20 0 0 1 c 739 337 m 32 Y s 739 369 m 32 Y s 738 369 m 1 X s 739
 369 m 2 X s black 739 369 m20 0 0 1 c 742 349 m 32 Y s 742 381 m 33 Y s 741 381 m 1 X s 742 381 m 2 X s black 742 381 m20 0 0 1 c 745 345 m 32 Y s 745 377 m 33 Y s 744 377 m 1 X s 745 377 m 2 X s black 745 377 m20 0 0 1 c 748 282 m 29 Y s 748 311 m
 30 Y s 747 311 m 1 X s 748 311 m 2 X s black 748 311 m20 0 0 1 c 751 345 m 32 Y s 751 377 m 32 Y s 750 377 m 1 X s 751 377 m 2 X s black 751 377 m20 0 0 1 c 754 341 m 31 Y s 754 372 m 31 Y s 753 372 m 1 X s 754 372 m 2 X s black 754 372 m20 0 0 1 c
 757 343 m 31 Y s 757 374 m 31 Y s 756 374 m 1 X s 757 374 m 2 X s black 757 374 m20 0 0 1 c 760 365 m 33 Y s 760 398 m 32 Y s 759 398 m 1 X s 760 398 m 2 X s black 760 398 m20 0 0 1 c 763 338 m 31 Y s 763 369 m 30 Y s 762 369 m 1 X s 763 369 m 2 X s
 black 763 369 m20 0 0 1 c 766 347 m 32 Y s 766 379 m 31 Y s 765 379 m 1 X s 766 379 m 2 X s black 766 379 m20 0 0 1 c 770 327 m 29 Y s 770 356 m 29 Y s 768 356 m 2 X s 770 356 m 1 X s black 770 356 m20 0 0 1 c 773 332 m 29 Y s 773 361 m 30 Y s 771
 361 m 2 X s 773 361 m 1 X s black 773 361 m20 0 0 1 c 776 373 m 31 Y s 776 404 m 32 Y s 774 404 m 2 X s 776 404 m 1 X s black 776 404 m20 0 0 1 c 779 355 m 30 Y s 779 385 m 31 Y s 777 385 m 2 X s 779 385 m 1 X s black 779 385 m20 0 0 1 c 782 325 m
 29 Y s 782 354 m 29 Y s 780 354 m 2 X s 782 354 m 1 X s black 782 354 m20 0 0 1 c 785 339 m 30 Y s 785 369 m 29 Y s 783 369 m 2 X s 785 369 m 1 X s black 785 369 m20 0 0 1 c 788 332 m 28 Y s 788 360 m 29 Y s 786 360 m 2 X s 788 360 m 1 X s black 788
 360 m20 0 0 1 c 791 362 m 30 Y s 791 392 m 30 Y s 789 392 m 2 X s 791 392 m 1 X s black 791 392 m20 0 0 1 c 794 359 m 30 Y s 794 389 m 31 Y s 792 389 m 2 X s 794 389 m 1 X s black 794 389 m20 0 0 1 c 797 399 m 32 Y s 797 431 m 33 Y s 795 431 m 2 X s
 797 431 m 1 X s black 797 431 m20 0 0 1 c 800 370 m 30 Y s 800 400 m 31 Y s 798 400 m 2 X s 800 400 m 1 X s black 800 400 m20 0 0 1 c 803 346 m 29 Y s 803 375 m 29 Y s 801 375 m 2 X s 803 375 m 1 X s black 803 375 m20 0 0 1 c 806 328 m 29 Y s 806
 357 m 29 Y s 804 357 m 2 X s 806 357 m 1 X s black 806 357 m20 0 0 1 c 809 308 m 27 Y s 809 335 m 27 Y s 807 335 m 2 X s 809 335 m 1 X s black 809 335 m20 0 0 1 c 812 368 m 31 Y s 812 399 m 30 Y s 810 399 m 2 X s 812 399 m 1 X s black 812 399 m20 0
 0 1 c 815 347 m 29 Y s 815 376 m 29 Y s 813 376 m 2 X s 815 376 m 1 X s black 815 376 m20 0 0 1 c 818 283 m 25 Y s 818 308 m 26 Y s 816 308 m 2 X s 818 308 m 1 X s black 818 308 m20 0 0 1 c 821 325 m 28 Y s 821 353 m 28 Y s 819 353 m 2 X s 821 353 m
 1 X s black 821 353 m20 0 0 1 c 824 314 m 28 Y s 824 342 m 27 Y s 822 342 m 2 X s 824 342 m 1 X s black 824 342 m20 0 0 1 c 827 345 m 29 Y s 827 374 m 29 Y s 825 374 m 2 X s 827 374 m 1 X s black 827 374 m20 0 0 1 c 830 348 m 29 Y s 830 377 m 29 Y s
 828 377 m 2 X s 830 377 m 1 X s black 830 377 m20 0 0 1 c 833 316 m 28 Y s 833 344 m 28 Y s 831 344 m 2 X s 833 344 m 2 X s black 833 344 m20 0 0 1 c 836 375 m 31 Y s 836 406 m 31 Y s 835 406 m 1 X s 836 406 m 2 X s black 836 406 m20 0 0 1 c 839 348
 m 29 Y s 839 377 m 29 Y s 838 377 m 1 X s 839 377 m 2 X s black 839 377 m20 0 0 1 c 842 343 m 29 Y s 842 372 m 28 Y s 841 372 m 1 X s 842 372 m 2 X s black 842 372 m20 0 0 1 c 845 363 m 30 Y s 845 393 m 30 Y s 844 393 m 1 X s 845 393 m 2 X s black
 845 393 m20 0 0 1 c 848 348 m 29 Y s 848 377 m 29 Y s 847 377 m 1 X s 848 377 m 2 X s black 848 377 m20 0 0 1 c 851 365 m 30 Y s 851 395 m 30 Y s 850 395 m 1 X s 851 395 m 2 X s black 851 395 m20 0 0 1 c 854 410 m 32 Y s 854 442 m 32 Y s 853 442 m 1
 X s 854 442 m 2 X s black 854 442 m20 0 0 1 c 857 359 m 30 Y s 857 389 m 29 Y s 856 389 m 1 X s 857 389 m 2 X s black 857 389 m20 0 0 1 c 860 375 m 31 Y s 860 406 m 30 Y s 859 406 m 1 X s 860 406 m 2 X s black 860 406 m20 0 0 1 c 863 367 m 30 Y s
 863 397 m 30 Y s 862 397 m 1 X s 863 397 m 2 X s black 863 397 m20 0 0 1 c 866 360 m 30 Y s 866 390 m 29 Y s 865 390 m 1 X s 866 390 m 2 X s black 866 390 m20 0 0 1 c 869 336 m 29 Y s 869 365 m 28 Y s 868 365 m 1 X s 869 365 m 2 X s black 869 365
 m20 0 0 1 c 872 332 m 27 Y s 872 359 m 28 Y s 871 359 m 1 X s 872 359 m 2 X s black 872 359 m20 0 0 1 c 875 333 m 28 Y s 875 361 m 27 Y s 874 361 m 1 X s 875 361 m 2 X s black 875 361 m20 0 0 1 c 878 325 m 28 Y s 878 353 m 28 Y s 877 353 m 1 X s 878
 353 m 2 X s black 878 353 m20 0 0 1 c 881 291 m 25 Y s 881 316 m 25 Y s 880 316 m 1 X s 881 316 m 2 X s black 881 316 m20 0 0 1 c 884 399 m 32 Y s 884 431 m 32 Y s 883 431 m 1 X s 884 431 m 2 X s black 884 431 m20 0 0 1 c 887 347 m 29 Y s 887 376 m
 29 Y s 886 376 m 1 X s 887 376 m 2 X s black 887 376 m20 0 0 1 c 890 318 m 27 Y s 890 345 m 27 Y s 889 345 m 1 X s 890 345 m 2 X s black 890 345 m20 0 0 1 c 893 306 m 26 Y s 893 332 m 26 Y s 892 332 m 1 X s 893 332 m 2 X s black 893 332 m20 0 0 1 c
 897 371 m 30 Y s 897 401 m 30 Y s 895 401 m 2 X s 897 401 m 1 X s black 897 401 m20 0 0 1 c 900 306 m 26 Y s 900 332 m 26 Y s 898 332 m 2 X s 900 332 m 1 X s black 900 332 m20 0 0 1 c 903 333 m 27 Y s 903 360 m 28 Y s 901 360 m 2 X s 903 360 m 1 X s
 black 903 360 m20 0 0 1 c 906 319 m 27 Y s 906 346 m 26 Y s 904 346 m 2 X s 906 346 m 1 X s black 906 346 m20 0 0 1 c 909 371 m 30 Y s 909 401 m 29 Y s 907 401 m 2 X s 909 401 m 1 X s black 909 401 m20 0 0 1 c 912 350 m 28 Y s 912 378 m 28 Y s 910
 378 m 2 X s 912 378 m 1 X s black 912 378 m20 0 0 1 c 915 334 m 28 Y s 915 362 m 27 Y s 913 362 m 2 X s 915 362 m 1 X s black 915 362 m20 0 0 1 c 918 361 m 28 Y s 918 389 m 29 Y s 916 389 m 2 X s 918 389 m 1 X s black 918 389 m20 0 0 1 c 921 385 m
 30 Y s 921 415 m 30 Y s 919 415 m 2 X s 921 415 m 1 X s black 921 415 m20 0 0 1 c 924 316 m 26 Y s 924 342 m 26 Y s 922 342 m 2 X s 924 342 m 1 X s black 924 342 m20 0 0 1 c 927 323 m 27 Y s 927 350 m 26 Y s 925 350 m 2 X s 927 350 m 1 X s black 927
 350 m20 0 0 1 c 930 351 m 29 Y s 930 380 m 28 Y s 928 380 m 2 X s 930 380 m 1 X s black 930 380 m20 0 0 1 c 933 349 m 28 Y s 933 377 m 27 Y s 931 377 m 2 X s 933 377 m 1 X s black 933 377 m20 0 0 1 c 936 316 m 27 Y s 936 343 m 26 Y s 934 343 m 2 X s
 936 343 m 1 X s black 936 343 m20 0 0 1 c 939 400 m 30 Y s 939 430 m 31 Y s 937 430 m 2 X s 939 430 m 1 X s black 939 430 m20 0 0 1 c 942 323 m 26 Y s 942 349 m 26 Y s 940 349 m 2 X s 942 349 m 1 X s black 942 349 m20 0 0 1 c 945 347 m 28 Y s 945
 375 m 28 Y s 943 375 m 2 X s 945 375 m 1 X s black 945 375 m20 0 0 1 c 948 342 m 27 Y s 948 369 m 27 Y s 946 369 m 2 X s 948 369 m 1 X s black 948 369 m20 0 0 1 c 951 364 m 29 Y s 951 393 m 29 Y s 949 393 m 2 X s 951 393 m 1 X s black 951 393 m20 0
 0 1 c 954 342 m 28 Y s 954 370 m 27 Y s 952 370 m 2 X s 954 370 m 1 X s black 954 370 m20 0 0 1 c 957 318 m 25 Y s 957 343 m 26 Y s 955 343 m 2 X s 957 343 m 1 X s black 957 343 m20 0 0 1 c 960 378 m 30 Y s 960 408 m 29 Y s 958 408 m 2 X s 960 408 m
 2 X s black 960 408 m20 0 0 1 c 963 368 m 28 Y s 963 396 m 29 Y s 962 396 m 1 X s 963 396 m 2 X s black 963 396 m20 0 0 1 c 966 365 m 29 Y s 966 394 m 29 Y s 965 394 m 1 X s 966 394 m 2 X s black 966 394 m20 0 0 1 c 969 290 m 23 Y s 969 313 m 24 Y s
 968 313 m 1 X s 969 313 m 2 X s black 969 313 m20 0 0 1 c 972 378 m 29 Y s 972 407 m 30 Y s 971 407 m 1 X s 972 407 m 2 X s black 972 407 m20 0 0 1 c 975 370 m 29 Y s 975 399 m 29 Y s 974 399 m 1 X s 975 399 m 2 X s black 975 399 m20 0 0 1 c 978 316
 m 26 Y s 978 342 m 26 Y s 977 342 m 1 X s 978 342 m 2 X s black 978 342 m20 0 0 1 c 981 357 m 29 Y s 981 386 m 28 Y s 980 386 m 1 X s 981 386 m 2 X s black 981 386 m20 0 0 1 c 984 299 m 24 Y s 984 323 m 25 Y s 983 323 m 1 X s 984 323 m 2 X s black
 984 323 m20 0 0 1 c 987 342 m 27 Y s 987 369 m 28 Y s 986 369 m 1 X s 987 369 m 2 X s black 987 369 m20 0 0 1 c 990 378 m 30 Y s 990 408 m 29 Y s 989 408 m 1 X s 990 408 m 2 X s black 990 408 m20 0 0 1 c 993 342 m 28 Y s 993 370 m 28 Y s 992 370 m 1
 X s 993 370 m 2 X s black 993 370 m20 0 0 1 c 996 331 m 27 Y s 996 358 m 27 Y s 995 358 m 1 X s 996 358 m 2 X s black 996 358 m20 0 0 1 c 999 355 m 29 Y s 999 384 m 28 Y s 998 384 m 1 X s 999 384 m 2 X s black 999 384 m20 0 0 1 c 1002 328 m 27 Y s
 1002 355 m 26 Y s 1001 355 m 1 X s 1002 355 m 2 X s black 1002 355 m20 0 0 1 c 1005 327 m 27 Y s 1005 354 m 26 Y s 1004 354 m 1 X s 1005 354 m 2 X s black 1005 354 m20 0 0 1 c 1008 421 m 32 Y s 1008 453 m 32 Y s 1007 453 m 1 X s 1008 453 m 2 X s
 black 1008 453 m20 0 0 1 c 1011 339 m 27 Y s 1011 366 m 28 Y s 1010 366 m 1 X s 1011 366 m 2 X s black 1011 366 m20 0 0 1 c 1014 308 m 25 Y s 1014 333 m 25 Y s 1013 333 m 1 X s 1014 333 m 2 X s black 1014 333 m20 0 0 1 c 1017 391 m 31 Y s 1017 422 m
 30 Y s 1016 422 m 1 X s 1017 422 m 2 X s black 1017 422 m20 0 0 1 c 1020 380 m 30 Y s 1020 410 m 30 Y s 1019 410 m 1 X s 1020 410 m 2 X s black 1020 410 m20 0 0 1 c 1023 322 m 27 Y s 1023 349 m 26 Y s 1022 349 m 1 X s 1023 349 m 2 X s black 1023 349
 m20 0 0 1 c 1027 387 m 30 Y s 1027 417 m 30 Y s 1025 417 m 2 X s 1027 417 m 1 X s black 1027 417 m20 0 0 1 c 1030 388 m 30 Y s 1030 418 m 30 Y s 1028 418 m 2 X s 1030 418 m 1 X s black 1030 418 m20 0 0 1 c 1033 366 m 29 Y s 1033 395 m 29 Y s 1031
 395 m 2 X s 1033 395 m 1 X s black 1033 395 m20 0 0 1 c 1036 387 m 30 Y s 1036 417 m 29 Y s 1034 417 m 2 X s 1036 417 m 1 X s black 1036 417 m20 0 0 1 c 1039 396 m 30 Y s 1039 426 m 30 Y s 1037 426 m 2 X s 1039 426 m 1 X s black 1039 426 m20 0 0 1 c
 1042 340 m 27 Y s 1042 367 m 27 Y s 1040 367 m 2 X s 1042 367 m 1 X s black 1042 367 m20 0 0 1 c 1045 311 m 25 Y s 1045 336 m 25 Y s 1043 336 m 2 X s 1045 336 m 1 X s black 1045 336 m20 0 0 1 c 1048 439 m 33 Y s 1048 472 m 32 Y s 1046 472 m 2 X s
 1048 472 m 1 X s black 1048 472 m20 0 0 1 c 1051 391 m 29 Y s 1051 420 m 30 Y s 1049 420 m 2 X s 1051 420 m 1 X s black 1051 420 m20 0 0 1 c 1054 417 m 32 Y s 1054 449 m 31 Y s 1052 449 m 2 X s 1054 449 m 1 X s black 1054 449 m20 0 0 1 c 1057 378 m
 29 Y s 1057 407 m 29 Y s 1055 407 m 2 X s 1057 407 m 1 X s black 1057 407 m20 0 0 1 c 1060 380 m 29 Y s 1060 409 m 29 Y s 1058 409 m 2 X s 1060 409 m 1 X s black 1060 409 m20 0 0 1 c 1063 377 m 28 Y s 1063 405 m 29 Y s 1061 405 m 2 X s 1063 405 m 1
 X s black 1063 405 m20 0 0 1 c 1066 367 m 28 Y s 1066 395 m 28 Y s 1064 395 m 2 X s 1066 395 m 1 X s black 1066 395 m20 0 0 1 c 1069 335 m 26 Y s 1069 361 m 25 Y s 1067 361 m 2 X s 1069 361 m 1 X s black 1069 361 m20 0 0 1 c 1072 352 m 27 Y s 1072
 379 m 27 Y s 1070 379 m 2 X s 1072 379 m 1 X s black 1072 379 m20 0 0 1 c 1075 365 m 28 Y s 1075 393 m 29 Y s 1073 393 m 2 X s 1075 393 m 1 X s black 1075 393 m20 0 0 1 c 1078 366 m 28 Y s 1078 394 m 28 Y s 1076 394 m 2 X s 1078 394 m 1 X s black
 1078 394 m20 0 0 1 c 1081 394 m 29 Y s 1081 423 m 28 Y s 1079 423 m 2 X s 1081 423 m 1 X s black 1081 423 m20 0 0 1 c 1084 357 m 27 Y s 1084 384 m 27 Y s 1082 384 m 2 X s 1084 384 m 1 X s black 1084 384 m20 0 0 1 c 1087 388 m 29 Y s 1087 417 m 29 Y
 s 1085 417 m 2 X s 1087 417 m 2 X s black 1087 417 m20 0 0 1 c 1090 407 m 30 Y s 1090 437 m 29 Y s 1089 437 m 1 X s 1090 437 m 2 X s black 1090 437 m20 0 0 1 c 1093 339 m 26 Y s 1093 365 m 26 Y s 1092 365 m 1 X s 1093 365 m 2 X s black 1093 365 m20
 0 0 1 c 1096 364 m 28 Y s 1096 392 m 27 Y s 1095 392 m 1 X s 1096 392 m 2 X s black 1096 392 m20 0 0 1 c 1099 387 m 29 Y s 1099 416 m 28 Y s 1098 416 m 1 X s 1099 416 m 2 X s black 1099 416 m20 0 0 1 c 1102 422 m 30 Y s 1102 452 m 31 Y s 1101 452 m
 1 X s 1102 452 m 2 X s black 1102 452 m20 0 0 1 c 1105 371 m 28 Y s 1105 399 m 27 Y s 1104 399 m 1 X s 1105 399 m 2 X s black 1105 399 m20 0 0 1 c 1108 404 m 29 Y s 1108 433 m 30 Y s 1107 433 m 1 X s 1108 433 m 2 X s black 1108 433 m20 0 0 1 c 1111
 366 m 28 Y s 1111 394 m 27 Y s 1110 394 m 1 X s 1111 394 m 2 X s black 1111 394 m20 0 0 1 c 1114 351 m 27 Y s 1114 378 m 26 Y s 1113 378 m 1 X s 1114 378 m 2 X s black 1114 378 m20 0 0 1 c 1117 356 m 26 Y s 1117 382 m 27 Y s 1116 382 m 1 X s 1117
 382 m 2 X s black 1117 382 m20 0 0 1 c 1120 406 m 29 Y s 1120 435 m 30 Y s 1119 435 m 1 X s 1120 435 m 2 X s black 1120 435 m20 0 0 1 c 1123 420 m 31 Y s 1123 451 m 31 Y s 1122 451 m 1 X s 1123 451 m 2 X s black 1123 451 m20 0 0 1 c 1126 364 m 27 Y
 s 1126 391 m 28 Y s 1125 391 m 1 X s 1126 391 m 2 X s black 1126 391 m20 0 0 1 c 1129 371 m 27 Y s 1129 398 m 27 Y s 1128 398 m 1 X s 1129 398 m 2 X s black 1129 398 m20 0 0 1 c 1132 444 m 32 Y s 1132 476 m 32 Y s 1131 476 m 1 X s 1132 476 m 2 X s
 black 1132 476 m20 0 0 1 c 1135 382 m 28 Y s 1135 410 m 28 Y s 1134 410 m 1 X s 1135 410 m 2 X s black 1135 410 m20 0 0 1 c 1138 363 m 27 Y s 1138 390 m 27 Y s 1137 390 m 1 X s 1138 390 m 2 X s black 1138 390 m20 0 0 1 c 1141 384 m 29 Y s 1141 413 m
 28 Y s 1140 413 m 1 X s 1141 413 m 2 X s black 1141 413 m20 0 0 1 c 1144 448 m 31 Y s 1144 479 m 32 Y s 1143 479 m 1 X s 1144 479 m 2 X s black 1144 479 m20 0 0 1 c 1147 446 m 32 Y s 1147 478 m 32 Y s 1146 478 m 1 X s 1147 478 m 2 X s black 1147 478
 m20 0 0 1 c 1150 434 m 31 Y s 1150 465 m 31 Y s 1149 465 m 1 X s 1150 465 m 2 X s black 1150 465 m20 0 0 1 c 1154 434 m 32 Y s 1154 466 m 31 Y s 1152 466 m 2 X s 1154 466 m 1 X s black 1154 466 m20 0 0 1 c 1157 441 m 32 Y s 1157 473 m 32 Y s 1155
 473 m 2 X s 1157 473 m 1 X s black 1157 473 m20 0 0 1 c 1160 402 m 29 Y s 1160 431 m 30 Y s 1158 431 m 2 X s 1160 431 m 1 X s black 1160 431 m20 0 0 1 c 1163 449 m 32 Y s 1163 481 m 32 Y s 1161 481 m 2 X s 1163 481 m 1 X s black 1163 481 m20 0 0 1 c
 1166 457 m 33 Y s 1166 490 m 32 Y s 1164 490 m 2 X s 1166 490 m 1 X s black 1166 490 m20 0 0 1 c 1169 418 m 30 Y s 1169 448 m 31 Y s 1167 448 m 2 X s 1169 448 m 1 X s black 1169 448 m20 0 0 1 c 1172 402 m 30 Y s 1172 432 m 30 Y s 1170 432 m 2 X s
 1172 432 m 1 X s black 1172 432 m20 0 0 1 c 1175 364 m 27 Y s 1175 391 m 28 Y s 1173 391 m 2 X s 1175 391 m 1 X s black 1175 391 m20 0 0 1 c 1178 396 m 29 Y s 1178 425 m 29 Y s 1176 425 m 2 X s 1178 425 m 1 X s black 1178 425 m20 0 0 1 c 1181 456 m
 33 Y s 1181 489 m 32 Y s 1179 489 m 2 X s 1181 489 m 1 X s black 1181 489 m20 0 0 1 c 1184 432 m 32 Y s 1184 464 m 31 Y s 1182 464 m 2 X s 1184 464 m 1 X s black 1184 464 m20 0 0 1 c 1187 409 m 30 Y s 1187 439 m 30 Y s 1185 439 m 2 X s 1187 439 m 1
 X s black 1187 439 m20 0 0 1 c 1190 442 m 32 Y s 1190 474 m 32 Y s 1188 474 m 2 X s 1190 474 m 1 X s black 1190 474 m20 0 0 1 c 1193 395 m 29 Y s 1193 424 m 29 Y s 1191 424 m 2 X s 1193 424 m 1 X s black 1193 424 m20 0 0 1 c 1196 425 m 31 Y s 1196
 456 m 31 Y s 1194 456 m 2 X s 1196 456 m 1 X s black 1196 456 m20 0 0 1 c 1199 381 m 28 Y s 1199 409 m 28 Y s 1197 409 m 2 X s 1199 409 m 1 X s black 1199 409 m20 0 0 1 c 1202 394 m 28 Y s 1202 422 m 29 Y s 1200 422 m 2 X s 1202 422 m 1 X s black
 1202 422 m20 0 0 1 c 1205 439 m 32 Y s 1205 471 m 31 Y s 1203 471 m 2 X s 1205 471 m 1 X s black 1205 471 m20 0 0 1 c 1208 391 m 28 Y s 1208 419 m 29 Y s 1206 419 m 2 X s 1208 419 m 1 X s black 1208 419 m20 0 0 1 c 1211 421 m 30 Y s 1211 451 m 30 Y
 s 1209 451 m 2 X s 1211 451 m 1 X s black 1211 451 m20 0 0 1 c 1214 400 m 28 Y s 1214 428 m 29 Y s 1212 428 m 2 X s 1214 428 m 1 X s black 1214 428 m20 0 0 1 c 1217 363 m 26 Y s 1217 389 m 26 Y s 1215 389 m 2 X s 1217 389 m 2 X s black 1217 389 m20
 0 0 1 c 1220 356 m 26 Y s 1220 382 m 26 Y s 1219 382 m 1 X s 1220 382 m 2 X s black 1220 382 m20 0 0 1 c 1223 439 m 31 Y s 1223 470 m 31 Y s 1222 470 m 1 X s 1223 470 m 2 X s black 1223 470 m20 0 0 1 c 1226 372 m 27 Y s 1226 399 m 27 Y s 1225 399 m
 1 X s 1226 399 m 2 X s black 1226 399 m20 0 0 1 c 1229 342 m 25 Y s 1229 367 m 24 Y s 1228 367 m 1 X s 1229 367 m 2 X s black 1229 367 m20 0 0 1 c 1232 399 m 28 Y s 1232 427 m 29 Y s 1231 427 m 1 X s 1232 427 m 2 X s black 1232 427 m20 0 0 1 c 1235
 380 m 28 Y s 1235 408 m 27 Y s 1234 408 m 1 X s 1235 408 m 2 X s black 1235 408 m20 0 0 1 c 1238 414 m 29 Y s 1238 443 m 30 Y s 1237 443 m 1 X s 1238 443 m 2 X s black 1238 443 m20 0 0 1 c 1241 327 m 24 Y s 1241 351 m 24 Y s 1240 351 m 1 X s 1241
 351 m 2 X s black 1241 351 m20 0 0 1 c 1244 330 m 24 Y s 1244 354 m 24 Y s 1243 354 m 1 X s 1244 354 m 2 X s black 1244 354 m20 0 0 1 c 1247 342 m 25 Y s 1247 367 m 25 Y s 1246 367 m 1 X s 1247 367 m 2 X s black 1247 367 m20 0 0 1 c 1250 313 m 23 Y
 s 1250 336 m 23 Y s 1249 336 m 1 X s 1250 336 m 2 X s black 1250 336 m20 0 0 1 c 1253 345 m 25 Y s 1253 370 m 25 Y s 1252 370 m 1 X s 1253 370 m 2 X s black 1253 370 m20 0 0 1 c 1256 363 m 27 Y s 1256 390 m 26 Y s 1255 390 m 1 X s 1256 390 m 2 X s
 black 1256 390 m20 0 0 1 c 1259 309 m 23 Y s 1259 332 m 22 Y s 1258 332 m 1 X s 1259 332 m 2 X s black 1259 332 m20 0 0 1 c 1262 289 m 21 Y s 1262 310 m 21 Y s 1261 310 m 1 X s 1262 310 m 2 X s black 1262 310 m20 0 0 1 c 1265 321 m 23 Y s 1265 344 m
 23 Y s 1264 344 m 1 X s 1265 344 m 2 X s black 1265 344 m20 0 0 1 c 1268 304 m 22 Y s 1268 326 m 22 Y s 1267 326 m 1 X s 1268 326 m 2 X s black 1268 326 m20 0 0 1 c 1271 260 m 18 Y s 1271 278 m 18 Y s 1270 278 m 1 X s 1271 278 m 2 X s black 1271 278
 m20 0 0 1 c 1274 300 m 22 Y s 1274 322 m 22 Y s 1273 322 m 1 X s 1274 322 m 2 X s black 1274 322 m20 0 0 1 c 1277 300 m 21 Y s 1277 321 m 22 Y s 1276 321 m 1 X s 1277 321 m 2 X s black 1277 321 m20 0 0 1 c 1281 311 m 22 Y s 1281 333 m 22 Y s 1279
 333 m 2 X s 1281 333 m 1 X s black 1281 333 m20 0 0 1 c 1284 291 m 20 Y s 1284 311 m 21 Y s 1282 311 m 2 X s 1284 311 m 1 X s black 1284 311 m20 0 0 1 c 1287 272 m 18 Y s 1287 290 m 19 Y s 1285 290 m 2 X s 1287 290 m 1 X s black 1287 290 m20 0 0 1 c
 1290 285 m 19 Y s 1290 304 m 20 Y s 1288 304 m 2 X s 1290 304 m 1 X s black 1290 304 m20 0 0 1 c 1293 258 m 17 Y s 1293 275 m 17 Y s 1291 275 m 2 X s 1293 275 m 1 X s black 1293 275 m20 0 0 1 c 1296 261 m 18 Y s 1296 279 m 18 Y s 1294 279 m 2 X s
 1296 279 m 1 X s black 1296 279 m20 0 0 1 c 1299 237 m 15 Y s 1299 252 m 15 Y s 1297 252 m 2 X s 1299 252 m 1 X s black 1299 252 m20 0 0 1 c 1302 247 m 15 Y s 1302 262 m 16 Y s 1300 262 m 2 X s 1302 262 m 1 X s black 1302 262 m20 0 0 1 c 1305 283 m
 19 Y s 1305 302 m 20 Y s 1303 302 m 2 X s 1305 302 m 1 X s black 1305 302 m20 0 0 1 c 1308 280 m 19 Y s 1308 299 m 19 Y s 1306 299 m 2 X s 1308 299 m 1 X s black 1308 299 m20 0 0 1 c 1311 269 m 18 Y s 1311 287 m 18 Y s 1309 287 m 2 X s 1311 287 m 1
 X s black 1311 287 m20 0 0 1 c 1314 247 m 15 Y s 1314 262 m 15 Y s 1312 262 m 2 X s 1314 262 m 1 X s black 1314 262 m20 0 0 1 c 1317 252 m 16 Y s 1317 268 m 16 Y s 1315 268 m 2 X s 1317 268 m 1 X s black 1317 268 m20 0 0 1 c 1320 251 m 16 Y s 1320
 267 m 16 Y s 1318 267 m 2 X s 1320 267 m 1 X s black 1320 267 m20 0 0 1 c 1323 290 m 19 Y s 1323 309 m 20 Y s 1321 309 m 2 X s 1323 309 m 1 X s black 1323 309 m20 0 0 1 c 1326 238 m 15 Y s 1326 253 m 15 Y s 1324 253 m 2 X s 1326 253 m 1 X s black
 1326 253 m20 0 0 1 c 1329 259 m 17 Y s 1329 276 m 17 Y s 1327 276 m 2 X s 1329 276 m 1 X s black 1329 276 m20 0 0 1 c 1332 236 m 13 Y s 1332 249 m 14 Y s 1330 249 m 2 X s 1332 249 m 1 X s black 1332 249 m20 0 0 1 c 1335 229 m 13 Y s 1335 242 m 13 Y
 s 1333 242 m 2 X s 1335 242 m 1 X s black 1335 242 m20 0 0 1 c 1338 243 m 14 Y s 1338 257 m 15 Y s 1336 257 m 2 X s 1338 257 m 1 X s black 1338 257 m20 0 0 1 c 1341 241 m 14 Y s 1341 255 m 14 Y s 1339 255 m 2 X s 1341 255 m 1 X s black 1341 255 m20
 0 0 1 c 1344 241 m 15 Y s 1344 256 m 14 Y s 1342 256 m 2 X s 1344 256 m 2 X s black 1344 256 m20 0 0 1 c 1347 263 m 16 Y s 1347 279 m 17 Y s 1346 279 m 1 X s 1347 279 m 2 X s black 1347 279 m20 0 0 1 c 1350 228 m 13 Y s 1350 241 m 13 Y s 1349 241 m
 1 X s 1350 241 m 2 X s black 1350 241 m20 0 0 1 c 1353 235 m 13 Y s 1353 248 m 13 Y s 1352 248 m 1 X s 1353 248 m 2 X s black 1353 248 m20 0 0 1 c 1356 263 m 17 Y s 1356 280 m 16 Y s 1355 280 m 1 X s 1356 280 m 2 X s black 1356 280 m20 0 0 1 c 1359
 246 m 16 Y s 1359 262 m 15 Y s 1358 262 m 1 X s 1359 262 m 2 X s black 1359 262 m20 0 0 1 c 1362 263 m 17 Y s 1362 280 m 17 Y s 1361 280 m 1 X s 1362 280 m 2 X s black 1362 280 m20 0 0 1 c 1365 273 m 17 Y s 1365 290 m 18 Y s 1364 290 m 1 X s 1365
 290 m 2 X s black 1365 290 m20 0 0 1 c 1368 281 m 19 Y s 1368 300 m 19 Y s 1367 300 m 1 X s 1368 300 m 2 X s black 1368 300 m20 0 0 1 c 1371 251 m 16 Y s 1371 267 m 16 Y s 1370 267 m 1 X s 1371 267 m 2 X s black 1371 267 m20 0 0 1 c 1374 321 m 22 Y
 s 1374 343 m 22 Y s 1373 343 m 1 X s 1374 343 m 2 X s black 1374 343 m20 0 0 1 c 1377 268 m 17 Y s 1377 285 m 18 Y s 1376 285 m 1 X s 1377 285 m 2 X s black 1377 285 m20 0 0 1 c 1380 331 m 23 Y s 1380 354 m 23 Y s 1379 354 m 1 X s 1380 354 m 2 X s
 black 1380 354 m20 0 0 1 c 1383 332 m 23 Y s 1383 355 m 23 Y s 1382 355 m 1 X s 1383 355 m 2 X s black 1383 355 m20 0 0 1 c 1386 337 m 24 Y s 1386 361 m 23 Y s 1385 361 m 1 X s 1386 361 m 2 X s black 1386 361 m20 0 0 1 c 1389 354 m 25 Y s 1389 379 m
 24 Y s 1388 379 m 1 X s 1389 379 m 2 X s black 1389 379 m20 0 0 1 c 1392 388 m 27 Y s 1392 415 m 27 Y s 1391 415 m 1 X s 1392 415 m 2 X s black 1392 415 m20 0 0 1 c 1395 421 m 29 Y s 1395 450 m 29 Y s 1394 450 m 1 X s 1395 450 m 2 X s black 1395 450
 m20 0 0 1 c 1398 471 m 32 Y s 1398 503 m 32 Y s 1397 503 m 1 X s 1398 503 m 2 X s black 1398 503 m20 0 0 1 c 1401 503 m 34 Y s 1401 537 m 33 Y s 1400 537 m 1 X s 1401 537 m 2 X s black 1401 537 m20 0 0 1 c 1404 523 m 35 Y s 1404 558 m 34 Y s 1403
 558 m 1 X s 1404 558 m 2 X s black 1404 558 m20 0 0 1 c 1407 528 m 36 Y s 1407 564 m 35 Y s 1406 564 m 1 X s 1407 564 m 2 X s black 1407 564 m20 0 0 1 c 1411 557 m 36 Y s 1411 593 m 37 Y s 1409 593 m 2 X s 1411 593 m 1 X s black 1411 593 m20 0 0 1 c
 1414 613 m 39 Y s 1414 652 m 40 Y s 1412 652 m 2 X s 1414 652 m 1 X s black 1414 652 m20 0 0 1 c 1417 623 m 40 Y s 1417 663 m 40 Y s 1415 663 m 2 X s 1417 663 m 1 X s black 1417 663 m20 0 0 1 c 1420 722 m 44 Y s 1420 766 m 44 Y s 1418 766 m 2 X s
 1420 766 m 1 X s black 1420 766 m20 0 0 1 c 1423 863 m 49 Y s 1423 912 m 49 Y s 1421 912 m 2 X s 1423 912 m 1 X s black 1423 912 m20 0 0 1 c 1426 866 m 49 Y s 1426 915 m 49 Y s 1424 915 m 2 X s 1426 915 m 1 X s black 1426 915 m20 0 0 1 c 1429 878 m
 49 Y s 1429 927 m 50 Y s 1427 927 m 2 X s 1429 927 m 1 X s black 1429 927 m20 0 0 1 c 1432 1023 m 54 Y s 1432 1077 m 55 Y s 1430 1077 m 2 X s 1432 1077 m 1 X s black 1432 1077 m20 0 0 1 c 1435 904 m 51 Y s 1435 955 m 51 Y s 1433 955 m 2 X s 1435 955
 m 1 X s black 1435 955 m20 0 0 1 c 1438 1010 m 54 Y s 1438 1064 m 55 Y s 1436 1064 m 2 X s 1438 1064 m 1 X s black 1438 1064 m20 0 0 1 c 1441 1151 m 59 Y s 1441 1210 m 59 Y s 1439 1210 m 2 X s 1441 1210 m 1 X s black 1441 1210 m20 0 0 1 c 1444 1190
 m 59 Y s 1444 1249 m 60 Y s 1442 1249 m 2 X s 1444 1249 m 1 X s black 1444 1249 m20 0 0 1 c 1447 1193 m 60 Y s 1447 1253 m 60 Y s 1445 1253 m 2 X s 1447 1253 m 1 X s black 1447 1253 m20 0 0 1 c 1450 1156 m 59 Y s 1450 1215 m 59 Y s 1448 1215 m 2 X s
 1450 1215 m 1 X s black 1450 1215 m20 0 0 1 c 1453 1198 m 61 Y s 1453 1259 m 60 Y s 1451 1259 m 2 X s 1453 1259 m 1 X s black 1453 1259 m20 0 0 1 c 1456 1173 m 60 Y s 1456 1233 m 59 Y s 1454 1233 m 2 X s 1456 1233 m 1 X s black 1456 1233 m20 0 0 1 c
 1459 1076 m 57 Y s 1459 1133 m 57 Y s 1457 1133 m 2 X s 1459 1133 m 1 X s black 1459 1133 m20 0 0 1 c 1462 1097 m 57 Y s 1462 1154 m 58 Y s 1460 1154 m 2 X s 1462 1154 m 1 X s black 1462 1154 m20 0 0 1 c 1465 973 m 54 Y s 1465 1027 m 54 Y s 1463
 1027 m 2 X s 1465 1027 m 1 X s black 1465 1027 m20 0 0 1 c 1468 1051 m 56 Y s 1468 1107 m 56 Y s 1466 1107 m 2 X s 1468 1107 m 1 X s black 1468 1107 m20 0 0 1 c 1471 966 m 53 Y s 1471 1019 m 54 Y s 1469 1019 m 2 X s 1471 1019 m 2 X s black 1471 1019
 m20 0 0 1 c 1474 834 m 49 Y s 1474 883 m 50 Y s 1473 883 m 1 X s 1474 883 m 2 X s black 1474 883 m20 0 0 1 c 1477 790 m 47 Y s 1477 837 m 48 Y s 1476 837 m 1 X s 1477 837 m 2 X s black 1477 837 m20 0 0 1 c 1480 666 m 43 Y s 1480 709 m 43 Y s 1479
 709 m 1 X s 1480 709 m 2 X s black 1480 709 m20 0 0 1 c 1483 698 m 44 Y s 1483 742 m 44 Y s 1482 742 m 1 X s 1483 742 m 2 X s black 1483 742 m20 0 0 1 c 1486 566 m 38 Y s 1486 604 m 38 Y s 1485 604 m 1 X s 1486 604 m 2 X s black 1486 604 m20 0 0 1 c
 1489 514 m 35 Y s 1489 549 m 36 Y s 1488 549 m 1 X s 1489 549 m 2 X s black 1489 549 m20 0 0 1 c 1492 503 m 35 Y s 1492 538 m 35 Y s 1491 538 m 1 X s 1492 538 m 2 X s black 1492 538 m20 0 0 1 c 1495 477 m 33 Y s 1495 510 m 34 Y s 1494 510 m 1 X s
 1495 510 m 2 X s black 1495 510 m20 0 0 1 c 1498 400 m 28 Y s 1498 428 m 29 Y s 1497 428 m 1 X s 1498 428 m 2 X s black 1498 428 m20 0 0 1 c 1501 380 m 27 Y s 1501 407 m 27 Y s 1500 407 m 1 X s 1501 407 m 2 X s black 1501 407 m20 0 0 1 c 1504 368 m
 27 Y s 1504 395 m 26 Y s 1503 395 m 1 X s 1504 395 m 2 X s black 1504 395 m20 0 0 1 c 1507 292 m 21 Y s 1507 313 m 20 Y s 1506 313 m 1 X s 1507 313 m 2 X s black 1507 313 m20 0 0 1 c 1510 285 m 19 Y s 1510 304 m 19 Y s 1509 304 m 1 X s 1510 304 m 2
 X s black 1510 304 m20 0 0 1 c 1513 280 m 19 Y s 1513 299 m 19 Y s 1512 299 m 1 X s 1513 299 m 2 X s black 1513 299 m20 0 0 1 c 1516 257 m 16 Y s 1516 273 m 16 Y s 1515 273 m 1 X s 1516 273 m 2 X s black 1516 273 m20 0 0 1 c 1519 272 m 17 Y s 1519
 289 m 17 Y s 1518 289 m 1 X s 1519 289 m 2 X s black 1519 289 m20 0 0 1 c 1522 241 m 13 Y s 1522 254 m 13 Y s 1521 254 m 1 X s 1522 254 m 2 X s black 1522 254 m20 0 0 1 c 1525 230 m 12 Y s 1525 242 m 12 Y s 1524 242 m 1 X s 1525 242 m 2 X s black
 1525 242 m20 0 0 1 c 1528 241 m 12 Y s 1528 253 m 13 Y s 1527 253 m 1 X s 1528 253 m 2 X s black 1528 253 m20 0 0 1 c 1531 239 m 12 Y s 1531 251 m 13 Y s 1530 251 m 1 X s 1531 251 m 2 X s black 1531 251 m20 0 0 1 c 1534 249 m 14 Y s 1534 263 m 15 Y
 s 1533 263 m 1 X s 1534 263 m 2 X s black 1534 263 m20 0 0 1 c 1538 217 m 8 Y s 1538 225 m 9 Y s 1536 225 m 2 X s 1538 225 m 1 X s black 1538 225 m20 0 0 1 c 1541 223 m 10 Y s 1541 233 m 10 Y s 1539 233 m 2 X s 1541 233 m 1 X s black 1541 233 m20 0
 0 1 c 1544 224 m 9 Y s 1544 233 m 10 Y s 1542 233 m 2 X s 1544 233 m 1 X s black 1544 233 m20 0 0 1 c 1547 226 m 10 Y s 1547 236 m 10 Y s 1545 236 m 2 X s 1547 236 m 1 X s black 1547 236 m20 0 0 1 c 1550 223 m 9 Y s 1550 232 m 9 Y s 1548 232 m 2 X s
 1550 232 m 1 X s black 1550 232 m20 0 0 1 c 1553 214 m 7 Y s 1553 221 m 6 Y s 1551 221 m 2 X s 1553 221 m 1 X s black 1553 221 m20 0 0 1 c 1556 220 m 8 Y s 1556 228 m 9 Y s 1554 228 m 2 X s 1556 228 m 1 X s black 1556 228 m20 0 0 1 c 1559 228 m 9 Y
 s 1559 237 m 10 Y s 1557 237 m 2 X s 1559 237 m 1 X s black 1559 237 m20 0 0 1 c 1562 209 m 6 Y s 1562 215 m 6 Y s 1560 215 m 2 X s 1562 215 m 1 X s black 1562 215 m20 0 0 1 c 1565 218 m 9 Y s 1565 227 m 9 Y s 1563 227 m 2 X s 1565 227 m 1 X s black
 1565 227 m20 0 0 1 c 1568 225 m 10 Y s 1568 235 m 10 Y s 1566 235 m 2 X s 1568 235 m 1 X s black 1568 235 m20 0 0 1 c 1571 223 m 10 Y s 1571 233 m 10 Y s 1569 233 m 2 X s 1571 233 m 1 X s black 1571 233 m20 0 0 1 c 1574 214 m 8 Y s 1574 222 m 7 Y s
 1572 222 m 2 X s 1574 222 m 1 X s black 1574 222 m20 0 0 1 c 1577 211 m 6 Y s 1577 217 m 7 Y s 1575 217 m 2 X s 1577 217 m 1 X s black 1577 217 m20 0 0 1 c 1580 212 m 7 Y s 1580 219 m 6 Y s 1578 219 m 2 X s 1580 219 m 1 X s black 1580 219 m20 0 0 1
 c 1583 209 m 6 Y s 1583 215 m 6 Y s 1581 215 m 2 X s 1583 215 m 1 X s black 1583 215 m20 0 0 1 c 1586 218 m 8 Y s 1586 226 m 8 Y s 1584 226 m 2 X s 1586 226 m 1 X s black 1586 226 m20 0 0 1 c 1589 222 m 9 Y s 1589 231 m 8 Y s 1587 231 m 2 X s 1589
 231 m 1 X s black 1589 231 m20 0 0 1 c 1592 215 m 8 Y s 1592 223 m 7 Y s 1590 223 m 2 X s 1592 223 m 1 X s black 1592 223 m20 0 0 1 c 1595 229 m 10 Y s 1595 239 m 10 Y s 1593 239 m 2 X s 1595 239 m 1 X s black 1595 239 m20 0 0 1 c 1598 216 m 7 Y s
 1598 223 m 8 Y s 1596 223 m 2 X s 1598 223 m 1 X s black 1598 223 m20 0 0 1 c 1601 217 m 8 Y s 1601 225 m 7 Y s 1599 225 m 2 X s 1601 225 m 2 X s black 1601 225 m20 0 0 1 c 1604 209 m 5 Y s 1604 214 m 5 Y s 1603 214 m 1 X s 1604 214 m 2 X s black
 1604 214 m20 0 0 1 c 1607 219 m 8 Y s 1607 227 m 8 Y s 1606 227 m 1 X s 1607 227 m 2 X s black 1607 227 m20 0 0 1 c 1610 214 m 7 Y s 1610 221 m 6 Y s 1609 221 m 1 X s 1610 221 m 2 X s black 1610 221 m20 0 0 1 c 1613 212 m 6 Y s 1613 218 m 5 Y s 1612
 218 m 1 X s 1613 218 m 2 X s black 1613 218 m20 0 0 1 c 1616 221 m 8 Y s 1616 229 m 8 Y s 1615 229 m 1 X s 1616 229 m 2 X s black 1616 229 m20 0 0 1 c 1619 220 m 8 Y s 1619 228 m 8 Y s 1618 228 m 1 X s 1619 228 m 2 X s black 1619 228 m20 0 0 1 c
 1622 212 m 6 Y s 1622 218 m 6 Y s 1621 218 m 1 X s 1622 218 m 2 X s black 1622 218 m20 0 0 1 c 1625 218 m 7 Y s 1625 225 m 8 Y s 1624 225 m 1 X s 1625 225 m 2 X s black 1625 225 m20 0 0 1 c 1628 221 m 8 Y s 1628 229 m 8 Y s 1627 229 m 1 X s 1628 229
 m 2 X s black 1628 229 m20 0 0 1 c 1631 220 m 8 Y s 1631 228 m 8 Y s 1630 228 m 1 X s 1631 228 m 2 X s black 1631 228 m20 0 0 1 c 1634 211 m 5 Y s 1634 216 m 5 Y s 1633 216 m 1 X s 1634 216 m 2 X s black 1634 216 m20 0 0 1 c 1637 227 m 9 Y s 1637
 236 m 9 Y s 1636 236 m 1 X s 1637 236 m 2 X s black 1637 236 m20 0 0 1 c 1640 221 m 8 Y s 1640 229 m 8 Y s 1639 229 m 1 X s 1640 229 m 2 X s black 1640 229 m20 0 0 1 c 1643 225 m 8 Y s 1643 233 m 8 Y s 1642 233 m 1 X s 1643 233 m 2 X s black 1643
 233 m20 0 0 1 c 1646 222 m 9 Y s 1646 231 m 9 Y s 1645 231 m 1 X s 1646 231 m 2 X s black 1646 231 m20 0 0 1 c 1649 216 m 7 Y s 1649 223 m 8 Y s 1648 223 m 1 X s 1649 223 m 2 X s black 1649 223 m20 0 0 1 c 1652 211 m 5 Y s 1652 216 m 4 Y s 1651 216
 m 1 X s 1652 216 m 2 X s black 1652 216 m20 0 0 1 c 1655 226 m 9 Y s 1655 235 m 9 Y s 1654 235 m 1 X s 1655 235 m 2 X s black 1655 235 m20 0 0 1 c 1658 215 m 6 Y s 1658 221 m 7 Y s 1657 221 m 1 X s 1658 221 m 2 X s black 1658 221 m20 0 0 1 c 1661
 225 m 8 Y s 1661 233 m 9 Y s 1660 233 m 1 X s 1661 233 m 2 X s black 1661 233 m20 0 0 1 c 1665 217 m 7 Y s 1665 224 m 7 Y s 1663 224 m 2 X s 1665 224 m 1 X s black 1665 224 m20 0 0 1 c 1668 223 m 9 Y s 1668 232 m 8 Y s 1666 232 m 2 X s 1668 232 m 1
 X s black 1668 232 m20 0 0 1 c 1671 219 m 8 Y s 1671 227 m 8 Y s 1669 227 m 2 X s 1671 227 m 1 X s black 1671 227 m20 0 0 1 c 1674 224 m 9 Y s 1674 233 m 9 Y s 1672 233 m 2 X s 1674 233 m 1 X s black 1674 233 m20 0 0 1 c 1677 220 m 8 Y s 1677 228 m
 8 Y s 1675 228 m 2 X s 1677 228 m 1 X s black 1677 228 m20 0 0 1 c 1680 223 m 9 Y s 1680 232 m 8 Y s 1678 232 m 2 X s 1680 232 m 1 X s black 1680 232 m20 0 0 1 c 1683 213 m 6 Y s 1683 219 m 6 Y s 1681 219 m 2 X s 1683 219 m 1 X s black 1683 219 m20
 0 0 1 c 1686 223 m 9 Y s 1686 232 m 8 Y s 1684 232 m 2 X s 1686 232 m 1 X s black 1686 232 m20 0 0 1 c 1689 220 m 8 Y s 1689 228 m 8 Y s 1687 228 m 2 X s 1689 228 m 1 X s black 1689 228 m20 0 0 1 c 1692 216 m 8 Y s 1692 224 m 8 Y s 1690 224 m 2 X s
 1692 224 m 1 X s black 1692 224 m20 0 0 1 c 1695 215 m 7 Y s 1695 222 m 7 Y s 1693 222 m 2 X s 1695 222 m 1 X s black 1695 222 m20 0 0 1 c 1698 214 m 7 Y s 1698 221 m 8 Y s 1696 221 m 2 X s 1698 221 m 1 X s black 1698 221 m20 0 0 1 c 1701 226 m 10 Y
 s 1701 236 m 11 Y s 1699 236 m 2 X s 1701 236 m 1 X s black 1701 236 m20 0 0 1 c 1704 209 m 7 Y s 1704 216 m 6 Y s 1702 216 m 2 X s 1704 216 m 1 X s black 1704 216 m20 0 0 1 c 1707 216 m 8 Y s 1707 224 m 8 Y s 1705 224 m 2 X s 1707 224 m 1 X s black
 1707 224 m20 0 0 1 c 1710 220 m 10 Y s 1710 230 m 9 Y s 1708 230 m 2 X s 1710 230 m 1 X s black 1710 230 m20 0 0 1 c 1713 215 m 8 Y s 1713 223 m 8 Y s 1711 223 m 2 X s 1713 223 m 1 X s black 1713 223 m20 0 0 1 c 1716 217 m 8 Y s 1716 225 m 8 Y s
 1714 225 m 2 X s 1716 225 m 1 X s black 1716 225 m20 0 0 1 c 1719 216 m 8 Y s 1719 224 m 8 Y s 1717 224 m 2 X s 1719 224 m 1 X s black 1719 224 m20 0 0 1 c 1722 214 m 7 Y s 1722 221 m 7 Y s 1720 221 m 2 X s 1722 221 m 1 X s black 1722 221 m20 0 0 1
 c 1725 214 m 8 Y s 1725 222 m 7 Y s 1723 222 m 2 X s 1725 222 m 1 X s black 1725 222 m20 0 0 1 c 1728 226 m 9 Y s 1728 235 m 9 Y s 1726 235 m 2 X s 1728 235 m 2 X s black 1728 235 m20 0 0 1 c 1731 210 m 5 Y s 1731 215 m 5 Y s 1730 215 m 1 X s 1731
 215 m 2 X s black 1731 215 m20 0 0 1 c 1734 209 m 4 Y s 1734 213 m 5 Y s 1733 213 m 1 X s 1734 213 m 2 X s black 1734 213 m20 0 0 1 c 1737 209 m 5 Y s 1737 214 m 5 Y s 1736 214 m 1 X s 1737 214 m 2 X s black 1737 214 m20 0 0 1 c 1740 209 m 4 Y s
 1740 213 m 5 Y s 1739 213 m 1 X s 1740 213 m 2 X s black 1740 213 m20 0 0 1 c 1743 221 m 8 Y s 1743 229 m 8 Y s 1742 229 m 1 X s 1743 229 m 2 X s black 1743 229 m20 0 0 1 c 1746 219 m 8 Y s 1746 227 m 9 Y s 1745 227 m 1 X s 1746 227 m 2 X s black
 1746 227 m20 0 0 1 c 1749 230 m 10 Y s 1749 240 m 10 Y s 1748 240 m 1 X s 1749 240 m 2 X s black 1749 240 m20 0 0 1 c 1752 212 m 4 Y s 1752 216 m 5 Y s 1751 216 m 1 X s 1752 216 m 2 X s black 1752 216 m20 0 0 1 c 1755 215 m 5 Y s 1755 220 m 6 Y s
 1754 220 m 1 X s 1755 220 m 2 X s black 1755 220 m20 0 0 1 c 1758 224 m 9 Y s 1758 233 m 8 Y s 1757 233 m 1 X s 1758 233 m 2 X s black 1758 233 m20 0 0 1 c 1761 214 m 6 Y s 1761 220 m 6 Y s 1760 220 m 1 X s 1761 220 m 2 X s black 1761 220 m20 0 0 1
 c 1764 211 m 3 Y s 1764 214 m 4 Y s 1763 214 m 1 X s 1764 214 m 2 X s black 1764 214 m20 0 0 1 c 1767 218 m 7 Y s 1767 225 m 7 Y s 1766 225 m 1 X s 1767 225 m 2 X s black 1767 225 m20 0 0 1 c 1770 214 m 5 Y s 1770 219 m 4 Y s 1769 219 m 1 X s 1770
 219 m 2 X s black 1770 219 m20 0 0 1 c 1773 221 m 8 Y s 1773 229 m 7 Y s 1772 229 m 1 X s 1773 229 m 2 X s black 1773 229 m20 0 0 1 c 1776 218 m 6 Y s 1776 224 m 6 Y s 1775 224 m 1 X s 1776 224 m 2 X s black 1776 224 m20 0 0 1 c 1779 225 m 8 Y s
 1779 233 m 8 Y s 1778 233 m 1 X s 1779 233 m 2 X s black 1779 233 m20 0 0 1 c 1782 211 m 4 Y s 1782 215 m 3 Y s 1781 215 m 1 X s 1782 215 m 2 X s black 1782 215 m20 0 0 1 c 1785 229 m 9 Y s 1785 238 m 9 Y s 1784 238 m 1 X s 1785 238 m 2 X s black
 1785 238 m20 0 0 1 c 1788 219 m 5 Y s 1788 224 m 6 Y s 1787 224 m 1 X s 1788 224 m 2 X s black 1788 224 m20 0 0 1 c 1791 222 m 7 Y s 1791 229 m 8 Y s 1790 229 m 1 X s 1791 229 m 2 X s black 1791 229 m20 0 0 1 c 1795 219 m 7 Y s 1795 226 m 8 Y s 1793
 226 m 2 X s 1795 226 m 1 X s black 1795 226 m20 0 0 1 c 1798 221 m 7 Y s 1798 228 m 7 Y s 1796 228 m 2 X s 1798 228 m 1 X s black 1798 228 m20 0 0 1 c 1801 215 m 5 Y s 1801 220 m 6 Y s 1799 220 m 2 X s 1801 220 m 1 X s black 1801 220 m20 0 0 1 c
 1804 213 m 1 Y s 1804 214 m 1 Y s 1802 214 m 2 X s 1804 214 m 1 X s black 1804 214 m20 0 0 1 c 1807 225 m 8 Y s 1807 233 m 8 Y s 1805 233 m 2 X s 1807 233 m 1 X s black 1807 233 m20 0 0 1 c 1810 228 m 9 Y s 1810 237 m 8 Y s 1808 237 m 2 X s 1810 237
 m 1 X s black 1810 237 m20 0 0 1 c 1813 215 m 5 Y s 1813 220 m 5 Y s 1811 220 m 2 X s 1813 220 m 1 X s black 1813 220 m20 0 0 1 c 1816 212 m 1 Y s 1816 213 m 1 Y s 1814 213 m 2 X s 1816 213 m 1 X s black 1816 213 m20 0 0 1 c 1819 218 m 6 Y s 1819
 224 m 6 Y s 1817 224 m 2 X s 1819 224 m 1 X s black 1819 224 m20 0 0 1 c 1822 220 m 7 Y s 1822 227 m 7 Y s 1820 227 m 2 X s 1822 227 m 1 X s black 1822 227 m20 0 0 1 c 1825 226 m 8 Y s 1825 234 m 8 Y s 1823 234 m 2 X s 1825 234 m 1 X s black 1825
 234 m20 0 0 1 c 1828 226 m 7 Y s 1828 233 m 7 Y s 1826 233 m 2 X s 1828 233 m 1 X s black 1828 233 m20 0 0 1 c 1831 225 m 8 Y s 1831 233 m 8 Y s 1829 233 m 2 X s 1831 233 m 1 X s black 1831 233 m20 0 0 1 c 1834 220 m 7 Y s 1834 227 m 6 Y s 1832 227
 m 2 X s 1834 227 m 1 X s black 1834 227 m20 0 0 1 c 1837 222 m 6 Y s 1837 228 m 7 Y s 1835 228 m 2 X s 1837 228 m 1 X s black 1837 228 m20 0 0 1 c 1840 216 m 3 Y s 1840 219 m 4 Y s 1838 219 m 2 X s 1840 219 m 1 X s black 1840 219 m20 0 0 1 c 1843
 216 m 5 Y s 1843 221 m 6 Y s 1841 221 m 2 X s 1843 221 m 1 X s black 1843 221 m20 0 0 1 c 1846 219 m 6 Y s 1846 225 m 6 Y s 1844 225 m 2 X s 1846 225 m 1 X s black 1846 225 m20 0 0 1 c 1849 226 m 8 Y s 1849 234 m 8 Y s 1847 234 m 2 X s 1849 234 m 1
 X s black 1849 234 m20 0 0 1 c 1852 223 m 6 Y s 1852 229 m 7 Y s 1850 229 m 2 X s 1852 229 m 1 X s black 1852 229 m20 0 0 1 c 1855 212 m 4 Y s 1855 216 m 3 Y s 1853 216 m 2 X s 1855 216 m 2 X s black 1855 216 m20 0 0 1 c 1858 232 m 9 Y s 1858 241 m
 10 Y s 1857 241 m 1 X s 1858 241 m 2 X s black 1858 241 m20 0 0 1 c 1861 227 m 8 Y s 1861 235 m 8 Y s 1860 235 m 1 X s 1861 235 m 2 X s black 1861 235 m20 0 0 1 c 1864 214 m 4 Y s 1864 218 m 3 Y s 1863 218 m 1 X s 1864 218 m 2 X s black 1864 218 m20
 0 0 1 c 1867 223 m 6 Y s 1867 229 m 7 Y s 1866 229 m 1 X s 1867 229 m 2 X s black 1867 229 m20 0 0 1 c 1870 220 m 6 Y s 1870 226 m 5 Y s 1869 226 m 1 X s 1870 226 m 2 X s black 1870 226 m20 0 0 1 c 1873 221 m 6 Y s 1873 227 m 7 Y s 1872 227 m 1 X s
 1873 227 m 2 X s black 1873 227 m20 0 0 1 c 1876 220 m 6 Y s 1876 226 m 5 Y s 1875 226 m 1 X s 1876 226 m 2 X s black 1876 226 m20 0 0 1 c 1879 218 m 5 Y s 1879 223 m 6 Y s 1878 223 m 1 X s 1879 223 m 2 X s black 1879 223 m20 0 0 1 c 1882 232 m 10 Y
 s 1882 242 m 9 Y s 1881 242 m 1 X s 1882 242 m 2 X s black 1882 242 m20 0 0 1 c 1885 225 m 7 Y s 1885 232 m 7 Y s 1884 232 m 1 X s 1885 232 m 2 X s black 1885 232 m20 0 0 1 c 1888 227 m 8 Y s 1888 235 m 8 Y s 1887 235 m 1 X s 1888 235 m 2 X s black
 1888 235 m20 0 0 1 c 1891 218 m 6 Y s 1891 224 m 5 Y s 1890 224 m 1 X s 1891 224 m 2 X s black 1891 224 m20 0 0 1 c 1894 216 m 3 Y s 1894 219 m 4 Y s 1893 219 m 1 X s 1894 219 m 2 X s black 1894 219 m20 0 0 1 c 1897 223 m 6 Y s 1897 229 m 7 Y s 1896
 229 m 1 X s 1897 229 m 2 X s black 1897 229 m20 0 0 1 c 1900 223 m 6 Y s 1900 229 m 7 Y s 1899 229 m 1 X s 1900 229 m 2 X s black 1900 229 m20 0 0 1 c 1903 223 m 7 Y s 1903 230 m 6 Y s 1902 230 m 1 X s 1903 230 m 2 X s black 1903 230 m20 0 0 1 c
 1906 227 m 8 Y s 1906 235 m 8 Y s 1905 235 m 1 X s 1906 235 m 2 X s black 1906 235 m20 0 0 1 c 1909 223 m 8 Y s 1909 231 m 7 Y s 1908 231 m 1 X s 1909 231 m 2 X s black 1909 231 m20 0 0 1 c 1912 221 m 6 Y s 1912 227 m 5 Y s 1911 227 m 1 X s 1912 227
 m 2 X s black 1912 227 m20 0 0 1 c 1915 218 m 5 Y s 1915 223 m 4 Y s 1914 223 m 1 X s 1915 223 m 2 X s black 1915 223 m20 0 0 1 c 1918 227 m 8 Y s 1918 235 m 8 Y s 1917 235 m 1 X s 1918 235 m 2 X s black 1918 235 m20 0 0 1 c 1922 224 m 8 Y s 1922
 232 m 7 Y s 1920 232 m 2 X s 1922 232 m 1 X s black 1922 232 m20 0 0 1 c 1925 227 m 7 Y s 1925 234 m 8 Y s 1923 234 m 2 X s 1925 234 m 1 X s black 1925 234 m20 0 0 1 c 1928 224 m 7 Y s 1928 231 m 7 Y s 1926 231 m 2 X s 1928 231 m 1 X s black 1928
 231 m20 0 0 1 c 1931 215 m 4 Y s 1931 219 m 3 Y s 1929 219 m 2 X s 1931 219 m 1 X s black 1931 219 m20 0 0 1 c 1934 230 m 9 Y s 1934 239 m 9 Y s 1932 239 m 2 X s 1934 239 m 1 X s black 1934 239 m20 0 0 1 c 1937 214 m 4 Y s 1937 218 m 5 Y s 1935 218
 m 2 X s 1937 218 m 1 X s black 1937 218 m20 0 0 1 c 1940 227 m 8 Y s 1940 235 m 8 Y s 1938 235 m 2 X s 1940 235 m 1 X s black 1940 235 m20 0 0 1 c 1943 212 m 4 Y s 1943 216 m 3 Y s 1941 216 m 2 X s 1943 216 m 1 X s black 1943 216 m20 0 0 1 c 1946
 223 m 7 Y s 1946 230 m 7 Y s 1944 230 m 2 X s 1946 230 m 1 X s black 1946 230 m20 0 0 1 c 1949 224 m 7 Y s 1949 231 m 7 Y s 1947 231 m 2 X s 1949 231 m 1 X s black 1949 231 m20 0 0 1 c 1952 224 m 8 Y s 1952 232 m 8 Y s 1950 232 m 2 X s 1952 232 m 1
 X s black 1952 232 m20 0 0 1 c 1955 217 m 3 Y s 1955 220 m 4 Y s 1953 220 m 2 X s 1955 220 m 1 X s black 1955 220 m20 0 0 1 c 1958 231 m 9 Y s 1958 240 m 9 Y s 1956 240 m 2 X s 1958 240 m 1 X s black 1958 240 m20 0 0 1 c 1961 214 m 5 Y s 1961 219 m
 4 Y s 1959 219 m 2 X s 1961 219 m 1 X s black 1961 219 m20 0 0 1 c 1964 216 m 5 Y s 1964 221 m 6 Y s 1962 221 m 2 X s 1964 221 m 1 X s black 1964 221 m20 0 0 1 c 1967 229 m 10 Y s 1967 239 m 9 Y s 1965 239 m 2 X s 1967 239 m 1 X s black 1967 239 m20
 0 0 1 c 1970 217 m 6 Y s 1970 223 m 6 Y s 1968 223 m 2 X s 1970 223 m 1 X s black 1970 223 m20 0 0 1 c 1973 217 m 7 Y s 1973 224 m 6 Y s 1971 224 m 2 X s 1973 224 m 1 X s black 1973 224 m20 0 0 1 c 1976 219 m 8 Y s 1976 227 m 7 Y s 1974 227 m 2 X s
 1976 227 m 1 X s black 1976 227 m20 0 0 1 c 1979 219 m 6 Y s 1979 225 m 7 Y s 1977 225 m 2 X s 1979 225 m 1 X s black 1979 225 m20 0 0 1 c 1982 213 m 4 Y s 1982 217 m 5 Y s 1980 217 m 2 X s 1982 217 m 1 X s black 1982 217 m20 0 0 1 c 1985 220 m 7 Y
 s 1985 227 m 7 Y s 1983 227 m 2 X s 1985 227 m 2 X s black 1985 227 m20 0 0 1 c 1988 220 m 7 Y s 1988 227 m 8 Y s 1987 227 m 1 X s 1988 227 m 2 X s black 1988 227 m20 0 0 1 c 1991 211 m 5 Y s 1991 216 m 5 Y s 1990 216 m 1 X s 1991 216 m 2 X s black
 1991 216 m20 0 0 1 c 1994 215 m 5 Y s 1994 220 m 4 Y s 1993 220 m 1 X s 1994 220 m 2 X s black 1994 220 m20 0 0 1 c 1997 215 m 5 Y s 1997 220 m 4 Y s 1996 220 m 1 X s 1997 220 m 2 X s black 1997 220 m20 0 0 1 c 2000 228 m 10 Y s 2000 238 m 9 Y s
 1999 238 m 1 X s 2000 238 m 2 X s black 2000 238 m20 0 0 1 c 2003 218 m 7 Y s 2003 225 m 6 Y s 2002 225 m 1 X s 2003 225 m 2 X s black 2003 225 m20 0 0 1 c 2006 215 m 4 Y s 2006 219 m 5 Y s 2005 219 m 1 X s 2006 219 m 2 X s black 2006 219 m20 0 0 1
 c 2009 217 m 6 Y s 2009 223 m 7 Y s 2008 223 m 1 X s 2009 223 m 2 X s black 2009 223 m20 0 0 1 c 2012 223 m 7 Y s 2012 230 m 8 Y s 2011 230 m 1 X s 2012 230 m 2 X s black 2012 230 m20 0 0 1 c 2015 220 m 6 Y s 2015 226 m 7 Y s 2014 226 m 1 X s 2015
 226 m 2 X s black 2015 226 m20 0 0 1 c 2018 216 m 6 Y s 2018 222 m 6 Y s 2017 222 m 1 X s 2018 222 m 2 X s black 2018 222 m20 0 0 1 c 2021 222 m 7 Y s 2021 229 m 8 Y s 2020 229 m 1 X s 2021 229 m 2 X s black 2021 229 m20 0 0 1 c 2024 211 m 1 Y s
 2024 212 m 1 Y s 2023 212 m 1 X s 2024 212 m 2 X s black 2024 212 m20 0 0 1 c 2027 225 m 8 Y s 2027 233 m 8 Y s 2026 233 m 1 X s 2027 233 m 2 X s black 2027 233 m20 0 0 1 c 2030 227 m 9 Y s 2030 236 m 9 Y s 2029 236 m 1 X s 2030 236 m 2 X s black
 2030 236 m20 0 0 1 c 2033 229 m 9 Y s 2033 238 m 8 Y s 2032 238 m 1 X s 2033 238 m 2 X s black 2033 238 m20 0 0 1 c 2036 214 m 4 Y s 2036 218 m 3 Y s 2035 218 m 1 X s 2036 218 m 2 X s black 2036 218 m20 0 0 1 c 2039 215 m 4 Y s 2039 219 m 5 Y s 2038
 219 m 1 X s 2039 219 m 2 X s black 2039 219 m20 1 1 1 c 453 429 1769 1002 bf black 1769 1002 m 453 X s 2222 1002 m 429 Y s 2222 1431 m -453 X s 1769 1431 m -429 Y s 1 1 1 c black
 gsave  2268 1530 0 0 C 1790.13 1358.03 t 0 r /Helvetica findfont 68.2264 sf 0 0 m (net_spectrum) show NC gr  1769 1324 m 453 X s
 gsave  2268 1530 0 0 C 1790.13 1250.82 t 0 r /Helvetica findfont 51.982 sf 0 0 m (Entries ) show NC gr 
 gsave  2268 1530 0 0 C 2040.3 1250.82 t 0 r /Helvetica findfont 51.982 sf 0 0 m ( 17183) show NC gr 
 gsave  2268 1530 0 0 C 1790.13 1143.6 t 0 r /Helvetica findfont 51.982 sf 0 0 m (Mean  ) show NC gr 
 gsave  2268 1530 0 0 C 2040.3 1143.6 t 0 r /Helvetica findfont 51.982 sf 0 0 m (   6159) show NC gr 
 gsave  2268 1530 0 0 C 1790.13 1033.14 t 0 r /Helvetica findfont 51.982 sf 0 0 m (Std Dev   ) show NC gr 
 gsave  2268 1530 0 0 C 2040.3 1036.39 t 0 r /Helvetica findfont 51.982 sf 0 0 m (   3158) show NC gr  227 153 m 1814 X s 227 190 m -37 Y s 287 171 m -18 Y s 348 171 m -18 Y s 408 171 m -18 Y s 469 190 m -37 Y s 529 171 m -18 Y s 590 171 m -18 Y s
 650 171 m -18 Y s 711 190 m -37 Y s 771 171 m -18 Y s 831 171 m -18 Y s 892 171 m -18 Y s 952 190 m -37 Y s 1013 171 m -18 Y s 1073 171 m -18 Y s 1134 171 m -18 Y s 1194 190 m -37 Y s 1255 171 m -18 Y s 1315 171 m -18 Y s 1376 171 m -18 Y s 1436 190
 m -37 Y s 1497 171 m -18 Y s 1557 171 m -18 Y s 1618 171 m -18 Y s 1678 190 m -37 Y s 1739 171 m -18 Y s 1799 171 m -18 Y s 1860 171 m -18 Y s 1920 190 m -37 Y s 1920 190 m -37 Y s 1980 171 m -18 Y s 2041 171 m -18 Y s
 gsave  2268 1530 0 0 C 211.177 103.964 t 0 r /Helvetica findfont 48.7332 sf 0 0 m (0) show NC gr 
 gsave  2268 1530 0 0 C 412.607 103.964 t 0 r /Helvetica findfont 48.7332 sf 0 0 m (2000) show NC gr 
 gsave  2268 1530 0 0 C 653.024 103.964 t 0 r /Helvetica findfont 48.7332 sf 0 0 m (4000) show NC gr 
 gsave  2268 1530 0 0 C 896.69 103.964 t 0 r /Helvetica findfont 48.7332 sf 0 0 m (6000) show NC gr 
 gsave  2268 1530 0 0 C 1137.11 103.964 t 0 r /Helvetica findfont 48.7332 sf 0 0 m (8000) show NC gr 
 gsave  2268 1530 0 0 C 1367.78 103.964 t 0 r /Helvetica findfont 48.7332 sf 0 0 m (10000) show NC gr 
 gsave  2268 1530 0 0 C 1608.19 103.964 t 0 r /Helvetica findfont 48.7332 sf 0 0 m (12000) show NC gr 
 gsave  2268 1530 0 0 C 1848.61 103.964 t 0 r /Helvetica findfont 48.7332 sf 0 0 m (14000) show NC gr 
 gsave  2268 1530 0 0 C 1764.14 51.982 t 0 r /Helvetica findfont 48.7332 sf 0 0 m (Energy [a.u.]) show NC gr  227 153 m 1224 Y s 281 226 m -54 X s 254 258 m -27 X s 254 291 m -27 X s 254 323 m -27 X s 254 355 m -27 X s 281 388 m -54 X s 254 420 m -27
 X s 254 452 m -27 X s 254 484 m -27 X s 254 517 m -27 X s 281 549 m -54 X s 254 581 m -27 X s 254 613 m -27 X s 254 646 m -27 X s 254 678 m -27 X s 281 710 m -54 X s 254 743 m -27 X s 254 775 m -27 X s 254 807 m -27 X s 254 839 m -27 X s 281 872 m
 -54 X s 254 904 m -27 X s 254 936 m -27 X s 254 969 m -27 X s 254 1001 m -27 X s 281 1033 m -54 X s 254 1065 m -27 X s 254 1098 m -27 X s 254 1130 m -27 X s 254 1162 m -27 X s 281 1194 m -54 X s 254 1227 m -27 X s 254 1259 m -27 X s 254 1291 m -27 X
 s 254 1324 m -27 X s 281 1356 m -54 X s 281 226 m -54 X s 254 194 m -27 X s 254 162 m -27 X s 281 1356 m -54 X s
 gsave  2268 1530 0 0 C 188.435 207.928 t 0 r /Helvetica findfont 48.7332 sf 0 0 m (0) show NC gr 
 gsave  2268 1530 0 0 C 159.195 370.372 t 0 r /Helvetica findfont 48.7332 sf 0 0 m (50) show NC gr 
 gsave  2268 1530 0 0 C 133.204 529.567 t 0 r /Helvetica findfont 48.7332 sf 0 0 m (100) show NC gr 
 gsave  2268 1530 0 0 C 133.204 692.011 t 0 r /Helvetica findfont 48.7332 sf 0 0 m (150) show NC gr 
 gsave  2268 1530 0 0 C 133.204 854.455 t 0 r /Helvetica findfont 48.7332 sf 0 0 m (200) show NC gr 
 gsave  2268 1530 0 0 C 133.204 1013.65 t 0 r /Helvetica findfont 48.7332 sf 0 0 m (250) show NC gr 
 gsave  2268 1530 0 0 C 133.204 1176.09 t 0 r /Helvetica findfont 48.7332 sf 0 0 m (300) show NC gr 
 gsave  2268 1530 0 0 C 133.204 1338.54 t 0 r /Helvetica findfont 48.7332 sf 0 0 m (350) show NC gr  1 1 1 c 453 429 1769 1002 bf black 1769 1002 m 453 X s 2222 1002 m 429 Y s 2222 1431 m -453 X s 1769 1431 m -429 Y s 1 1 1 c black
 gsave  2268 1530 0 0 C 1790.13 1358.03 t 0 r /Helvetica findfont 68.2264 sf 0 0 m (net_spectrum) show NC gr  1769 1324 m 453 X s
 gsave  2268 1530 0 0 C 1790.13 1250.82 t 0 r /Helvetica findfont 51.982 sf 0 0 m (Entries ) show NC gr 
 gsave  2268 1530 0 0 C 2040.3 1250.82 t 0 r /Helvetica findfont 51.982 sf 0 0 m ( 17183) show NC gr 
 gsave  2268 1530 0 0 C 1790.13 1143.6 t 0 r /Helvetica findfont 51.982 sf 0 0 m (Mean  ) show NC gr 
 gsave  2268 1530 0 0 C 2040.3 1143.6 t 0 r /Helvetica findfont 51.982 sf 0 0 m (   6159) show NC gr 
 gsave  2268 1530 0 0 C 1790.13 1033.14 t 0 r /Helvetica findfont 51.982 sf 0 0 m (Std Dev   ) show NC gr 
 gsave  2268 1530 0 0 C 2040.3 1036.39 t 0 r /Helvetica findfont 51.982 sf 0 0 m (   3158) show NC gr  1 1 1 c black
 gsave  2268 1530 0 0 C 393.114 1458.75 t 0 r /Helvetica findfont 68.2264 sf 0 0 m (Spettro KCl_2 al netto della sottrazione del fondo) show NC gr 
 gr  gr showpage
end
%%EOF
