%!PS-Adobe-2.0 EPSF-2.0
%%BoundingBox:  0 0 567 383
%%Title: net_KCl_hq0.eps: net_KCl_hq0
%%Creator: ROOT Version 6.12/06
%%CreationDate: Sun May 13 11:29:47 2018
%%DocumentNeededResources: ProcSet (FontSetInit)
%%EndComments
%%BeginProlog
80 dict begin
/s {stroke} def /l {lineto} def /m {moveto} def /t {translate} def
/r {rotate} def /rl {roll}  def /R {repeat} def
/d {rlineto} def /rm {rmoveto} def /gr {grestore} def /f {eofill} def
/c {setrgbcolor} def /black {0 setgray} def /sd {setdash} def
/cl {closepath} def /sf {scalefont setfont} def /lw {setlinewidth} def
/box {m dup 0 exch d exch 0 d 0 exch neg d cl} def
/NC{systemdict begin initclip end}def/C{NC box clip newpath}def
/bl {box s} def /bf {gsave box gsave f grestore 1 lw [] 0 sd s grestore} def /Y { 0 exch d} def /X { 0 d} def 
/K {{pop pop 0 moveto} exch kshow} bind def
/ita {/ang 15 def gsave [1 0 ang dup sin exch cos div 1 0 0] concat} def 
/mp {newpath /y exch def /x exch def} def
/side {[w .77 mul w .23 mul] .385 w mul sd w 0 l currentpoint t -144 r} def
/mr {mp x y w2 0 360 arc} def /m24 {mr s} def /m20 {mr f} def
/mb {mp x y w2 add m w2 neg 0 d 0 w neg d w 0 d 0 w d cl} def
/mt {mp x y w2 add m w2 neg w neg d w 0 d cl} def
/w4 {w 4 div} def
/w6 {w 6 div} def
/w8 {w 8 div} def
/m21 {mb f} def /m25 {mb s} def /m22 {mt f} def /m26{mt s} def
/m23 {mp x y w2 sub m w2 w d w neg 0 d cl f} def
/m27 {mp x y w2 add m w3 neg w2 neg d w3 w2 neg d w3 w2 d cl s} def
/m28 {mp x w2 sub y w2 sub w3 add m w3 0 d  0 w3 neg d w3 0 d 0 w3 d w3 0 d  0 w3 d w3 neg 0 d 0 w3 d w3 neg 0 d 0 w3 neg d w3 neg 0 d cl s } def
/m29 {mp gsave x w2 sub y w2 add w3 sub m currentpoint t 4 {side} repeat cl fill gr} def
/m30 {mp gsave x w2 sub y w2 add w3 sub m currentpoint t 4 {side} repeat cl s gr} def
/m31 {mp x y w2 sub m 0 w d x w2 sub y m w 0 d x w2 sub y w2 add m w w neg d x w2 sub y w2 sub m w w d s} def
/m32 {mp x y w2 sub m w2 w d w neg 0 d cl s} def
/m33 {mp x y w2 add m w3 neg w2 neg d w3 w2 neg d w3 w2 d cl f} def
/m34 {mp x w2 sub y w2 sub w3 add m w3 0 d  0 w3 neg d w3 0 d 0 w3 d w3 0 d  0 w3 d w3 neg 0 d 0 w3 d w3 neg 0 d 0 w3 neg d w3 neg 0 d cl f } def
/m35 {mp x y w2 add m w2 neg w2 neg d w2 w2 neg d w2 w2 d w2 neg w2 d x y w2 sub m 0 w d x w2 sub y m w 0 d s} def
/m36 {mb x w2 sub y w2 add m w w neg d x w2 sub y w2 sub m w w d s} def
/m37 {mp x y m w4 neg w2 d w4 neg w2 neg d w2 0 d  w4 neg w2 neg d w2 0 d w4 neg w2 d w2 0 d w4 neg w2 d w4 neg w2 neg d cl s} def
/m38 {mp x w4 sub y w2 add m w4 neg w4 neg d 0 w2 neg d w4 w4 neg d w2 0 d w4 w4 d 0 w2 d w4 neg w4 d w2 neg 0 d x y w2 sub m 0 w d x w2 sub y m w 0 d cl s} def
/m39 {mp x y m w4 neg w2 d w4 neg w2 neg d w2 0 d  w4 neg w2 neg d w2 0 d w4 neg w2 d w2 0 d w4 neg w2 d w4 neg w2 neg d cl f} def
/m40 {mp x y m w4 w2 d w4 w4 neg d w2 neg w4 neg d w2 w4 neg d w4 neg w4 neg d w4 neg w2 d w4 neg w2 neg d w4 neg w4 d w2 w4 d w2 neg w4 d w4 w4 d w4 w2 neg d cl s} def
/m41 {mp x y m w4 w2 d w4 w4 neg d w2 neg w4 neg d w2 w4 neg d w4 neg w4 neg d w4 neg w2 d w4 neg w2 neg d w4 neg w4 d w2 w4 d w2 neg w4 d w4 w4 d w4 w2 neg d cl f} def
/m42 {mp x y w2 add m w8 neg w2 -3 4 div mul d w2 -3 4 div mul w8 neg d w2 3 4 div mul w8 neg d w8 w2 -3 4 div mul d w8 w2 3 4 div mul d w2 3 4 div mul w8 d w2 -3 4 div mul w8 d w8 neg w2 3 4 div mul d cl s} def
/m43 {mp x y w2 add m w8 neg w2 -3 4 div mul d w2 -3 4 div mul w8 neg d w2 3 4 div mul w8 neg d w8 w2 -3 4 div mul d w8 w2 3 4 div mul d w2 3 4 div mul w8 d w2 -3 4 div mul w8 d w8 neg w2 3 4 div mul d cl f} def
/m44 {mp x y m w6 neg w2 d w2 2 3 div mul 0 d w6 neg w2 neg d w2 w6 d 0 w2 -2 3 div mul d w2 neg w6 d w6 w2 neg d w2 -2 3 div mul 0 d w6 w2 d w2 neg w6 neg d 0 w2 2 3 div mul d w2 w6 neg d cl s} def
/m45 {mp x y m w6 neg w2 d w2 2 3 div mul 0 d w6 neg w2 neg d w2 w6 d 0 w2 -2 3 div mul d w2 neg w6 d w6 w2 neg d w2 -2 3 div mul 0 d w6 w2 d w2 neg w6 neg d 0 w2 2 3 div mul d w2 w6 neg d cl f} def
/m46 {mp x y w4 add m w4 neg w4 d w4 neg w4 neg d  w4 w4 neg d w4 neg w4 neg d w4 w4 neg d w4 w4 d w4 w4 neg d w4 w4 d w4 neg w4 d w4 w4 d w4 neg w4 d w4 neg w4 neg d cl s} def
/m47 {mp x y w4 add m w4 neg w4 d w4 neg w4 neg d w4 w4 neg d w4 neg w4 neg d  w4 w4 neg d w4 w4 d w4 w4 neg d w4 w4 d w4 neg w4 d w4 w4 d w4 neg w4 d w4 neg w4 neg d cl f} def
/m48 {mp x y w4 add m w4 neg w4 d w4 neg w4 neg d w4 w4 neg d  w4 neg w4 neg d w4 w4 neg d w4 w4 d w4 w4 neg d w4 w4 d w4 neg w4 d w4 w4 d w4 neg w4 d w4 neg w4 neg d  w4 w4 neg d w4 neg w4 neg d w4 neg w4 d w4 w4 d cl f} def
/m49 {mp x w2 sub w3 add y w2 sub w3 add m  0 w3 neg d w3 0 d 0 w3 d w3 0 d 0 w3 d w3 neg 0 d 0 w3 d w3 neg 0 d 0 w3 neg d w3 neg 0 d 0 w3 neg d w3 0 d 0 w3 d w3 0 d 0 w3 neg d w3 neg 0 d cl f } def
/m2 {mp x y w2 sub m 0 w d x w2 sub y m w 0 d s} def
/m5 {mp x w2 sub y w2 sub m w w d x w2 sub y w2 add m w w neg d s} def
%%IncludeResource: ProcSet (FontSetInit)
%%IncludeResource: font Times-Roman
%%IncludeResource: font Times-Italic
%%IncludeResource: font Times-Bold
%%IncludeResource: font Times-BoldItalic
%%IncludeResource: font Helvetica
%%IncludeResource: font Helvetica-Oblique
%%IncludeResource: font Helvetica-Bold
%%IncludeResource: font Helvetica-BoldOblique
%%IncludeResource: font Courier
%%IncludeResource: font Courier-Oblique
%%IncludeResource: font Courier-Bold
%%IncludeResource: font Courier-BoldOblique
%%IncludeResource: font Symbol
%%IncludeResource: font ZapfDingbats
/reEncode {exch findfont dup length dict begin {1 index /FID eq  {pop pop} {def} ifelse } forall /Encoding exch def currentdict end dup /FontName get exch definefont pop } def [/Times-Bold /Times-Italic /Times-BoldItalic /Helvetica /Helvetica-Oblique
 /Helvetica-Bold /Helvetica-BoldOblique /Courier /Courier-Oblique /Courier-Bold /Courier-BoldOblique /Times-Roman /AvantGarde-Book /AvantGarde-BookOblique /AvantGarde-Demi /AvantGarde-DemiOblique /Bookman-Demi /Bookman-DemiItalic /Bookman-Light
 /Bookman-LightItalic /Helvetica-Narrow /Helvetica-Narrow-Bold /Helvetica-Narrow-BoldOblique /Helvetica-Narrow-Oblique /NewCenturySchlbk-Roman /NewCenturySchlbk-Bold /NewCenturySchlbk-BoldItalic /NewCenturySchlbk-Italic /Palatino-Bold
 /Palatino-BoldItalic /Palatino-Italic /Palatino-Roman ] {ISOLatin1Encoding reEncode } forall
%%EndProlog
%%BeginSetup
%%EndSetup
newpath  gsave  .25 .25 scale  gsave  0 0 t black[  ] 0 sd 3 lw 1 1 1 c 2268 1530 0 0 bf black 1 1 1 c 1814 1224 227 153 bf black 1814 1224 227 153 bl 1 1 1 c 1814 1224 227 153 bf black 1814 1224 227 153 bl 0 0 1 c 1 1 1 c black 0 0 1 c 289 390 m 14
 Y s 289 404 m 14 Y s 287 404 m 2 X s 289 404 m 1 X s black /w 2 def /w2 {w 2 div} def /w3 {w 3 div} def 289 404 m20 0 0 1 c 292 389 m 14 Y s 292 403 m 14 Y s 290 403 m 2 X s 292 403 m 1 X s black 292 403 m20 0 0 1 c 295 377 m 9 Y s 295 386 m 8 Y s
 293 386 m 2 X s 295 386 m 1 X s black 295 386 m20 0 0 1 c 298 392 m 14 Y s 298 406 m 14 Y s 296 406 m 2 X s 298 406 m 1 X s black 298 406 m20 0 0 1 c 301 393 m 13 Y s 301 406 m 14 Y s 299 406 m 2 X s 301 406 m 1 X s black 301 406 m20 0 0 1 c 304 382
 m 11 Y s 304 393 m 11 Y s 302 393 m 2 X s 304 393 m 1 X s black 304 393 m20 0 0 1 c 307 388 m 12 Y s 307 400 m 12 Y s 305 400 m 2 X s 307 400 m 1 X s black 307 400 m20 0 0 1 c 310 414 m 19 Y s 310 433 m 18 Y s 308 433 m 2 X s 310 433 m 1 X s black
 310 433 m20 0 0 1 c 313 377 m 9 Y s 313 386 m 9 Y s 311 386 m 2 X s 313 386 m 1 X s black 313 386 m20 0 0 1 c 316 406 m 18 Y s 316 424 m 18 Y s 314 424 m 2 X s 316 424 m 1 X s black 316 424 m20 0 0 1 c 319 393 m 14 Y s 319 407 m 14 Y s 317 407 m 2 X
 s 319 407 m 2 X s black 319 407 m20 0 0 1 c 322 399 m 15 Y s 322 414 m 15 Y s 321 414 m 1 X s 322 414 m 2 X s black 322 414 m20 0 0 1 c 325 407 m 17 Y s 325 424 m 18 Y s 324 424 m 1 X s 325 424 m 2 X s black 325 424 m20 0 0 1 c 328 424 m 21 Y s 328
 445 m 20 Y s 327 445 m 1 X s 328 445 m 2 X s black 328 445 m20 0 0 1 c 331 403 m 16 Y s 331 419 m 17 Y s 330 419 m 1 X s 331 419 m 2 X s black 331 419 m20 0 0 1 c 334 388 m 13 Y s 334 401 m 12 Y s 333 401 m 1 X s 334 401 m 2 X s black 334 401 m20 0
 0 1 c 337 412 m 18 Y s 337 430 m 19 Y s 336 430 m 1 X s 337 430 m 2 X s black 337 430 m20 0 0 1 c 340 387 m 12 Y s 340 399 m 13 Y s 339 399 m 1 X s 340 399 m 2 X s black 340 399 m20 0 0 1 c 343 379 m 9 Y s 343 388 m 9 Y s 342 388 m 1 X s 343 388 m 2
 X s black 343 388 m20 0 0 1 c 346 377 m 9 Y s 346 386 m 9 Y s 345 386 m 1 X s 346 386 m 2 X s black 346 386 m20 0 0 1 c 349 393 m 14 Y s 349 407 m 14 Y s 348 407 m 1 X s 349 407 m 2 X s black 349 407 m20 0 0 1 c 352 391 m 14 Y s 352 405 m 14 Y s 351
 405 m 1 X s 352 405 m 2 X s black 352 405 m20 0 0 1 c 355 373 m 7 Y s 355 380 m 6 Y s 354 380 m 1 X s 355 380 m 2 X s black 355 380 m20 0 0 1 c 358 382 m 10 Y s 358 392 m 11 Y s 357 392 m 1 X s 358 392 m 2 X s black 358 392 m20 0 0 1 c 361 376 m 9 Y
 s 361 385 m 9 Y s 360 385 m 1 X s 361 385 m 2 X s black 361 385 m20 0 0 1 c 364 382 m 11 Y s 364 393 m 11 Y s 363 393 m 1 X s 364 393 m 2 X s black 364 393 m20 0 0 1 c 367 397 m 15 Y s 367 412 m 15 Y s 366 412 m 1 X s 367 412 m 2 X s black 367 412
 m20 0 0 1 c 370 392 m 14 Y s 370 406 m 14 Y s 369 406 m 1 X s 370 406 m 2 X s black 370 406 m20 0 0 1 c 373 387 m 13 Y s 373 400 m 12 Y s 372 400 m 1 X s 373 400 m 2 X s black 373 400 m20 0 0 1 c 376 383 m 11 Y s 376 394 m 11 Y s 375 394 m 1 X s 376
 394 m 2 X s black 376 394 m20 0 0 1 c 379 392 m 14 Y s 379 406 m 14 Y s 378 406 m 1 X s 379 406 m 2 X s black 379 406 m20 0 0 1 c 382 403 m 17 Y s 382 420 m 16 Y s 381 420 m 1 X s 382 420 m 2 X s black 382 420 m20 0 0 1 c 386 401 m 16 Y s 386 417 m
 17 Y s 384 417 m 2 X s 386 417 m 1 X s black 386 417 m20 0 0 1 c 389 396 m 15 Y s 389 411 m 16 Y s 387 411 m 2 X s 389 411 m 1 X s black 389 411 m20 0 0 1 c 392 384 m 12 Y s 392 396 m 13 Y s 390 396 m 2 X s 392 396 m 1 X s black 392 396 m20 0 0 1 c
 395 392 m 14 Y s 395 406 m 14 Y s 393 406 m 2 X s 395 406 m 1 X s black 395 406 m20 0 0 1 c 398 411 m 19 Y s 398 430 m 18 Y s 396 430 m 2 X s 398 430 m 1 X s black 398 430 m20 0 0 1 c 401 469 m 28 Y s 401 497 m 27 Y s 399 497 m 2 X s 401 497 m 1 X s
 black 401 497 m20 0 0 1 c 404 403 m 17 Y s 404 420 m 18 Y s 402 420 m 2 X s 404 420 m 1 X s black 404 420 m20 0 0 1 c 407 477 m 29 Y s 407 506 m 29 Y s 405 506 m 2 X s 407 506 m 1 X s black 407 506 m20 0 0 1 c 410 507 m 32 Y s 410 539 m 33 Y s 408
 539 m 2 X s 410 539 m 1 X s black 410 539 m20 0 0 1 c 413 500 m 31 Y s 413 531 m 32 Y s 411 531 m 2 X s 413 531 m 1 X s black 413 531 m20 0 0 1 c 416 562 m 38 Y s 416 600 m 39 Y s 414 600 m 2 X s 416 600 m 1 X s black 416 600 m20 0 0 1 c 419 623 m
 43 Y s 419 666 m 43 Y s 417 666 m 2 X s 419 666 m 1 X s black 419 666 m20 0 0 1 c 422 645 m 45 Y s 422 690 m 44 Y s 420 690 m 2 X s 422 690 m 1 X s black 422 690 m20 0 0 1 c 425 700 m 48 Y s 425 748 m 49 Y s 423 748 m 2 X s 425 748 m 1 X s black 425
 748 m20 0 0 1 c 428 733 m 52 Y s 428 785 m 52 Y s 426 785 m 2 X s 428 785 m 1 X s black 428 785 m20 0 0 1 c 431 792 m 55 Y s 431 847 m 56 Y s 429 847 m 2 X s 431 847 m 1 X s black 431 847 m20 0 0 1 c 434 861 m 60 Y s 434 921 m 59 Y s 432 921 m 2 X s
 434 921 m 1 X s black 434 921 m20 0 0 1 c 437 816 m 58 Y s 437 874 m 57 Y s 435 874 m 2 X s 437 874 m 1 X s black 437 874 m20 0 0 1 c 440 971 m 66 Y s 440 1037 m 66 Y s 438 1037 m 2 X s 440 1037 m 1 X s black 440 1037 m20 0 0 1 c 443 1034 m 70 Y s
 443 1104 m 70 Y s 441 1104 m 2 X s 443 1104 m 1 X s black 443 1104 m20 0 0 1 c 446 1038 m 70 Y s 446 1108 m 70 Y s 444 1108 m 2 X s 446 1108 m 1 X s black 446 1108 m20 0 0 1 c 449 1019 m 70 Y s 449 1089 m 70 Y s 447 1089 m 2 X s 449 1089 m 2 X s
 black 449 1089 m20 0 0 1 c 452 1164 m 77 Y s 452 1241 m 78 Y s 451 1241 m 1 X s 452 1241 m 2 X s black 452 1241 m20 0 0 1 c 455 1154 m 77 Y s 455 1231 m 78 Y s 454 1231 m 1 X s 455 1231 m 2 X s black 455 1231 m20 0 0 1 c 458 1059 m 74 Y s 458 1133 m
 74 Y s 457 1133 m 1 X s 458 1133 m 2 X s black 458 1133 m20 0 0 1 c 461 1149 m 79 Y s 461 1228 m 79 Y s 460 1228 m 1 X s 461 1228 m 2 X s black 461 1228 m20 0 0 1 c 464 1139 m 81 Y s 464 1220 m 80 Y s 463 1220 m 1 X s 464 1220 m 2 X s black 464 1220
 m20 0 0 1 c 467 1072 m 80 Y s 467 1152 m 79 Y s 466 1152 m 1 X s 467 1152 m 2 X s black 467 1152 m20 0 0 1 c 470 1058 m 80 Y s 470 1138 m 79 Y s 469 1138 m 1 X s 470 1138 m 2 X s black 470 1138 m20 0 0 1 c 473 951 m 77 Y s 473 1028 m 78 Y s 472 1028
 m 1 X s 473 1028 m 2 X s black 473 1028 m20 0 0 1 c 476 1007 m 81 Y s 476 1088 m 82 Y s 475 1088 m 1 X s 476 1088 m 2 X s black 476 1088 m20 0 0 1 c 479 925 m 80 Y s 479 1005 m 80 Y s 478 1005 m 1 X s 479 1005 m 2 X s black 479 1005 m20 0 0 1 c 482
 835 m 78 Y s 482 913 m 77 Y s 481 913 m 1 X s 482 913 m 2 X s black 482 913 m20 0 0 1 c 485 711 m 76 Y s 485 787 m 76 Y s 484 787 m 1 X s 485 787 m 2 X s black 485 787 m20 0 0 1 c 488 750 m 79 Y s 488 829 m 79 Y s 487 829 m 1 X s 488 829 m 2 X s
 black 488 829 m20 0 0 1 c 491 620 m 74 Y s 491 694 m 75 Y s 490 694 m 1 X s 491 694 m 2 X s black 491 694 m20 0 0 1 c 494 695 m 80 Y s 494 775 m 80 Y s 493 775 m 1 X s 494 775 m 2 X s black 494 775 m20 0 0 1 c 497 704 m 82 Y s 497 786 m 83 Y s 496
 786 m 1 X s 497 786 m 2 X s black 497 786 m20 0 0 1 c 500 576 m 78 Y s 500 654 m 78 Y s 499 654 m 1 X s 500 654 m 2 X s black 500 654 m20 0 0 1 c 503 597 m 81 Y s 503 678 m 80 Y s 502 678 m 1 X s 503 678 m 2 X s black 503 678 m20 0 0 1 c 506 402 m
 75 Y s 506 477 m 75 Y s 505 477 m 1 X s 506 477 m 2 X s black 506 477 m20 0 0 1 c 509 525 m 80 Y s 509 605 m 79 Y s 508 605 m 1 X s 509 605 m 2 X s black 509 605 m20 0 0 1 c 513 353 m 73 Y s 513 426 m 73 Y s 511 426 m 2 X s 513 426 m 1 X s black 513
 426 m20 0 0 1 c 516 444 m 77 Y s 516 521 m 77 Y s 514 521 m 2 X s 516 521 m 1 X s black 516 521 m20 0 0 1 c 519 408 m 75 Y s 519 483 m 76 Y s 517 483 m 2 X s 519 483 m 1 X s black 519 483 m20 0 0 1 c 522 343 m 73 Y s 522 416 m 73 Y s 520 416 m 2 X s
 522 416 m 1 X s black 522 416 m20 0 0 1 c 525 347 m 72 Y s 525 419 m 72 Y s 523 419 m 2 X s 525 419 m 1 X s black 525 419 m20 0 0 1 c 528 378 m 73 Y s 528 451 m 73 Y s 526 451 m 2 X s 528 451 m 1 X s black 528 451 m20 0 0 1 c 531 385 m 74 Y s 531
 459 m 73 Y s 529 459 m 2 X s 531 459 m 1 X s black 531 459 m20 0 0 1 c 534 466 m 76 Y s 534 542 m 76 Y s 532 542 m 2 X s 534 542 m 1 X s black 534 542 m20 0 0 1 c 537 323 m 69 Y s 537 392 m 68 Y s 535 392 m 2 X s 537 392 m 1 X s black 537 392 m20 0
 0 1 c 540 284 m 66 Y s 540 350 m 66 Y s 538 350 m 2 X s 540 350 m 1 X s black 540 350 m20 0 0 1 c 543 351 m 68 Y s 543 419 m 69 Y s 541 419 m 2 X s 543 419 m 1 X s black 543 419 m20 0 0 1 c 546 460 m 71 Y s 546 531 m 70 Y s 544 531 m 2 X s 546 531 m
 1 X s black 546 531 m20 0 0 1 c 549 368 m 67 Y s 549 435 m 67 Y s 547 435 m 2 X s 549 435 m 1 X s black 549 435 m20 0 0 1 c 552 457 m 72 Y s 552 529 m 71 Y s 550 529 m 2 X s 552 529 m 1 X s black 552 529 m20 0 0 1 c 555 405 m 69 Y s 555 474 m 69 Y s
 553 474 m 2 X s 555 474 m 1 X s black 555 474 m20 0 0 1 c 558 355 m 66 Y s 558 421 m 66 Y s 556 421 m 2 X s 558 421 m 1 X s black 558 421 m20 0 0 1 c 561 371 m 66 Y s 561 437 m 65 Y s 559 437 m 2 X s 561 437 m 1 X s black 561 437 m20 0 0 1 c 564 322
 m 63 Y s 564 385 m 62 Y s 562 385 m 2 X s 564 385 m 1 X s black 564 385 m20 0 0 1 c 567 410 m 66 Y s 567 476 m 66 Y s 565 476 m 2 X s 567 476 m 1 X s black 567 476 m20 0 0 1 c 570 364 m 64 Y s 570 428 m 64 Y s 568 428 m 2 X s 570 428 m 1 X s black
 570 428 m20 0 0 1 c 573 394 m 66 Y s 573 460 m 66 Y s 571 460 m 2 X s 573 460 m 1 X s black 573 460 m20 0 0 1 c 576 249 m 57 Y s 576 306 m 57 Y s 574 306 m 2 X s 576 306 m 2 X s black 576 306 m20 0 0 1 c 579 384 m 65 Y s 579 449 m 64 Y s 578 449 m 1
 X s 579 449 m 2 X s black 579 449 m20 0 0 1 c 582 346 m 61 Y s 582 407 m 62 Y s 581 407 m 1 X s 582 407 m 2 X s black 582 407 m20 0 0 1 c 585 392 m 64 Y s 585 456 m 64 Y s 584 456 m 1 X s 585 456 m 2 X s black 585 456 m20 0 0 1 c 588 435 m 66 Y s
 588 501 m 65 Y s 587 501 m 1 X s 588 501 m 2 X s black 588 501 m20 0 0 1 c 591 312 m 59 Y s 591 371 m 59 Y s 590 371 m 1 X s 591 371 m 2 X s black 591 371 m20 0 0 1 c 594 278 m 57 Y s 594 335 m 58 Y s 593 335 m 1 X s 594 335 m 2 X s black 594 335
 m20 0 0 1 c 597 407 m 64 Y s 597 471 m 64 Y s 596 471 m 1 X s 597 471 m 2 X s black 597 471 m20 0 0 1 c 600 378 m 61 Y s 600 439 m 61 Y s 599 439 m 1 X s 600 439 m 2 X s black 600 439 m20 0 0 1 c 603 312 m 57 Y s 603 369 m 58 Y s 602 369 m 1 X s 603
 369 m 2 X s black 603 369 m20 0 0 1 c 606 370 m 61 Y s 606 431 m 61 Y s 605 431 m 1 X s 606 431 m 2 X s black 606 431 m20 0 0 1 c 609 352 m 59 Y s 609 411 m 59 Y s 608 411 m 1 X s 609 411 m 2 X s black 609 411 m20 0 0 1 c 612 304 m 57 Y s 612 361 m
 57 Y s 611 361 m 1 X s 612 361 m 2 X s black 612 361 m20 0 0 1 c 615 326 m 58 Y s 615 384 m 58 Y s 614 384 m 1 X s 615 384 m 2 X s black 615 384 m20 0 0 1 c 618 346 m 59 Y s 618 405 m 60 Y s 617 405 m 1 X s 618 405 m 2 X s black 618 405 m20 0 0 1 c
 621 350 m 59 Y s 621 409 m 59 Y s 620 409 m 1 X s 621 409 m 2 X s black 621 409 m20 0 0 1 c 624 368 m 59 Y s 624 427 m 59 Y s 623 427 m 1 X s 624 427 m 2 X s black 624 427 m20 0 0 1 c 627 380 m 60 Y s 627 440 m 60 Y s 626 440 m 1 X s 627 440 m 2 X s
 black 627 440 m20 0 0 1 c 630 521 m 66 Y s 630 587 m 67 Y s 629 587 m 1 X s 630 587 m 2 X s black 630 587 m20 0 0 1 c 633 376 m 60 Y s 633 436 m 61 Y s 632 436 m 1 X s 633 436 m 2 X s black 633 436 m20 0 0 1 c 636 402 m 61 Y s 636 463 m 62 Y s 635
 463 m 1 X s 636 463 m 2 X s black 636 463 m20 0 0 1 c 639 411 m 62 Y s 639 473 m 63 Y s 638 473 m 1 X s 639 473 m 2 X s black 639 473 m20 0 0 1 c 643 313 m 58 Y s 643 371 m 58 Y s 641 371 m 2 X s 643 371 m 1 X s black 643 371 m20 0 0 1 c 646 274 m
 56 Y s 646 330 m 57 Y s 644 330 m 2 X s 646 330 m 1 X s black 646 330 m20 0 0 1 c 649 498 m 68 Y s 649 566 m 68 Y s 647 566 m 2 X s 649 566 m 1 X s black 649 566 m20 0 0 1 c 652 390 m 63 Y s 652 453 m 64 Y s 650 453 m 2 X s 652 453 m 1 X s black 652
 453 m20 0 0 1 c 655 389 m 63 Y s 655 452 m 62 Y s 653 452 m 2 X s 655 452 m 1 X s black 655 452 m20 0 0 1 c 658 343 m 60 Y s 658 403 m 60 Y s 656 403 m 2 X s 658 403 m 1 X s black 658 403 m20 0 0 1 c 661 405 m 64 Y s 661 469 m 64 Y s 659 469 m 2 X s
 661 469 m 1 X s black 661 469 m20 0 0 1 c 664 209 m 50 Y s 664 259 m 51 Y s 662 259 m 2 X s 664 259 m 1 X s black 664 259 m20 0 0 1 c 667 442 m 63 Y s 667 505 m 63 Y s 665 505 m 2 X s 667 505 m 1 X s black 667 505 m20 0 0 1 c 670 413 m 60 Y s 670
 473 m 60 Y s 668 473 m 2 X s 670 473 m 1 X s black 670 473 m20 0 0 1 c 673 407 m 60 Y s 673 467 m 60 Y s 671 467 m 2 X s 673 467 m 1 X s black 673 467 m20 0 0 1 c 676 383 m 57 Y s 676 440 m 57 Y s 674 440 m 2 X s 676 440 m 1 X s black 676 440 m20 0
 0 1 c 679 364 m 56 Y s 679 420 m 56 Y s 677 420 m 2 X s 679 420 m 1 X s black 679 420 m20 0 0 1 c 682 376 m 54 Y s 682 430 m 55 Y s 680 430 m 2 X s 682 430 m 1 X s black 682 430 m20 0 0 1 c 685 313 m 50 Y s 685 363 m 50 Y s 683 363 m 2 X s 685 363 m
 1 X s black 685 363 m20 0 0 1 c 688 411 m 57 Y s 688 468 m 57 Y s 686 468 m 2 X s 688 468 m 1 X s black 688 468 m20 0 0 1 c 691 448 m 58 Y s 691 506 m 59 Y s 689 506 m 2 X s 691 506 m 1 X s black 691 506 m20 0 0 1 c 694 300 m 49 Y s 694 349 m 50 Y s
 692 349 m 2 X s 694 349 m 1 X s black 694 349 m20 0 0 1 c 697 268 m 47 Y s 697 315 m 47 Y s 695 315 m 2 X s 697 315 m 1 X s black 697 315 m20 0 0 1 c 700 301 m 48 Y s 700 349 m 49 Y s 698 349 m 2 X s 700 349 m 1 X s black 700 349 m20 0 0 1 c 703 329
 m 50 Y s 703 379 m 51 Y s 701 379 m 2 X s 703 379 m 2 X s black 703 379 m20 0 0 1 c 706 440 m 57 Y s 706 497 m 58 Y s 705 497 m 1 X s 706 497 m 2 X s black 706 497 m20 0 0 1 c 709 443 m 59 Y s 709 502 m 59 Y s 708 502 m 1 X s 709 502 m 2 X s black
 709 502 m20 0 0 1 c 712 286 m 49 Y s 712 335 m 49 Y s 711 335 m 1 X s 712 335 m 2 X s black 712 335 m20 0 0 1 c 715 383 m 53 Y s 715 436 m 53 Y s 714 436 m 1 X s 715 436 m 2 X s black 715 436 m20 0 0 1 c 718 349 m 54 Y s 718 403 m 54 Y s 717 403 m 1
 X s 718 403 m 2 X s black 718 403 m20 0 0 1 c 721 352 m 54 Y s 721 406 m 54 Y s 720 406 m 1 X s 721 406 m 2 X s black 721 406 m20 0 0 1 c 724 322 m 51 Y s 724 373 m 52 Y s 723 373 m 1 X s 724 373 m 2 X s black 724 373 m20 0 0 1 c 727 444 m 58 Y s
 727 502 m 59 Y s 726 502 m 1 X s 727 502 m 2 X s black 727 502 m20 0 0 1 c 730 380 m 55 Y s 730 435 m 56 Y s 729 435 m 1 X s 730 435 m 2 X s black 730 435 m20 0 0 1 c 733 381 m 55 Y s 733 436 m 55 Y s 732 436 m 1 X s 733 436 m 2 X s black 733 436
 m20 0 0 1 c 736 476 m 60 Y s 736 536 m 61 Y s 735 536 m 1 X s 736 536 m 2 X s black 736 536 m20 0 0 1 c 739 294 m 48 Y s 739 342 m 49 Y s 738 342 m 1 X s 739 342 m 2 X s black 739 342 m20 0 0 1 c 742 388 m 54 Y s 742 442 m 53 Y s 741 442 m 1 X s 742
 442 m 2 X s black 742 442 m20 0 0 1 c 745 375 m 53 Y s 745 428 m 53 Y s 744 428 m 1 X s 745 428 m 2 X s black 745 428 m20 0 0 1 c 748 287 m 48 Y s 748 335 m 48 Y s 747 335 m 1 X s 748 335 m 2 X s black 748 335 m20 0 0 1 c 751 381 m 51 Y s 751 432 m
 52 Y s 750 432 m 1 X s 751 432 m 2 X s black 751 432 m20 0 0 1 c 754 372 m 51 Y s 754 423 m 51 Y s 753 423 m 1 X s 754 423 m 2 X s black 754 423 m20 0 0 1 c 757 416 m 52 Y s 757 468 m 52 Y s 756 468 m 1 X s 757 468 m 2 X s black 757 468 m20 0 0 1 c
 760 352 m 48 Y s 760 400 m 48 Y s 759 400 m 1 X s 760 400 m 2 X s black 760 400 m20 0 0 1 c 763 260 m 39 Y s 763 299 m 39 Y s 762 299 m 1 X s 763 299 m 2 X s black 763 299 m20 0 0 1 c 766 321 m 45 Y s 766 366 m 45 Y s 765 366 m 1 X s 766 366 m 2 X s
 black 766 366 m20 0 0 1 c 770 392 m 48 Y s 770 440 m 48 Y s 768 440 m 2 X s 770 440 m 1 X s black 770 440 m20 0 0 1 c 773 437 m 51 Y s 773 488 m 50 Y s 771 488 m 2 X s 773 488 m 1 X s black 773 488 m20 0 0 1 c 776 403 m 48 Y s 776 451 m 49 Y s 774
 451 m 2 X s 776 451 m 1 X s black 776 451 m20 0 0 1 c 779 401 m 47 Y s 779 448 m 47 Y s 777 448 m 2 X s 779 448 m 1 X s black 779 448 m20 0 0 1 c 782 405 m 49 Y s 782 454 m 48 Y s 780 454 m 2 X s 782 454 m 1 X s black 782 454 m20 0 0 1 c 785 359 m
 45 Y s 785 404 m 44 Y s 783 404 m 2 X s 785 404 m 1 X s black 785 404 m20 0 0 1 c 788 405 m 46 Y s 788 451 m 47 Y s 786 451 m 2 X s 788 451 m 1 X s black 788 451 m20 0 0 1 c 791 416 m 48 Y s 791 464 m 47 Y s 789 464 m 2 X s 791 464 m 1 X s black 791
 464 m20 0 0 1 c 794 382 m 45 Y s 794 427 m 45 Y s 792 427 m 2 X s 794 427 m 1 X s black 794 427 m20 0 0 1 c 797 405 m 47 Y s 797 452 m 46 Y s 795 452 m 2 X s 797 452 m 1 X s black 797 452 m20 0 0 1 c 800 428 m 47 Y s 800 475 m 47 Y s 798 475 m 2 X s
 800 475 m 1 X s black 800 475 m20 0 0 1 c 803 353 m 42 Y s 803 395 m 42 Y s 801 395 m 2 X s 803 395 m 1 X s black 803 395 m20 0 0 1 c 806 335 m 42 Y s 806 377 m 42 Y s 804 377 m 2 X s 806 377 m 1 X s black 806 377 m20 0 0 1 c 809 389 m 46 Y s 809
 435 m 45 Y s 807 435 m 2 X s 809 435 m 1 X s black 809 435 m20 0 0 1 c 812 419 m 46 Y s 812 465 m 47 Y s 810 465 m 2 X s 812 465 m 1 X s black 812 465 m20 0 0 1 c 815 340 m 40 Y s 815 380 m 40 Y s 813 380 m 2 X s 815 380 m 1 X s black 815 380 m20 0
 0 1 c 818 381 m 45 Y s 818 426 m 45 Y s 816 426 m 2 X s 818 426 m 1 X s black 818 426 m20 0 0 1 c 821 377 m 44 Y s 821 421 m 43 Y s 819 421 m 2 X s 821 421 m 1 X s black 821 421 m20 0 0 1 c 824 415 m 47 Y s 824 462 m 46 Y s 822 462 m 2 X s 824 462 m
 1 X s black 824 462 m20 0 0 1 c 827 314 m 38 Y s 827 352 m 37 Y s 825 352 m 2 X s 827 352 m 1 X s black 827 352 m20 0 0 1 c 830 393 m 44 Y s 830 437 m 45 Y s 828 437 m 2 X s 830 437 m 1 X s black 830 437 m20 0 0 1 c 833 335 m 42 Y s 833 377 m 41 Y s
 831 377 m 2 X s 833 377 m 2 X s black 833 377 m20 0 0 1 c 836 330 m 39 Y s 836 369 m 40 Y s 835 369 m 1 X s 836 369 m 2 X s black 836 369 m20 0 0 1 c 839 396 m 43 Y s 839 439 m 44 Y s 838 439 m 1 X s 839 439 m 2 X s black 839 439 m20 0 0 1 c 842 325
 m 37 Y s 842 362 m 37 Y s 841 362 m 1 X s 842 362 m 2 X s black 842 362 m20 0 0 1 c 845 353 m 41 Y s 845 394 m 41 Y s 844 394 m 1 X s 845 394 m 2 X s black 845 394 m20 0 0 1 c 848 349 m 40 Y s 848 389 m 40 Y s 847 389 m 1 X s 848 389 m 2 X s black
 848 389 m20 0 0 1 c 851 413 m 46 Y s 851 459 m 46 Y s 850 459 m 1 X s 851 459 m 2 X s black 851 459 m20 0 0 1 c 854 421 m 45 Y s 854 466 m 45 Y s 853 466 m 1 X s 854 466 m 2 X s black 854 466 m20 0 0 1 c 857 457 m 48 Y s 857 505 m 48 Y s 856 505 m 1
 X s 857 505 m 2 X s black 857 505 m20 0 0 1 c 860 418 m 45 Y s 860 463 m 45 Y s 859 463 m 1 X s 860 463 m 2 X s black 860 463 m20 0 0 1 c 863 455 m 48 Y s 863 503 m 48 Y s 862 503 m 1 X s 863 503 m 2 X s black 863 503 m20 0 0 1 c 866 402 m 44 Y s
 866 446 m 43 Y s 865 446 m 1 X s 866 446 m 2 X s black 866 446 m20 0 0 1 c 869 379 m 42 Y s 869 421 m 43 Y s 868 421 m 1 X s 869 421 m 2 X s black 869 421 m20 0 0 1 c 872 366 m 40 Y s 872 406 m 41 Y s 871 406 m 1 X s 872 406 m 2 X s black 872 406
 m20 0 0 1 c 875 408 m 44 Y s 875 452 m 44 Y s 874 452 m 1 X s 875 452 m 2 X s black 875 452 m20 0 0 1 c 878 390 m 44 Y s 878 434 m 44 Y s 877 434 m 1 X s 878 434 m 2 X s black 878 434 m20 0 0 1 c 881 445 m 47 Y s 881 492 m 46 Y s 880 492 m 1 X s 881
 492 m 2 X s black 881 492 m20 0 0 1 c 884 401 m 44 Y s 884 445 m 43 Y s 883 445 m 1 X s 884 445 m 2 X s black 884 445 m20 0 0 1 c 887 352 m 41 Y s 887 393 m 40 Y s 886 393 m 1 X s 887 393 m 2 X s black 887 393 m20 0 0 1 c 890 355 m 40 Y s 890 395 m
 41 Y s 889 395 m 1 X s 890 395 m 2 X s black 890 395 m20 0 0 1 c 893 415 m 45 Y s 893 460 m 44 Y s 892 460 m 1 X s 893 460 m 2 X s black 893 460 m20 0 0 1 c 897 421 m 43 Y s 897 464 m 44 Y s 895 464 m 2 X s 897 464 m 1 X s black 897 464 m20 0 0 1 c
 900 346 m 39 Y s 900 385 m 39 Y s 898 385 m 2 X s 900 385 m 1 X s black 900 385 m20 0 0 1 c 903 451 m 46 Y s 903 497 m 47 Y s 901 497 m 2 X s 903 497 m 1 X s black 903 497 m20 0 0 1 c 906 372 m 41 Y s 906 413 m 40 Y s 904 413 m 2 X s 906 413 m 1 X s
 black 906 413 m20 0 0 1 c 909 403 m 42 Y s 909 445 m 43 Y s 907 445 m 2 X s 909 445 m 1 X s black 909 445 m20 0 0 1 c 912 418 m 42 Y s 912 460 m 42 Y s 910 460 m 2 X s 912 460 m 1 X s black 912 460 m20 0 0 1 c 915 315 m 35 Y s 915 350 m 36 Y s 913
 350 m 2 X s 915 350 m 1 X s black 915 350 m20 0 0 1 c 918 351 m 37 Y s 918 388 m 36 Y s 916 388 m 2 X s 918 388 m 1 X s black 918 388 m20 0 0 1 c 921 401 m 42 Y s 921 443 m 41 Y s 919 443 m 2 X s 921 443 m 1 X s black 921 443 m20 0 0 1 c 924 359 m
 38 Y s 924 397 m 37 Y s 922 397 m 2 X s 924 397 m 1 X s black 924 397 m20 0 0 1 c 927 372 m 39 Y s 927 411 m 39 Y s 925 411 m 2 X s 927 411 m 1 X s black 927 411 m20 0 0 1 c 930 361 m 38 Y s 930 399 m 39 Y s 928 399 m 2 X s 930 399 m 1 X s black 930
 399 m20 0 0 1 c 933 403 m 41 Y s 933 444 m 41 Y s 931 444 m 2 X s 933 444 m 1 X s black 933 444 m20 0 0 1 c 936 414 m 44 Y s 936 458 m 43 Y s 934 458 m 2 X s 936 458 m 1 X s black 936 458 m20 0 0 1 c 939 471 m 46 Y s 939 517 m 46 Y s 937 517 m 2 X s
 939 517 m 1 X s black 939 517 m20 0 0 1 c 942 403 m 40 Y s 942 443 m 41 Y s 940 443 m 2 X s 942 443 m 1 X s black 942 443 m20 0 0 1 c 945 389 m 40 Y s 945 429 m 40 Y s 943 429 m 2 X s 945 429 m 1 X s black 945 429 m20 0 0 1 c 948 448 m 44 Y s 948
 492 m 44 Y s 946 492 m 2 X s 948 492 m 1 X s black 948 492 m20 0 0 1 c 951 408 m 42 Y s 951 450 m 42 Y s 949 450 m 2 X s 951 450 m 1 X s black 951 450 m20 0 0 1 c 954 392 m 39 Y s 954 431 m 40 Y s 952 431 m 2 X s 954 431 m 1 X s black 954 431 m20 0
 0 1 c 957 397 m 40 Y s 957 437 m 40 Y s 955 437 m 2 X s 957 437 m 1 X s black 957 437 m20 0 0 1 c 960 351 m 36 Y s 960 387 m 36 Y s 958 387 m 2 X s 960 387 m 2 X s black 960 387 m20 0 0 1 c 963 367 m 37 Y s 963 404 m 37 Y s 962 404 m 1 X s 963 404 m
 2 X s black 963 404 m20 0 0 1 c 966 389 m 40 Y s 966 429 m 40 Y s 965 429 m 1 X s 966 429 m 2 X s black 966 429 m20 0 0 1 c 969 367 m 38 Y s 969 405 m 37 Y s 968 405 m 1 X s 969 405 m 2 X s black 969 405 m20 0 0 1 c 972 361 m 38 Y s 972 399 m 37 Y s
 971 399 m 1 X s 972 399 m 2 X s black 972 399 m20 0 0 1 c 975 419 m 43 Y s 975 462 m 43 Y s 974 462 m 1 X s 975 462 m 2 X s black 975 462 m20 0 0 1 c 978 404 m 42 Y s 978 446 m 41 Y s 977 446 m 1 X s 978 446 m 2 X s black 978 446 m20 0 0 1 c 981 423
 m 43 Y s 981 466 m 44 Y s 980 466 m 1 X s 981 466 m 2 X s black 981 466 m20 0 0 1 c 984 423 m 43 Y s 984 466 m 43 Y s 983 466 m 1 X s 984 466 m 2 X s black 984 466 m20 0 0 1 c 987 428 m 44 Y s 987 472 m 44 Y s 986 472 m 1 X s 987 472 m 2 X s black
 987 472 m20 0 0 1 c 990 377 m 39 Y s 990 416 m 40 Y s 989 416 m 1 X s 990 416 m 2 X s black 990 416 m20 0 0 1 c 993 340 m 38 Y s 993 378 m 38 Y s 992 378 m 1 X s 993 378 m 2 X s black 993 378 m20 0 0 1 c 996 339 m 36 Y s 996 375 m 37 Y s 995 375 m 1
 X s 996 375 m 2 X s black 996 375 m20 0 0 1 c 999 387 m 40 Y s 999 427 m 40 Y s 998 427 m 1 X s 999 427 m 2 X s black 999 427 m20 0 0 1 c 1002 402 m 42 Y s 1002 444 m 42 Y s 1001 444 m 1 X s 1002 444 m 2 X s black 1002 444 m20 0 0 1 c 1005 368 m 38
 Y s 1005 406 m 39 Y s 1004 406 m 1 X s 1005 406 m 2 X s black 1005 406 m20 0 0 1 c 1008 394 m 41 Y s 1008 435 m 41 Y s 1007 435 m 1 X s 1008 435 m 2 X s black 1008 435 m20 0 0 1 c 1011 362 m 37 Y s 1011 399 m 38 Y s 1010 399 m 1 X s 1011 399 m 2 X s
 black 1011 399 m20 0 0 1 c 1014 421 m 41 Y s 1014 462 m 42 Y s 1013 462 m 1 X s 1014 462 m 2 X s black 1014 462 m20 0 0 1 c 1017 411 m 43 Y s 1017 454 m 43 Y s 1016 454 m 1 X s 1017 454 m 2 X s black 1017 454 m20 0 0 1 c 1020 360 m 37 Y s 1020 397 m
 38 Y s 1019 397 m 1 X s 1020 397 m 2 X s black 1020 397 m20 0 0 1 c 1023 422 m 43 Y s 1023 465 m 43 Y s 1022 465 m 1 X s 1023 465 m 2 X s black 1023 465 m20 0 0 1 c 1027 454 m 44 Y s 1027 498 m 45 Y s 1025 498 m 2 X s 1027 498 m 1 X s black 1027 498
 m20 0 0 1 c 1030 389 m 39 Y s 1030 428 m 38 Y s 1028 428 m 2 X s 1030 428 m 1 X s black 1030 428 m20 0 0 1 c 1033 356 m 37 Y s 1033 393 m 37 Y s 1031 393 m 2 X s 1033 393 m 1 X s black 1033 393 m20 0 0 1 c 1036 475 m 44 Y s 1036 519 m 45 Y s 1034
 519 m 2 X s 1036 519 m 1 X s black 1036 519 m20 0 0 1 c 1039 367 m 37 Y s 1039 404 m 37 Y s 1037 404 m 2 X s 1039 404 m 1 X s black 1039 404 m20 0 0 1 c 1042 375 m 39 Y s 1042 414 m 38 Y s 1040 414 m 2 X s 1042 414 m 1 X s black 1042 414 m20 0 0 1 c
 1045 440 m 42 Y s 1045 482 m 42 Y s 1043 482 m 2 X s 1045 482 m 1 X s black 1045 482 m20 0 0 1 c 1048 409 m 41 Y s 1048 450 m 40 Y s 1046 450 m 2 X s 1048 450 m 1 X s black 1048 450 m20 0 0 1 c 1051 396 m 38 Y s 1051 434 m 38 Y s 1049 434 m 2 X s
 1051 434 m 1 X s black 1051 434 m20 0 0 1 c 1054 443 m 43 Y s 1054 486 m 44 Y s 1052 486 m 2 X s 1054 486 m 1 X s black 1054 486 m20 0 0 1 c 1057 365 m 36 Y s 1057 401 m 35 Y s 1055 401 m 2 X s 1057 401 m 1 X s black 1057 401 m20 0 0 1 c 1060 402 m
 37 Y s 1060 439 m 37 Y s 1058 439 m 2 X s 1060 439 m 1 X s black 1060 439 m20 0 0 1 c 1063 359 m 34 Y s 1063 393 m 34 Y s 1061 393 m 2 X s 1063 393 m 1 X s black 1063 393 m20 0 0 1 c 1066 453 m 41 Y s 1066 494 m 41 Y s 1064 494 m 2 X s 1066 494 m 1
 X s black 1066 494 m20 0 0 1 c 1069 413 m 38 Y s 1069 451 m 39 Y s 1067 451 m 2 X s 1069 451 m 1 X s black 1069 451 m20 0 0 1 c 1072 387 m 37 Y s 1072 424 m 36 Y s 1070 424 m 2 X s 1072 424 m 1 X s black 1072 424 m20 0 0 1 c 1075 394 m 38 Y s 1075
 432 m 38 Y s 1073 432 m 2 X s 1075 432 m 1 X s black 1075 432 m20 0 0 1 c 1078 433 m 40 Y s 1078 473 m 40 Y s 1076 473 m 2 X s 1078 473 m 1 X s black 1078 473 m20 0 0 1 c 1081 477 m 42 Y s 1081 519 m 41 Y s 1079 519 m 2 X s 1081 519 m 1 X s black
 1081 519 m20 0 0 1 c 1084 436 m 39 Y s 1084 475 m 38 Y s 1082 475 m 2 X s 1084 475 m 1 X s black 1084 475 m20 0 0 1 c 1087 471 m 42 Y s 1087 513 m 42 Y s 1085 513 m 2 X s 1087 513 m 2 X s black 1087 513 m20 0 0 1 c 1090 409 m 37 Y s 1090 446 m 36 Y
 s 1089 446 m 1 X s 1090 446 m 2 X s black 1090 446 m20 0 0 1 c 1093 440 m 40 Y s 1093 480 m 40 Y s 1092 480 m 1 X s 1093 480 m 2 X s black 1093 480 m20 0 0 1 c 1096 414 m 38 Y s 1096 452 m 37 Y s 1095 452 m 1 X s 1096 452 m 2 X s black 1096 452 m20
 0 0 1 c 1099 361 m 32 Y s 1099 393 m 31 Y s 1098 393 m 1 X s 1099 393 m 2 X s black 1099 393 m20 0 0 1 c 1102 377 m 32 Y s 1102 409 m 32 Y s 1101 409 m 1 X s 1102 409 m 2 X s black 1102 409 m20 0 0 1 c 1105 423 m 37 Y s 1105 460 m 38 Y s 1104 460 m
 1 X s 1105 460 m 2 X s black 1105 460 m20 0 0 1 c 1108 391 m 35 Y s 1108 426 m 35 Y s 1107 426 m 1 X s 1108 426 m 2 X s black 1108 426 m20 0 0 1 c 1111 424 m 38 Y s 1111 462 m 38 Y s 1110 462 m 1 X s 1111 462 m 2 X s black 1111 462 m20 0 0 1 c 1114
 403 m 35 Y s 1114 438 m 36 Y s 1113 438 m 1 X s 1114 438 m 2 X s black 1114 438 m20 0 0 1 c 1117 422 m 37 Y s 1117 459 m 37 Y s 1116 459 m 1 X s 1117 459 m 2 X s black 1117 459 m20 0 0 1 c 1120 419 m 37 Y s 1120 456 m 37 Y s 1119 456 m 1 X s 1120
 456 m 2 X s black 1120 456 m20 0 0 1 c 1123 353 m 31 Y s 1123 384 m 32 Y s 1122 384 m 1 X s 1123 384 m 2 X s black 1123 384 m20 0 0 1 c 1126 352 m 31 Y s 1126 383 m 31 Y s 1125 383 m 1 X s 1126 383 m 2 X s black 1126 383 m20 0 0 1 c 1129 480 m 41 Y
 s 1129 521 m 42 Y s 1128 521 m 1 X s 1129 521 m 2 X s black 1129 521 m20 0 0 1 c 1132 474 m 42 Y s 1132 516 m 41 Y s 1131 516 m 1 X s 1132 516 m 2 X s black 1132 516 m20 0 0 1 c 1135 378 m 31 Y s 1135 409 m 32 Y s 1134 409 m 1 X s 1135 409 m 2 X s
 black 1135 409 m20 0 0 1 c 1138 411 m 37 Y s 1138 448 m 37 Y s 1137 448 m 1 X s 1138 448 m 2 X s black 1138 448 m20 0 0 1 c 1141 395 m 36 Y s 1141 431 m 35 Y s 1140 431 m 1 X s 1141 431 m 2 X s black 1141 431 m20 0 0 1 c 1144 400 m 35 Y s 1144 435 m
 35 Y s 1143 435 m 1 X s 1144 435 m 2 X s black 1144 435 m20 0 0 1 c 1147 420 m 37 Y s 1147 457 m 37 Y s 1146 457 m 1 X s 1147 457 m 2 X s black 1147 457 m20 0 0 1 c 1150 494 m 44 Y s 1150 538 m 43 Y s 1149 538 m 1 X s 1150 538 m 2 X s black 1150 538
 m20 0 0 1 c 1154 387 m 34 Y s 1154 421 m 34 Y s 1152 421 m 2 X s 1154 421 m 1 X s black 1154 421 m20 0 0 1 c 1157 472 m 42 Y s 1157 514 m 42 Y s 1155 514 m 2 X s 1157 514 m 1 X s black 1157 514 m20 0 0 1 c 1160 382 m 34 Y s 1160 416 m 34 Y s 1158
 416 m 2 X s 1160 416 m 1 X s black 1160 416 m20 0 0 1 c 1163 389 m 35 Y s 1163 424 m 36 Y s 1161 424 m 2 X s 1163 424 m 1 X s black 1163 424 m20 0 0 1 c 1166 467 m 42 Y s 1166 509 m 42 Y s 1164 509 m 2 X s 1166 509 m 1 X s black 1166 509 m20 0 0 1 c
 1169 424 m 38 Y s 1169 462 m 37 Y s 1167 462 m 2 X s 1169 462 m 1 X s black 1169 462 m20 0 0 1 c 1172 428 m 38 Y s 1172 466 m 39 Y s 1170 466 m 2 X s 1172 466 m 1 X s black 1172 466 m20 0 0 1 c 1175 348 m 30 Y s 1175 378 m 29 Y s 1173 378 m 2 X s
 1175 378 m 1 X s black 1175 378 m20 0 0 1 c 1178 486 m 42 Y s 1178 528 m 43 Y s 1176 528 m 2 X s 1178 528 m 1 X s black 1178 528 m20 0 0 1 c 1181 469 m 41 Y s 1181 510 m 40 Y s 1179 510 m 2 X s 1181 510 m 1 X s black 1181 510 m20 0 0 1 c 1184 409 m
 37 Y s 1184 446 m 38 Y s 1182 446 m 2 X s 1184 446 m 1 X s black 1184 446 m20 0 0 1 c 1187 475 m 42 Y s 1187 517 m 43 Y s 1185 517 m 2 X s 1187 517 m 1 X s black 1187 517 m20 0 0 1 c 1190 500 m 43 Y s 1190 543 m 43 Y s 1188 543 m 2 X s 1190 543 m 1
 X s black 1190 543 m20 0 0 1 c 1193 397 m 36 Y s 1193 433 m 36 Y s 1191 433 m 2 X s 1193 433 m 1 X s black 1193 433 m20 0 0 1 c 1196 432 m 39 Y s 1196 471 m 38 Y s 1194 471 m 2 X s 1196 471 m 1 X s black 1196 471 m20 0 0 1 c 1199 478 m 41 Y s 1199
 519 m 41 Y s 1197 519 m 2 X s 1199 519 m 1 X s black 1199 519 m20 0 0 1 c 1202 414 m 36 Y s 1202 450 m 36 Y s 1200 450 m 2 X s 1202 450 m 1 X s black 1202 450 m20 0 0 1 c 1205 447 m 40 Y s 1205 487 m 39 Y s 1203 487 m 2 X s 1205 487 m 1 X s black
 1205 487 m20 0 0 1 c 1208 458 m 38 Y s 1208 496 m 39 Y s 1206 496 m 2 X s 1208 496 m 1 X s black 1208 496 m20 0 0 1 c 1211 461 m 39 Y s 1211 500 m 40 Y s 1209 500 m 2 X s 1211 500 m 1 X s black 1211 500 m20 0 0 1 c 1214 411 m 34 Y s 1214 445 m 35 Y
 s 1212 445 m 2 X s 1214 445 m 1 X s black 1214 445 m20 0 0 1 c 1217 394 m 32 Y s 1217 426 m 32 Y s 1215 426 m 2 X s 1217 426 m 2 X s black 1217 426 m20 0 0 1 c 1220 387 m 31 Y s 1220 418 m 32 Y s 1219 418 m 1 X s 1220 418 m 2 X s black 1220 418 m20
 0 0 1 c 1223 445 m 37 Y s 1223 482 m 38 Y s 1222 482 m 1 X s 1223 482 m 2 X s black 1223 482 m20 0 0 1 c 1226 439 m 37 Y s 1226 476 m 37 Y s 1225 476 m 1 X s 1226 476 m 2 X s black 1226 476 m20 0 0 1 c 1229 389 m 31 Y s 1229 420 m 32 Y s 1228 420 m
 1 X s 1229 420 m 2 X s black 1229 420 m20 0 0 1 c 1232 450 m 37 Y s 1232 487 m 38 Y s 1231 487 m 1 X s 1232 487 m 2 X s black 1232 487 m20 0 0 1 c 1235 449 m 38 Y s 1235 487 m 37 Y s 1234 487 m 1 X s 1235 487 m 2 X s black 1235 487 m20 0 0 1 c 1238
 443 m 37 Y s 1238 480 m 37 Y s 1237 480 m 1 X s 1238 480 m 2 X s black 1238 480 m20 0 0 1 c 1241 389 m 32 Y s 1241 421 m 32 Y s 1240 421 m 1 X s 1241 421 m 2 X s black 1241 421 m20 0 0 1 c 1244 430 m 35 Y s 1244 465 m 36 Y s 1243 465 m 1 X s 1244
 465 m 2 X s black 1244 465 m20 0 0 1 c 1247 338 m 26 Y s 1247 364 m 26 Y s 1246 364 m 1 X s 1247 364 m 2 X s black 1247 364 m20 0 0 1 c 1250 408 m 34 Y s 1250 442 m 34 Y s 1249 442 m 1 X s 1250 442 m 2 X s black 1250 442 m20 0 0 1 c 1253 364 m 27 Y
 s 1253 391 m 28 Y s 1252 391 m 1 X s 1253 391 m 2 X s black 1253 391 m20 0 0 1 c 1256 360 m 29 Y s 1256 389 m 29 Y s 1255 389 m 1 X s 1256 389 m 2 X s black 1256 389 m20 0 0 1 c 1259 437 m 35 Y s 1259 472 m 36 Y s 1258 472 m 1 X s 1259 472 m 2 X s
 black 1259 472 m20 0 0 1 c 1262 359 m 28 Y s 1262 387 m 28 Y s 1261 387 m 1 X s 1262 387 m 2 X s black 1262 387 m20 0 0 1 c 1265 336 m 24 Y s 1265 360 m 24 Y s 1264 360 m 1 X s 1265 360 m 2 X s black 1265 360 m20 0 0 1 c 1268 353 m 27 Y s 1268 380 m
 26 Y s 1267 380 m 1 X s 1268 380 m 2 X s black 1268 380 m20 0 0 1 c 1271 383 m 30 Y s 1271 413 m 29 Y s 1270 413 m 1 X s 1271 413 m 2 X s black 1271 413 m20 0 0 1 c 1274 352 m 27 Y s 1274 379 m 26 Y s 1273 379 m 1 X s 1274 379 m 2 X s black 1274 379
 m20 0 0 1 c 1277 357 m 27 Y s 1277 384 m 26 Y s 1276 384 m 1 X s 1277 384 m 2 X s black 1277 384 m20 0 0 1 c 1281 381 m 28 Y s 1281 409 m 29 Y s 1279 409 m 2 X s 1281 409 m 1 X s black 1281 409 m20 0 0 1 c 1284 479 m 38 Y s 1284 517 m 38 Y s 1282
 517 m 2 X s 1284 517 m 1 X s black 1284 517 m20 0 0 1 c 1287 373 m 28 Y s 1287 401 m 27 Y s 1285 401 m 2 X s 1287 401 m 1 X s black 1287 401 m20 0 0 1 c 1290 365 m 26 Y s 1290 391 m 26 Y s 1288 391 m 2 X s 1290 391 m 1 X s black 1290 391 m20 0 0 1 c
 1293 386 m 29 Y s 1293 415 m 29 Y s 1291 415 m 2 X s 1293 415 m 1 X s black 1293 415 m20 0 0 1 c 1296 369 m 27 Y s 1296 396 m 28 Y s 1294 396 m 2 X s 1296 396 m 1 X s black 1296 396 m20 0 0 1 c 1299 369 m 27 Y s 1299 396 m 26 Y s 1297 396 m 2 X s
 1299 396 m 1 X s black 1299 396 m20 0 0 1 c 1302 377 m 27 Y s 1302 404 m 27 Y s 1300 404 m 2 X s 1302 404 m 1 X s black 1302 404 m20 0 0 1 c 1305 406 m 31 Y s 1305 437 m 31 Y s 1303 437 m 2 X s 1305 437 m 1 X s black 1305 437 m20 0 0 1 c 1308 370 m
 25 Y s 1308 395 m 25 Y s 1306 395 m 2 X s 1308 395 m 1 X s black 1308 395 m20 0 0 1 c 1311 366 m 25 Y s 1311 391 m 24 Y s 1309 391 m 2 X s 1311 391 m 1 X s black 1311 391 m20 0 0 1 c 1314 379 m 26 Y s 1314 405 m 26 Y s 1312 405 m 2 X s 1314 405 m 1
 X s black 1314 405 m20 0 0 1 c 1317 350 m 22 Y s 1317 372 m 22 Y s 1315 372 m 2 X s 1317 372 m 1 X s black 1317 372 m20 0 0 1 c 1320 343 m 21 Y s 1320 364 m 21 Y s 1318 364 m 2 X s 1320 364 m 1 X s black 1320 364 m20 0 0 1 c 1323 367 m 24 Y s 1323
 391 m 23 Y s 1321 391 m 2 X s 1323 391 m 1 X s black 1323 391 m20 0 0 1 c 1326 395 m 29 Y s 1326 424 m 29 Y s 1324 424 m 2 X s 1326 424 m 1 X s black 1326 424 m20 0 0 1 c 1329 341 m 21 Y s 1329 362 m 22 Y s 1327 362 m 2 X s 1329 362 m 1 X s black
 1329 362 m20 0 0 1 c 1332 358 m 23 Y s 1332 381 m 23 Y s 1330 381 m 2 X s 1332 381 m 1 X s black 1332 381 m20 0 0 1 c 1335 394 m 29 Y s 1335 423 m 28 Y s 1333 423 m 2 X s 1335 423 m 1 X s black 1335 423 m20 0 0 1 c 1338 356 m 22 Y s 1338 378 m 22 Y
 s 1336 378 m 2 X s 1338 378 m 1 X s black 1338 378 m20 0 0 1 c 1341 390 m 27 Y s 1341 417 m 26 Y s 1339 417 m 2 X s 1341 417 m 1 X s black 1341 417 m20 0 0 1 c 1344 407 m 30 Y s 1344 437 m 29 Y s 1342 437 m 2 X s 1344 437 m 2 X s black 1344 437 m20
 0 0 1 c 1347 387 m 27 Y s 1347 414 m 27 Y s 1346 414 m 1 X s 1347 414 m 2 X s black 1347 414 m20 0 0 1 c 1350 372 m 24 Y s 1350 396 m 25 Y s 1349 396 m 1 X s 1350 396 m 2 X s black 1350 396 m20 0 0 1 c 1353 384 m 26 Y s 1353 410 m 26 Y s 1352 410 m
 1 X s 1353 410 m 2 X s black 1353 410 m20 0 0 1 c 1356 355 m 22 Y s 1356 377 m 22 Y s 1355 377 m 1 X s 1356 377 m 2 X s black 1356 377 m20 0 0 1 c 1359 417 m 30 Y s 1359 447 m 31 Y s 1358 447 m 1 X s 1359 447 m 2 X s black 1359 447 m20 0 0 1 c 1362
 400 m 28 Y s 1362 428 m 29 Y s 1361 428 m 1 X s 1362 428 m 2 X s black 1362 428 m20 0 0 1 c 1365 396 m 27 Y s 1365 423 m 27 Y s 1364 423 m 1 X s 1365 423 m 2 X s black 1365 423 m20 0 0 1 c 1368 360 m 24 Y s 1368 384 m 24 Y s 1367 384 m 1 X s 1368
 384 m 2 X s black 1368 384 m20 0 0 1 c 1371 377 m 26 Y s 1371 403 m 25 Y s 1370 403 m 1 X s 1371 403 m 2 X s black 1371 403 m20 0 0 1 c 1374 347 m 21 Y s 1374 368 m 21 Y s 1373 368 m 1 X s 1374 368 m 2 X s black 1374 368 m20 0 0 1 c 1377 362 m 25 Y
 s 1377 387 m 24 Y s 1376 387 m 1 X s 1377 387 m 2 X s black 1377 387 m20 0 0 1 c 1380 399 m 28 Y s 1380 427 m 28 Y s 1379 427 m 1 X s 1380 427 m 2 X s black 1380 427 m20 0 0 1 c 1383 377 m 26 Y s 1383 403 m 26 Y s 1382 403 m 1 X s 1383 403 m 2 X s
 black 1383 403 m20 0 0 1 c 1386 376 m 26 Y s 1386 402 m 26 Y s 1385 402 m 1 X s 1386 402 m 2 X s black 1386 402 m20 0 0 1 c 1389 378 m 27 Y s 1389 405 m 26 Y s 1388 405 m 1 X s 1389 405 m 2 X s black 1389 405 m20 0 0 1 c 1392 418 m 32 Y s 1392 450 m
 31 Y s 1391 450 m 1 X s 1392 450 m 2 X s black 1392 450 m20 0 0 1 c 1395 406 m 30 Y s 1395 436 m 30 Y s 1394 436 m 1 X s 1395 436 m 2 X s black 1395 436 m20 0 0 1 c 1398 358 m 25 Y s 1398 383 m 24 Y s 1397 383 m 1 X s 1398 383 m 2 X s black 1398 383
 m20 0 0 1 c 1401 378 m 27 Y s 1401 405 m 26 Y s 1400 405 m 1 X s 1401 405 m 2 X s black 1401 405 m20 0 0 1 c 1404 441 m 34 Y s 1404 475 m 35 Y s 1403 475 m 1 X s 1404 475 m 2 X s black 1404 475 m20 0 0 1 c 1407 449 m 36 Y s 1407 485 m 36 Y s 1406
 485 m 1 X s 1407 485 m 2 X s black 1407 485 m20 0 0 1 c 1411 490 m 40 Y s 1411 530 m 39 Y s 1409 530 m 2 X s 1411 530 m 1 X s black 1411 530 m20 0 0 1 c 1414 514 m 42 Y s 1414 556 m 42 Y s 1412 556 m 2 X s 1414 556 m 1 X s black 1414 556 m20 0 0 1 c
 1417 509 m 42 Y s 1417 551 m 42 Y s 1415 551 m 2 X s 1417 551 m 1 X s black 1417 551 m20 0 0 1 c 1420 461 m 38 Y s 1420 499 m 39 Y s 1418 499 m 2 X s 1420 499 m 1 X s black 1420 499 m20 0 0 1 c 1423 564 m 47 Y s 1423 611 m 48 Y s 1421 611 m 2 X s
 1423 611 m 1 X s black 1423 611 m20 0 0 1 c 1426 615 m 51 Y s 1426 666 m 51 Y s 1424 666 m 2 X s 1426 666 m 1 X s black 1426 666 m20 0 0 1 c 1429 507 m 44 Y s 1429 551 m 44 Y s 1427 551 m 2 X s 1429 551 m 1 X s black 1429 551 m20 0 0 1 c 1432 550 m
 47 Y s 1432 597 m 48 Y s 1430 597 m 2 X s 1432 597 m 1 X s black 1432 597 m20 0 0 1 c 1435 651 m 56 Y s 1435 707 m 55 Y s 1433 707 m 2 X s 1435 707 m 1 X s black 1435 707 m20 0 0 1 c 1438 661 m 56 Y s 1438 717 m 57 Y s 1436 717 m 2 X s 1438 717 m 1
 X s black 1438 717 m20 0 0 1 c 1441 647 m 57 Y s 1441 704 m 56 Y s 1439 704 m 2 X s 1441 704 m 1 X s black 1441 704 m20 0 0 1 c 1444 701 m 60 Y s 1444 761 m 59 Y s 1442 761 m 2 X s 1444 761 m 1 X s black 1444 761 m20 0 0 1 c 1447 627 m 56 Y s 1447
 683 m 56 Y s 1445 683 m 2 X s 1447 683 m 1 X s black 1447 683 m20 0 0 1 c 1450 763 m 64 Y s 1450 827 m 64 Y s 1448 827 m 2 X s 1450 827 m 1 X s black 1450 827 m20 0 0 1 c 1453 797 m 65 Y s 1453 862 m 66 Y s 1451 862 m 2 X s 1453 862 m 1 X s black
 1453 862 m20 0 0 1 c 1456 740 m 63 Y s 1456 803 m 64 Y s 1454 803 m 2 X s 1456 803 m 1 X s black 1456 803 m20 0 0 1 c 1459 771 m 65 Y s 1459 836 m 65 Y s 1457 836 m 2 X s 1459 836 m 1 X s black 1459 836 m20 0 0 1 c 1462 726 m 63 Y s 1462 789 m 63 Y
 s 1460 789 m 2 X s 1462 789 m 1 X s black 1462 789 m20 0 0 1 c 1465 695 m 61 Y s 1465 756 m 61 Y s 1463 756 m 2 X s 1465 756 m 1 X s black 1465 756 m20 0 0 1 c 1468 744 m 62 Y s 1468 806 m 63 Y s 1466 806 m 2 X s 1468 806 m 1 X s black 1468 806 m20
 0 0 1 c 1471 723 m 62 Y s 1471 785 m 63 Y s 1469 785 m 2 X s 1471 785 m 2 X s black 1471 785 m20 0 0 1 c 1474 677 m 59 Y s 1474 736 m 59 Y s 1473 736 m 1 X s 1474 736 m 2 X s black 1474 736 m20 0 0 1 c 1477 637 m 56 Y s 1477 693 m 56 Y s 1476 693 m
 1 X s 1477 693 m 2 X s black 1477 693 m20 0 0 1 c 1480 718 m 62 Y s 1480 780 m 61 Y s 1479 780 m 1 X s 1480 780 m 2 X s black 1480 780 m20 0 0 1 c 1483 560 m 50 Y s 1483 610 m 51 Y s 1482 610 m 1 X s 1483 610 m 2 X s black 1483 610 m20 0 0 1 c 1486
 579 m 50 Y s 1486 629 m 50 Y s 1485 629 m 1 X s 1486 629 m 2 X s black 1486 629 m20 0 0 1 c 1489 542 m 49 Y s 1489 591 m 48 Y s 1488 591 m 1 X s 1489 591 m 2 X s black 1489 591 m20 0 0 1 c 1492 556 m 48 Y s 1492 604 m 47 Y s 1491 604 m 1 X s 1492
 604 m 2 X s black 1492 604 m20 0 0 1 c 1495 450 m 39 Y s 1495 489 m 39 Y s 1494 489 m 1 X s 1495 489 m 2 X s black 1495 489 m20 0 0 1 c 1498 465 m 38 Y s 1498 503 m 38 Y s 1497 503 m 1 X s 1498 503 m 2 X s black 1498 503 m20 0 0 1 c 1501 496 m 41 Y
 s 1501 537 m 40 Y s 1500 537 m 1 X s 1501 537 m 2 X s black 1501 537 m20 0 0 1 c 1504 385 m 29 Y s 1504 414 m 30 Y s 1503 414 m 1 X s 1504 414 m 2 X s black 1504 414 m20 0 0 1 c 1507 452 m 36 Y s 1507 488 m 36 Y s 1506 488 m 1 X s 1507 488 m 2 X s
 black 1507 488 m20 0 0 1 c 1510 379 m 26 Y s 1510 405 m 26 Y s 1509 405 m 1 X s 1510 405 m 2 X s black 1510 405 m20 0 0 1 c 1513 366 m 24 Y s 1513 390 m 23 Y s 1512 390 m 1 X s 1513 390 m 2 X s black 1513 390 m20 0 0 1 c 1516 381 m 26 Y s 1516 407 m
 26 Y s 1515 407 m 1 X s 1516 407 m 2 X s black 1516 407 m20 0 0 1 c 1519 393 m 24 Y s 1519 417 m 25 Y s 1518 417 m 1 X s 1519 417 m 2 X s black 1519 417 m20 0 0 1 c 1522 383 m 22 Y s 1522 405 m 23 Y s 1521 405 m 1 X s 1522 405 m 2 X s black 1522 405
 m20 0 0 1 c 1525 342 m 16 Y s 1525 358 m 15 Y s 1524 358 m 1 X s 1525 358 m 2 X s black 1525 358 m20 0 0 1 c 1528 378 m 21 Y s 1528 399 m 21 Y s 1527 399 m 1 X s 1528 399 m 2 X s black 1528 399 m20 0 0 1 c 1531 359 m 17 Y s 1531 376 m 18 Y s 1530
 376 m 1 X s 1531 376 m 2 X s black 1531 376 m20 0 0 1 c 1534 346 m 16 Y s 1534 362 m 16 Y s 1533 362 m 1 X s 1534 362 m 2 X s black 1534 362 m20 0 0 1 c 1538 358 m 18 Y s 1538 376 m 18 Y s 1536 376 m 2 X s 1538 376 m 1 X s black 1538 376 m20 0 0 1 c
 1541 351 m 15 Y s 1541 366 m 16 Y s 1539 366 m 2 X s 1541 366 m 1 X s black 1541 366 m20 0 0 1 c 1544 333 m 9 Y s 1544 342 m 10 Y s 1542 342 m 2 X s 1544 342 m 1 X s black 1544 342 m20 0 0 1 c 1547 365 m 19 Y s 1547 384 m 19 Y s 1545 384 m 2 X s
 1547 384 m 1 X s black 1547 384 m20 0 0 1 c 1550 361 m 17 Y s 1550 378 m 16 Y s 1548 378 m 2 X s 1550 378 m 1 X s black 1550 378 m20 0 0 1 c 1553 355 m 14 Y s 1553 369 m 14 Y s 1551 369 m 2 X s 1553 369 m 1 X s black 1553 369 m20 0 0 1 c 1556 345 m
 13 Y s 1556 358 m 13 Y s 1554 358 m 2 X s 1556 358 m 1 X s black 1556 358 m20 0 0 1 c 1559 366 m 17 Y s 1559 383 m 17 Y s 1557 383 m 2 X s 1559 383 m 1 X s black 1559 383 m20 0 0 1 c 1562 375 m 20 Y s 1562 395 m 19 Y s 1560 395 m 2 X s 1562 395 m 1
 X s black 1562 395 m20 0 0 1 c 1565 352 m 16 Y s 1565 368 m 15 Y s 1563 368 m 2 X s 1565 368 m 1 X s black 1565 368 m20 0 0 1 c 1568 376 m 20 Y s 1568 396 m 19 Y s 1566 396 m 2 X s 1568 396 m 1 X s black 1568 396 m20 0 0 1 c 1571 346 m 14 Y s 1571
 360 m 15 Y s 1569 360 m 2 X s 1571 360 m 1 X s black 1571 360 m20 0 0 1 c 1574 364 m 18 Y s 1574 382 m 18 Y s 1572 382 m 2 X s 1574 382 m 1 X s black 1574 382 m20 0 0 1 c 1577 362 m 18 Y s 1577 380 m 18 Y s 1575 380 m 2 X s 1577 380 m 1 X s black
 1577 380 m20 0 0 1 c 1580 355 m 16 Y s 1580 371 m 15 Y s 1578 371 m 2 X s 1580 371 m 1 X s black 1580 371 m20 0 0 1 c 1583 354 m 15 Y s 1583 369 m 16 Y s 1581 369 m 2 X s 1583 369 m 1 X s black 1583 369 m20 0 0 1 c 1586 378 m 20 Y s 1586 398 m 20 Y
 s 1584 398 m 2 X s 1586 398 m 1 X s black 1586 398 m20 0 0 1 c 1589 346 m 11 Y s 1589 357 m 11 Y s 1587 357 m 2 X s 1589 357 m 1 X s black 1589 357 m20 0 0 1 c 1592 382 m 21 Y s 1592 403 m 21 Y s 1590 403 m 2 X s 1592 403 m 1 X s black 1592 403 m20
 0 0 1 c 1595 396 m 22 Y s 1595 418 m 21 Y s 1593 418 m 2 X s 1595 418 m 1 X s black 1595 418 m20 0 0 1 c 1598 368 m 18 Y s 1598 386 m 18 Y s 1596 386 m 2 X s 1598 386 m 1 X s black 1598 386 m20 0 0 1 c 1601 371 m 18 Y s 1601 389 m 18 Y s 1599 389 m
 2 X s 1601 389 m 2 X s black 1601 389 m20 0 0 1 c 1604 375 m 18 Y s 1604 393 m 19 Y s 1603 393 m 1 X s 1604 393 m 2 X s black 1604 393 m20 0 0 1 c 1607 354 m 15 Y s 1607 369 m 14 Y s 1606 369 m 1 X s 1607 369 m 2 X s black 1607 369 m20 0 0 1 c 1610
 360 m 15 Y s 1610 375 m 16 Y s 1609 375 m 1 X s 1610 375 m 2 X s black 1610 375 m20 0 0 1 c 1613 360 m 15 Y s 1613 375 m 16 Y s 1612 375 m 1 X s 1613 375 m 2 X s black 1613 375 m20 0 0 1 c 1616 349 m 11 Y s 1616 360 m 11 Y s 1615 360 m 1 X s 1616
 360 m 2 X s black 1616 360 m20 0 0 1 c 1619 371 m 18 Y s 1619 389 m 17 Y s 1618 389 m 1 X s 1619 389 m 2 X s black 1619 389 m20 0 0 1 c 1622 361 m 16 Y s 1622 377 m 15 Y s 1621 377 m 1 X s 1622 377 m 2 X s black 1622 377 m20 0 0 1 c 1625 353 m 13 Y
 s 1625 366 m 13 Y s 1624 366 m 1 X s 1625 366 m 2 X s black 1625 366 m20 0 0 1 c 1628 379 m 19 Y s 1628 398 m 19 Y s 1627 398 m 1 X s 1628 398 m 2 X s black 1628 398 m20 0 0 1 c 1631 361 m 15 Y s 1631 376 m 16 Y s 1630 376 m 1 X s 1631 376 m 2 X s
 black 1631 376 m20 0 0 1 c 1634 373 m 18 Y s 1634 391 m 18 Y s 1633 391 m 1 X s 1634 391 m 2 X s black 1634 391 m20 0 0 1 c 1637 370 m 16 Y s 1637 386 m 17 Y s 1636 386 m 1 X s 1637 386 m 2 X s black 1637 386 m20 0 0 1 c 1640 375 m 18 Y s 1640 393 m
 17 Y s 1639 393 m 1 X s 1640 393 m 2 X s black 1640 393 m20 0 0 1 c 1643 388 m 18 Y s 1643 406 m 19 Y s 1642 406 m 1 X s 1643 406 m 2 X s black 1643 406 m20 0 0 1 c 1646 361 m 15 Y s 1646 376 m 16 Y s 1645 376 m 1 X s 1646 376 m 2 X s black 1646 376
 m20 0 0 1 c 1649 364 m 16 Y s 1649 380 m 17 Y s 1648 380 m 1 X s 1649 380 m 2 X s black 1649 380 m20 0 0 1 c 1652 349 m 11 Y s 1652 360 m 11 Y s 1651 360 m 1 X s 1652 360 m 2 X s black 1652 360 m20 0 0 1 c 1655 378 m 19 Y s 1655 397 m 19 Y s 1654
 397 m 1 X s 1655 397 m 2 X s black 1655 397 m20 0 0 1 c 1658 351 m 13 Y s 1658 364 m 13 Y s 1657 364 m 1 X s 1658 364 m 2 X s black 1658 364 m20 0 0 1 c 1661 366 m 16 Y s 1661 382 m 15 Y s 1660 382 m 1 X s 1661 382 m 2 X s black 1661 382 m20 0 0 1 c
 1665 355 m 14 Y s 1665 369 m 15 Y s 1663 369 m 2 X s 1665 369 m 1 X s black 1665 369 m20 0 0 1 c 1668 357 m 15 Y s 1668 372 m 14 Y s 1666 372 m 2 X s 1668 372 m 1 X s black 1668 372 m20 0 0 1 c 1671 375 m 19 Y s 1671 394 m 19 Y s 1669 394 m 2 X s
 1671 394 m 1 X s black 1671 394 m20 0 0 1 c 1674 359 m 15 Y s 1674 374 m 16 Y s 1672 374 m 2 X s 1674 374 m 1 X s black 1674 374 m20 0 0 1 c 1677 371 m 18 Y s 1677 389 m 18 Y s 1675 389 m 2 X s 1677 389 m 1 X s black 1677 389 m20 0 0 1 c 1680 378 m
 19 Y s 1680 397 m 19 Y s 1678 397 m 2 X s 1680 397 m 1 X s black 1680 397 m20 0 0 1 c 1683 368 m 17 Y s 1683 385 m 17 Y s 1681 385 m 2 X s 1683 385 m 1 X s black 1683 385 m20 0 0 1 c 1686 358 m 14 Y s 1686 372 m 14 Y s 1684 372 m 2 X s 1686 372 m 1
 X s black 1686 372 m20 0 0 1 c 1689 377 m 19 Y s 1689 396 m 19 Y s 1687 396 m 2 X s 1689 396 m 1 X s black 1689 396 m20 0 0 1 c 1692 363 m 18 Y s 1692 381 m 18 Y s 1690 381 m 2 X s 1692 381 m 1 X s black 1692 381 m20 0 0 1 c 1695 381 m 21 Y s 1695
 402 m 20 Y s 1693 402 m 2 X s 1695 402 m 1 X s black 1695 402 m20 0 0 1 c 1698 374 m 20 Y s 1698 394 m 20 Y s 1696 394 m 2 X s 1698 394 m 1 X s black 1698 394 m20 0 0 1 c 1701 372 m 19 Y s 1701 391 m 20 Y s 1699 391 m 2 X s 1701 391 m 1 X s black
 1701 391 m20 0 0 1 c 1704 348 m 16 Y s 1704 364 m 15 Y s 1702 364 m 2 X s 1704 364 m 1 X s black 1704 364 m20 0 0 1 c 1707 337 m 12 Y s 1707 349 m 11 Y s 1705 349 m 2 X s 1707 349 m 1 X s black 1707 349 m20 0 0 1 c 1710 358 m 19 Y s 1710 377 m 19 Y
 s 1708 377 m 2 X s 1710 377 m 1 X s black 1710 377 m20 0 0 1 c 1713 391 m 23 Y s 1713 414 m 24 Y s 1711 414 m 2 X s 1713 414 m 1 X s black 1713 414 m20 0 0 1 c 1716 375 m 20 Y s 1716 395 m 20 Y s 1714 395 m 2 X s 1716 395 m 1 X s black 1716 395 m20
 0 0 1 c 1719 373 m 20 Y s 1719 393 m 20 Y s 1717 393 m 2 X s 1719 393 m 1 X s black 1719 393 m20 0 0 1 c 1722 386 m 21 Y s 1722 407 m 20 Y s 1720 407 m 2 X s 1722 407 m 1 X s black 1722 407 m20 0 0 1 c 1725 349 m 15 Y s 1725 364 m 14 Y s 1723 364 m
 2 X s 1725 364 m 1 X s black 1725 364 m20 0 0 1 c 1728 378 m 19 Y s 1728 397 m 18 Y s 1726 397 m 2 X s 1728 397 m 2 X s black 1728 397 m20 0 0 1 c 1731 347 m 12 Y s 1731 359 m 11 Y s 1730 359 m 1 X s 1731 359 m 2 X s black 1731 359 m20 0 0 1 c 1734
 362 m 17 Y s 1734 379 m 17 Y s 1733 379 m 1 X s 1734 379 m 2 X s black 1734 379 m20 0 0 1 c 1737 359 m 16 Y s 1737 375 m 15 Y s 1736 375 m 1 X s 1737 375 m 2 X s black 1737 375 m20 0 0 1 c 1740 353 m 14 Y s 1740 367 m 14 Y s 1739 367 m 1 X s 1740
 367 m 2 X s black 1740 367 m20 0 0 1 c 1743 375 m 18 Y s 1743 393 m 18 Y s 1742 393 m 1 X s 1743 393 m 2 X s black 1743 393 m20 0 0 1 c 1746 370 m 18 Y s 1746 388 m 18 Y s 1745 388 m 1 X s 1746 388 m 2 X s black 1746 388 m20 0 0 1 c 1749 350 m 13 Y
 s 1749 363 m 13 Y s 1748 363 m 1 X s 1749 363 m 2 X s black 1749 363 m20 0 0 1 c 1752 375 m 17 Y s 1752 392 m 18 Y s 1751 392 m 1 X s 1752 392 m 2 X s black 1752 392 m20 0 0 1 c 1755 348 m 9 Y s 1755 357 m 9 Y s 1754 357 m 1 X s 1755 357 m 2 X s
 black 1755 357 m20 0 0 1 c 1758 365 m 15 Y s 1758 380 m 16 Y s 1757 380 m 1 X s 1758 380 m 2 X s black 1758 380 m20 0 0 1 c 1761 370 m 17 Y s 1761 387 m 17 Y s 1760 387 m 1 X s 1761 387 m 2 X s black 1761 387 m20 0 0 1 c 1764 362 m 15 Y s 1764 377 m
 14 Y s 1763 377 m 1 X s 1764 377 m 2 X s black 1764 377 m20 0 0 1 c 1767 360 m 13 Y s 1767 373 m 12 Y s 1766 373 m 1 X s 1767 373 m 2 X s black 1767 373 m20 0 0 1 c 1770 370 m 15 Y s 1770 385 m 16 Y s 1769 385 m 1 X s 1770 385 m 2 X s black 1770 385
 m20 0 0 1 c 1773 366 m 14 Y s 1773 380 m 14 Y s 1772 380 m 1 X s 1773 380 m 2 X s black 1773 380 m20 0 0 1 c 1776 352 m 7 Y s 1776 359 m 6 Y s 1775 359 m 1 X s 1776 359 m 2 X s black 1776 359 m20 0 0 1 c 1779 374 m 15 Y s 1779 389 m 16 Y s 1778 389
 m 1 X s 1779 389 m 2 X s black 1779 389 m20 0 0 1 c 1782 359 m 12 Y s 1782 371 m 13 Y s 1781 371 m 1 X s 1782 371 m 2 X s black 1782 371 m20 0 0 1 c 1785 374 m 17 Y s 1785 391 m 17 Y s 1784 391 m 1 X s 1785 391 m 2 X s black 1785 391 m20 0 0 1 c
 1788 396 m 19 Y s 1788 415 m 20 Y s 1787 415 m 1 X s 1788 415 m 2 X s black 1788 415 m20 0 0 1 c 1791 403 m 22 Y s 1791 425 m 21 Y s 1790 425 m 1 X s 1791 425 m 2 X s black 1791 425 m20 0 0 1 c 1795 370 m 17 Y s 1795 387 m 17 Y s 1793 387 m 2 X s
 1795 387 m 1 X s black 1795 387 m20 0 0 1 c 1798 355 m 11 Y s 1798 366 m 11 Y s 1796 366 m 2 X s 1798 366 m 1 X s black 1798 366 m20 0 0 1 c 1801 362 m 14 Y s 1801 376 m 14 Y s 1799 376 m 2 X s 1801 376 m 1 X s black 1801 376 m20 0 0 1 c 1804 360 m
 12 Y s 1804 372 m 11 Y s 1802 372 m 2 X s 1804 372 m 1 X s black 1804 372 m20 0 0 1 c 1807 364 m 13 Y s 1807 377 m 13 Y s 1805 377 m 2 X s 1807 377 m 1 X s black 1807 377 m20 0 0 1 c 1810 360 m 11 Y s 1810 371 m 11 Y s 1808 371 m 2 X s 1810 371 m 1
 X s black 1810 371 m20 0 0 1 c 1813 358 m 11 Y s 1813 369 m 11 Y s 1811 369 m 2 X s 1813 369 m 1 X s black 1813 369 m20 0 0 1 c 1816 362 m 13 Y s 1816 375 m 13 Y s 1814 375 m 2 X s 1816 375 m 1 X s black 1816 375 m20 0 0 1 c 1819 369 m 14 Y s 1819
 383 m 15 Y s 1817 383 m 2 X s 1819 383 m 1 X s black 1819 383 m20 0 0 1 c 1822 356 m 9 Y s 1822 365 m 9 Y s 1820 365 m 2 X s 1822 365 m 1 X s black 1822 365 m20 0 0 1 c 1825 357 m 9 Y s 1825 366 m 9 Y s 1823 366 m 2 X s 1825 366 m 1 X s black 1825
 366 m20 0 0 1 c 1828 362 m 9 Y s 1828 371 m 9 Y s 1826 371 m 2 X s 1828 371 m 1 X s black 1828 371 m20 0 0 1 c 1831 368 m 14 Y s 1831 382 m 15 Y s 1829 382 m 2 X s 1831 382 m 1 X s black 1831 382 m20 0 0 1 c 1834 378 m 17 Y s 1834 395 m 16 Y s 1832
 395 m 2 X s 1834 395 m 1 X s black 1834 395 m20 0 0 1 c 1837 367 m 13 Y s 1837 380 m 13 Y s 1835 380 m 2 X s 1837 380 m 1 X s black 1837 380 m20 0 0 1 c 1840 355 m 2 Y s 1840 357 m 3 Y s 1838 357 m 2 X s 1840 357 m 1 X s black 1840 357 m20 0 0 1 c
 1843 369 m 15 Y s 1843 384 m 15 Y s 1841 384 m 2 X s 1843 384 m 1 X s black 1843 384 m20 0 0 1 c 1846 372 m 14 Y s 1846 386 m 14 Y s 1844 386 m 2 X s 1846 386 m 1 X s black 1846 386 m20 0 0 1 c 1849 370 m 14 Y s 1849 384 m 14 Y s 1847 384 m 2 X s
 1849 384 m 1 X s black 1849 384 m20 0 0 1 c 1852 370 m 12 Y s 1852 382 m 13 Y s 1850 382 m 2 X s 1852 382 m 1 X s black 1852 382 m20 0 0 1 c 1855 366 m 14 Y s 1855 380 m 14 Y s 1853 380 m 2 X s 1855 380 m 2 X s black 1855 380 m20 0 0 1 c 1858 378 m
 15 Y s 1858 393 m 15 Y s 1857 393 m 1 X s 1858 393 m 2 X s black 1858 393 m20 0 0 1 c 1861 359 m 9 Y s 1861 368 m 9 Y s 1860 368 m 1 X s 1861 368 m 2 X s black 1861 368 m20 0 0 1 c 1864 375 m 16 Y s 1864 391 m 15 Y s 1863 391 m 1 X s 1864 391 m 2 X
 s black 1864 391 m20 0 0 1 c 1867 374 m 14 Y s 1867 388 m 14 Y s 1866 388 m 1 X s 1867 388 m 2 X s black 1867 388 m20 0 0 1 c 1870 357 m 6 Y s 1870 363 m 7 Y s 1869 363 m 1 X s 1870 363 m 2 X s black 1870 363 m20 0 0 1 c 1873 356 m 9 Y s 1873 365 m
 9 Y s 1872 365 m 1 X s 1873 365 m 2 X s black 1873 365 m20 0 0 1 c 1876 360 m 9 Y s 1876 369 m 10 Y s 1875 369 m 1 X s 1876 369 m 2 X s black 1876 369 m20 0 0 1 c 1879 355 m 9 Y s 1879 364 m 9 Y s 1878 364 m 1 X s 1879 364 m 2 X s black 1879 364 m20
 0 0 1 c 1882 360 m 9 Y s 1882 369 m 9 Y s 1881 369 m 1 X s 1882 369 m 2 X s black 1882 369 m20 0 0 1 c 1885 356 m 7 Y s 1885 363 m 7 Y s 1884 363 m 1 X s 1885 363 m 2 X s black 1885 363 m20 0 0 1 c 1888 382 m 16 Y s 1888 398 m 17 Y s 1887 398 m 1 X
 s 1888 398 m 2 X s black 1888 398 m20 0 0 1 c 1891 369 m 14 Y s 1891 383 m 14 Y s 1890 383 m 1 X s 1891 383 m 2 X s black 1891 383 m20 0 0 1 c 1894 364 m 11 Y s 1894 375 m 11 Y s 1893 375 m 1 X s 1894 375 m 2 X s black 1894 375 m20 0 0 1 c 1897 361
 m 9 Y s 1897 370 m 9 Y s 1896 370 m 1 X s 1897 370 m 2 X s black 1897 370 m20 0 0 1 c 1900 380 m 15 Y s 1900 395 m 16 Y s 1899 395 m 1 X s 1900 395 m 2 X s black 1900 395 m20 0 0 1 c 1903 380 m 16 Y s 1903 396 m 15 Y s 1902 396 m 1 X s 1903 396 m 2
 X s black 1903 396 m20 0 0 1 c 1906 358 m 10 Y s 1906 368 m 9 Y s 1905 368 m 1 X s 1906 368 m 2 X s black 1906 368 m20 0 0 1 c 1909 380 m 17 Y s 1909 397 m 16 Y s 1908 397 m 1 X s 1909 397 m 2 X s black 1909 397 m20 0 0 1 c 1912 381 m 15 Y s 1912
 396 m 15 Y s 1911 396 m 1 X s 1912 396 m 2 X s black 1912 396 m20 0 0 1 c 1915 369 m 13 Y s 1915 382 m 12 Y s 1914 382 m 1 X s 1915 382 m 2 X s black 1915 382 m20 0 0 1 c 1918 373 m 14 Y s 1918 387 m 14 Y s 1917 387 m 1 X s 1918 387 m 2 X s black
 1918 387 m20 0 0 1 c 1922 368 m 12 Y s 1922 380 m 13 Y s 1920 380 m 2 X s 1922 380 m 1 X s black 1922 380 m20 0 0 1 c 1925 358 m 9 Y s 1925 367 m 9 Y s 1923 367 m 2 X s 1925 367 m 1 X s black 1925 367 m20 0 0 1 c 1928 366 m 13 Y s 1928 379 m 12 Y s
 1926 379 m 2 X s 1928 379 m 1 X s black 1928 379 m20 0 0 1 c 1931 382 m 17 Y s 1931 399 m 17 Y s 1929 399 m 2 X s 1931 399 m 1 X s black 1931 399 m20 0 0 1 c 1934 354 m 9 Y s 1934 363 m 9 Y s 1932 363 m 2 X s 1934 363 m 1 X s black 1934 363 m20 0 0
 1 c 1937 360 m 12 Y s 1937 372 m 13 Y s 1935 372 m 2 X s 1937 372 m 1 X s black 1937 372 m20 0 0 1 c 1940 394 m 18 Y s 1940 412 m 19 Y s 1938 412 m 2 X s 1940 412 m 1 X s black 1940 412 m20 0 0 1 c 1943 366 m 14 Y s 1943 380 m 14 Y s 1941 380 m 2 X
 s 1943 380 m 1 X s black 1943 380 m20 0 0 1 c 1946 379 m 16 Y s 1946 395 m 17 Y s 1944 395 m 2 X s 1946 395 m 1 X s black 1946 395 m20 0 0 1 c 1949 375 m 16 Y s 1949 391 m 15 Y s 1947 391 m 2 X s 1949 391 m 1 X s black 1949 391 m20 0 0 1 c 1952 361
 m 12 Y s 1952 373 m 13 Y s 1950 373 m 2 X s 1952 373 m 1 X s black 1952 373 m20 0 0 1 c 1955 381 m 15 Y s 1955 396 m 15 Y s 1953 396 m 2 X s 1955 396 m 1 X s black 1955 396 m20 0 0 1 c 1958 374 m 16 Y s 1958 390 m 15 Y s 1956 390 m 2 X s 1958 390 m
 1 X s black 1958 390 m20 0 0 1 c 1961 375 m 17 Y s 1961 392 m 16 Y s 1959 392 m 2 X s 1961 392 m 1 X s black 1961 392 m20 0 0 1 c 1964 364 m 14 Y s 1964 378 m 14 Y s 1962 378 m 2 X s 1964 378 m 1 X s black 1964 378 m20 0 0 1 c 1967 389 m 21 Y s 1967
 410 m 21 Y s 1965 410 m 2 X s 1967 410 m 1 X s black 1967 410 m20 0 0 1 c 1970 372 m 15 Y s 1970 387 m 16 Y s 1968 387 m 2 X s 1970 387 m 1 X s black 1970 387 m20 0 0 1 c 1973 357 m 13 Y s 1973 370 m 13 Y s 1971 370 m 2 X s 1973 370 m 1 X s black
 1973 370 m20 0 0 1 c 1976 376 m 18 Y s 1976 394 m 18 Y s 1974 394 m 2 X s 1976 394 m 1 X s black 1976 394 m20 0 0 1 c 1979 371 m 15 Y s 1979 386 m 16 Y s 1977 386 m 2 X s 1979 386 m 1 X s black 1979 386 m20 0 0 1 c 1982 362 m 14 Y s 1982 376 m 14 Y
 s 1980 376 m 2 X s 1982 376 m 1 X s black 1982 376 m20 0 0 1 c 1985 377 m 18 Y s 1985 395 m 18 Y s 1983 395 m 2 X s 1985 395 m 2 X s black 1985 395 m20 0 0 1 c 1988 353 m 11 Y s 1988 364 m 11 Y s 1987 364 m 1 X s 1988 364 m 2 X s black 1988 364 m20
 0 0 1 c 1991 350 m 11 Y s 1991 361 m 11 Y s 1990 361 m 1 X s 1991 361 m 2 X s black 1991 361 m20 0 0 1 c 1994 362 m 13 Y s 1994 375 m 13 Y s 1993 375 m 1 X s 1994 375 m 2 X s black 1994 375 m20 0 0 1 c 1997 387 m 19 Y s 1997 406 m 19 Y s 1996 406 m
 1 X s 1997 406 m 2 X s black 1997 406 m20 0 0 1 c 2000 359 m 13 Y s 2000 372 m 13 Y s 1999 372 m 1 X s 2000 372 m 2 X s black 2000 372 m20 0 0 1 c 2003 369 m 15 Y s 2003 384 m 16 Y s 2002 384 m 1 X s 2003 384 m 2 X s black 2003 384 m20 0 0 1 c 2006
 376 m 17 Y s 2006 393 m 17 Y s 2005 393 m 1 X s 2006 393 m 2 X s black 2006 393 m20 0 0 1 c 2009 344 m 6 Y s 2009 350 m 7 Y s 2008 350 m 1 X s 2009 350 m 2 X s black 2009 350 m20 0 0 1 c 2012 370 m 14 Y s 2012 384 m 14 Y s 2011 384 m 1 X s 2012 384
 m 2 X s black 2012 384 m20 0 0 1 c 2015 373 m 15 Y s 2015 388 m 16 Y s 2014 388 m 1 X s 2015 388 m 2 X s black 2015 388 m20 0 0 1 c 2018 351 m 9 Y s 2018 360 m 9 Y s 2017 360 m 1 X s 2018 360 m 2 X s black 2018 360 m20 0 0 1 c 2021 362 m 13 Y s 2021
 375 m 13 Y s 2020 375 m 1 X s 2021 375 m 2 X s black 2021 375 m20 0 0 1 c 2024 364 m 14 Y s 2024 378 m 14 Y s 2023 378 m 1 X s 2024 378 m 2 X s black 2024 378 m20 0 0 1 c 2027 354 m 9 Y s 2027 363 m 9 Y s 2026 363 m 1 X s 2027 363 m 2 X s black 2027
 363 m20 0 0 1 c 2030 373 m 15 Y s 2030 388 m 16 Y s 2029 388 m 1 X s 2030 388 m 2 X s black 2030 388 m20 0 0 1 c 2033 381 m 17 Y s 2033 398 m 17 Y s 2032 398 m 1 X s 2033 398 m 2 X s black 2033 398 m20 0 0 1 c 2036 366 m 13 Y s 2036 379 m 12 Y s
 2035 379 m 1 X s 2036 379 m 2 X s black 2036 379 m20 0 0 1 c 2039 362 m 13 Y s 2039 375 m 12 Y s 2038 375 m 1 X s 2039 375 m 2 X s black 2039 375 m20 1 1 1 c 453 429 1769 1002 bf black 1769 1002 m 453 X s 2222 1002 m 429 Y s 2222 1431 m -453 X s
 1769 1431 m -429 Y s 1 1 1 c black
 gsave  2268 1530 0 0 C 1790.13 1358.03 t 0 r /Helvetica findfont 68.2264 sf 0 0 m (net_spectrum) show NC gr  1769 1324 m 453 X s
 gsave  2268 1530 0 0 C 1790.13 1250.82 t 0 r /Helvetica findfont 51.982 sf 0 0 m (Entries ) show NC gr 
 gsave  2268 1530 0 0 C 2069.53 1250.82 t 0 r /Helvetica findfont 51.982 sf 0 0 m ( 2066) show NC gr 
 gsave  2268 1530 0 0 C 1790.13 1143.6 t 0 r /Helvetica findfont 51.982 sf 0 0 m (Mean  ) show NC gr 
 gsave  2268 1530 0 0 C 2040.3 1143.6 t 0 r /Helvetica findfont 51.982 sf 0 0 m (   5159) show NC gr 
 gsave  2268 1530 0 0 C 1790.13 1033.14 t 0 r /Helvetica findfont 51.982 sf 0 0 m (Std Dev   ) show NC gr 
 gsave  2268 1530 0 0 C 2040.3 1036.39 t 0 r /Helvetica findfont 51.982 sf 0 0 m (   3463) show NC gr  227 153 m 1814 X s 227 190 m -37 Y s 287 171 m -18 Y s 348 171 m -18 Y s 408 171 m -18 Y s 469 190 m -37 Y s 529 171 m -18 Y s 590 171 m -18 Y s
 650 171 m -18 Y s 711 190 m -37 Y s 771 171 m -18 Y s 831 171 m -18 Y s 892 171 m -18 Y s 952 190 m -37 Y s 1013 171 m -18 Y s 1073 171 m -18 Y s 1134 171 m -18 Y s 1194 190 m -37 Y s 1255 171 m -18 Y s 1315 171 m -18 Y s 1376 171 m -18 Y s 1436 190
 m -37 Y s 1497 171 m -18 Y s 1557 171 m -18 Y s 1618 171 m -18 Y s 1678 190 m -37 Y s 1739 171 m -18 Y s 1799 171 m -18 Y s 1860 171 m -18 Y s 1920 190 m -37 Y s 1920 190 m -37 Y s 1980 171 m -18 Y s 2041 171 m -18 Y s
 gsave  2268 1530 0 0 C 211.177 103.964 t 0 r /Helvetica findfont 48.7332 sf 0 0 m (0) show NC gr 
 gsave  2268 1530 0 0 C 412.607 103.964 t 0 r /Helvetica findfont 48.7332 sf 0 0 m (2000) show NC gr 
 gsave  2268 1530 0 0 C 653.024 103.964 t 0 r /Helvetica findfont 48.7332 sf 0 0 m (4000) show NC gr 
 gsave  2268 1530 0 0 C 896.69 103.964 t 0 r /Helvetica findfont 48.7332 sf 0 0 m (6000) show NC gr 
 gsave  2268 1530 0 0 C 1137.11 103.964 t 0 r /Helvetica findfont 48.7332 sf 0 0 m (8000) show NC gr 
 gsave  2268 1530 0 0 C 1367.78 103.964 t 0 r /Helvetica findfont 48.7332 sf 0 0 m (10000) show NC gr 
 gsave  2268 1530 0 0 C 1608.19 103.964 t 0 r /Helvetica findfont 48.7332 sf 0 0 m (12000) show NC gr 
 gsave  2268 1530 0 0 C 1848.61 103.964 t 0 r /Helvetica findfont 48.7332 sf 0 0 m (14000) show NC gr 
 gsave  2268 1530 0 0 C 1764.14 51.982 t 0 r /Helvetica findfont 48.7332 sf 0 0 m (Energy [a.u.]) show NC gr  227 153 m 1224 Y s 281 256 m -54 X s 254 287 m -27 X s 254 318 m -27 X s 254 349 m -27 X s 281 380 m -54 X s 254 411 m -27 X s 254 442 m -27
 X s 254 473 m -27 X s 281 504 m -54 X s 254 535 m -27 X s 254 566 m -27 X s 254 597 m -27 X s 281 628 m -54 X s 254 659 m -27 X s 254 690 m -27 X s 254 721 m -27 X s 281 752 m -54 X s 254 783 m -27 X s 254 814 m -27 X s 254 845 m -27 X s 281 876 m
 -54 X s 254 908 m -27 X s 254 939 m -27 X s 254 970 m -27 X s 281 1001 m -54 X s 254 1032 m -27 X s 254 1063 m -27 X s 254 1094 m -27 X s 281 1125 m -54 X s 254 1156 m -27 X s 254 1187 m -27 X s 254 1218 m -27 X s 281 1249 m -54 X s 254 1280 m -27 X
 s 254 1311 m -27 X s 254 1342 m -27 X s 281 1373 m -54 X s 281 256 m -54 X s 254 225 m -27 X s 254 194 m -27 X s 254 163 m -27 X s 281 1373 m -54 X s
 gsave  2268 1530 0 0 C 159.195 237.168 t 0 r /Helvetica findfont 48.7332 sf 0 0 m (20) show NC gr 
 gsave  2268 1530 0 0 C 129.955 237.168 t 0 r /Symbol findfont 48.7332 sf 0 0 m (-) show NC gr 
 gsave  2268 1530 0 0 C 188.435 360.625 t 0 r /Helvetica findfont 48.7332 sf 0 0 m (0) show NC gr 
 gsave  2268 1530 0 0 C 159.195 487.332 t 0 r /Helvetica findfont 48.7332 sf 0 0 m (20) show NC gr 
 gsave  2268 1530 0 0 C 159.195 610.789 t 0 r /Helvetica findfont 48.7332 sf 0 0 m (40) show NC gr 
 gsave  2268 1530 0 0 C 159.195 734.246 t 0 r /Helvetica findfont 48.7332 sf 0 0 m (60) show NC gr 
 gsave  2268 1530 0 0 C 159.195 857.704 t 0 r /Helvetica findfont 48.7332 sf 0 0 m (80) show NC gr 
 gsave  2268 1530 0 0 C 133.204 981.161 t 0 r /Helvetica findfont 48.7332 sf 0 0 m (100) show NC gr 
 gsave  2268 1530 0 0 C 133.204 1107.87 t 0 r /Helvetica findfont 48.7332 sf 0 0 m (120) show NC gr 
 gsave  2268 1530 0 0 C 133.204 1231.32 t 0 r /Helvetica findfont 48.7332 sf 0 0 m (140) show NC gr 
 gsave  2268 1530 0 0 C 133.204 1354.78 t 0 r /Helvetica findfont 48.7332 sf 0 0 m (160) show NC gr  1 1 1 c 453 429 1769 1002 bf black 1769 1002 m 453 X s 2222 1002 m 429 Y s 2222 1431 m -453 X s 1769 1431 m -429 Y s 1 1 1 c black
 gsave  2268 1530 0 0 C 1790.13 1358.03 t 0 r /Helvetica findfont 68.2264 sf 0 0 m (net_spectrum) show NC gr  1769 1324 m 453 X s
 gsave  2268 1530 0 0 C 1790.13 1250.82 t 0 r /Helvetica findfont 51.982 sf 0 0 m (Entries ) show NC gr 
 gsave  2268 1530 0 0 C 2069.53 1250.82 t 0 r /Helvetica findfont 51.982 sf 0 0 m ( 2066) show NC gr 
 gsave  2268 1530 0 0 C 1790.13 1143.6 t 0 r /Helvetica findfont 51.982 sf 0 0 m (Mean  ) show NC gr 
 gsave  2268 1530 0 0 C 2040.3 1143.6 t 0 r /Helvetica findfont 51.982 sf 0 0 m (   5159) show NC gr 
 gsave  2268 1530 0 0 C 1790.13 1033.14 t 0 r /Helvetica findfont 51.982 sf 0 0 m (Std Dev   ) show NC gr 
 gsave  2268 1530 0 0 C 2040.3 1036.39 t 0 r /Helvetica findfont 51.982 sf 0 0 m (   3463) show NC gr  1 1 1 c black
 gsave  2268 1530 0 0 C 396.363 1455.5 t 0 r /Helvetica findfont 71.4753 sf 0 0 m (Spettro KCl al netto della sottrazione del fondo) show NC gr 
 gr  gr showpage
end
%%EOF
