\relax 
\providecommand\hyper@newdestlabel[2]{}
\providecommand\HyperFirstAtBeginDocument{\AtBeginDocument}
\HyperFirstAtBeginDocument{\ifx\hyper@anchor\@undefined
\global\let\oldcontentsline\contentsline
\gdef\contentsline#1#2#3#4{\oldcontentsline{#1}{#2}{#3}}
\global\let\oldnewlabel\newlabel
\gdef\newlabel#1#2{\newlabelxx{#1}#2}
\gdef\newlabelxx#1#2#3#4#5#6{\oldnewlabel{#1}{{#2}{#3}}}
\AtEndDocument{\ifx\hyper@anchor\@undefined
\let\contentsline\oldcontentsline
\let\newlabel\oldnewlabel
\fi}
\fi}
\global\let\hyper@last\relax 
\gdef\HyperFirstAtBeginDocument#1{#1}
\providecommand\HyField@AuxAddToFields[1]{}
\providecommand\HyField@AuxAddToCoFields[2]{}
\select@language{italian}
\@writefile{toc}{\select@language{italian}}
\@writefile{lof}{\select@language{italian}}
\@writefile{lot}{\select@language{italian}}
\select@language{italian}
\@writefile{toc}{\select@language{italian}}
\@writefile{lof}{\select@language{italian}}
\@writefile{lot}{\select@language{italian}}
\@writefile{toc}{\contentsline {section}{\numberline {1}Obiettivo dell'esperienza}{1}{section.1}}
\@writefile{toc}{\contentsline {section}{\numberline {2}Strumentazione e materiale utilizzato}{1}{section.2}}
\@writefile{toc}{\contentsline {section}{\numberline {3}Analisi Dati}{1}{section.3}}
\@writefile{toc}{\contentsline {subsection}{\numberline {3.1}Curva di trasferimento dell'amplificatore invertente}{1}{subsection.3.1}}
\newlabel{invert}{{3.1}{1}{Curva di trasferimento dell'amplificatore invertente}{subsection.3.1}{}}
\@writefile{lot}{\contentsline {table}{\numberline {1}{\ignorespaces Valori componenti\relax }}{1}{table.1}}
\newlabel{tab:componenti1}{{1}{1}{Valori componenti\relax }{table.1}{}}
\@writefile{lof}{\contentsline {figure}{\numberline {1}{\ignorespaces \relax }}{1}{figure.1}}
\newlabel{circ:1}{{1}{1}{\relax }{figure.1}{}}
\newlabel{eq:Ath-1opamp}{{1}{2}{Curva di trasferimento dell'amplificatore invertente}{equation.3.1}{}}
\newlabel{err:sigmaA}{{2}{2}{Curva di trasferimento dell'amplificatore invertente}{equation.3.2}{}}
\@writefile{lot}{\contentsline {table}{\numberline {2}{\ignorespaces Dati di tensione configurazione invertente\relax }}{3}{table.caption.1}}
\providecommand*\caption@xref[2]{\@setref\relax\@undefined{#1}}
\newlabel{tab:datiinvert}{{2}{3}{Dati di tensione configurazione invertente\relax }{table.caption.1}{}}
\@writefile{lof}{\contentsline {figure}{\numberline {2}{\ignorespaces  Fit lineare curva di trasferimento amplificatore invertente\relax }}{3}{figure.caption.2}}
\newlabel{graf:inv}{{2}{3}{Fit lineare curva di trasferimento amplificatore invertente\relax }{figure.caption.2}{}}
\@writefile{lof}{\contentsline {figure}{\numberline {3}{\ignorespaces  Fit lineare curva di trasferimento amplificatore invertente per divisioni inferiori e pari a $5\tmspace  +\medmuskip {.2222em}V$\relax }}{4}{figure.caption.3}}
\newlabel{graf:invcs}{{3}{4}{Fit lineare curva di trasferimento amplificatore invertente per divisioni inferiori e pari a $5\:V$\relax }{figure.caption.3}{}}
\@writefile{toc}{\contentsline {subsection}{\numberline {3.2}Amplificatore non invertente}{4}{subsection.3.2}}
\@writefile{lot}{\contentsline {table}{\numberline {3}{\ignorespaces Valori componenti\relax }}{4}{table.3}}
\newlabel{tab:componenti2}{{3}{4}{Valori componenti\relax }{table.3}{}}
\@writefile{lof}{\contentsline {figure}{\numberline {4}{\ignorespaces \relax }}{4}{figure.4}}
\newlabel{circ:2}{{4}{4}{\relax }{figure.4}{}}
\newlabel{eq:Ath-2.1opamp}{{3}{4}{Amplificatore non invertente}{equation.3.3}{}}
\@writefile{lot}{\contentsline {table}{\numberline {4}{\ignorespaces Valori tensioni amplificatore non invertente\relax }}{5}{table.caption.4}}
\newlabel{tab:datiampnoninvert}{{4}{5}{Valori tensioni amplificatore non invertente\relax }{table.caption.4}{}}
\@writefile{toc}{\contentsline {subsection}{\numberline {3.3}Amplificatore delle differenze in configurazione non invertente}{5}{subsection.3.3}}
\@writefile{lot}{\contentsline {table}{\numberline {5}{\ignorespaces Valori componenti\relax }}{6}{table.5}}
\newlabel{tab:componenti3}{{5}{6}{Valori componenti\relax }{table.5}{}}
\@writefile{lof}{\contentsline {figure}{\numberline {5}{\ignorespaces \relax }}{6}{figure.5}}
\newlabel{circ:3}{{5}{6}{\relax }{figure.5}{}}
\newlabel{eq:opampdiff}{{4}{6}{Amplificatore delle differenze in configurazione non invertente}{equation.3.4}{}}
\@writefile{lot}{\contentsline {table}{\numberline {6}{\ignorespaces Valori tensioni amplificatore di differenze\relax }}{6}{table.caption.5}}
\newlabel{tab:datidiff}{{6}{6}{Valori tensioni amplificatore di differenze\relax }{table.caption.5}{}}
\newlabel{eq:sigmacomp}{{5}{7}{Amplificatore delle differenze in configurazione non invertente}{equation.3.5}{}}
\@writefile{toc}{\contentsline {subsection}{\numberline {3.4}Amplificatore delle somme in configurazione invertente}{7}{subsection.3.4}}
\@writefile{lot}{\contentsline {table}{\numberline {7}{\ignorespaces Valori componenti\relax }}{7}{table.7}}
\newlabel{tab:componenti4}{{7}{7}{Valori componenti\relax }{table.7}{}}
\@writefile{lof}{\contentsline {figure}{\numberline {6}{\ignorespaces \relax }}{7}{figure.6}}
\newlabel{circ:4}{{6}{7}{\relax }{figure.6}{}}
\newlabel{eq:somme}{{6}{7}{Amplificatore delle somme in configurazione invertente}{equation.3.6}{}}
\@writefile{lot}{\contentsline {table}{\numberline {8}{\ignorespaces Valori tensioni amplificatore di somme\relax }}{8}{table.caption.6}}
\newlabel{tab:datisomme}{{8}{8}{Valori tensioni amplificatore di somme\relax }{table.caption.6}{}}
\@writefile{toc}{\contentsline {subsection}{\numberline {3.5}Curva di trasferimento circuito integratore per segnali impulsivi}{8}{subsection.3.5}}
\@writefile{lot}{\contentsline {table}{\numberline {9}{\ignorespaces Valori componenti\relax }}{8}{table.9}}
\newlabel{tab:componenti5}{{9}{8}{Valori componenti\relax }{table.9}{}}
\@writefile{lof}{\contentsline {figure}{\numberline {7}{\ignorespaces \relax }}{8}{figure.7}}
\newlabel{circ:5}{{7}{8}{\relax }{figure.7}{}}
\newlabel{eq:trasf}{{7}{9}{Curva di trasferimento circuito integratore per segnali impulsivi}{equation.3.7}{}}
\@writefile{lot}{\contentsline {table}{\numberline {10}{\ignorespaces Valori tensioni integratore\relax }}{9}{table.caption.7}}
\newlabel{tab:datiintegr}{{10}{9}{Valori tensioni integratore\relax }{table.caption.7}{}}
\@writefile{toc}{\contentsline {subsection}{\numberline {3.6}Circuito raddrizzatore di precisione con operazionali}{9}{subsection.3.6}}
\@writefile{lof}{\contentsline {figure}{\numberline {8}{\ignorespaces  Fit lineare curva di trasferimento circuito integratore\relax }}{10}{figure.caption.8}}
\newlabel{graf:int}{{8}{10}{Fit lineare curva di trasferimento circuito integratore\relax }{figure.caption.8}{}}
\@writefile{lot}{\contentsline {table}{\numberline {11}{\ignorespaces Valori componenti\relax }}{10}{table.11}}
\newlabel{tab:componenti6}{{11}{10}{Valori componenti\relax }{table.11}{}}
\@writefile{lof}{\contentsline {figure}{\numberline {9}{\ignorespaces \relax }}{10}{figure.9}}
\newlabel{circ:6}{{9}{10}{\relax }{figure.9}{}}
\newlabel{eq:v1magg0}{{8}{10}{Circuito raddrizzatore di precisione con operazionali}{equation.3.8}{}}
\newlabel{eq:v1min0}{{9}{10}{Circuito raddrizzatore di precisione con operazionali}{equation.3.9}{}}
\@writefile{lot}{\contentsline {table}{\numberline {12}{\ignorespaces Tensioni in \emph  {volt} [V] nel circuito raddrizzatore di precisione in corrispondenza di $V_1^\mathit  {max}$ e $V_1^\mathit  {min}$\relax }}{11}{table.caption.9}}
\newlabel{tab:raddrizzatore}{{12}{11}{Tensioni in \emph {volt} [V] nel circuito raddrizzatore di precisione in corrispondenza di $V_1^\mathit {max}$ e $V_1^\mathit {min}$\relax }{table.caption.9}{}}
\@writefile{lot}{\contentsline {table}{\numberline {13}{\ignorespaces Compatibilit\IeC {\`a} circuito raddrizzatore\relax }}{12}{table.caption.10}}
\newlabel{tab:compraddr}{{13}{12}{Compatibilità circuito raddrizzatore\relax }{table.caption.10}{}}
\@writefile{toc}{\contentsline {section}{\numberline {4}Conclusioni}{12}{section.4}}
