%!PS-Adobe-2.0 EPSF-2.0
%%BoundingBox:  0 0 567 384
%%Title: coinc_waveforms.eps: Confronto segnali in coincidenza
%%Creator: ROOT Version 6.12/06
%%CreationDate: Mon May 21 00:07:52 2018
%%DocumentNeededResources: ProcSet (FontSetInit)
%%EndComments
%%BeginProlog
80 dict begin
/s {stroke} def /l {lineto} def /m {moveto} def /t {translate} def
/r {rotate} def /rl {roll}  def /R {repeat} def
/d {rlineto} def /rm {rmoveto} def /gr {grestore} def /f {eofill} def
/c {setrgbcolor} def /black {0 setgray} def /sd {setdash} def
/cl {closepath} def /sf {scalefont setfont} def /lw {setlinewidth} def
/box {m dup 0 exch d exch 0 d 0 exch neg d cl} def
/NC{systemdict begin initclip end}def/C{NC box clip newpath}def
/bl {box s} def /bf {gsave box gsave f grestore 1 lw [] 0 sd s grestore} def /Y { 0 exch d} def /X { 0 d} def 
/K {{pop pop 0 moveto} exch kshow} bind def
/ita {/ang 15 def gsave [1 0 ang dup sin exch cos div 1 0 0] concat} def 
/mp {newpath /y exch def /x exch def} def
/side {[w .77 mul w .23 mul] .385 w mul sd w 0 l currentpoint t -144 r} def
/mr {mp x y w2 0 360 arc} def /m24 {mr s} def /m20 {mr f} def
/mb {mp x y w2 add m w2 neg 0 d 0 w neg d w 0 d 0 w d cl} def
/mt {mp x y w2 add m w2 neg w neg d w 0 d cl} def
/w4 {w 4 div} def
/w6 {w 6 div} def
/w8 {w 8 div} def
/m21 {mb f} def /m25 {mb s} def /m22 {mt f} def /m26{mt s} def
/m23 {mp x y w2 sub m w2 w d w neg 0 d cl f} def
/m27 {mp x y w2 add m w3 neg w2 neg d w3 w2 neg d w3 w2 d cl s} def
/m28 {mp x w2 sub y w2 sub w3 add m w3 0 d  0 w3 neg d w3 0 d 0 w3 d w3 0 d  0 w3 d w3 neg 0 d 0 w3 d w3 neg 0 d 0 w3 neg d w3 neg 0 d cl s } def
/m29 {mp gsave x w2 sub y w2 add w3 sub m currentpoint t 4 {side} repeat cl fill gr} def
/m30 {mp gsave x w2 sub y w2 add w3 sub m currentpoint t 4 {side} repeat cl s gr} def
/m31 {mp x y w2 sub m 0 w d x w2 sub y m w 0 d x w2 sub y w2 add m w w neg d x w2 sub y w2 sub m w w d s} def
/m32 {mp x y w2 sub m w2 w d w neg 0 d cl s} def
/m33 {mp x y w2 add m w3 neg w2 neg d w3 w2 neg d w3 w2 d cl f} def
/m34 {mp x w2 sub y w2 sub w3 add m w3 0 d  0 w3 neg d w3 0 d 0 w3 d w3 0 d  0 w3 d w3 neg 0 d 0 w3 d w3 neg 0 d 0 w3 neg d w3 neg 0 d cl f } def
/m35 {mp x y w2 add m w2 neg w2 neg d w2 w2 neg d w2 w2 d w2 neg w2 d x y w2 sub m 0 w d x w2 sub y m w 0 d s} def
/m36 {mb x w2 sub y w2 add m w w neg d x w2 sub y w2 sub m w w d s} def
/m37 {mp x y m w4 neg w2 d w4 neg w2 neg d w2 0 d  w4 neg w2 neg d w2 0 d w4 neg w2 d w2 0 d w4 neg w2 d w4 neg w2 neg d cl s} def
/m38 {mp x w4 sub y w2 add m w4 neg w4 neg d 0 w2 neg d w4 w4 neg d w2 0 d w4 w4 d 0 w2 d w4 neg w4 d w2 neg 0 d x y w2 sub m 0 w d x w2 sub y m w 0 d cl s} def
/m39 {mp x y m w4 neg w2 d w4 neg w2 neg d w2 0 d  w4 neg w2 neg d w2 0 d w4 neg w2 d w2 0 d w4 neg w2 d w4 neg w2 neg d cl f} def
/m40 {mp x y m w4 w2 d w4 w4 neg d w2 neg w4 neg d w2 w4 neg d w4 neg w4 neg d w4 neg w2 d w4 neg w2 neg d w4 neg w4 d w2 w4 d w2 neg w4 d w4 w4 d w4 w2 neg d cl s} def
/m41 {mp x y m w4 w2 d w4 w4 neg d w2 neg w4 neg d w2 w4 neg d w4 neg w4 neg d w4 neg w2 d w4 neg w2 neg d w4 neg w4 d w2 w4 d w2 neg w4 d w4 w4 d w4 w2 neg d cl f} def
/m42 {mp x y w2 add m w8 neg w2 -3 4 div mul d w2 -3 4 div mul w8 neg d w2 3 4 div mul w8 neg d w8 w2 -3 4 div mul d w8 w2 3 4 div mul d w2 3 4 div mul w8 d w2 -3 4 div mul w8 d w8 neg w2 3 4 div mul d cl s} def
/m43 {mp x y w2 add m w8 neg w2 -3 4 div mul d w2 -3 4 div mul w8 neg d w2 3 4 div mul w8 neg d w8 w2 -3 4 div mul d w8 w2 3 4 div mul d w2 3 4 div mul w8 d w2 -3 4 div mul w8 d w8 neg w2 3 4 div mul d cl f} def
/m44 {mp x y m w6 neg w2 d w2 2 3 div mul 0 d w6 neg w2 neg d w2 w6 d 0 w2 -2 3 div mul d w2 neg w6 d w6 w2 neg d w2 -2 3 div mul 0 d w6 w2 d w2 neg w6 neg d 0 w2 2 3 div mul d w2 w6 neg d cl s} def
/m45 {mp x y m w6 neg w2 d w2 2 3 div mul 0 d w6 neg w2 neg d w2 w6 d 0 w2 -2 3 div mul d w2 neg w6 d w6 w2 neg d w2 -2 3 div mul 0 d w6 w2 d w2 neg w6 neg d 0 w2 2 3 div mul d w2 w6 neg d cl f} def
/m46 {mp x y w4 add m w4 neg w4 d w4 neg w4 neg d  w4 w4 neg d w4 neg w4 neg d w4 w4 neg d w4 w4 d w4 w4 neg d w4 w4 d w4 neg w4 d w4 w4 d w4 neg w4 d w4 neg w4 neg d cl s} def
/m47 {mp x y w4 add m w4 neg w4 d w4 neg w4 neg d w4 w4 neg d w4 neg w4 neg d  w4 w4 neg d w4 w4 d w4 w4 neg d w4 w4 d w4 neg w4 d w4 w4 d w4 neg w4 d w4 neg w4 neg d cl f} def
/m48 {mp x y w4 add m w4 neg w4 d w4 neg w4 neg d w4 w4 neg d  w4 neg w4 neg d w4 w4 neg d w4 w4 d w4 w4 neg d w4 w4 d w4 neg w4 d w4 w4 d w4 neg w4 d w4 neg w4 neg d  w4 w4 neg d w4 neg w4 neg d w4 neg w4 d w4 w4 d cl f} def
/m49 {mp x w2 sub w3 add y w2 sub w3 add m  0 w3 neg d w3 0 d 0 w3 d w3 0 d 0 w3 d w3 neg 0 d 0 w3 d w3 neg 0 d 0 w3 neg d w3 neg 0 d 0 w3 neg d w3 0 d 0 w3 d w3 0 d 0 w3 neg d w3 neg 0 d cl f } def
/m2 {mp x y w2 sub m 0 w d x w2 sub y m w 0 d s} def
/m5 {mp x w2 sub y w2 sub m w w d x w2 sub y w2 add m w w neg d s} def
%%IncludeResource: ProcSet (FontSetInit)
%%IncludeResource: font Times-Roman
%%IncludeResource: font Times-Italic
%%IncludeResource: font Times-Bold
%%IncludeResource: font Times-BoldItalic
%%IncludeResource: font Helvetica
%%IncludeResource: font Helvetica-Oblique
%%IncludeResource: font Helvetica-Bold
%%IncludeResource: font Helvetica-BoldOblique
%%IncludeResource: font Courier
%%IncludeResource: font Courier-Oblique
%%IncludeResource: font Courier-Bold
%%IncludeResource: font Courier-BoldOblique
%%IncludeResource: font Symbol
%%IncludeResource: font ZapfDingbats
/reEncode {exch findfont dup length dict begin {1 index /FID eq  {pop pop} {def} ifelse } forall /Encoding exch def currentdict end dup /FontName get exch definefont pop } def [/Times-Bold /Times-Italic /Times-BoldItalic /Helvetica /Helvetica-Oblique
 /Helvetica-Bold /Helvetica-BoldOblique /Courier /Courier-Oblique /Courier-Bold /Courier-BoldOblique /Times-Roman /AvantGarde-Book /AvantGarde-BookOblique /AvantGarde-Demi /AvantGarde-DemiOblique /Bookman-Demi /Bookman-DemiItalic /Bookman-Light
 /Bookman-LightItalic /Helvetica-Narrow /Helvetica-Narrow-Bold /Helvetica-Narrow-BoldOblique /Helvetica-Narrow-Oblique /NewCenturySchlbk-Roman /NewCenturySchlbk-Bold /NewCenturySchlbk-BoldItalic /NewCenturySchlbk-Italic /Palatino-Bold
 /Palatino-BoldItalic /Palatino-Italic /Palatino-Roman ] {ISOLatin1Encoding reEncode } forall
%%EndProlog
%%BeginSetup
%%EndSetup
newpath  gsave  .25 .25 scale  gsave  0 0 t black[  ] 0 sd 3 lw 1 1 1 c 2268 1538 0 0 bf black 1 1 1 c 1088 1507 23 15 bf black 1 1 1 c 870 1206 132 166 bf black 870 1206 132 166 bl 1 1 1 c 870 1206 132 166 bf black 870 1206 132 166 bl 132 166 m 870
 X s 171 202 m -36 Y s 203 184 m -18 Y s 235 184 m -18 Y s 266 184 m -18 Y s 298 184 m -18 Y s 330 202 m -36 Y s 361 184 m -18 Y s 393 184 m -18 Y s 425 184 m -18 Y s 457 184 m -18 Y s 488 202 m -36 Y s 520 184 m -18 Y s 552 184 m -18 Y s 584 184 m
 -18 Y s 615 184 m -18 Y s 647 202 m -36 Y s 679 184 m -18 Y s 711 184 m -18 Y s 742 184 m -18 Y s 774 184 m -18 Y s 806 202 m -36 Y s 837 184 m -18 Y s 869 184 m -18 Y s 901 184 m -18 Y s 933 184 m -18 Y s 964 202 m -36 Y s 171 202 m -36 Y s 139 184
 m -18 Y s 964 202 m -36 Y s 996 184 m -18 Y s
 gsave  1088 1507 23 15 C 159.652 117.296 t 0 r /Helvetica findfont 35.8489 sf 0 0 m (0) show NC gr 
 gsave  1088 1507 23 15 C 299.756 117.296 t 0 r /Helvetica findfont 35.8489 sf 0 0 m (100) show NC gr 
 gsave  1088 1507 23 15 C 456.15 117.296 t 0 r /Helvetica findfont 35.8489 sf 0 0 m (200) show NC gr 
 gsave  1088 1507 23 15 C 615.802 117.296 t 0 r /Helvetica findfont 35.8489 sf 0 0 m (300) show NC gr 
 gsave  1088 1507 23 15 C 775.455 117.296 t 0 r /Helvetica findfont 35.8489 sf 0 0 m (400) show NC gr 
 gsave  1088 1507 23 15 C 931.849 117.296 t 0 r /Helvetica findfont 35.8489 sf 0 0 m (500) show NC gr 
 gsave  1088 1507 23 15 C 804.779 71.6807 t 0 r /Helvetica findfont 35.8489 sf 0 0 m (time [clocks]) show NC gr  132 166 m 1206 Y s 158 178 m -26 X s 145 202 m -13 X s 145 227 m -13 X s 145 252 m -13 X s 145 277 m -13 X s 158 301 m -26 X s 145 326 m
 -13 X s 145 351 m -13 X s 145 376 m -13 X s 145 400 m -13 X s 158 425 m -26 X s 145 450 m -13 X s 145 475 m -13 X s 145 500 m -13 X s 145 524 m -13 X s 158 549 m -26 X s 145 574 m -13 X s 145 599 m -13 X s 145 623 m -13 X s 145 648 m -13 X s 158 673
 m -26 X s 145 698 m -13 X s 145 722 m -13 X s 145 747 m -13 X s 145 772 m -13 X s 158 797 m -26 X s 145 822 m -13 X s 145 846 m -13 X s 145 871 m -13 X s 145 896 m -13 X s 158 921 m -26 X s 145 945 m -13 X s 145 970 m -13 X s 145 995 m -13 X s 145
 1020 m -13 X s 158 1045 m -26 X s 145 1069 m -13 X s 145 1094 m -13 X s 145 1119 m -13 X s 145 1144 m -13 X s 158 1168 m -26 X s 145 1193 m -13 X s 145 1218 m -13 X s 145 1243 m -13 X s 145 1267 m -13 X s 158 1292 m -26 X s 158 178 m -26 X s 158
 1292 m -26 X s 145 1317 m -13 X s 145 1342 m -13 X s 145 1367 m -13 X s
 gsave  1088 1507 23 15 C 22.8075 162.911 t 0 r /Helvetica findfont 35.8489 sf 0 0 m (13900) show NC gr 
 gsave  1088 1507 23 15 C 22.8075 286.723 t 0 r /Helvetica findfont 35.8489 sf 0 0 m (14000) show NC gr 
 gsave  1088 1507 23 15 C 22.8075 410.535 t 0 r /Helvetica findfont 35.8489 sf 0 0 m (14100) show NC gr 
 gsave  1088 1507 23 15 C 22.8075 534.347 t 0 r /Helvetica findfont 35.8489 sf 0 0 m (14200) show NC gr 
 gsave  1088 1507 23 15 C 22.8075 658.159 t 0 r /Helvetica findfont 35.8489 sf 0 0 m (14300) show NC gr 
 gsave  1088 1507 23 15 C 22.8075 781.971 t 0 r /Helvetica findfont 35.8489 sf 0 0 m (14400) show NC gr 
 gsave  1088 1507 23 15 C 22.8075 905.783 t 0 r /Helvetica findfont 35.8489 sf 0 0 m (14500) show NC gr 
 gsave  1088 1507 23 15 C 22.8075 1029.6 t 0 r /Helvetica findfont 35.8489 sf 0 0 m (14600) show NC gr 
 gsave  1088 1507 23 15 C 22.8075 1153.41 t 0 r /Helvetica findfont 35.8489 sf 0 0 m (14700) show NC gr 
 gsave  1088 1507 23 15 C 22.8075 1277.22 t 0 r /Helvetica findfont 35.8489 sf 0 0 m (14800) show NC gr  1 1 1 c black 171 1301 m 2 16 d 1 -19 d 2 7 d 1 -2 d 2 -5 d 2 12 d 1 -8 d 2 1 d 1 X 2 -8 d 2 12 d 1 -5 d 2 8 d 1 -3 d 2 -9 d 1 14 d 2 -15 d 2 8 d
 1 5 d 2 -9 d 1 7 d 2 -10 d 2 9 d 1 -7 d 2 5 d 1 -3 d 2 4 d 2 -9 d 1 X 2 8 d 1 -7 d 2 7 d 1 5 d 2 -10 d 2 8 d 1 -6 d 2 5 d 1 -1 d 2 -9 d 2 10 d 1 -20 d 2 16 d 1 2 d 2 1 d 1 2 d 2 -13 d 2 12 d 1 -16 d 2 7 d 1 3 d 2 -6 d 2 6 d 1 X 2 -11 d 1 20 d 2 -12
 d 2 -8 d 1 -24 d 2 -73 d 1 -116 d 2 -153 d 1 -154 d 2 -86 d 2 -47 d 1 -38 d 2 -28 d 1 -19 d 2 -7 d 2 -38 d 1 -2 d 2 -3 d 1 -77 d 2 -10 d 2 -1 d 1 -10 d 2 21 d 1 84 d 2 -2 d 1 -10 d 2 -7 d 2 15 d 1 32 d 2 -19 d 1 -11 d 2 30 d 2 -8 d 1 -23 d 2 -44 d 1
 -13 d 2 37 d 1 11 d 2 -1 d 2 32 d 1 17 d 2 42 d 1 14 d 2 -6 d 2 -34 d 1 9 d 2 -36 d 1 8 d 2 -13 d 2 -10 d 1 10 d 2 50 d 1 25 d 2 -9 d 1 X 2 14 d 2 -66 d 1 21 d 2 50 d 1 34 d 2 26 d 2 -23 d 1 26 d 2 27 d 1 32 d 2 1 d 1 -58 d 2 8 d 2 -12 d 1 9 d 2 4 d
 1 2 d 2 -15 d 2 34 d 1 -9 d 2 6 d 1 7 d 2 28 d 2 48 d 1 -10 d 2 12 d 1 -10 d 2 33 d 1 -9 d 2 12 d 2 -25 d 1 -3 d 2 -17 d 1 7 d 2 56 d 2 65 d 1 -3 d 2 34 d 1 -14 d 2 -27 d 1 -11 d 2 34 d 2 -8 d 1 -3 d 2 -18 d 1 6 d 2 60 d 2 -17 d 1 -11 d 2 10 d 1 -20
 d 2 -31 d 2 21 d 1 10 d 2 35 d 1 11 d 2 23 d 1 -36 d 2 36 d 2 -23 d 1 53 d 2 5 d 1 -28 d 2 13 d 2 -1 d 1 27 d 2 -2 d 1 5 d 2 X 1 -15 d 2 -10 d 2 27 d 1 -10 d 2 20 d 1 16 d 2 -7 d 2 -28 d 1 -21 d 2 23 d 1 18 d 2 -7 d 2 18 d 1 -2 d 2 5 d 1 7 d 2 26 d
 1 -3 d 2 16 d 2 8 d 1 -18 d 2 -11 d 1 1 d 2 -1 d 2 -4 d 1 4 d 2 8 d 1 4 d 2 10 d 2 -12 d 1 18 d 2 X 1 -9 d 2 19 d 1 -10 d 2 14 d 2 -13 d 1 2 d 2 -13 d 1 -5 d 2 26 d 2 4 d 1 9 d 2 X 1 6 d 2 23 d 1 -7 d 2 -3 d 2 -12 d 1 -9 d 2 18 d 1 -10 d 2 11 d 2 -1
 d 1 13 d 2 -7 d 1 -1 d 2 13 d 2 -3 d 1 1 d 2 -5 d 1 -4 d 2 -17 d 1 7 d 2 28 d 2 3 d 1 -2 d 2 -4 d 1 -5 d 2 15 d 2 -22 d 1 3 d 2 -8 d 1 7 d 2 18 d 1 1 d 2 12 d 2 8 d 1 -2 d 2 2 d 1 -12 d 2 17 d 2 -18 d 1 6 d 2 -13 d 1 -1 d 2 11 d 2 -10 d 1 27 d 2 -19
 d 1 3 d 2 6 d 1 -2 d 2 3 d 2 -3 d 1 -5 d 2 5 d 1 -9 d 2 9 d 2 -9 d 1 -4 d 2 8 d 1 12 d 2 7 d 1 8 d 2 -1 d 2 -11 d 1 -5 d 2 -9 d 1 -12 d 2 17 d 2 1 d 1 -7 d 2 12 d 1 19 d 2 7 d 2 -4 d 1 2 d 2 -8 d 1 1 d 2 2 d 1 2 d 2 1 d 2 -19 d 1 3 d 2 11 d 1 13 d 2
 -6 d 2 1 d 1 -21 d 2 10 d 1 -2 d 2 8 d 1 2 d 2 4 d 2 4 d 1 -5 d 2 4 d 1 -10 d 2 -3 d 2 -9 d 1 12 d 2 -2 d 1 13 d 2 -3 d 2 -2 d 1 4 d 2 -5 d 1 X 2 -7 d 1 8 d 2 4 d 2 -2 d 1 3 d 2 -5 d 1 2 d 2 3 d 2 -18 d 1 26 d 2 -18 d 1 26 d 2 -9 d 2 -6 d 1 11 d 2
 -10 d 1 15 d 2 -11 d 1 -6 d 2 5 d 2 -8 d 1 6 d 2 -3 d 1 -6 d 2 2 d 2 -9 d 1 5 d 2 9 d 1 7 d 2 X 1 -3 d 2 -11 d 2 5 d 1 16 d 2 -21 d 1 16 d 2 X 2 -7 d 1 -4 d 2 -9 d 1 15 d 2 -11 d 2 1 d 1 7 d 2 -5 d 1 11 d 2 -2 d 1 -5 d 2 -2 d 2 -4 d 1 X 2 11 d 1 -6
 d 2 6 d 2 2 d 1 -3 d 2 8 d 1 -1 d 2 -1 d 1 -1 d 2 -8 d 2 5 d 1 -7 d 2 7 d 1 9 d 2 -11 d 2 -13 d 1 23 d 2 X 1 2 d 2 10 d 2 -10 d 1 -4 d 3 X 2 4 d 1 -11 d 2 11 d 2 -1 d 1 -13 d 2 12 d 1 -8 d 2 3 d 2 7 d 1 -5 d 2 5 d 1 6 d 2 -5 d 1 7 d 2 -7 d 2 -8 d 1
 -10 d 2 -1 d 1 16 d 2 -7 d 2 4 d 1 4 d 3 X 2 4 d 2 1 d 1 1 d 2 -7 d 1 5 d 2 -13 d 1 19 d 2 -11 d 2 2 d 1 -1 d 2 -5 d 1 7 d 2 -2 d 2 11 d 1 -5 d 2 3 d 1 X 2 -5 d 1 17 d 2 -12 d 2 -10 d 1 16 d 2 -10 d 1 4 d 2 -8 d 2 1 d 1 7 d 2 -4 d 1 2 d 2 11 d 2 -13
 d 1 4 d 2 8 d 1 -11 d 2 -1 d 1 7 d 2 -22 d 2 21 d 1 -11 d 2 10 d 1 2 d 2 -11 d 2 16 d 1 -6 d 2 11 d 1 -11 d 2 6 d 2 -6 d 1 2 d 2 8 d 1 -1 d 2 -5 d 1 -5 d 2 2 d 2 11 d 1 2 d 2 -3 d 1 -9 d 2 8 d 2 -4 d 1 X 2 1 d 1 -13 d 2 17 d 1 -15 d 2 -5 d 2 16 d 1
 -8 d 2 11 d 1 -5 d 2 -6 d 2 6 d 1 6 d 2 -1 d s 1 0 0 c 1 1 1 c black 1 0 0 c 171 1311 m 2 -9 d 1 -4 d 2 -8 d 1 -9 d 2 14 d 2 -8 d 1 14 d 2 -1 d 1 1 d 2 -9 d 2 9 d 1 -3 d 2 -8 d 1 11 d 2 -6 d 1 3 d 2 9 d 2 -7 d 1 7 d 2 -9 d 1 4 d 2 6 d 2 -16 d 1 4 d
 2 4 d 1 5 d 2 3 d 2 -12 d 1 5 d 2 -3 d 1 X 2 -1 d 1 4 d 2 -11 d 2 8 d 1 4 d 2 -14 d 1 13 d 2 -5 d 2 6 d 1 1 d 2 -7 d 1 X 2 7 d 1 4 d 2 -7 d 2 10 d 1 -9 d 2 2 d 1 -2 d 5 X 2 -14 d 1 10 d 2 -10 d 2 -18 d 1 -18 d 2 -62 d 1 -157 d 2 -176 d 1 -121 d 2
 -104 d 2 -68 d 1 -55 d 2 -6 d 1 -11 d 2 -63 d 2 13 d 1 -26 d 2 -6 d 1 53 d 2 41 d 2 -27 d 1 -14 d 2 -19 d 1 1 d 2 37 d 1 26 d 2 -5 d 2 -47 d 1 -36 d 2 -37 d 1 42 d 2 47 d 2 57 d 1 45 d 2 -34 d 1 -26 d 2 1 d 1 -24 d 2 39 d 2 -3 d 1 -23 d 2 2 d 1 -4 d
 2 -3 d 2 26 d 1 2 d 2 -44 d 1 45 d 2 30 d 2 38 d 1 66 d 2 28 d 1 -27 d 2 -65 d 1 -1 d 2 -2 d 2 34 d 1 36 d 2 6 d 1 28 d 2 21 d 2 13 d 1 -13 d 2 -56 d 1 12 d 2 43 d 1 -4 d 2 25 d 2 31 d 1 -10 d 2 13 d 1 -15 d 2 -28 d 2 -16 d 1 27 d 2 36 d 1 32 d 2 -5
 d 2 4 d 1 -6 d 2 11 d 1 16 d 2 -25 d 1 6 d 2 -21 d 2 28 d 1 24 d 2 10 d 1 2 d 2 24 d 2 19 d 1 -21 d 2 13 d 1 13 d 2 -3 d 1 20 d 2 8 d 2 -9 d 1 -9 d 2 -12 d 1 27 d 2 9 d 2 -19 d 1 5 d 2 11 d 1 4 d 2 -5 d 2 15 d 1 12 d 2 3 d 1 8 d 2 41 d 1 14 d 2 10 d
 2 -5 d 1 -5 d 2 4 d 1 X 2 -14 d 2 9 d 1 12 d 2 -4 d 1 -18 d 2 1 d 1 29 d 2 6 d 2 -14 d 1 14 d 2 1 d 1 9 d 2 -3 d 2 29 d 1 -14 d 2 5 d 1 4 d 2 13 d 2 -12 d 1 4 d 2 3 d 1 4 d 2 -20 d 1 8 d 2 11 d 2 -19 d 1 32 d 2 -4 d 1 19 d 2 -10 d 2 -14 d 1 -21 d 2
 17 d 1 27 d 2 5 d 2 4 d 1 6 d 2 -7 d 1 11 d 2 -11 d 1 -14 d 2 -11 d 2 8 d 1 24 d 2 4 d 1 17 d 2 9 d 2 -4 d 1 11 d 2 10 d 1 -12 d 2 -12 d 1 -6 d 2 -1 d 2 X 1 -10 d 2 32 d 1 -7 d 2 6 d 2 -1 d 1 -10 d 2 14 d 1 -10 d 2 -13 d 2 -3 d 1 -3 d 2 19 d 1 10 d
 2 3 d 1 -3 d 2 -17 d 2 4 d 1 20 d 2 12 d 1 5 d 2 -24 d 2 X 1 1 d 2 6 d 1 -1 d 2 20 d 1 2 d 2 -18 d 2 8 d 1 -4 d 2 14 d 1 -12 d 2 2 d 2 -5 d 1 -2 d 2 16 d 1 6 d 2 -1 d 2 -3 d 1 X 2 2 d 1 -5 d 2 -4 d 1 -3 d 2 -9 d 2 12 d 1 -1 d 2 7 d 1 5 d 2 9 d 2 -3
 d 1 -8 d 2 8 d 1 1 d 2 18 d 1 -11 d 2 7 d 2 -4 d 1 -12 d 2 4 d 1 -6 d 2 -17 d 2 9 d 1 11 d 2 -2 d 1 11 d 2 -1 d 2 -2 d 1 -12 d 2 5 d 1 X 2 2 d 1 14 d 2 1 d 2 -3 d 1 -7 d 2 4 d 1 6 d 2 -1 d 2 10 d 1 9 d 2 -24 d 1 1 d 2 12 d 1 -2 d 2 5 d 2 X 1 -3 d 2
 X 1 -18 d 2 -4 d 2 9 d 1 X 2 1 d 1 8 d 2 -1 d 2 X 1 -12 d 2 3 d 1 -1 d 2 13 d 1 X 2 13 d 2 -9 d 1 -6 d 2 -3 d 1 -5 d 2 12 d 2 16 d 1 -18 d 2 18 d 1 -8 d 2 8 d 2 -12 d 1 -7 d 2 -10 d 1 19 d 2 -2 d 1 3 d 2 9 d 2 -23 d 1 -1 d 2 X 1 1 d 2 18 d 2 -11 d 1
 7 d 2 -7 d 1 -5 d 2 8 d 1 -15 d 2 -1 d 2 1 d 1 4 d 2 21 d 1 -5 d 2 11 d 2 -8 d 1 -2 d 2 7 d 1 2 d 2 -2 d 2 13 d 1 -6 d 2 -1 d 1 -6 d 2 -2 d 1 -1 d 2 -15 d 2 5 d 1 6 d 2 5 d 1 4 d 2 6 d 2 -8 d 1 -5 d 2 -2 d 1 -7 d 2 2 d 1 9 d 2 5 d 2 -7 d 1 12 d 2
 -14 d 1 -8 d 2 6 d 2 -9 d 1 15 d 2 4 d 1 -13 d 2 18 d 2 -9 d 1 1 d 2 9 d 1 -11 d 2 11 d 1 -5 d 2 -1 d 2 5 d 1 -14 d 2 6 d 1 7 d 2 -4 d 3 X 2 -4 d 1 8 d 2 -7 d 1 14 d 2 -6 d 2 1 d 1 X 2 9 d 1 2 d 2 -6 d 2 -4 d 1 4 d 2 4 d 1 -16 d 2 17 d 2 -21 d 1 10
 d 2 X 1 -8 d 2 19 d 1 -6 d 2 -1 d 2 -2 d 1 4 d 2 -6 d 1 4 d 2 X 2 -3 d 1 -5 d 2 1 d 1 4 d 2 14 d 1 -9 d 2 10 d 2 -11 d 1 1 d 2 5 d 1 -10 d 2 11 d 2 -11 d 1 3 d 2 19 d 1 -17 d 2 11 d 2 -13 d 1 1 d 2 -8 d 1 2 d 2 6 d 1 X 2 6 d 2 -3 d 1 -11 d 2 10 d 1
 -2 d 2 2 d 2 5 d 1 -8 d 2 1 d 1 6 d 2 -11 d 2 4 d 1 17 d 2 -10 d 1 17 d 2 -7 d 1 -13 d 2 X 2 -12 d 1 5 d 2 -7 d 1 1 d 2 20 d 2 -5 d 1 8 d 2 2 d 1 -15 d 2 5 d 1 -13 d 2 13 d 2 -4 d 1 -2 d 2 12 d 1 7 d 2 -3 d 2 1 d 1 -10 d 2 9 d s 0 1 0 c 1 1 1 c
 black 0 1 0 c 171 1297 m 2 -6 d 1 9 d 2 X 1 -2 d 2 9 d 2 -11 d 1 9 d 2 -4 d 1 5 d 2 -8 d 2 3 d 1 -5 d 2 6 d 1 -6 d 2 X 1 -4 d 2 -1 d 2 5 d 1 -5 d 2 7 d 1 -1 d 2 X 2 -2 d 1 6 d 2 5 d 1 -5 d 2 1 d 2 X 1 -2 d 2 -3 d 1 -5 d 2 X 1 6 d 2 -7 d 2 5 d 1 4 d
 2 2 d 1 -5 d 2 1 d 2 3 d 1 -4 d 2 -7 d 1 8 d 2 4 d 1 -5 d 2 10 d 2 -9 d 1 5 d 2 4 d 1 -2 d 2 -8 d 2 5 d 1 -2 d 2 X 1 -4 d 2 -11 d 2 X 1 -55 d 2 -111 d 1 -151 d 2 -112 d 1 -124 d 2 -130 d 2 -104 d 1 X 2 -49 d 1 -58 d 2 -44 d 2 -13 d 1 -13 d 2 14 d 1
 -10 d 2 -21 d 2 -76 d 1 -7 d 2 44 d 1 77 d 2 -6 d 1 -2 d 2 -57 d 2 33 d 1 30 d 2 -34 d 1 31 d 2 19 d 2 10 d 1 -46 d 2 15 d 1 32 d 2 -20 d 1 15 d 2 -17 d 2 64 d 1 -54 d 2 -28 d 1 78 d 2 23 d 2 13 d 1 -50 d 2 X 1 2 d 2 45 d 2 19 d 1 17 d 2 -7 d 1 -7 d
 2 22 d 1 -5 d 2 18 d 2 11 d 1 -3 d 2 6 d 1 8 d 2 -3 d 2 47 d 1 20 d 2 -5 d 1 10 d 2 34 d 1 -21 d 2 -25 d 2 28 d 1 33 d 2 5 d 1 32 d 2 5 d 2 -40 d 1 -12 d 2 29 d 1 -7 d 2 42 d 2 -5 d 1 -30 d 2 2 d 1 19 d 2 15 d 1 45 d 2 22 d 2 -4 d 1 -49 d 2 -27 d 1
 43 d 2 -6 d 2 10 d 1 72 d 2 11 d 1 5 d 2 6 d 1 -9 d 2 8 d 2 18 d 1 13 d 2 9 d 1 -12 d 2 12 d 2 3 d 1 28 d 2 17 d 1 -28 d 2 -10 d 2 10 d 1 11 d 2 15 d 1 8 d 2 -11 d 1 -5 d 2 -2 d 2 28 d 1 27 d 2 21 d 1 5 d 2 -36 d 2 14 d 1 -7 d 2 25 d 1 4 d 2 -4 d 1
 9 d 2 1 d 2 1 d 1 -19 d 2 26 d 1 -25 d 2 -11 d 2 23 d 1 36 d 2 1 d 1 -36 d 2 8 d 2 12 d 1 15 d 2 14 d 1 12 d 2 -4 d 1 38 d 2 1 d 2 -25 d 1 -1 d 2 18 d 1 -28 d 2 -1 d 2 12 d 1 -11 d 2 23 d 1 -1 d 2 9 d 2 -6 d 1 -3 d 2 13 d 1 -23 d 2 31 d 1 6 d 2 -12
 d 2 9 d 1 21 d 2 11 d 1 16 d 2 -6 d 2 -4 d 1 -23 d 2 -2 d 1 14 d 2 6 d 1 4 d 2 11 d 2 -14 d 1 3 d 2 11 d 1 -21 d 2 20 d 2 -14 d 1 19 d 2 2 d 1 -7 d 2 -5 d 2 X 1 6 d 2 -6 d 1 -6 d 2 12 d 1 -10 d 2 17 d 2 -3 d 1 13 d 2 2 d 1 -8 d 2 -2 d 2 -8 d 1 32 d
 2 -3 d 1 -10 d 2 -6 d 1 -5 d 2 14 d 2 3 d 1 4 d 2 -25 d 1 -4 d 2 21 d 2 6 d 1 12 d 2 10 d 1 -19 d 2 -5 d 2 2 d 1 -16 d 2 -11 d 1 13 d 2 14 d 1 22 d 2 13 d 2 -1 d 1 X 2 2 d 1 -2 d 2 2 d 2 -6 d 1 -12 d 2 4 d 1 -27 d 2 20 d 1 3 d 2 17 d 2 -18 d 1 -4 d
 2 15 d 1 -8 d 2 16 d 2 -5 d 1 9 d 2 8 d 1 -13 d 2 11 d 2 -5 d 1 -8 d 2 -11 d 1 -7 d 2 29 d 1 -14 d 2 X 2 -2 d 1 12 d 2 9 d 1 -8 d 2 11 d 2 -1 d 1 -1 d 2 -5 d 1 6 d 2 -5 d 1 2 d 2 X 2 6 d 1 X 2 -19 d 1 -5 d 2 15 d 2 -4 d 1 16 d 2 3 d 1 6 d 2 -1 d 2
 -13 d 1 4 d 2 -7 d 1 -14 d 2 17 d 1 -11 d 2 18 d 2 -3 d 1 11 d 2 -1 d 1 4 d 2 X 2 2 d 1 -3 d 2 -8 d 1 4 d 2 6 d 2 5 d 1 -2 d 2 1 d 1 2 d 2 -5 d 1 -1 d 2 -11 d 2 -4 d 1 9 d 2 1 d 1 -5 d 2 6 d 2 4 d 1 X 2 -5 d 1 -5 d 2 8 d 1 5 d 2 -7 d 2 -7 d 1 -6 d 2
 12 d 1 3 d 2 -9 d 2 16 d 1 -5 d 2 -15 d 1 14 d 2 5 d 2 5 d 1 2 d 2 -8 d 1 -7 d 2 9 d 1 -7 d 2 3 d 2 -12 d 1 6 d 2 -6 d 1 11 d 2 9 d 2 -8 d 3 X 1 -8 d 2 2 d 1 X 2 -1 d 2 12 d 1 4 d 2 1 d 1 -8 d 2 X 2 6 d 1 -2 d 2 -1 d 1 14 d 2 -5 d 2 -9 d 1 20 d 2
 -26 d 1 14 d 2 -9 d 1 10 d 2 -14 d 2 -6 d 1 -2 d 2 8 d 1 -6 d 2 8 d 2 X 1 -5 d 2 2 d 1 11 d 2 3 d 1 -13 d 2 18 d 2 -10 d 1 11 d 2 -13 d 1 2 d 2 13 d 2 -18 d 1 10 d 2 2 d 1 -1 d 2 -10 d 2 4 d 1 10 d 2 -10 d 1 X 2 13 d 1 -7 d 2 2 d 2 -6 d 1 -8 d 2 9 d
 1 3 d 2 -4 d 2 X 1 -8 d 2 11 d 1 1 d 2 -9 d 1 24 d 2 -9 d 2 1 d 1 -3 d 2 X 1 18 d 2 -17 d 2 -4 d 1 -1 d 2 2 d 1 2 d 2 -2 d 2 5 d 1 -13 d 2 12 d 1 -10 d 2 5 d 1 -4 d 2 4 d 2 -6 d 1 16 d 2 -4 d 1 -2 d 2 7 d 2 -7 d 1 X 2 11 d 1 -5 d 2 3 d 2 -7 d 1 X 2
 3 d 1 -8 d 2 -6 d 1 -1 d 2 -4 d 2 13 d 1 5 d 2 -8 d 1 -4 d 2 X 2 -3 d 1 X 2 16 d 1 -1 d 2 -2 d 1 4 d 2 -7 d 2 6 d 1 5 d 2 -10 d 1 11 d 2 -16 d 2 11 d 1 3 d 2 -12 d s black 1 1 1 c 1088 1507 1157 15 bf black 1 1 1 c 871 1206 1265 166 bf black 871
 1206 1265 166 bl 1 1 1 c 871 1206 1265 166 bf black 871 1206 1265 166 bl 1265 166 m 871 X s 1305 202 m -36 Y s 1337 184 m -18 Y s 1368 184 m -18 Y s 1400 184 m -18 Y s 1432 184 m -18 Y s 1464 202 m -36 Y s 1495 184 m -18 Y s 1527 184 m -18 Y s 1559
 184 m -18 Y s 1591 184 m -18 Y s 1622 202 m -36 Y s 1654 184 m -18 Y s 1686 184 m -18 Y s 1717 184 m -18 Y s 1749 184 m -18 Y s 1781 202 m -36 Y s 1813 184 m -18 Y s 1844 184 m -18 Y s 1876 184 m -18 Y s 1908 184 m -18 Y s 1940 202 m -36 Y s 1971
 184 m -18 Y s 2003 184 m -18 Y s 2035 184 m -18 Y s 2066 184 m -18 Y s 2098 202 m -36 Y s 1305 202 m -36 Y s 1273 184 m -18 Y s 2098 202 m -36 Y s 2130 184 m -18 Y s
 gsave  1088 1507 1157 15 C 1293.51 117.296 t 0 r /Helvetica findfont 35.8489 sf 0 0 m (0) show NC gr 
 gsave  1088 1507 1157 15 C 1433.61 117.296 t 0 r /Helvetica findfont 35.8489 sf 0 0 m (100) show NC gr 
 gsave  1088 1507 1157 15 C 1590.01 117.296 t 0 r /Helvetica findfont 35.8489 sf 0 0 m (200) show NC gr 
 gsave  1088 1507 1157 15 C 1749.66 117.296 t 0 r /Helvetica findfont 35.8489 sf 0 0 m (300) show NC gr 
 gsave  1088 1507 1157 15 C 1909.31 117.296 t 0 r /Helvetica findfont 35.8489 sf 0 0 m (400) show NC gr 
 gsave  1088 1507 1157 15 C 2065.71 117.296 t 0 r /Helvetica findfont 35.8489 sf 0 0 m (500) show NC gr 
 gsave  1088 1507 1157 15 C 1938.64 71.6807 t 0 r /Helvetica findfont 35.8489 sf 0 0 m (time [clocks]) show NC gr  1265 166 m 1206 Y s 1292 293 m -27 X s 1278 326 m -13 X s 1278 358 m -13 X s 1278 391 m -13 X s 1278 424 m -13 X s 1292 456 m -27 X s
 1278 489 m -13 X s 1278 522 m -13 X s 1278 555 m -13 X s 1278 587 m -13 X s 1292 620 m -27 X s 1278 653 m -13 X s 1278 686 m -13 X s 1278 718 m -13 X s 1278 751 m -13 X s 1292 784 m -27 X s 1278 816 m -13 X s 1278 849 m -13 X s 1278 882 m -13 X s
 1278 915 m -13 X s 1292 947 m -27 X s 1278 980 m -13 X s 1278 1013 m -13 X s 1278 1045 m -13 X s 1278 1078 m -13 X s 1292 1111 m -27 X s 1278 1144 m -13 X s 1278 1176 m -13 X s 1278 1209 m -13 X s 1278 1242 m -13 X s 1292 1274 m -27 X s 1292 293 m
 -27 X s 1278 260 m -13 X s 1278 227 m -13 X s 1278 195 m -13 X s 1292 1274 m -27 X s 1278 1307 m -13 X s 1278 1340 m -13 X s
 gsave  1088 1507 1157 15 C 1156.67 276.948 t 0 r /Helvetica findfont 35.8489 sf 0 0 m (14200) show NC gr 
 gsave  1088 1507 1157 15 C 1156.67 443.117 t 0 r /Helvetica findfont 35.8489 sf 0 0 m (14300) show NC gr 
 gsave  1088 1507 1157 15 C 1156.67 606.028 t 0 r /Helvetica findfont 35.8489 sf 0 0 m (14400) show NC gr 
 gsave  1088 1507 1157 15 C 1156.67 768.938 t 0 r /Helvetica findfont 35.8489 sf 0 0 m (14500) show NC gr 
 gsave  1088 1507 1157 15 C 1156.67 931.849 t 0 r /Helvetica findfont 35.8489 sf 0 0 m (14600) show NC gr 
 gsave  1088 1507 1157 15 C 1156.67 1094.76 t 0 r /Helvetica findfont 35.8489 sf 0 0 m (14700) show NC gr 
 gsave  1088 1507 1157 15 C 1156.67 1260.93 t 0 r /Helvetica findfont 35.8489 sf 0 0 m (14800) show NC gr  1 1 1 c black 1305 1252 m 2 -10 d 1 14 d 2 -26 d 1 30 d 2 -22 d 1 -3 d 2 48 d 2 -77 d 1 62 d 2 -12 d 1 -50 d 2 96 d 2 -96 d 1 39 d 2 31 d 1 -88
 d 2 104 d 2 -72 d 1 7 d 2 54 d 1 -72 d 2 47 d 1 -9 d 2 -13 d 2 24 d 1 -28 d 2 5 d 1 18 d 2 -21 d 2 3 d 1 17 d 2 -25 d 1 29 d 2 -13 d 1 -13 d 2 22 d 2 -30 d 1 31 d 2 -11 d 1 -4 d 2 25 d 2 -43 d 1 35 d 2 -15 d 1 -6 d 2 22 d 2 -40 d 1 32 d 2 -21 d 1 8
 d 2 3 d 1 -8 d 2 15 d 2 -8 d 1 -15 d 2 26 d 1 -26 d 2 -29 d 2 -31 d 1 -151 d 2 -93 d 1 -128 d 2 -167 d 2 -80 d 1 -101 d 2 -69 d 1 -5 d 2 -69 d 1 53 d 2 -87 d 2 18 d 1 70 d 2 -88 d 1 -39 d 2 31 d 2 34 d 1 26 d 2 -3 d 1 -11 d 2 -35 d 1 -1 d 2 -23 d 2
 85 d 1 10 d 2 32 d 1 5 d 2 -83 d 2 6 d 1 89 d 2 -22 d 1 -13 d 2 35 d 2 X 1 -59 d 2 60 d 1 36 d 2 -27 d 1 44 d 2 36 d 2 32 d 1 -9 d 2 -49 d 1 54 d 2 -7 d 2 23 d 1 -12 d 2 45 d 1 1 d 2 -67 d 1 57 d 2 -39 d 2 54 d 1 30 d 2 -30 d 1 134 d 2 -155 d 2 59 d
 1 51 d 2 -104 d 1 197 d 2 -161 d 2 104 d 1 31 d 2 -112 d 1 177 d 2 -129 d 1 -7 d 2 40 d 2 -51 d 1 111 d 2 -57 d 1 68 d 2 -14 d 2 13 d 1 51 d 2 -46 d 1 65 d 2 -37 d 1 21 d 2 18 d 2 -15 d 1 20 d 2 -22 d 1 33 d 2 -11 d 2 14 d 1 -9 d 2 26 d 1 41 d 2 -31
 d 2 49 d 1 -44 d 2 21 d 1 29 d 2 -8 d 1 -10 d 2 -3 d 2 16 d 1 -13 d 2 36 d 1 -29 d 2 26 d 2 61 d 1 -66 d 2 66 d 1 -40 d 2 12 d 1 109 d 2 -119 d 2 93 d 1 -82 d 2 -31 d 1 112 d 2 -90 d 2 67 d 1 X 2 -17 d 1 46 d 2 -80 d 2 70 d 1 -13 d 2 -6 d 1 23 d 2
 -36 d 1 19 d 2 13 d 2 -3 d 1 -34 d 2 54 d 1 -49 d 2 6 d 2 57 d 1 -55 d 2 111 d 1 -93 d 2 27 d 1 68 d 2 -146 d 2 146 d 1 -94 d 2 -21 d 1 90 d 2 -190 d 2 205 d 1 -38 d 2 -16 d 1 108 d 2 -159 d 2 142 d 1 -80 d 2 -5 d 1 76 d 2 -97 d 1 70 d 2 -32 d 2 21
 d 1 8 d 2 -18 d 1 38 d 2 -41 d 2 82 d 1 -74 d 2 X 1 7 d 2 -58 d 2 112 d 1 -66 d 2 3 d 1 30 d 2 -53 d 1 97 d 2 -46 d 2 25 d 1 10 d 2 -35 d 1 35 d 2 -28 d 2 14 d 1 5 d 2 20 d 1 -28 d 2 X 1 3 d 2 -18 d 2 50 d 1 -56 d 2 41 d 1 -8 d 2 -28 d 2 60 d 1 -86
 d 2 59 d 1 -4 d 2 -42 d 2 73 d 1 -85 d 2 71 d 1 -43 d 2 7 d 1 60 d 2 -93 d 2 106 d 1 -67 d 2 -3 d 1 67 d 2 -87 d 2 85 d 1 -65 d 2 8 d 1 16 d 2 -26 d 1 48 d 2 -31 d 2 31 d 1 -20 d 2 15 d 1 -7 d 2 -18 d 2 20 d 1 -31 d 2 37 d 1 -18 d 2 22 d 2 21 d 1
 -52 d 2 62 d 1 -49 d 2 26 d 1 6 d 2 -54 d 2 63 d 1 -45 d 2 X 1 5 d 2 -44 d 2 54 d 1 8 d 2 -6 d 1 16 d 2 -23 d 1 -5 d 2 23 d 2 -11 d 1 6 d 2 -6 d 1 15 d 2 -17 d 2 31 d 1 -47 d 2 36 d 1 -12 d 2 -8 d 2 38 d 1 -33 d 2 20 d 1 5 d 2 -28 d 1 10 d 2 -7 d 2
 -6 d 1 -5 d 2 24 d 1 -6 d 2 11 d 2 -26 d 1 10 d 2 18 d 1 -41 d 2 62 d 1 -44 d 2 X 2 31 d 1 -67 d 2 83 d 1 -65 d 2 28 d 2 31 d 1 -84 d 2 108 d 1 -88 d 2 38 d 2 29 d 1 -97 d 2 104 d 1 -81 d 2 25 d 1 23 d 2 -51 d 2 64 d 1 -48 d 2 36 d 1 -1 d 2 -12 d 2
 30 d 1 -38 d 2 15 d 1 -12 d 2 18 d 2 -1 d 1 -8 d 2 41 d 1 -66 d 2 48 d 1 -40 d 2 -8 d 2 44 d 1 -54 d 2 56 d 1 -25 d 2 -3 d 2 43 d 1 -61 d 2 46 d 1 -8 d 2 -66 d 1 97 d 2 -62 d 2 X 1 67 d 2 -87 d 1 62 d 2 -8 d 2 -43 d 1 92 d 2 -82 d 1 18 d 2 54 d 2
 -103 d 1 95 d 2 -34 d 1 -28 d 2 70 d 1 -52 d 2 13 d 2 15 d 1 -35 d 2 22 d 1 16 d 2 -33 d 2 17 d 1 5 d 2 -51 d 1 62 d 2 -34 d 1 3 d 2 36 d 2 -77 d 1 75 d 2 -41 d 1 -6 d 2 70 d 2 -101 d 1 93 d 2 -47 d 1 -12 d 2 75 d 2 -117 d 1 103 d 2 -53 d 1 -39 d 2
 118 d 1 -125 d 2 79 d 2 2 d 1 -71 d 2 74 d 1 -61 d 2 35 d 2 3 d 1 -2 d 2 4 d 1 -15 d 2 21 d 1 -36 d 2 51 d 2 -56 d 1 30 d 2 14 d 1 -72 d 2 87 d 2 -62 d 1 11 d 2 50 d 1 -71 d 2 51 d 2 -13 d 1 -13 d 2 34 d 1 -18 d 2 2 d 1 -2 d 2 5 d 2 -7 d 1 10 d 2
 -28 d 1 23 d 2 15 d 2 -24 d 1 31 d 2 -30 d 1 21 d 2 -24 d 1 18 d 2 -28 d 2 12 d 1 11 d 2 -21 d 1 47 d 2 -37 d 2 14 d 1 X 2 -6 d 1 16 d 2 -20 d 2 18 d 1 -14 d 2 1 d 1 25 d 2 -46 d 1 34 d 2 -24 d 2 -8 d 1 44 d 2 -52 d 1 68 d 2 -57 d 2 23 d 1 21 d 2
 -65 d 1 86 d 2 -68 d 2 18 d 1 49 d 2 -90 d 1 83 d 2 -52 d 1 16 d 2 26 d 2 -62 d s 1 0 0 c 1 1 1 c black 1 0 0 c 1305 1279 m 2 -81 d 1 62 d 2 -33 d 1 -3 d 2 39 d 1 -52 d 2 42 d 2 -19 d 1 8 d 2 -4 d 1 -11 d 2 15 d 2 -25 d 1 41 d 2 -44 d 1 36 d 2 -8 d
 2 -22 d 1 59 d 2 -86 d 1 78 d 2 -36 d 1 -18 d 2 85 d 2 -116 d 1 88 d 2 -32 d 1 -40 d 2 82 d 2 -83 d 1 64 d 2 -27 d 1 -6 d 2 16 d 1 -19 d 2 8 d 2 -17 d 1 30 d 2 -48 d 1 58 d 2 -22 d 2 -16 d 1 79 d 2 -128 d 1 100 d 2 -33 d 2 -62 d 1 139 d 2 -129 d 1
 83 d 2 -5 d 1 -72 d 2 113 d 2 -123 d 1 69 d 2 -11 d 1 -80 d 2 32 d 2 -158 d 1 -71 d 2 -176 d 1 -94 d 2 -104 d 2 -49 d 1 -50 d 2 -132 d 1 74 d 2 8 d 1 -46 d 2 15 d 2 -128 d 1 46 d 2 -31 d 1 44 d 2 103 d 2 -82 d 1 46 d 2 -15 d 1 -36 d 2 79 d 1 -89 d 2
 51 d 2 -44 d 1 5 d 2 101 d 1 -127 d 2 55 d 2 -11 d 1 -59 d 2 118 d 1 -15 d 2 33 d 2 80 d 1 -51 d 2 59 d 1 -33 d 2 -90 d 1 113 d 2 X 2 22 d 1 27 d 2 -55 d 1 60 d 2 -42 d 2 28 d 1 47 d 2 -21 d 1 54 d 2 -36 d 1 -15 d 2 5 d 2 -20 d 1 13 d 2 33 d 1 23 d
 2 -52 d 2 -18 d 1 6 d 2 51 d 1 8 d 2 -34 d 2 59 d 1 50 d 2 -1 d 1 44 d 2 -69 d 1 67 d 2 -14 d 2 34 d 1 46 d 2 -143 d 1 67 d 2 -16 d 2 16 d 1 115 d 2 -129 d 1 75 d 2 15 d 1 -20 d 2 61 d 2 -45 d 1 38 d 2 -21 d 1 24 d 2 -19 d 2 42 d 1 59 d 2 -77 d 1 56
 d 2 -66 d 2 20 d 1 51 d 2 -74 d 1 100 d 2 -72 d 1 36 d 2 57 d 2 -83 d 1 113 d 2 -66 d 1 13 d 2 40 d 2 -51 d 1 64 d 2 -22 d 1 X 2 28 d 1 -36 d 2 18 d 2 5 d 1 -24 d 2 34 d 1 -51 d 2 56 d 2 24 d 1 -80 d 2 102 d 1 -76 d 2 28 d 2 38 d 1 -74 d 2 82 d 1
 -54 d 2 -62 d 1 100 d 2 -43 d 2 77 d 1 18 d 2 -70 d 1 99 d 2 -75 d 2 51 d 1 -5 d 2 -21 d 1 54 d 2 -66 d 1 40 d 2 9 d 2 -24 d 1 31 d 2 -41 d 1 18 d 2 X 2 18 d 1 -10 d 2 -33 d 1 51 d 2 -47 d 2 60 d 1 -18 d 2 4 d 1 32 d 2 -73 d 1 91 d 2 -57 d 2 8 d 1
 61 d 2 -79 d 1 53 d 2 -12 d 2 -41 d 1 46 d 2 -15 d 1 7 d 2 23 d 2 -30 d 1 -3 d 2 46 d 1 -64 d 2 52 d 1 X 2 -62 d 2 103 d 1 -86 d 2 42 d 1 23 d 2 -67 d 2 98 d 1 -74 d 2 27 d 1 44 d 2 -51 d 1 31 d 2 -41 d 2 -14 d 1 22 d 2 -21 d 1 15 d 2 18 d 2 -10 d 1
 12 d 2 34 d 1 -44 d 2 37 d 2 -9 d 1 -46 d 2 50 d 1 -49 d 2 46 d 1 -15 d 2 -44 d 2 84 d 1 -56 d 2 26 d 1 25 d 2 -49 d 2 57 d 1 -29 d 2 -30 d 1 12 d 2 4 d 1 -4 d 2 4 d 2 33 d 1 -44 d 2 46 d 1 -15 d 2 -18 d 2 59 d 1 -90 d 2 51 d 1 -8 d 2 -45 d 2 61 d 1
 -79 d 2 46 d 1 17 d 2 -36 d 1 73 d 2 -39 d 2 6 d 1 -26 d 2 7 d 1 13 d 2 -23 d 2 44 d 1 -19 d 2 8 d 1 29 d 2 -46 d 1 27 d 2 11 d 2 -39 d 1 36 d 2 -5 d 1 -41 d 2 46 d 2 -30 d 1 5 d 2 57 d 1 -98 d 2 72 d 2 -28 d 1 -22 d 2 78 d 1 -82 d 2 35 d 1 3 d 2 -7
 d 2 15 d 1 -24 d 2 42 d 1 -46 d 2 25 d 2 5 d 1 -46 d 2 74 d 1 -77 d 2 55 d 1 -11 d 2 -17 d 2 41 d 1 -52 d 2 47 d 1 -29 d 2 5 d 2 8 d 1 -28 d 2 58 d 1 -82 d 2 86 d 2 -52 d 1 -2 d 2 51 d 1 -118 d 2 139 d 1 -73 d 2 -25 d 2 87 d 1 -101 d 2 101 d 1 -75 d
 2 14 d 2 63 d 1 -107 d 2 105 d 1 -74 d 2 30 d 2 18 d 1 -66 d 2 90 d 1 -77 d 2 69 d 1 -29 d 2 -33 d 2 72 d 1 -82 d 2 53 d 1 -9 d 2 -9 d 2 42 d 1 -78 d 2 70 d 1 -44 d 2 18 d 1 16 d 2 -41 d 2 41 d 1 -29 d 2 X 1 -4 d 2 -11 d 2 26 d 1 -3 d 2 15 d 1 -18 d
 2 -2 d 2 2 d 1 16 d 2 -16 d 1 8 d 2 X 1 -43 d 2 54 d 2 -24 d 1 14 d 2 13 d 1 -34 d 2 46 d 2 -54 d 1 36 d 2 18 d 1 -72 d 2 90 d 1 -52 d 2 -9 d 2 51 d 1 -74 d 2 68 d 1 -22 d 2 -14 d 2 26 d 1 -31 d 2 1 d 1 -3 d 2 36 d 2 -46 d 1 44 d 2 -23 d 1 -19 d 2
 75 d 1 -121 d 2 119 d 2 -63 d 1 -17 d 2 85 d 1 -111 d 2 95 d 2 -33 d 1 -23 d 2 71 d 1 -95 d 2 85 d 1 -57 d 2 24 d 2 7 d 1 -51 d 2 72 d 1 -69 d 2 51 d 2 -25 d 1 -6 d 2 52 d 1 -90 d 2 113 d 2 -93 d 1 31 d 2 26 d 1 -87 d 2 133 d 1 -118 d 2 53 d 2 40 d
 1 -114 d 2 146 d 1 -105 d 2 16 d 2 61 d 1 -118 d 2 105 d 1 -46 d 2 -5 d 1 42 d 2 -49 d 2 27 d 1 3 d 2 -28 d 1 15 d 2 19 d 2 -45 d 1 58 d 2 -36 d 1 -14 d 2 65 d 2 -85 d 1 62 d 2 -19 d 1 -20 d 2 70 d 1 -85 d 2 61 d 2 -23 d 1 -21 d 2 54 d 1 -82 d 2 69
 d 2 -17 d 1 -34 d 2 62 d 1 -70 d 2 50 d 2 -18 d 1 -11 d 2 33 d 1 -51 d 2 52 d 1 -26 d 2 -6 d 2 34 d s 0 1 0 c 1 1 1 c black 0 1 0 c 1305 1206 m 2 93 d 1 -119 d 2 90 d 1 -28 d 2 -38 d 1 79 d 2 -82 d 2 51 d 1 -9 d 2 -26 d 1 35 d 2 -14 d 2 -11 d 1 15 d
 2 6 d 1 -42 d 2 72 d 2 -66 d 1 13 d 2 66 d 1 -126 d 2 123 d 1 -68 d 2 -16 d 2 102 d 1 -135 d 2 103 d 1 -36 d 2 -34 d 2 88 d 1 -94 d 2 65 d 1 -28 d 2 -3 d 1 23 d 2 -36 d 2 44 d 1 -51 d 2 46 d 1 -21 d 2 -18 d 2 54 d 1 -69 d 2 67 d 1 -19 d 2 -17 d 2 18
 d 1 -18 d 2 17 d 1 -23 d 2 27 d 1 -24 d 2 -13 d 2 83 d 1 -131 d 2 58 d 1 -25 d 2 -157 d 2 20 d 1 -246 d 2 -68 d 1 -64 d 2 -89 d 2 -29 d 1 -175 d 2 -36 d 1 46 d 2 -5 d 1 -64 d 2 79 d 2 -175 d 1 158 d 2 77 d 1 -191 d 2 189 d 2 -121 d 1 18 d 2 27 d 1
 -144 d 2 191 d 1 -101 d 2 -13 d 2 91 d 1 -201 d 2 201 d 1 -10 d 2 X 2 102 d 1 -152 d 2 112 d 1 -1 d 2 -20 d 2 26 d 1 -95 d 2 54 d 1 -24 d 2 8 d 1 113 d 2 -46 d 2 -3 d 1 59 d 2 1 d 1 -27 d 2 50 d 2 28 d 1 21 d 2 18 d 1 -91 d 2 73 d 1 -37 d 2 -20 d 2
 115 d 1 -54 d 2 42 d 1 -3 d 2 -36 d 2 29 d 1 50 d 2 34 d 1 -7 d 2 -16 d 2 -25 d 1 59 d 2 17 d 1 6 d 2 -6 d 1 -30 d 2 67 d 2 -29 d 1 1 d 2 12 d 1 -25 d 2 30 d 2 -17 d 1 -18 d 2 71 d 1 18 d 2 -3 d 1 24 d 2 -54 d 2 77 d 1 -2 d 2 -65 d 1 67 d 2 -47 d 2
 47 d 1 75 d 2 -122 d 1 132 d 2 -65 d 2 -33 d 1 142 d 2 -155 d 1 142 d 2 2 d 1 -110 d 2 129 d 2 -96 d 1 44 d 2 38 d 1 -108 d 2 126 d 2 -62 d 1 32 d 2 43 d 1 -57 d 2 98 d 1 -71 d 2 31 d 2 15 d 1 -55 d 2 37 d 1 -47 d 2 44 d 2 8 d 1 -41 d 2 69 d 1 -46 d
 2 15 d 2 28 d 1 -38 d 2 44 d 1 -65 d 2 85 d 1 -10 d 2 10 d 2 -10 d 1 -21 d 2 16 d 1 -52 d 2 73 d 2 5 d 1 -44 d 2 77 d 1 -31 d 2 -30 d 1 53 d 2 -59 d 2 24 d 1 40 d 2 -79 d 1 74 d 2 -23 d 2 -30 d 1 92 d 2 -87 d 1 53 d 2 26 d 2 -80 d 1 96 d 2 -101 d 1
 37 d 2 18 d 1 -41 d 2 27 d 2 -25 d 1 28 d 2 10 d 1 -7 d 2 17 d 2 21 d 1 X 2 -8 d 1 18 d 2 -45 d 2 79 d 1 -79 d 2 5 d 1 59 d 2 -122 d 1 108 d 2 -54 d 2 -7 d 1 111 d 2 -122 d 1 104 d 2 -93 d 2 -8 d 1 80 d 2 -75 d 1 96 d 2 -55 d 1 29 d 2 -6 d 2 -46 d 1
 54 d 2 -46 d 1 69 d 2 -45 d 2 -1 d 1 60 d 2 -93 d 1 90 d 2 -60 d 2 -33 d 1 60 d 2 -73 d 1 109 d 2 -36 d 1 2 d 2 29 d 2 -50 d 1 52 d 2 -46 d 1 13 d 2 12 d 2 -13 d 1 41 d 2 -41 d 1 36 d 2 -49 d 1 18 d 2 8 d 2 -21 d 1 54 d 2 -43 d 1 38 d 2 -41 d 2 8 d
 1 26 d 2 -80 d 1 100 d 2 -87 d 2 62 d 1 -8 d 2 -39 d 1 70 d 2 -78 d 1 93 d 2 -51 d 2 -6 d 1 49 d 2 -105 d 1 106 d 2 -68 d 2 14 d 1 46 d 2 -90 d 1 111 d 2 -80 d 1 18 d 2 3 d 2 -26 d 1 67 d 2 -52 d 1 7 d 2 -22 d 2 23 d 1 -5 d 2 7 d 1 39 d 2 -51 d 2 33
 d 1 -20 d 2 -26 d 1 69 d 2 -62 d 1 42 d 2 -16 d 2 -2 d 1 28 d 2 -24 d 1 21 d 2 -18 d 2 -12 d 1 22 d 2 -31 d 1 16 d 2 -3 d 1 6 d 2 10 d 2 -15 d 1 -3 d 2 -2 d 1 7 d 2 -8 d 2 8 d 1 -16 d 2 9 d 1 27 d 2 -46 d 2 67 d 1 -34 d 2 -10 d 1 49 d 2 -62 d 1 41 d
 2 -9 d 2 -16 d 1 25 d 2 -17 d 1 2 d 2 -2 d 2 7 d 1 -36 d 2 70 d 1 -57 d 2 13 d 2 39 d 1 -88 d 2 108 d 1 -71 d 2 4 d 1 77 d 2 -130 d 2 138 d 1 -102 d 2 35 d 1 50 d 2 -130 d 2 157 d 1 -130 d 2 51 d 1 51 d 2 -118 d 1 149 d 2 -126 d 2 47 d 1 35 d 2 -94
 d 1 123 d 2 -98 d 2 26 d 1 39 d 2 -60 d 1 60 d 2 -50 d 2 24 d 1 -19 d 2 6 d 1 23 d 2 -47 d 1 63 d 2 -54 d 2 18 d 1 23 d 2 -52 d 1 97 d 2 -107 d 2 89 d 1 -30 d 2 -54 d 1 100 d 2 -120 d 1 90 d 2 -37 d 2 -26 d 1 86 d 2 -116 d 1 102 d 2 -61 d 2 16 d 1
 46 d 2 -70 d 1 49 d 2 -15 d 2 -8 d 1 18 d 2 -33 d 1 30 d 2 -18 d 1 19 d 2 -9 d 2 -12 d 1 18 d 2 -37 d 1 36 d 2 -5 d 2 -5 d 1 21 d 2 -21 d 1 -5 d 2 26 d 1 -41 d 2 41 d 2 -3 d 1 -43 d 2 79 d 1 -95 d 2 42 d 2 22 d 1 -72 d 2 95 d 1 -68 d 2 35 d 2 13 d 1
 -66 d 2 94 d 1 -84 d 2 46 d 1 16 d 2 -62 d 2 90 d 1 -86 d 2 45 d 1 -3 d 2 -41 d 2 56 d 1 -67 d 2 47 d 1 -5 d 2 -31 d 1 64 d 2 -54 d 2 44 d 1 -16 d 2 -17 d 1 33 d 2 -41 d 2 41 d 1 -31 d 2 -5 d 1 39 d 2 -58 d 2 36 d 1 1 d 2 -21 d 1 29 d 2 -11 d 1 -8 d
 2 21 d 2 -10 d 1 -19 d 2 37 d 1 -41 d 2 25 d 2 6 d 1 -55 d 2 70 d 1 -44 d 2 8 d 2 49 d 1 -67 d 2 41 d 1 -13 d 2 -12 d 1 23 d 2 -6 d 2 -5 d s
 gr  gr showpage
end
%%EOF
