%!PS-Adobe-2.0 EPSF-2.0
%%BoundingBox:  0 0 567 384
%%Title: coinc_hq0.eps: canvas_hqA
%%Creator: ROOT Version 6.12/06
%%CreationDate: Mon May 21 00:07:52 2018
%%DocumentNeededResources: ProcSet (FontSetInit)
%%EndComments
%%BeginProlog
80 dict begin
/s {stroke} def /l {lineto} def /m {moveto} def /t {translate} def
/r {rotate} def /rl {roll}  def /R {repeat} def
/d {rlineto} def /rm {rmoveto} def /gr {grestore} def /f {eofill} def
/c {setrgbcolor} def /black {0 setgray} def /sd {setdash} def
/cl {closepath} def /sf {scalefont setfont} def /lw {setlinewidth} def
/box {m dup 0 exch d exch 0 d 0 exch neg d cl} def
/NC{systemdict begin initclip end}def/C{NC box clip newpath}def
/bl {box s} def /bf {gsave box gsave f grestore 1 lw [] 0 sd s grestore} def /Y { 0 exch d} def /X { 0 d} def 
/K {{pop pop 0 moveto} exch kshow} bind def
/ita {/ang 15 def gsave [1 0 ang dup sin exch cos div 1 0 0] concat} def 
/mp {newpath /y exch def /x exch def} def
/side {[w .77 mul w .23 mul] .385 w mul sd w 0 l currentpoint t -144 r} def
/mr {mp x y w2 0 360 arc} def /m24 {mr s} def /m20 {mr f} def
/mb {mp x y w2 add m w2 neg 0 d 0 w neg d w 0 d 0 w d cl} def
/mt {mp x y w2 add m w2 neg w neg d w 0 d cl} def
/w4 {w 4 div} def
/w6 {w 6 div} def
/w8 {w 8 div} def
/m21 {mb f} def /m25 {mb s} def /m22 {mt f} def /m26{mt s} def
/m23 {mp x y w2 sub m w2 w d w neg 0 d cl f} def
/m27 {mp x y w2 add m w3 neg w2 neg d w3 w2 neg d w3 w2 d cl s} def
/m28 {mp x w2 sub y w2 sub w3 add m w3 0 d  0 w3 neg d w3 0 d 0 w3 d w3 0 d  0 w3 d w3 neg 0 d 0 w3 d w3 neg 0 d 0 w3 neg d w3 neg 0 d cl s } def
/m29 {mp gsave x w2 sub y w2 add w3 sub m currentpoint t 4 {side} repeat cl fill gr} def
/m30 {mp gsave x w2 sub y w2 add w3 sub m currentpoint t 4 {side} repeat cl s gr} def
/m31 {mp x y w2 sub m 0 w d x w2 sub y m w 0 d x w2 sub y w2 add m w w neg d x w2 sub y w2 sub m w w d s} def
/m32 {mp x y w2 sub m w2 w d w neg 0 d cl s} def
/m33 {mp x y w2 add m w3 neg w2 neg d w3 w2 neg d w3 w2 d cl f} def
/m34 {mp x w2 sub y w2 sub w3 add m w3 0 d  0 w3 neg d w3 0 d 0 w3 d w3 0 d  0 w3 d w3 neg 0 d 0 w3 d w3 neg 0 d 0 w3 neg d w3 neg 0 d cl f } def
/m35 {mp x y w2 add m w2 neg w2 neg d w2 w2 neg d w2 w2 d w2 neg w2 d x y w2 sub m 0 w d x w2 sub y m w 0 d s} def
/m36 {mb x w2 sub y w2 add m w w neg d x w2 sub y w2 sub m w w d s} def
/m37 {mp x y m w4 neg w2 d w4 neg w2 neg d w2 0 d  w4 neg w2 neg d w2 0 d w4 neg w2 d w2 0 d w4 neg w2 d w4 neg w2 neg d cl s} def
/m38 {mp x w4 sub y w2 add m w4 neg w4 neg d 0 w2 neg d w4 w4 neg d w2 0 d w4 w4 d 0 w2 d w4 neg w4 d w2 neg 0 d x y w2 sub m 0 w d x w2 sub y m w 0 d cl s} def
/m39 {mp x y m w4 neg w2 d w4 neg w2 neg d w2 0 d  w4 neg w2 neg d w2 0 d w4 neg w2 d w2 0 d w4 neg w2 d w4 neg w2 neg d cl f} def
/m40 {mp x y m w4 w2 d w4 w4 neg d w2 neg w4 neg d w2 w4 neg d w4 neg w4 neg d w4 neg w2 d w4 neg w2 neg d w4 neg w4 d w2 w4 d w2 neg w4 d w4 w4 d w4 w2 neg d cl s} def
/m41 {mp x y m w4 w2 d w4 w4 neg d w2 neg w4 neg d w2 w4 neg d w4 neg w4 neg d w4 neg w2 d w4 neg w2 neg d w4 neg w4 d w2 w4 d w2 neg w4 d w4 w4 d w4 w2 neg d cl f} def
/m42 {mp x y w2 add m w8 neg w2 -3 4 div mul d w2 -3 4 div mul w8 neg d w2 3 4 div mul w8 neg d w8 w2 -3 4 div mul d w8 w2 3 4 div mul d w2 3 4 div mul w8 d w2 -3 4 div mul w8 d w8 neg w2 3 4 div mul d cl s} def
/m43 {mp x y w2 add m w8 neg w2 -3 4 div mul d w2 -3 4 div mul w8 neg d w2 3 4 div mul w8 neg d w8 w2 -3 4 div mul d w8 w2 3 4 div mul d w2 3 4 div mul w8 d w2 -3 4 div mul w8 d w8 neg w2 3 4 div mul d cl f} def
/m44 {mp x y m w6 neg w2 d w2 2 3 div mul 0 d w6 neg w2 neg d w2 w6 d 0 w2 -2 3 div mul d w2 neg w6 d w6 w2 neg d w2 -2 3 div mul 0 d w6 w2 d w2 neg w6 neg d 0 w2 2 3 div mul d w2 w6 neg d cl s} def
/m45 {mp x y m w6 neg w2 d w2 2 3 div mul 0 d w6 neg w2 neg d w2 w6 d 0 w2 -2 3 div mul d w2 neg w6 d w6 w2 neg d w2 -2 3 div mul 0 d w6 w2 d w2 neg w6 neg d 0 w2 2 3 div mul d w2 w6 neg d cl f} def
/m46 {mp x y w4 add m w4 neg w4 d w4 neg w4 neg d  w4 w4 neg d w4 neg w4 neg d w4 w4 neg d w4 w4 d w4 w4 neg d w4 w4 d w4 neg w4 d w4 w4 d w4 neg w4 d w4 neg w4 neg d cl s} def
/m47 {mp x y w4 add m w4 neg w4 d w4 neg w4 neg d w4 w4 neg d w4 neg w4 neg d  w4 w4 neg d w4 w4 d w4 w4 neg d w4 w4 d w4 neg w4 d w4 w4 d w4 neg w4 d w4 neg w4 neg d cl f} def
/m48 {mp x y w4 add m w4 neg w4 d w4 neg w4 neg d w4 w4 neg d  w4 neg w4 neg d w4 w4 neg d w4 w4 d w4 w4 neg d w4 w4 d w4 neg w4 d w4 w4 d w4 neg w4 d w4 neg w4 neg d  w4 w4 neg d w4 neg w4 neg d w4 neg w4 d w4 w4 d cl f} def
/m49 {mp x w2 sub w3 add y w2 sub w3 add m  0 w3 neg d w3 0 d 0 w3 d w3 0 d 0 w3 d w3 neg 0 d 0 w3 d w3 neg 0 d 0 w3 neg d w3 neg 0 d 0 w3 neg d w3 0 d 0 w3 d w3 0 d 0 w3 neg d w3 neg 0 d cl f } def
/m2 {mp x y w2 sub m 0 w d x w2 sub y m w 0 d s} def
/m5 {mp x w2 sub y w2 sub m w w d x w2 sub y w2 add m w w neg d s} def
%%IncludeResource: ProcSet (FontSetInit)
%%IncludeResource: font Times-Roman
%%IncludeResource: font Times-Italic
%%IncludeResource: font Times-Bold
%%IncludeResource: font Times-BoldItalic
%%IncludeResource: font Helvetica
%%IncludeResource: font Helvetica-Oblique
%%IncludeResource: font Helvetica-Bold
%%IncludeResource: font Helvetica-BoldOblique
%%IncludeResource: font Courier
%%IncludeResource: font Courier-Oblique
%%IncludeResource: font Courier-Bold
%%IncludeResource: font Courier-BoldOblique
%%IncludeResource: font Symbol
%%IncludeResource: font ZapfDingbats
/reEncode {exch findfont dup length dict begin {1 index /FID eq  {pop pop} {def} ifelse } forall /Encoding exch def currentdict end dup /FontName get exch definefont pop } def [/Times-Bold /Times-Italic /Times-BoldItalic /Helvetica /Helvetica-Oblique
 /Helvetica-Bold /Helvetica-BoldOblique /Courier /Courier-Oblique /Courier-Bold /Courier-BoldOblique /Times-Roman /AvantGarde-Book /AvantGarde-BookOblique /AvantGarde-Demi /AvantGarde-DemiOblique /Bookman-Demi /Bookman-DemiItalic /Bookman-Light
 /Bookman-LightItalic /Helvetica-Narrow /Helvetica-Narrow-Bold /Helvetica-Narrow-BoldOblique /Helvetica-Narrow-Oblique /NewCenturySchlbk-Roman /NewCenturySchlbk-Bold /NewCenturySchlbk-BoldItalic /NewCenturySchlbk-Italic /Palatino-Bold
 /Palatino-BoldItalic /Palatino-Italic /Palatino-Roman ] {ISOLatin1Encoding reEncode } forall
%%EndProlog
%%BeginSetup
%%EndSetup
newpath  gsave  .25 .25 scale  gsave  0 0 t black[  ] 0 sd 3 lw 1 1 1 c 2268 1538 0 0 bf black 1 1 1 c 1814 1230 227 154 bf black 1814 1230 227 154 bl 0 0 0.6 c 1 1 1 c black 0 0 0.6 c 227 154 m 9 X 2 Y 2 X -2 Y 101 X 2 Y 1 X -2 Y 18 X 2 Y 1 X -2 Y 7
 X 2 Y 1 X -2 Y 33 X 2 Y 2 X -2 Y 24 X 2 Y 1 X -2 Y 2 X 4 Y 1 X -4 Y 7 X 2 Y 1 X -2 Y 3 X 2 Y 3 X -2 Y 7 X 4 Y 5 X -4 Y 3 X 2 Y 3 X 2 Y 1 X -2 Y 4 X -2 Y 3 X 4 Y 1 X -4 Y 2 X 2 Y 1 X 2 Y 2 X -4 Y 2 X 2 Y 4 X 4 Y 2 X -4 Y 1 X -2 Y 4 X 4 Y 1 X -2 Y 2 X
 -2 Y 1 X 8 Y 2 X -6 Y 3 X -2 Y 2 X 2 Y 1 X 2 Y 2 X -2 Y 3 X -2 Y 8 X 6 Y 1 X -4 Y 7 X 4 Y 1 X -2 Y 2 X -4 Y 2 X 2 Y 3 X 2 Y 1 X 2 Y 3 X -2 Y 2 X -2 Y 5 X -2 Y 3 X 2 Y 9 X 2 Y 3 X -2 Y 2 X -2 Y 2 X 2 Y 1 X 4 Y 2 X -2 Y 1 X -2 Y 2 X -2 Y 3 X 2 Y 2 X
 -2 Y 1 X 2 Y 2 X -2 Y 1 X 2 Y 2 X -2 Y 2 X 2 Y 1 X 2 Y 2 X -4 Y 1 X 2 Y 2 X -2 Y 1 X 2 Y 2 X -2 Y 3 X 2 Y 5 X -2 Y 3 X 4 Y 2 X -4 Y 1 X 2 Y 2 X -2 Y 1 X 2 Y 2 X -2 Y 2 X 6 Y 1 X -4 Y 2 X 2 Y 1 X -4 Y 7 X 2 Y 1 X 2 Y 2 X -4 Y 3 X 2 Y 1 X -2 Y 2 X 2 Y
 2 X 6 Y 1 X -6 Y 2 X -2 Y 6 X 2 Y 5 X -2 Y 1 X 2 Y 2 X -2 Y 3 X 2 Y 2 X -2 Y 6 X 4 Y 2 X -2 Y 4 X 2 Y 2 X -2 Y 1 X -2 Y 4 X 2 Y 3 X 4 Y 1 X -4 Y 2 X -2 Y 2 X 2 Y 1 X -2 Y 2 X 2 Y 3 X 8 Y 1 X -4 Y 2 X -4 Y 2 X 2 Y 1 X 2 Y 2 X 2 Y 1 X -2 Y 3 X -2 Y 2
 X -4 Y 2 X 6 Y 3 X 4 Y 1 X 2 Y 2 X -4 Y 1 X 4 Y 2 X -6 Y 2 X 4 Y 1 X 10 Y 2 X -8 Y 1 X -4 Y 2 X 16 Y 2 X -6 Y 1 X 4 Y 2 X -6 Y 1 X 10 Y 2 X -4 Y 1 X 6 Y 2 X 14 Y 2 X -6 Y 1 X 4 Y 2 X 4 Y 1 X -12 Y 2 X 10 Y 1 X -2 Y 2 X 18 Y 3 X -12 Y 2 X 12 Y 1 X 20
 Y 2 X -6 Y 2 X 10 Y 1 X 16 Y 2 X 6 Y 1 X -18 Y 2 X 4 Y 1 X 28 Y 2 X -6 Y 2 X 16 Y 1 X -8 Y 2 X 12 Y 1 X 12 Y 2 X 8 Y 1 X 32 Y 2 X -30 Y 2 X 6 Y 1 X 46 Y 2 X -12 Y 1 X 14 Y 2 X -6 Y 1 X 10 Y 2 X -20 Y 2 X 26 Y 1 X 18 Y 2 X -2 Y 1 X -10 Y 2 X 22 Y 2 X
 4 Y 1 X 4 Y 2 X -32 Y 1 X 42 Y 2 X -16 Y 1 X -10 Y 2 X 36 Y 2 X 12 Y 1 X -24 Y 2 X 44 Y 1 X 24 Y 2 X -34 Y 1 X -32 Y 2 X 2 Y 2 X -8 Y 1 X 32 Y 2 X -10 Y 1 X -16 Y 2 X -24 Y 2 X 38 Y 1 X -12 Y 2 X 32 Y 1 X -16 Y 2 X 6 Y 1 X -6 Y 2 X 10 Y 2 X -12 Y 1
 X -18 Y 2 X 50 Y 1 X -20 Y 2 X -10 Y 1 X 36 Y 2 X -42 Y 2 X 28 Y 1 X -6 Y 2 X -12 Y 1 X 12 Y 2 X -20 Y 1 X 2 Y 2 X -6 Y 2 X 12 Y 1 X -12 Y 2 X 52 Y 1 X -28 Y 2 X -10 Y 2 X 12 Y 1 X 4 Y 2 X -48 Y 1 X 24 Y 2 X 8 Y 1 X 22 Y 2 X -40 Y 2 X 20 Y 1 X 58 Y
 2 X -52 Y 1 X -44 Y 2 X 30 Y 1 X 24 Y 2 X -22 Y 2 X -8 Y 3 X 12 Y 1 X -38 Y 2 X 22 Y 1 X -6 Y 2 X 8 Y 2 X -8 Y 1 X 22 Y 2 X 10 Y 1 X -10 Y 2 X 32 Y 2 X -2 Y 1 X -30 Y 2 X -20 Y 1 X 68 Y 2 X -34 Y 1 X -40 Y 2 X 12 Y 2 X 64 Y 1 X -44 Y 2 X -12 Y 1 X
 -28 Y 2 X 10 Y 1 X -2 Y 2 X 12 Y 2 X 40 Y 1 X 36 Y 2 X -86 Y 1 X 34 Y 4 X 40 Y 1 X -30 Y 3 X -22 Y 2 X -16 Y 1 X 16 Y 2 X 16 Y 2 X -4 Y 1 X -50 Y 2 X 54 Y 1 X -26 Y 2 X 2 Y 1 X 14 Y 2 X 26 Y 2 X -32 Y 1 X 32 Y 2 X -24 Y 1 X -32 Y 2 X 50 Y 1 X -28 Y
 2 X 10 Y 2 X -12 Y 1 X 4 Y 2 X -10 Y 1 X 60 Y 2 X 18 Y 2 X -26 Y 1 X -2 Y 2 X -18 Y 1 X -12 Y 2 X -30 Y 1 X -20 Y 2 X 46 Y 2 X 52 Y 1 X -46 Y 2 X 2 Y 1 X 18 Y 2 X 10 Y 1 X -46 Y 2 X 10 Y 2 X 36 Y 1 X -6 Y 2 X 6 Y 1 X -54 Y 2 X 44 Y 1 X -32 Y 2 X -30
 Y 2 X 28 Y 1 X 14 Y 2 X 4 Y 1 X -22 Y 2 X 44 Y 2 X -100 Y 1 X 64 Y 2 X -8 Y 1 X 28 Y 2 X -14 Y 1 X 28 Y 2 X -34 Y 2 X 18 Y 1 X 20 Y 2 X 46 Y 1 X -30 Y 2 X -24 Y 1 X -30 Y 2 X 24 Y 2 X 28 Y 1 X 44 Y 2 X -70 Y 1 X -16 Y 2 X -24 Y 2 X 110 Y 1 X -106 Y
 2 X 28 Y 1 X 26 Y 2 X -76 Y 1 X 78 Y 2 X 12 Y 2 X -20 Y 1 X 18 Y 2 X -10 Y 1 X -2 Y 2 X -12 Y 1 X 2 Y 2 X 32 Y 2 X -40 Y 1 X 24 Y 2 X -44 Y 1 X 10 Y 2 X 40 Y 1 X -40 Y 2 X 26 Y 2 X -14 Y 1 X 2 Y 2 X 46 Y 1 X -64 Y 2 X 54 Y 2 X -22 Y 1 X -18 Y 2 X
 -14 Y 1 X 54 Y 2 X 10 Y 1 X -22 Y 4 X 6 Y 1 X -10 Y 2 X -38 Y 1 X 34 Y 2 X -4 Y 1 X -18 Y 2 X 34 Y 2 X -16 Y 1 X 6 Y 2 X -24 Y 1 X 2 Y 2 X 30 Y 2 X 48 Y 1 X -34 Y 2 X -56 Y 1 X 58 Y 2 X -32 Y 1 X 60 Y 2 X -56 Y 2 X 36 Y 1 X 26 Y 2 X -24 Y 1 X -18 Y
 2 X 22 Y 1 X -68 Y 2 X 88 Y 2 X -48 Y 1 X -2 Y 3 X 22 Y 2 X 18 Y 1 X -8 Y 2 X -36 Y 2 X 72 Y 1 X -32 Y 2 X 12 Y 1 X -42 Y 2 X 28 Y 2 X -60 Y 1 X 46 Y 2 X -6 Y 1 X 36 Y 2 X 6 Y 1 X -52 Y 2 X 20 Y 2 X -6 Y 1 X -70 Y 2 X 72 Y 1 X 46 Y 2 X -84 Y 1 X 70
 Y 2 X -82 Y 2 X 78 Y 1 X -26 Y 2 X -2 Y 1 X 50 Y 2 X -20 Y 1 X -38 Y 2 X 40 Y 2 X -54 Y 1 X 20 Y 2 X -66 Y 1 X 38 Y 2 X 76 Y 2 X -32 Y 1 X -8 Y 2 X 68 Y 1 X -58 Y 2 X 10 Y 1 X -50 Y 2 X 2 Y 2 X 2 Y 1 X 34 Y 2 X -8 Y 1 X -10 Y 2 X 24 Y 1 X 16 Y 2 X
 -84 Y 2 X 38 Y 1 X -16 Y 2 X 22 Y 1 X -4 Y 2 X -16 Y 2 X 16 Y 1 X 16 Y 2 X -48 Y 1 X 10 Y 2 X -20 Y 1 X 52 Y 2 X -26 Y 2 X -12 Y 1 X -10 Y 2 X 24 Y 1 X 44 Y 2 X -36 Y 1 X -54 Y 2 X 50 Y 2 X -48 Y 1 X 64 Y 2 X -28 Y 1 X -34 Y 2 X 8 Y 1 X 16 Y 2 X -18
 Y 2 X -22 Y 1 X 26 Y 2 X 2 Y 1 X -24 Y 2 X -12 Y 2 X 18 Y 1 X -16 Y 2 X 4 Y 1 X 2 Y 2 X 20 Y 1 X -46 Y 2 X 20 Y 2 X -50 Y 1 X 60 Y 2 X -60 Y 1 X 40 Y 2 X -18 Y 1 X 16 Y 2 X 28 Y 2 X -50 Y 1 X -24 Y 2 X 22 Y 1 X 10 Y 2 X -10 Y 2 X 10 Y 1 X -18 Y 2 X
 -16 Y 1 X 70 Y 2 X -42 Y 1 X -70 Y 2 X 56 Y 2 X -54 Y 1 X 46 Y 2 X 14 Y 1 X 36 Y 2 X -70 Y 1 X 18 Y 2 X 32 Y 2 X -24 Y 1 X -4 Y 2 X -42 Y 1 X 14 Y 2 X -2 Y 1 X 16 Y 2 X 24 Y 2 X 20 Y 1 X -20 Y 2 X -12 Y 1 X 18 Y 2 X -18 Y 2 X 12 Y 3 X 4 Y 1 X 8 Y 2
 X 16 Y 1 X -58 Y 2 X -4 Y 2 X 32 Y 1 X -24 Y 2 X 12 Y 1 X 6 Y 2 X 2 Y 1 X -8 Y 2 X -20 Y 2 X -16 Y 1 X 18 Y 2 X 26 Y 1 X -24 Y 2 X -2 Y 1 X 20 Y 2 X -30 Y 2 X 6 Y 1 X 32 Y 2 X -32 Y 1 X 34 Y 2 X -20 Y 2 X -34 Y 1 X 4 Y 2 X -2 Y 1 X 4 Y 2 X 10 Y 1 X
 -2 Y 2 X 22 Y 2 X -20 Y 1 X -18 Y 2 X 36 Y 1 X -30 Y 2 X 20 Y 1 X -10 Y 2 X -10 Y 2 X -4 Y 1 X -10 Y 2 X 44 Y 1 X -48 Y 2 X 52 Y 2 X -12 Y 1 X -28 Y 2 X 22 Y 1 X -16 Y 2 X 26 Y 1 X -20 Y 2 X -28 Y 2 X 40 Y 1 X 30 Y 2 X -14 Y 1 X -26 Y 2 X 16 Y 1 X
 -22 Y 2 X 28 Y 2 X -8 Y 1 X 12 Y 2 X -4 Y 1 X 8 Y 2 X 26 Y 1 X 6 Y 2 X 8 Y 2 X 22 Y 1 X 32 Y 2 X -42 Y 1 X 2 Y 2 X 60 Y 2 X -6 Y 3 X 20 Y 1 X 4 Y 2 X 80 Y 1 X -24 Y 2 X -4 Y 2 X 60 Y 1 X 27 Y 2 X -13 Y 1 X 53 Y 2 X 32 Y 1 X -4 Y 2 X 18 Y 2 X 6 Y 1 X
 24 Y 2 X 78 Y 1 X 12 Y 2 X 78 Y 1 X -30 Y 2 X -34 Y 2 X 100 Y 1 X 48 Y 2 X 28 Y 1 X -36 Y 2 X 48 Y 2 X 22 Y 1 X -14 Y 2 X 44 Y 1 X -22 Y 2 X 8 Y 1 X 60 Y 2 X -2 Y 2 X -22 Y 1 X 70 Y 2 X 34 Y 1 X -72 Y 2 X 165 Y 1 X -147 Y 2 X 96 Y 2 X -106 Y 1 X -20
 Y 2 X 66 Y 1 X 56 Y 2 X -100 Y 2 X -116 Y 1 X 54 Y 2 X 12 Y 1 X -48 Y 2 X 56 Y 1 X -48 Y 2 X -90 Y 2 X -48 Y 1 X -36 Y 2 X -46 Y 1 X 22 Y 2 X -116 Y 1 X 50 Y 4 X -72 Y 1 X 6 Y 2 X -56 Y 1 X -57 Y 2 X -34 Y 1 X -14 Y 2 X -8 Y 2 X -14 Y 1 X -32 Y 2 X
 12 Y 1 X -64 Y 2 X -46 Y 2 X -48 Y 1 X 34 Y 3 X -10 Y 2 X -50 Y 1 X -18 Y 2 X 16 Y 2 X -46 Y 1 X 28 Y 2 X -48 Y 1 X -6 Y 2 X 4 Y 1 X -24 Y 2 X 22 Y 2 X -24 Y 1 X -20 Y 2 X 18 Y 1 X 26 Y 2 X -44 Y 2 X 18 Y 1 X -14 Y 2 X 12 Y 1 X -40 Y 2 X 28 Y 1 X 6
 Y 2 X -20 Y 2 X 4 Y 1 X 36 Y 2 X -2 Y 1 X -20 Y 2 X -14 Y 1 X 36 Y 4 X 10 Y 1 X -40 Y 2 X 36 Y 1 X 14 Y 2 X 16 Y 1 X 30 Y 2 X -22 Y 2 X 36 Y 1 X -12 Y 2 X 24 Y 1 X 12 Y 2 X -34 Y 2 X 46 Y 1 X 18 Y 2 X 28 Y 1 X -8 Y 2 X 46 Y 1 X -16 Y 2 X 36 Y 2 X 20
 Y 1 X -20 Y 2 X -2 Y 1 X 80 Y 2 X -8 Y 1 X -8 Y 2 X 60 Y 2 X -32 Y 1 X 10 Y 2 X 83 Y 1 X 20 Y 2 X -18 Y 1 X -26 Y 2 X 80 Y 2 X 48 Y 1 X -116 Y 2 X 76 Y 3 X 40 Y 2 X 72 Y 1 X -22 Y 2 X 60 Y 1 X -40 Y 2 X -20 Y 1 X 32 Y 2 X -60 Y 2 X 20 Y 1 X 70 Y 2 X
 -20 Y 1 X 12 Y 2 X -26 Y 1 X -14 Y 2 X 10 Y 2 X 50 Y 1 X -114 Y 2 X 82 Y 1 X -82 Y 2 X -74 Y 2 X -2 Y 1 X 98 Y 2 X -86 Y 1 X 42 Y 2 X -78 Y 1 X 56 Y 2 X -40 Y 2 X -79 Y 1 X 4 Y 3 X 9 Y 2 X -45 Y 1 X -46 Y 2 X -26 Y 2 X -32 Y 1 X -56 Y 2 X 66 Y 1 X
 -78 Y 2 X -12 Y 1 X 12 Y 2 X 2 Y 2 X -42 Y 1 X -14 Y 2 X -18 Y 1 X 24 Y 2 X -86 Y 2 X -32 Y 1 X 56 Y 3 X -26 Y 2 X -18 Y 1 X 8 Y 2 X -46 Y 2 X -6 Y 1 X 32 Y 2 X -20 Y 1 X -18 Y 2 X -10 Y 1 X -4 Y 2 X 10 Y 2 X -12 Y 1 X -2 Y 2 X -16 Y 1 X -2 Y 2 X 18
 Y 1 X -16 Y 2 X 2 Y 2 X -2 Y 1 X 2 Y 2 X -22 Y 1 X 24 Y 2 X -20 Y 2 X 20 Y 1 X -10 Y 2 X -4 Y 1 X -8 Y 3 X -4 Y 2 X 12 Y 2 X -18 Y 1 X 8 Y 3 X 8 Y 2 X -18 Y 1 X 18 Y 2 X -8 Y 2 X -6 Y 4 X 10 Y 2 X -2 Y 2 X -10 Y 1 X 14 Y 2 X -12 Y 1 X 6 Y 2 X -10 Y
 1 X 6 Y 2 X 4 Y 2 X -6 Y 1 X 2 Y 2 X -10 Y 1 X 8 Y 2 X -6 Y 1 X 2 Y 2 X 12 Y 2 X -6 Y 1 X -6 Y 2 X 4 Y 1 X -8 Y 2 X 2 Y 1 X -2 Y 2 X 4 Y 2 X 6 Y 1 X -6 Y 2 X 12 Y 1 X -8 Y 2 X -4 Y 3 X 8 Y 2 X -6 Y 3 X -6 Y 1 X 6 Y 2 X 6 Y 2 X -4 Y 1 X -8 Y 5 X 2 Y
 1 X 2 Y 2 X 2 Y 3 X -6 Y 2 X 4 Y 1 X 2 Y 2 X -6 Y 3 X -2 Y 2 X 2 Y 1 X 2 Y 2 X 8 Y 1 X -10 Y 2 X 4 Y 3 X 2 Y 2 X -6 Y 1 X 2 Y 2 X -4 Y 1 X 4 Y 2 X -4 Y 3 X 2 Y 2 X 4 Y 1 X 2 Y 2 X -6 Y 1 X 4 Y 2 X -4 Y 5 X -2 Y 1 X 2 Y 2 X 2 Y 2 X -2 Y 1 X 6 Y 3 X
 -4 Y 2 X -4 Y 1 X 2 Y 2 X -2 Y 2 X 4 Y 1 X -2 Y 2 X 4 Y 3 X -2 Y 1 X -4 Y 4 X 4 Y 1 X -2 Y 2 X 4 Y 1 X -2 Y 3 X -2 Y 4 X -2 Y 1 X 6 Y 2 X -6 Y 1 X 4 Y 4 X -2 Y 3 X 2 Y 1 X -2 Y 2 X -2 Y 3 X 6 Y 2 X -4 Y 6 X -2 Y 1 X 4 Y 2 X -2 Y 2 X -2 Y 1 X 2 Y 2 X
 4 Y 1 X -4 Y 4 X -2 Y 1 X 2 Y 2 X -2 Y 1 X 4 Y 2 X -2 Y 1 X -2 Y 2 X 2 Y 2 X -2 Y 1 X 2 Y 2 X -2 Y 6 X 4 Y 2 X -4 Y 1 X 2 Y 3 X 4 Y 2 X -4 Y 1 X -2 Y 2 X 2 Y 5 X -2 Y 1 X 4 Y 2 X s black 227 154 m 1814 X s 227 191 m -37 Y s 306 172 m -18 Y s 385 172
 m -18 Y s 463 172 m -18 Y s 542 191 m -37 Y s 621 172 m -18 Y s 700 172 m -18 Y s 779 172 m -18 Y s 858 191 m -37 Y s 937 172 m -18 Y s 1016 172 m -18 Y s 1094 172 m -18 Y s 1173 191 m -37 Y s 1252 172 m -18 Y s 1331 172 m -18 Y s 1410 172 m -18 Y s
 1489 191 m -37 Y s 1568 172 m -18 Y s 1647 172 m -18 Y s 1725 172 m -18 Y s 1804 191 m -37 Y s 1804 191 m -37 Y s 1883 172 m -18 Y s 1962 172 m -18 Y s 2041 172 m -18 Y s
 gsave  2268 1538 0 0 C 211.784 104.263 t 0 r /Helvetica findfont 48.8732 sf 0 0 m (0) show NC gr 
 gsave  2268 1538 0 0 C 485.474 104.263 t 0 r /Helvetica findfont 48.8732 sf 0 0 m (2000) show NC gr 
 gsave  2268 1538 0 0 C 801.521 104.263 t 0 r /Helvetica findfont 48.8732 sf 0 0 m (4000) show NC gr 
 gsave  2268 1538 0 0 C 1117.57 104.263 t 0 r /Helvetica findfont 48.8732 sf 0 0 m (6000) show NC gr 
 gsave  2268 1538 0 0 C 1430.36 104.263 t 0 r /Helvetica findfont 48.8732 sf 0 0 m (8000) show NC gr 
 gsave  2268 1538 0 0 C 1733.37 104.263 t 0 r /Helvetica findfont 48.8732 sf 0 0 m (10000) show NC gr 
 gsave  2268 1538 0 0 C 1762.69 52.1314 t 0 r /Helvetica findfont 48.8732 sf 0 0 m (Energy [u.a.]) show NC gr  227 154 m 1230 Y s 281 154 m -54 X s 254 194 m -27 X s 254 234 m -27 X s 254 274 m -27 X s 254 314 m -27 X s 281 354 m -54 X s 254 394 m
 -27 X s 254 434 m -27 X s 254 474 m -27 X s 254 514 m -27 X s 281 554 m -54 X s 254 594 m -27 X s 254 634 m -27 X s 254 675 m -27 X s 254 715 m -27 X s 281 755 m -54 X s 254 795 m -27 X s 254 835 m -27 X s 254 875 m -27 X s 254 915 m -27 X s 281 955
 m -54 X s 254 995 m -27 X s 254 1035 m -27 X s 254 1075 m -27 X s 254 1115 m -27 X s 281 1155 m -54 X s 254 1195 m -27 X s 254 1235 m -27 X s 254 1275 m -27 X s 254 1315 m -27 X s 281 1356 m -54 X s 281 1356 m -54 X s
 gsave  2268 1538 0 0 C 188.976 136.845 t 0 r /Helvetica findfont 48.8732 sf 0 0 m (0) show NC gr 
 gsave  2268 1538 0 0 C 133.587 335.596 t 0 r /Helvetica findfont 48.8732 sf 0 0 m (100) show NC gr 
 gsave  2268 1538 0 0 C 133.587 537.605 t 0 r /Helvetica findfont 48.8732 sf 0 0 m (200) show NC gr 
 gsave  2268 1538 0 0 C 133.587 736.356 t 0 r /Helvetica findfont 48.8732 sf 0 0 m (300) show NC gr 
 gsave  2268 1538 0 0 C 133.587 938.365 t 0 r /Helvetica findfont 48.8732 sf 0 0 m (400) show NC gr 
 gsave  2268 1538 0 0 C 133.587 1137.12 t 0 r /Helvetica findfont 48.8732 sf 0 0 m (500) show NC gr 
 gsave  2268 1538 0 0 C 133.587 1339.13 t 0 r /Helvetica findfont 48.8732 sf 0 0 m (600) show NC gr 
 gsave  2268 1538 0 0 C 84.7135 1228.35 t 90 r /Helvetica findfont 48.8732 sf 0 0 m (Counts) show NC gr  1 1 1 c black
 gsave  2268 1538 0 0 C 583.22 1466.2 t 0 r /Helvetica findfont 74.9389 sf 0 0 m (Energy spectrum from detector A) show NC gr  1 1 1 c 453 431 1769 1007 bf black 1769 1007 m 453 X s 2222 1007 m 431 Y s 2222 1438 m -453 X s 1769 1438 m -431 Y s 1 1 1
 c black
 gsave  2268 1538 0 0 C 1824.6 1358.67 t 0 r /Helvetica findfont 91.23 sf 0 0 m (hqlongA) show NC gr  1769 1330 m 453 X s
 gsave  2268 1538 0 0 C 1788.76 1257.67 t 0 r /Helvetica findfont 48.8732 sf 0 0 m (Entries ) show NC gr 
 gsave  2268 1538 0 0 C 2023.35 1257.67 t 0 r /Helvetica findfont 48.8732 sf 0 0 m ( 112094) show NC gr 
 gsave  2268 1538 0 0 C 1788.76 1150.15 t 0 r /Helvetica findfont 48.8732 sf 0 0 m (Mean  ) show NC gr 
 gsave  2268 1538 0 0 C 2049.42 1150.15 t 0 r /Helvetica findfont 48.8732 sf 0 0 m (   6847) show NC gr 
 gsave  2268 1538 0 0 C 1788.76 1042.63 t 0 r /Helvetica findfont 48.8732 sf 0 0 m (Std Dev   ) show NC gr 
 gsave  2268 1538 0 0 C 2049.42 1042.63 t 0 r /Helvetica findfont 48.8732 sf 0 0 m (   1844) show NC gr  1 1 1 c black
 gsave  2268 1538 0 0 C 583.22 1466.2 t 0 r /Helvetica findfont 74.9389 sf 0 0 m (Energy spectrum from detector A) show NC gr 
 gr  gr showpage
end
%%EOF
