%!PS-Adobe-2.0 EPSF-2.0
%%BoundingBox:  0 0 567 384
%%Title: coinc_hq1.eps: canvas_hqB
%%Creator: ROOT Version 6.12/06
%%CreationDate: Mon May 21 00:07:52 2018
%%DocumentNeededResources: ProcSet (FontSetInit)
%%EndComments
%%BeginProlog
80 dict begin
/s {stroke} def /l {lineto} def /m {moveto} def /t {translate} def
/r {rotate} def /rl {roll}  def /R {repeat} def
/d {rlineto} def /rm {rmoveto} def /gr {grestore} def /f {eofill} def
/c {setrgbcolor} def /black {0 setgray} def /sd {setdash} def
/cl {closepath} def /sf {scalefont setfont} def /lw {setlinewidth} def
/box {m dup 0 exch d exch 0 d 0 exch neg d cl} def
/NC{systemdict begin initclip end}def/C{NC box clip newpath}def
/bl {box s} def /bf {gsave box gsave f grestore 1 lw [] 0 sd s grestore} def /Y { 0 exch d} def /X { 0 d} def 
/K {{pop pop 0 moveto} exch kshow} bind def
/ita {/ang 15 def gsave [1 0 ang dup sin exch cos div 1 0 0] concat} def 
/mp {newpath /y exch def /x exch def} def
/side {[w .77 mul w .23 mul] .385 w mul sd w 0 l currentpoint t -144 r} def
/mr {mp x y w2 0 360 arc} def /m24 {mr s} def /m20 {mr f} def
/mb {mp x y w2 add m w2 neg 0 d 0 w neg d w 0 d 0 w d cl} def
/mt {mp x y w2 add m w2 neg w neg d w 0 d cl} def
/w4 {w 4 div} def
/w6 {w 6 div} def
/w8 {w 8 div} def
/m21 {mb f} def /m25 {mb s} def /m22 {mt f} def /m26{mt s} def
/m23 {mp x y w2 sub m w2 w d w neg 0 d cl f} def
/m27 {mp x y w2 add m w3 neg w2 neg d w3 w2 neg d w3 w2 d cl s} def
/m28 {mp x w2 sub y w2 sub w3 add m w3 0 d  0 w3 neg d w3 0 d 0 w3 d w3 0 d  0 w3 d w3 neg 0 d 0 w3 d w3 neg 0 d 0 w3 neg d w3 neg 0 d cl s } def
/m29 {mp gsave x w2 sub y w2 add w3 sub m currentpoint t 4 {side} repeat cl fill gr} def
/m30 {mp gsave x w2 sub y w2 add w3 sub m currentpoint t 4 {side} repeat cl s gr} def
/m31 {mp x y w2 sub m 0 w d x w2 sub y m w 0 d x w2 sub y w2 add m w w neg d x w2 sub y w2 sub m w w d s} def
/m32 {mp x y w2 sub m w2 w d w neg 0 d cl s} def
/m33 {mp x y w2 add m w3 neg w2 neg d w3 w2 neg d w3 w2 d cl f} def
/m34 {mp x w2 sub y w2 sub w3 add m w3 0 d  0 w3 neg d w3 0 d 0 w3 d w3 0 d  0 w3 d w3 neg 0 d 0 w3 d w3 neg 0 d 0 w3 neg d w3 neg 0 d cl f } def
/m35 {mp x y w2 add m w2 neg w2 neg d w2 w2 neg d w2 w2 d w2 neg w2 d x y w2 sub m 0 w d x w2 sub y m w 0 d s} def
/m36 {mb x w2 sub y w2 add m w w neg d x w2 sub y w2 sub m w w d s} def
/m37 {mp x y m w4 neg w2 d w4 neg w2 neg d w2 0 d  w4 neg w2 neg d w2 0 d w4 neg w2 d w2 0 d w4 neg w2 d w4 neg w2 neg d cl s} def
/m38 {mp x w4 sub y w2 add m w4 neg w4 neg d 0 w2 neg d w4 w4 neg d w2 0 d w4 w4 d 0 w2 d w4 neg w4 d w2 neg 0 d x y w2 sub m 0 w d x w2 sub y m w 0 d cl s} def
/m39 {mp x y m w4 neg w2 d w4 neg w2 neg d w2 0 d  w4 neg w2 neg d w2 0 d w4 neg w2 d w2 0 d w4 neg w2 d w4 neg w2 neg d cl f} def
/m40 {mp x y m w4 w2 d w4 w4 neg d w2 neg w4 neg d w2 w4 neg d w4 neg w4 neg d w4 neg w2 d w4 neg w2 neg d w4 neg w4 d w2 w4 d w2 neg w4 d w4 w4 d w4 w2 neg d cl s} def
/m41 {mp x y m w4 w2 d w4 w4 neg d w2 neg w4 neg d w2 w4 neg d w4 neg w4 neg d w4 neg w2 d w4 neg w2 neg d w4 neg w4 d w2 w4 d w2 neg w4 d w4 w4 d w4 w2 neg d cl f} def
/m42 {mp x y w2 add m w8 neg w2 -3 4 div mul d w2 -3 4 div mul w8 neg d w2 3 4 div mul w8 neg d w8 w2 -3 4 div mul d w8 w2 3 4 div mul d w2 3 4 div mul w8 d w2 -3 4 div mul w8 d w8 neg w2 3 4 div mul d cl s} def
/m43 {mp x y w2 add m w8 neg w2 -3 4 div mul d w2 -3 4 div mul w8 neg d w2 3 4 div mul w8 neg d w8 w2 -3 4 div mul d w8 w2 3 4 div mul d w2 3 4 div mul w8 d w2 -3 4 div mul w8 d w8 neg w2 3 4 div mul d cl f} def
/m44 {mp x y m w6 neg w2 d w2 2 3 div mul 0 d w6 neg w2 neg d w2 w6 d 0 w2 -2 3 div mul d w2 neg w6 d w6 w2 neg d w2 -2 3 div mul 0 d w6 w2 d w2 neg w6 neg d 0 w2 2 3 div mul d w2 w6 neg d cl s} def
/m45 {mp x y m w6 neg w2 d w2 2 3 div mul 0 d w6 neg w2 neg d w2 w6 d 0 w2 -2 3 div mul d w2 neg w6 d w6 w2 neg d w2 -2 3 div mul 0 d w6 w2 d w2 neg w6 neg d 0 w2 2 3 div mul d w2 w6 neg d cl f} def
/m46 {mp x y w4 add m w4 neg w4 d w4 neg w4 neg d  w4 w4 neg d w4 neg w4 neg d w4 w4 neg d w4 w4 d w4 w4 neg d w4 w4 d w4 neg w4 d w4 w4 d w4 neg w4 d w4 neg w4 neg d cl s} def
/m47 {mp x y w4 add m w4 neg w4 d w4 neg w4 neg d w4 w4 neg d w4 neg w4 neg d  w4 w4 neg d w4 w4 d w4 w4 neg d w4 w4 d w4 neg w4 d w4 w4 d w4 neg w4 d w4 neg w4 neg d cl f} def
/m48 {mp x y w4 add m w4 neg w4 d w4 neg w4 neg d w4 w4 neg d  w4 neg w4 neg d w4 w4 neg d w4 w4 d w4 w4 neg d w4 w4 d w4 neg w4 d w4 w4 d w4 neg w4 d w4 neg w4 neg d  w4 w4 neg d w4 neg w4 neg d w4 neg w4 d w4 w4 d cl f} def
/m49 {mp x w2 sub w3 add y w2 sub w3 add m  0 w3 neg d w3 0 d 0 w3 d w3 0 d 0 w3 d w3 neg 0 d 0 w3 d w3 neg 0 d 0 w3 neg d w3 neg 0 d 0 w3 neg d w3 0 d 0 w3 d w3 0 d 0 w3 neg d w3 neg 0 d cl f } def
/m2 {mp x y w2 sub m 0 w d x w2 sub y m w 0 d s} def
/m5 {mp x w2 sub y w2 sub m w w d x w2 sub y w2 add m w w neg d s} def
%%IncludeResource: ProcSet (FontSetInit)
%%IncludeResource: font Times-Roman
%%IncludeResource: font Times-Italic
%%IncludeResource: font Times-Bold
%%IncludeResource: font Times-BoldItalic
%%IncludeResource: font Helvetica
%%IncludeResource: font Helvetica-Oblique
%%IncludeResource: font Helvetica-Bold
%%IncludeResource: font Helvetica-BoldOblique
%%IncludeResource: font Courier
%%IncludeResource: font Courier-Oblique
%%IncludeResource: font Courier-Bold
%%IncludeResource: font Courier-BoldOblique
%%IncludeResource: font Symbol
%%IncludeResource: font ZapfDingbats
/reEncode {exch findfont dup length dict begin {1 index /FID eq  {pop pop} {def} ifelse } forall /Encoding exch def currentdict end dup /FontName get exch definefont pop } def [/Times-Bold /Times-Italic /Times-BoldItalic /Helvetica /Helvetica-Oblique
 /Helvetica-Bold /Helvetica-BoldOblique /Courier /Courier-Oblique /Courier-Bold /Courier-BoldOblique /Times-Roman /AvantGarde-Book /AvantGarde-BookOblique /AvantGarde-Demi /AvantGarde-DemiOblique /Bookman-Demi /Bookman-DemiItalic /Bookman-Light
 /Bookman-LightItalic /Helvetica-Narrow /Helvetica-Narrow-Bold /Helvetica-Narrow-BoldOblique /Helvetica-Narrow-Oblique /NewCenturySchlbk-Roman /NewCenturySchlbk-Bold /NewCenturySchlbk-BoldItalic /NewCenturySchlbk-Italic /Palatino-Bold
 /Palatino-BoldItalic /Palatino-Italic /Palatino-Roman ] {ISOLatin1Encoding reEncode } forall
%%EndProlog
%%BeginSetup
%%EndSetup
newpath  gsave  .25 .25 scale  gsave  0 0 t black[  ] 0 sd 3 lw 1 1 1 c 2268 1538 0 0 bf black 1 1 1 c 1814 1230 227 154 bf black 1814 1230 227 154 bl 0 0 0.6 c 1 1 1 c black 0 0 0.6 c 227 154 m 44 X 1 Y 2 X -1 Y 94 X 1 Y 2 X -1 Y 3 X 1 Y 2 X -1 Y 13
 X 1 Y 3 X -1 Y 3 X 1 Y 2 X 1 Y 3 X -2 Y 5 X 1 Y 3 X 1 Y 5 X 1 Y 2 X -3 Y 3 X 2 Y 3 X -1 Y 2 X 2 Y 3 X -3 Y 2 X 1 Y 3 X 2 Y 3 X 3 Y 2 X -4 Y 5 X 2 Y 3 X -4 Y 2 X 5 Y 3 X -1 Y 3 X 2 Y 5 X -4 Y 2 X 2 Y 6 X 1 Y 2 X -2 Y 3 X 1 Y 2 X -2 Y 3 X 2 Y 3 X -3 Y
 2 X 2 Y 3 X 2 Y 2 X -1 Y 6 X 1 Y 2 X -3 Y 8 X 3 Y 2 X 1 Y 3 X -3 Y 3 X 2 Y 2 X -4 Y 3 X 2 Y 2 X -2 Y 8 X 4 Y 3 X -3 Y 2 X 4 Y 3 X -2 Y 3 X -2 Y 5 X 1 Y 5 X -3 Y 3 X 1 Y 2 X 1 Y 3 X -1 Y 2 X 3 Y 3 X -2 Y 3 X -1 Y 2 X 1 Y 3 X -1 Y 7 X 2 Y 3 X -1 Y 3 X
 1 Y 2 X 1 Y 3 X -3 Y 2 X 3 Y 3 X -3 Y 3 X 3 Y 2 X -4 Y 3 X 3 Y 2 X 3 Y 3 X -1 Y 5 X -4 Y 3 X 2 Y 2 X -3 Y 3 X 4 Y 3 X -1 Y 2 X -1 Y 3 X 1 Y 2 X -1 Y 3 X -2 Y 2 X 1 Y 3 X 2 Y 3 X -2 Y 7 X 3 Y 3 X 2 Y 5 X -3 Y 5 X -2 Y 3 X 1 Y 3 X 1 Y 2 X -2 Y 8 X 1 Y
 3 X -2 Y 2 X 2 Y 3 X 1 Y 2 X 3 Y 3 X -4 Y 2 X 2 Y 3 X -4 Y 3 X 2 Y 5 X 2 Y 2 X -2 Y 3 X 1 Y 3 X 5 Y 2 X -8 Y 3 X 1 Y 2 X 6 Y 6 X -4 Y 2 X -2 Y 8 X 2 Y 3 X 1 Y 2 X -2 Y 5 X 3 Y 3 X 1 Y 3 X -1 Y 2 X -3 Y 3 X 2 Y 2 X -1 Y 3 X -2 Y 2 X 4 Y 3 X -3 Y 3 X
 1 Y 2 X -1 Y 11 X 3 Y 2 X -2 Y 11 X 1 Y 2 X 4 Y 3 X -6 Y 2 X 4 Y 3 X -4 Y 3 X 2 Y 5 X 4 Y 2 X -3 Y 3 X -2 Y 2 X 1 Y 3 X 3 Y 3 X -2 Y 2 X 2 Y 3 X -2 Y 2 X 4 Y 3 X -2 Y 8 X 8 Y 2 X 4 Y 3 X -10 Y 3 X 8 Y 5 X 2 Y 2 X 1 Y 3 X 2 Y 3 X 6 Y 2 X -5 Y 3 X -1
 Y 2 X 14 Y 6 X 5 Y 2 X 1 Y 3 X 8 Y 2 X -8 Y 3 X 8 Y 5 X 10 Y 3 X -4 Y 2 X 16 Y 3 X -16 Y 2 X 33 Y 3 X -9 Y 3 X 5 Y 2 X -1 Y 3 X 1 Y 2 X -8 Y 3 X 24 Y 3 X -1 Y 2 X 32 Y 3 X -15 Y 2 X -5 Y 3 X 7 Y 5 X 21 Y 3 X -20 Y 5 X 17 Y 2 X -3 Y 3 X 25 Y 3 X -12
 Y 2 X 7 Y 3 X -11 Y 2 X 2 Y 3 X 9 Y 3 X 38 Y 2 X -32 Y 3 X 14 Y 2 X 10 Y 3 X -10 Y 3 X -4 Y 2 X -4 Y 3 X 8 Y 2 X -22 Y 3 X 19 Y 3 X 9 Y 2 X -8 Y 3 X 23 Y 2 X 9 Y 3 X 12 Y 2 X -13 Y 3 X 18 Y 3 X -9 Y 2 X -23 Y 3 X 47 Y 2 X -49 Y 3 X 22 Y 3 X 3 Y 2 X
 -10 Y 3 X 32 Y 2 X -6 Y 3 X -6 Y 3 X -2 Y 2 X 6 Y 3 X 46 Y 2 X -35 Y 3 X 5 Y 3 X 61 Y 2 X -40 Y 3 X -13 Y 2 X -3 Y 3 X -2 Y 3 X -14 Y 2 X 60 Y 3 X -19 Y 2 X 1 Y 3 X 8 Y 2 X -2 Y 3 X 16 Y 3 X -5 Y 2 X 16 Y 3 X 14 Y 2 X -1 Y 3 X -25 Y 3 X 9 Y 2 X 12 Y
 3 X -3 Y 2 X -6 Y 3 X 32 Y 3 X -47 Y 2 X 33 Y 3 X -4 Y 2 X -2 Y 3 X 6 Y 3 X 28 Y 2 X -29 Y 3 X 37 Y 2 X -18 Y 3 X 6 Y 5 X -24 Y 3 X 22 Y 2 X 31 Y 3 X -68 Y 2 X 5 Y 3 X 15 Y 3 X 46 Y 2 X -28 Y 3 X -2 Y 2 X -4 Y 3 X 15 Y 3 X 11 Y 2 X -6 Y 3 X -13 Y 2
 X -34 Y 3 X 45 Y 3 X -28 Y 2 X 5 Y 3 X -37 Y 2 X 54 Y 3 X -40 Y 3 X 31 Y 2 X -11 Y 3 X 4 Y 2 X -22 Y 3 X -44 Y 2 X 35 Y 3 X 12 Y 3 X -14 Y 2 X 8 Y 3 X -32 Y 2 X -1 Y 3 X 7 Y 3 X 1 Y 2 X 28 Y 3 X -65 Y 2 X 27 Y 3 X 11 Y 3 X -35 Y 2 X 7 Y 3 X 19 Y 2 X
 -32 Y 3 X 14 Y 3 X -35 Y 2 X 61 Y 3 X -18 Y 2 X -7 Y 3 X 5 Y 2 X -16 Y 3 X -10 Y 3 X 25 Y 2 X -52 Y 3 X 47 Y 2 X 24 Y 3 X -25 Y 3 X -22 Y 2 X 18 Y 5 X 21 Y 3 X -31 Y 3 X 19 Y 2 X -22 Y 3 X 4 Y 2 X 20 Y 3 X -12 Y 3 X 4 Y 2 X 2 Y 3 X -6 Y 2 X -2 Y 3 X
 -12 Y 3 X 31 Y 2 X -12 Y 3 X 27 Y 2 X -15 Y 3 X 11 Y 2 X -39 Y 3 X 60 Y 3 X -12 Y 2 X -49 Y 3 X 43 Y 2 X 3 Y 3 X 41 Y 3 X -10 Y 2 X 10 Y 3 X 56 Y 2 X -15 Y 3 X 56 Y 3 X 18 Y 2 X 35 Y 3 X 5 Y 2 X 71 Y 3 X 4 Y 3 X 45 Y 2 X 34 Y 3 X 83 Y 2 X 18 Y 5 X
 37 Y 3 X 113 Y 3 X 25 Y 2 X 12 Y 3 X 18 Y 2 X 38 Y 3 X 8 Y 3 X 41 Y 2 X 42 Y 3 X -20 Y 2 X 118 Y 3 X -77 Y 3 X -29 Y 2 X -2 Y 3 X -16 Y 2 X 2 Y 3 X -1 Y 3 X -48 Y 2 X -29 Y 3 X -62 Y 2 X -48 Y 3 X 22 Y 5 X -106 Y 3 X -6 Y 2 X -64 Y 3 X -69 Y 2 X -39
 Y 3 X -24 Y 3 X -30 Y 2 X -46 Y 3 X -51 Y 2 X 5 Y 3 X -35 Y 3 X -20 Y 2 X -9 Y 3 X -39 Y 2 X -16 Y 3 X -2 Y 3 X -14 Y 2 X -4 Y 3 X -11 Y 2 X -19 Y 3 X 14 Y 3 X 2 Y 2 X 5 Y 3 X 1 Y 2 X 35 Y 3 X 33 Y 2 X -44 Y 3 X 48 Y 3 X 34 Y 2 X 25 Y 3 X 27 Y 2 X
 -23 Y 3 X 115 Y 3 X 6 Y 2 X -12 Y 3 X 96 Y 2 X -41 Y 3 X 19 Y 3 X 103 Y 2 X -16 Y 3 X 31 Y 2 X 22 Y 3 X 58 Y 3 X 73 Y 2 X -75 Y 3 X 26 Y 2 X 8 Y 3 X -65 Y 2 X 86 Y 3 X -35 Y 3 X -31 Y 2 X -1 Y 3 X -48 Y 2 X 53 Y 3 X -80 Y 3 X 32 Y 2 X -65 Y 3 X 16 Y
 2 X -75 Y 3 X -38 Y 3 X -22 Y 2 X 31 Y 3 X -43 Y 2 X -78 Y 3 X -28 Y 3 X -16 Y 2 X -1 Y 3 X -23 Y 2 X -83 Y 3 X 7 Y 3 X 2 Y 2 X -24 Y 3 X -68 Y 2 X -20 Y 3 X 24 Y 2 X -46 Y 3 X -26 Y 3 X 2 Y 2 X -19 Y 3 X -22 Y 2 X 16 Y 3 X -10 Y 3 X -34 Y 2 X 9 Y 3
 X -34 Y 2 X 7 Y 3 X -14 Y 3 X -3 Y 2 X -7 Y 3 X -22 Y 5 X 6 Y 3 X 11 Y 2 X -11 Y 3 X -18 Y 2 X 17 Y 3 X -31 Y 2 X 13 Y 3 X -11 Y 3 X -1 Y 2 X -1 Y 3 X -5 Y 2 X 8 Y 3 X -7 Y 3 X -6 Y 2 X 4 Y 3 X -4 Y 2 X -7 Y 3 X 9 Y 3 X -3 Y 2 X -1 Y 3 X 5 Y 2 X -4
 Y 3 X -1 Y 3 X -7 Y 2 X -7 Y 3 X 7 Y 2 X 3 Y 3 X -5 Y 2 X 4 Y 3 X -8 Y 3 X 7 Y 2 X -1 Y 3 X -1 Y 2 X -1 Y 3 X 2 Y 3 X -2 Y 2 X 3 Y 3 X -6 Y 2 X 10 Y 3 X -5 Y 5 X 4 Y 3 X -4 Y 2 X -7 Y 3 X 9 Y 3 X -7 Y 2 X 3 Y 3 X -4 Y 2 X 8 Y 3 X 1 Y 3 X -4 Y 2 X 1
 Y 3 X -8 Y 2 X 10 Y 3 X -1 Y 2 X -1 Y 3 X 3 Y 3 X -10 Y 2 X 8 Y 3 X -6 Y 2 X 2 Y 3 X -3 Y 3 X -4 Y 2 X 4 Y 3 X -3 Y 2 X -1 Y 6 X 8 Y 2 X 1 Y 3 X -4 Y 2 X -9 Y 3 X 14 Y 3 X -9 Y 2 X 3 Y 3 X -2 Y 2 X 1 Y 3 X -4 Y 2 X 2 Y 3 X 4 Y 3 X -6 Y 2 X 4 Y 3 X
 -3 Y 5 X 3 Y 3 X -1 Y 2 X -1 Y 3 X -1 Y 2 X 2 Y 3 X -3 Y 3 X -1 Y 2 X 2 Y 3 X 1 Y 2 X -2 Y 6 X 4 Y 2 X -5 Y 3 X 2 Y 2 X 1 Y 3 X 3 Y 3 X -6 Y 2 X 1 Y 3 X -1 Y 2 X 1 Y 5 X 1 Y 3 X -4 Y 3 X 5 Y 2 X -2 Y 3 X 3 Y 2 X -3 Y 3 X 1 Y 3 X -1 Y 5 X -3 Y 2 X 4
 Y 3 X -2 Y 3 X 2 Y 2 X -2 Y 5 X 1 Y 6 X 2 Y 2 X -2 Y 5 X -2 Y 3 X 2 Y 5 X 1 Y 3 X -1 Y 2 X 2 Y 5 X -5 Y 3 X 3 Y 3 X 3 Y 2 X -2 Y 3 X -2 Y 2 X -1 Y 3 X 7 Y 3 X 1 Y 2 X -5 Y 3 X -2 Y 2 X 5 Y 3 X s black 227 154 m 1814 X s 227 191 m -37 Y s 279 172 m
 -18 Y s 330 172 m -18 Y s 382 172 m -18 Y s 434 172 m -18 Y s 486 191 m -37 Y s 538 172 m -18 Y s 590 172 m -18 Y s 641 172 m -18 Y s 693 172 m -18 Y s 745 191 m -37 Y s 797 172 m -18 Y s 849 172 m -18 Y s 901 172 m -18 Y s 952 172 m -18 Y s 1004
 191 m -37 Y s 1056 172 m -18 Y s 1108 172 m -18 Y s 1160 172 m -18 Y s 1212 172 m -18 Y s 1263 191 m -37 Y s 1315 172 m -18 Y s 1367 172 m -18 Y s 1419 172 m -18 Y s 1471 172 m -18 Y s 1523 191 m -37 Y s 1574 172 m -18 Y s 1626 172 m -18 Y s 1678
 172 m -18 Y s 1730 172 m -18 Y s 1782 191 m -37 Y s 1834 172 m -18 Y s 1885 172 m -18 Y s 1937 172 m -18 Y s 1989 172 m -18 Y s 2041 191 m -37 Y s
 gsave  2268 1538 0 0 C 211.784 104.263 t 0 r /Helvetica findfont 48.8732 sf 0 0 m (0) show NC gr 
 gsave  2268 1538 0 0 C 430.084 104.263 t 0 r /Helvetica findfont 48.8732 sf 0 0 m (1000) show NC gr 
 gsave  2268 1538 0 0 C 687.483 104.263 t 0 r /Helvetica findfont 48.8732 sf 0 0 m (2000) show NC gr 
 gsave  2268 1538 0 0 C 948.14 104.263 t 0 r /Helvetica findfont 48.8732 sf 0 0 m (3000) show NC gr 
 gsave  2268 1538 0 0 C 1205.54 104.263 t 0 r /Helvetica findfont 48.8732 sf 0 0 m (4000) show NC gr 
 gsave  2268 1538 0 0 C 1466.2 104.263 t 0 r /Helvetica findfont 48.8732 sf 0 0 m (5000) show NC gr 
 gsave  2268 1538 0 0 C 1723.59 104.263 t 0 r /Helvetica findfont 48.8732 sf 0 0 m (6000) show NC gr 
 gsave  2268 1538 0 0 C 1984.25 104.263 t 0 r /Helvetica findfont 48.8732 sf 0 0 m (7000) show NC gr 
 gsave  2268 1538 0 0 C 1762.69 52.1314 t 0 r /Helvetica findfont 48.8732 sf 0 0 m (Energy [u.a.]) show NC gr  227 154 m 1230 Y s 281 154 m -54 X s 254 208 m -27 X s 254 261 m -27 X s 254 315 m -27 X s 281 369 m -54 X s 254 423 m -27 X s 254 476 m
 -27 X s 254 530 m -27 X s 281 584 m -54 X s 254 638 m -27 X s 254 691 m -27 X s 254 745 m -27 X s 281 799 m -54 X s 254 853 m -27 X s 254 906 m -27 X s 254 960 m -27 X s 281 1014 m -54 X s 254 1068 m -27 X s 254 1121 m -27 X s 254 1175 m -27 X s 281
 1229 m -54 X s 281 1229 m -54 X s 254 1283 m -27 X s 254 1336 m -27 X s
 gsave  2268 1538 0 0 C 188.976 136.845 t 0 r /Helvetica findfont 48.8732 sf 0 0 m (0) show NC gr 
 gsave  2268 1538 0 0 C 133.587 351.887 t 0 r /Helvetica findfont 48.8732 sf 0 0 m (200) show NC gr 
 gsave  2268 1538 0 0 C 133.587 566.929 t 0 r /Helvetica findfont 48.8732 sf 0 0 m (400) show NC gr 
 gsave  2268 1538 0 0 C 133.587 781.971 t 0 r /Helvetica findfont 48.8732 sf 0 0 m (600) show NC gr 
 gsave  2268 1538 0 0 C 133.587 997.013 t 0 r /Helvetica findfont 48.8732 sf 0 0 m (800) show NC gr 
 gsave  2268 1538 0 0 C 107.521 1212.06 t 0 r /Helvetica findfont 48.8732 sf 0 0 m (1000) show NC gr 
 gsave  2268 1538 0 0 C 58.6478 1228.35 t 90 r /Helvetica findfont 48.8732 sf 0 0 m (Counts) show NC gr  1 1 1 c black
 gsave  2268 1538 0 0 C 583.22 1466.2 t 0 r /Helvetica findfont 74.9389 sf 0 0 m (Energy spectrum from detector B) show NC gr  1 1 1 c 453 431 1769 1007 bf black 1769 1007 m 453 X s 2222 1007 m 431 Y s 2222 1438 m -453 X s 1769 1438 m -431 Y s 1 1 1
 c black
 gsave  2268 1538 0 0 C 1827.86 1358.67 t 0 r /Helvetica findfont 91.23 sf 0 0 m (hqlongB) show NC gr  1769 1330 m 453 X s
 gsave  2268 1538 0 0 C 1788.76 1257.67 t 0 r /Helvetica findfont 48.8732 sf 0 0 m (Entries ) show NC gr 
 gsave  2268 1538 0 0 C 2023.35 1257.67 t 0 r /Helvetica findfont 48.8732 sf 0 0 m ( 112094) show NC gr 
 gsave  2268 1538 0 0 C 1788.76 1150.15 t 0 r /Helvetica findfont 48.8732 sf 0 0 m (Mean  ) show NC gr 
 gsave  2268 1538 0 0 C 2049.42 1150.15 t 0 r /Helvetica findfont 48.8732 sf 0 0 m (   4350) show NC gr 
 gsave  2268 1538 0 0 C 1788.76 1042.63 t 0 r /Helvetica findfont 48.8732 sf 0 0 m (Std Dev   ) show NC gr 
 gsave  2268 1538 0 0 C 2062.45 1042.63 t 0 r /Helvetica findfont 48.8732 sf 0 0 m (    793) show NC gr  1 1 1 c black
 gsave  2268 1538 0 0 C 583.22 1466.2 t 0 r /Helvetica findfont 74.9389 sf 0 0 m (Energy spectrum from detector B) show NC gr 
 gr  gr showpage
end
%%EOF
