%!PS-Adobe-2.0 EPSF-2.0
%%BoundingBox:  0 0 567 384
%%Title: energy_coinc.eps: Confronto spettri in coincidenza energetica
%%Creator: ROOT Version 6.13/01
%%CreationDate: Tue May 15 18:43:57 2018
%%DocumentNeededResources: ProcSet (FontSetInit)
%%EndComments
%%BeginProlog
80 dict begin
/s {stroke} def /l {lineto} def /m {moveto} def /t {translate} def
/r {rotate} def /rl {roll}  def /R {repeat} def
/d {rlineto} def /rm {rmoveto} def /gr {grestore} def /f {eofill} def
/c {setrgbcolor} def /black {0 setgray} def /sd {setdash} def
/cl {closepath} def /sf {scalefont setfont} def /lw {setlinewidth} def
/box {m dup 0 exch d exch 0 d 0 exch neg d cl} def
/NC{systemdict begin initclip end}def/C{NC box clip newpath}def
/bl {box s} def /bf {gsave box gsave f grestore 1 lw [] 0 sd s grestore} def /Y { 0 exch d} def /X { 0 d} def 
/K {{pop pop 0 moveto} exch kshow} bind def
/ita {/ang 15 def gsave [1 0 ang dup sin exch cos div 1 0 0] concat} def 
/mp {newpath /y exch def /x exch def} def
/side {[w .77 mul w .23 mul] .385 w mul sd w 0 l currentpoint t -144 r} def
/mr {mp x y w2 0 360 arc} def /m24 {mr s} def /m20 {mr f} def
/mb {mp x y w2 add m w2 neg 0 d 0 w neg d w 0 d 0 w d cl} def
/mt {mp x y w2 add m w2 neg w neg d w 0 d cl} def
/w4 {w 4 div} def
/w6 {w 6 div} def
/w8 {w 8 div} def
/m21 {mb f} def /m25 {mb s} def /m22 {mt f} def /m26{mt s} def
/m23 {mp x y w2 sub m w2 w d w neg 0 d cl f} def
/m27 {mp x y w2 add m w3 neg w2 neg d w3 w2 neg d w3 w2 d cl s} def
/m28 {mp x w2 sub y w2 sub w3 add m w3 0 d  0 w3 neg d w3 0 d 0 w3 d w3 0 d  0 w3 d w3 neg 0 d 0 w3 d w3 neg 0 d 0 w3 neg d w3 neg 0 d cl s } def
/m29 {mp gsave x w2 sub y w2 add w3 sub m currentpoint t 4 {side} repeat cl fill gr} def
/m30 {mp gsave x w2 sub y w2 add w3 sub m currentpoint t 4 {side} repeat cl s gr} def
/m31 {mp x y w2 sub m 0 w d x w2 sub y m w 0 d x w2 sub y w2 add m w w neg d x w2 sub y w2 sub m w w d s} def
/m32 {mp x y w2 sub m w2 w d w neg 0 d cl s} def
/m33 {mp x y w2 add m w3 neg w2 neg d w3 w2 neg d w3 w2 d cl f} def
/m34 {mp x w2 sub y w2 sub w3 add m w3 0 d  0 w3 neg d w3 0 d 0 w3 d w3 0 d  0 w3 d w3 neg 0 d 0 w3 d w3 neg 0 d 0 w3 neg d w3 neg 0 d cl f } def
/m35 {mp x y w2 add m w2 neg w2 neg d w2 w2 neg d w2 w2 d w2 neg w2 d x y w2 sub m 0 w d x w2 sub y m w 0 d s} def
/m36 {mb x w2 sub y w2 add m w w neg d x w2 sub y w2 sub m w w d s} def
/m37 {mp x y m w4 neg w2 d w4 neg w2 neg d w2 0 d  w4 neg w2 neg d w2 0 d w4 neg w2 d w2 0 d w4 neg w2 d w4 neg w2 neg d cl s} def
/m38 {mp x w4 sub y w2 add m w4 neg w4 neg d 0 w2 neg d w4 w4 neg d w2 0 d w4 w4 d 0 w2 d w4 neg w4 d w2 neg 0 d x y w2 sub m 0 w d x w2 sub y m w 0 d cl s} def
/m39 {mp x y m w4 neg w2 d w4 neg w2 neg d w2 0 d  w4 neg w2 neg d w2 0 d w4 neg w2 d w2 0 d w4 neg w2 d w4 neg w2 neg d cl f} def
/m40 {mp x y m w4 w2 d w4 w4 neg d w2 neg w4 neg d w2 w4 neg d w4 neg w4 neg d w4 neg w2 d w4 neg w2 neg d w4 neg w4 d w2 w4 d w2 neg w4 d w4 w4 d w4 w2 neg d cl s} def
/m41 {mp x y m w4 w2 d w4 w4 neg d w2 neg w4 neg d w2 w4 neg d w4 neg w4 neg d w4 neg w2 d w4 neg w2 neg d w4 neg w4 d w2 w4 d w2 neg w4 d w4 w4 d w4 w2 neg d cl f} def
/m42 {mp x y w2 add m w8 neg w2 -3 4 div mul d w2 -3 4 div mul w8 neg d w2 3 4 div mul w8 neg d w8 w2 -3 4 div mul d w8 w2 3 4 div mul d w2 3 4 div mul w8 d w2 -3 4 div mul w8 d w8 neg w2 3 4 div mul d cl s} def
/m43 {mp x y w2 add m w8 neg w2 -3 4 div mul d w2 -3 4 div mul w8 neg d w2 3 4 div mul w8 neg d w8 w2 -3 4 div mul d w8 w2 3 4 div mul d w2 3 4 div mul w8 d w2 -3 4 div mul w8 d w8 neg w2 3 4 div mul d cl f} def
/m44 {mp x y m w6 neg w2 d w2 2 3 div mul 0 d w6 neg w2 neg d w2 w6 d 0 w2 -2 3 div mul d w2 neg w6 d w6 w2 neg d w2 -2 3 div mul 0 d w6 w2 d w2 neg w6 neg d 0 w2 2 3 div mul d w2 w6 neg d cl s} def
/m45 {mp x y m w6 neg w2 d w2 2 3 div mul 0 d w6 neg w2 neg d w2 w6 d 0 w2 -2 3 div mul d w2 neg w6 d w6 w2 neg d w2 -2 3 div mul 0 d w6 w2 d w2 neg w6 neg d 0 w2 2 3 div mul d w2 w6 neg d cl f} def
/m46 {mp x y w4 add m w4 neg w4 d w4 neg w4 neg d  w4 w4 neg d w4 neg w4 neg d w4 w4 neg d w4 w4 d w4 w4 neg d w4 w4 d w4 neg w4 d w4 w4 d w4 neg w4 d w4 neg w4 neg d cl s} def
/m47 {mp x y w4 add m w4 neg w4 d w4 neg w4 neg d w4 w4 neg d w4 neg w4 neg d  w4 w4 neg d w4 w4 d w4 w4 neg d w4 w4 d w4 neg w4 d w4 w4 d w4 neg w4 d w4 neg w4 neg d cl f} def
/m48 {mp x y w4 add m w4 neg w4 d w4 neg w4 neg d w4 w4 neg d  w4 neg w4 neg d w4 w4 neg d w4 w4 d w4 w4 neg d w4 w4 d w4 neg w4 d w4 w4 d w4 neg w4 d w4 neg w4 neg d  w4 w4 neg d w4 neg w4 neg d w4 neg w4 d w4 w4 d cl f} def
/m49 {mp x w2 sub w3 add y w2 sub w3 add m  0 w3 neg d w3 0 d 0 w3 d w3 0 d 0 w3 d w3 neg 0 d 0 w3 d w3 neg 0 d 0 w3 neg d w3 neg 0 d 0 w3 neg d w3 0 d 0 w3 d w3 0 d 0 w3 neg d w3 neg 0 d cl f } def
/m2 {mp x y w2 sub m 0 w d x w2 sub y m w 0 d s} def
/m5 {mp x w2 sub y w2 sub m w w d x w2 sub y w2 add m w w neg d s} def
%%IncludeResource: ProcSet (FontSetInit)
%%IncludeResource: font Times-Roman
%%IncludeResource: font Times-Italic
%%IncludeResource: font Times-Bold
%%IncludeResource: font Times-BoldItalic
%%IncludeResource: font Helvetica
%%IncludeResource: font Helvetica-Oblique
%%IncludeResource: font Helvetica-Bold
%%IncludeResource: font Helvetica-BoldOblique
%%IncludeResource: font Courier
%%IncludeResource: font Courier-Oblique
%%IncludeResource: font Courier-Bold
%%IncludeResource: font Courier-BoldOblique
%%IncludeResource: font Symbol
%%IncludeResource: font ZapfDingbats
/reEncode {exch findfont dup length dict begin {1 index /FID eq  {pop pop} {def} ifelse } forall /Encoding exch def currentdict end dup /FontName get exch definefont pop } def [/Times-Bold /Times-Italic /Times-BoldItalic /Helvetica /Helvetica-Oblique
 /Helvetica-Bold /Helvetica-BoldOblique /Courier /Courier-Oblique /Courier-Bold /Courier-BoldOblique /Times-Roman /AvantGarde-Book /AvantGarde-BookOblique /AvantGarde-Demi /AvantGarde-DemiOblique /Bookman-Demi /Bookman-DemiItalic /Bookman-Light
 /Bookman-LightItalic /Helvetica-Narrow /Helvetica-Narrow-Bold /Helvetica-Narrow-BoldOblique /Helvetica-Narrow-Oblique /NewCenturySchlbk-Roman /NewCenturySchlbk-Bold /NewCenturySchlbk-BoldItalic /NewCenturySchlbk-Italic /Palatino-Bold
 /Palatino-BoldItalic /Palatino-Italic /Palatino-Roman ] {ISOLatin1Encoding reEncode } forall
%%EndProlog
%%BeginSetup
%%EndSetup
newpath  gsave  .25 .25 scale  gsave  0 0 t black[  ] 0 sd 3 lw 1 1 1 c 2268 1537 0 0 bf black 1 1 1 c 1088 1506 23 15 bf black 1 1 1 c 870 1205 132 166 bf black 870 1205 132 166 bl 0 0 0.6 c 1 1 1 c black 0 0 0.6 c 132 166 m 79 X 2 Y 2 X -2 Y 23 X 2
 Y 1 X -2 Y 6 X 2 Y 2 X -2 Y 3 X 2 Y 1 X -2 Y 4 X 2 Y 2 X -2 Y 1 X 2 Y 2 X -2 Y 6 X 2 Y 1 X -2 Y 2 X 4 Y 1 X -4 Y 9 X 2 Y 3 X -2 Y 5 X 2 Y 2 X -2 Y 16 X 2 Y 1 X -2 Y 3 X 4 Y 2 X -4 Y 13 X 2 Y 1 X -2 Y 7 X 2 Y 2 X -2 Y 6 X 2 Y 1 X -2 Y 3 X 4 Y 1 X -4
 Y 2 X 4 Y 1 X -2 Y 6 X -2 Y 2 X 4 Y 2 X 2 Y 2 X 2 Y 1 X -2 Y 2 X 2 Y 1 X -2 Y 2 X 3 Y 1 X 10 Y 2 X -4 Y 1 X 6 Y 2 X 5 Y 1 X 8 Y 1 X -9 Y 2 X 17 Y 1 X 2 Y 2 X 9 Y 1 X -17 Y 2 X 26 Y 1 X -5 Y 2 X 30 Y 1 X 25 Y 2 X -40 Y 1 X 21 Y 1 X 7 Y 2 X -21 Y 1 X
 25 Y 2 X 11 Y 1 X -7 Y 2 X 19 Y 1 X 19 Y 2 X -17 Y 1 X 9 Y 1 X 8 Y 2 X -57 Y 1 X 34 Y 2 X 17 Y 1 X 2 Y 3 X -30 Y 2 X 45 Y 3 X -4 Y 1 X -11 Y 1 X 17 Y 2 X -13 Y 1 X 7 Y 2 X 8 Y 1 X 4 Y 2 X -14 Y 1 X 8 Y 2 X -19 Y 1 X 27 Y 2 X -23 Y 1 X 26 Y 1 X -9 Y
 2 X -8 Y 1 X -20 Y 2 X 30 Y 1 X -29 Y 2 X 55 Y 1 X -5 Y 2 X -23 Y 1 X 47 Y 1 X -49 Y 2 X 13 Y 1 X -34 Y 2 X 13 Y 1 X -20 Y 2 X 28 Y 1 X 9 Y 2 X -17 Y 1 X 12 Y 2 X -21 Y 1 X 11 Y 1 X -24 Y 2 X 36 Y 1 X -31 Y 2 X 46 Y 1 X -30 Y 2 X 20 Y 1 X -34 Y 2 X
 29 Y 1 X 45 Y 1 X -49 Y 2 X -10 Y 1 X -34 Y 2 X 40 Y 1 X -2 Y 2 X 19 Y 1 X -36 Y 2 X 19 Y 1 X 2 Y 2 X -4 Y 1 X 27 Y 1 X -12 Y 2 X -15 Y 1 X -15 Y 2 X 13 Y 1 X 19 Y 2 X 10 Y 1 X 26 Y 2 X -17 Y 1 X -41 Y 2 X 47 Y 1 X -27 Y 1 X 10 Y 2 X -23 Y 1 X -13 Y
 2 X 36 Y 1 X 30 Y 2 X -32 Y 1 X 2 Y 2 X -8 Y 1 X -4 Y 1 X 2 Y 2 X -11 Y 1 X 57 Y 2 X -40 Y 1 X 13 Y 2 X -32 Y 1 X 34 Y 2 X 6 Y 1 X -8 Y 2 X -43 Y 1 X 28 Y 1 X 8 Y 2 X 9 Y 1 X 10 Y 2 X -8 Y 1 X -4 Y 2 X -7 Y 1 X -19 Y 2 X 55 Y 1 X -15 Y 2 X -33 Y 1 X
 19 Y 1 X 15 Y 2 X -30 Y 1 X 40 Y 2 X -15 Y 3 X -8 Y 1 X 8 Y 2 X -2 Y 1 X -13 Y 1 X -6 Y 2 X -15 Y 1 X 26 Y 2 X -2 Y 1 X 29 Y 2 X 4 Y 1 X -16 Y 2 X -34 Y 1 X -11 Y 2 X 66 Y 1 X -2 Y 1 X -28 Y 2 X -19 Y 1 X 30 Y 2 X -43 Y 1 X 11 Y 2 X -6 Y 6 X -17 Y 1
 X -5 Y 1 X 22 Y 2 X 12 Y 1 X -25 Y 2 X -9 Y 1 X 7 Y 2 X -39 Y 1 X 1 Y 2 X 10 Y 1 X 4 Y 1 X -34 Y 2 X -10 Y 1 X 19 Y 2 X 13 Y 1 X -53 Y 2 X -5 Y 1 X 3 Y 2 X 23 Y 1 X -11 Y 2 X 4 Y 1 X -6 Y 1 X 4 Y 2 X -17 Y 1 X -6 Y 2 X 19 Y 1 X -17 Y 2 X -4 Y 1 X 17
 Y 2 X -24 Y 1 X 11 Y 3 X 15 Y 1 X -30 Y 2 X 4 Y 1 X 22 Y 2 X -5 Y 1 X -19 Y 2 X -4 Y 1 X 13 Y 2 X -9 Y 1 X -8 Y 1 X 11 Y 2 X 2 Y 1 X 4 Y 2 X 2 Y 1 X 15 Y 2 X -26 Y 3 X 9 Y 1 X 2 Y 2 X -11 Y 1 X 11 Y 1 X -2 Y 2 X -4 Y 1 X -2 Y 2 X 8 Y 1 X 13 Y 2 X -5
 Y 1 X 34 Y 2 X 13 Y 1 X -4 Y 1 X -15 Y 2 X 30 Y 1 X 14 Y 2 X 22 Y 1 X -9 Y 2 X 55 Y 1 X 5 Y 2 X 34 Y 1 X 70 Y 2 X -30 Y 1 X 66 Y 1 X 82 Y 2 X 11 Y 1 X 49 Y 2 X 50 Y 1 X 83 Y 2 X 97 Y 1 X -40 Y 2 X 72 Y 1 X 93 Y 2 X 18 Y 1 X 59 Y 1 X -21 Y 2 X 84 Y 1
 X 22 Y 2 X 2 Y 1 X 133 Y 2 X -101 Y 1 X -17 Y 2 X 125 Y 1 X -265 Y 1 X 87 Y 2 X 12 Y 1 X -186 Y 2 X -66 Y 1 X -68 Y 2 X 4 Y 1 X -48 Y 2 X -98 Y 1 X -65 Y 2 X -26 Y 1 X -15 Y 1 X -112 Y 2 X -59 Y 1 X -11 Y 2 X -45 Y 1 X -31 Y 2 X -34 Y 1 X -38 Y 3 X
 -24 Y 2 X -6 Y 1 X -6 Y 1 X -13 Y 2 X 2 Y 1 X -17 Y 2 X 2 Y 1 X -2 Y 2 X 4 Y 1 X -12 Y 2 X 4 Y 1 X -4 Y 1 X 10 Y 2 X 2 Y 1 X -2 Y 2 X -10 Y 1 X 10 Y 2 X -10 Y 1 X 10 Y 2 X 5 Y 1 X -9 Y 2 X 11 Y 1 X -5 Y 1 X 9 Y 2 X 17 Y 1 X -7 Y 2 X 11 Y 1 X -6 Y 2
 X 2 Y 1 X -4 Y 2 X -15 Y 1 X 15 Y 1 X 21 Y 2 X -11 Y 1 X 19 Y 2 X -19 Y 1 X 7 Y 2 X 6 Y 1 X -13 Y 2 X 2 Y 1 X -6 Y 2 X 6 Y 1 X 2 Y 1 X -4 Y 2 X -19 Y 1 X 9 Y 2 X 12 Y 1 X -15 Y 2 X -12 Y 1 X 12 Y 2 X -8 Y 1 X 4 Y 2 X -13 Y 1 X -2 Y 3 X 11 Y 1 X -9 Y
 2 X -14 Y 1 X 8 Y 2 X 6 Y 1 X -2 Y 2 X -8 Y 1 X -7 Y 1 X 3 Y 2 X 4 Y 1 X -2 Y 3 X -9 Y 2 X 4 Y 3 X 1 Y 1 X -5 Y 2 X 4 Y 1 X -6 Y 3 X 4 Y 1 X 2 Y 2 X -2 Y 1 X -6 Y 8 X 2 Y 1 X -2 Y 1 X 6 Y 2 X -6 Y 1 X 2 Y 2 X -2 Y 6 X 2 Y 2 X -2 Y 2 X 2 Y 1 X -2 Y 3
 X 2 Y 2 X 2 Y 1 X -4 Y 3 X 2 Y 7 X -2 Y 6 X 2 Y 5 X -2 Y 7 X 2 Y 1 X -2 Y 7 X 2 Y 3 X -2 Y 3 X 2 Y 2 X 2 Y 1 X -4 Y 10 X 2 Y 2 X -2 Y 4 X 2 Y 2 X -2 Y 5 X 2 Y 2 X -2 Y 6 X 2 Y 1 X -2 Y 2 X 2 Y 1 X -2 Y 17 X 2 Y 2 X -2 Y 1 X s black 132 166 m 870 X s
 132 202 m -36 Y s 168 184 m -18 Y s 204 184 m -18 Y s 240 184 m -18 Y s 277 202 m -36 Y s 313 184 m -18 Y s 349 184 m -18 Y s 386 184 m -18 Y s 422 202 m -36 Y s 458 184 m -18 Y s 494 184 m -18 Y s 531 184 m -18 Y s 567 202 m -36 Y s 603 184 m -18 Y
 s 639 184 m -18 Y s 676 184 m -18 Y s 712 202 m -36 Y s 748 184 m -18 Y s 785 184 m -18 Y s 821 184 m -18 Y s 857 202 m -36 Y s 893 184 m -18 Y s 930 184 m -18 Y s 966 184 m -18 Y s 1002 202 m -36 Y s
 gsave  1088 1506 23 15 C 120.208 116.96 t 0 r /Helvetica findfont 35.7419 sf 0 0 m (0) show NC gr 
 gsave  1088 1506 23 15 C 237.168 116.96 t 0 r /Helvetica findfont 35.7419 sf 0 0 m (2000) show NC gr 
 gsave  1088 1506 23 15 C 380.119 116.96 t 0 r /Helvetica findfont 35.7419 sf 0 0 m (4000) show NC gr 
 gsave  1088 1506 23 15 C 526.318 116.96 t 0 r /Helvetica findfont 35.7419 sf 0 0 m (6000) show NC gr 
 gsave  1088 1506 23 15 C 672.518 116.96 t 0 r /Helvetica findfont 35.7419 sf 0 0 m (8000) show NC gr 
 gsave  1088 1506 23 15 C 802.473 116.96 t 0 r /Helvetica findfont 35.7419 sf 0 0 m (10000) show NC gr 
 gsave  1088 1506 23 15 C 948.672 116.96 t 0 r /Helvetica findfont 35.7419 sf 0 0 m (12000) show NC gr 
 gsave  1088 1506 23 15 C 763.486 71.4753 t 0 r /Helvetica findfont 35.7419 sf 0 0 m (Energy A [u.a.]) show NC gr  132 166 m 1205 Y s 158 166 m -26 X s 145 204 m -13 X s 145 242 m -13 X s 145 280 m -13 X s 145 317 m -13 X s 158 355 m -26 X s 145 393
 m -13 X s 145 431 m -13 X s 145 469 m -13 X s 145 507 m -13 X s 158 545 m -26 X s 145 583 m -13 X s 145 620 m -13 X s 145 658 m -13 X s 145 696 m -13 X s 158 734 m -26 X s 145 772 m -13 X s 145 810 m -13 X s 145 848 m -13 X s 145 885 m -13 X s 158
 923 m -26 X s 145 961 m -13 X s 145 999 m -13 X s 145 1037 m -13 X s 145 1075 m -13 X s 158 1113 m -26 X s 145 1151 m -13 X s 145 1188 m -13 X s 145 1226 m -13 X s 145 1264 m -13 X s 158 1302 m -26 X s 158 1302 m -26 X s 145 1340 m -13 X s
 gsave  1088 1506 23 15 C 103.964 155.946 t 0 r /Helvetica findfont 35.7419 sf 0 0 m (0) show NC gr 
 gsave  1088 1506 23 15 C 64.9776 344.381 t 0 r /Helvetica findfont 35.7419 sf 0 0 m (100) show NC gr 
 gsave  1088 1506 23 15 C 64.9776 532.816 t 0 r /Helvetica findfont 35.7419 sf 0 0 m (200) show NC gr 
 gsave  1088 1506 23 15 C 64.9776 721.251 t 0 r /Helvetica findfont 35.7419 sf 0 0 m (300) show NC gr 
 gsave  1088 1506 23 15 C 64.9776 912.935 t 0 r /Helvetica findfont 35.7419 sf 0 0 m (400) show NC gr 
 gsave  1088 1506 23 15 C 64.9776 1101.37 t 0 r /Helvetica findfont 35.7419 sf 0 0 m (500) show NC gr 
 gsave  1088 1506 23 15 C 64.9776 1289.8 t 0 r /Helvetica findfont 35.7419 sf 0 0 m (600) show NC gr  1 1 1 c black
 gsave  1088 1506 23 15 C 204.679 1465.24 t 0 r /Helvetica findfont 32.4927 sf 0 0 m (qlongB > 4826.965423 && qlongB < 5472.643158) show NC gr  1 1 1 c 217 421 872 1002 bf black 872 1002 m 217 X s 1089 1002 m 421 Y s 1089 1423 m -217 X s 872 1423 m
 -421 Y s 1 1 1 c black
 gsave  1088 1506 23 15 C 880.446 1361.28 t 0 r /Helvetica findfont 32.4927 sf 0 0 m (qlongA_coinc) show NC gr  872 1318 m 217 X s
 gsave  1088 1506 23 15 C 880.446 1257.32 t 0 r /Helvetica findfont 25.9941 sf 0 0 m (Entries ) show NC gr 
 gsave  1088 1506 23 15 C 1000.65 1257.32 t 0 r /Helvetica findfont 25.9941 sf 0 0 m ( 31151) show NC gr 
 gsave  1088 1506 23 15 C 880.446 1153.35 t 0 r /Helvetica findfont 25.9941 sf 0 0 m (Mean  ) show NC gr 
 gsave  1088 1506 23 15 C 994.157 1153.35 t 0 r /Helvetica findfont 25.9941 sf 0 0 m (   6777) show NC gr 
 gsave  1088 1506 23 15 C 880.446 1046.14 t 0 r /Helvetica findfont 25.9941 sf 0 0 m (Std Dev   ) show NC gr 
 gsave  1088 1506 23 15 C 994.157 1046.14 t 0 r /Helvetica findfont 25.9941 sf 0 0 m (   1670) show NC gr  1 1 1 c black
 gsave  1088 1506 23 15 C 204.679 1465.24 t 0 r /Helvetica findfont 32.4927 sf 0 0 m (qlongB > 4826.965423 && qlongB < 5472.643158) show NC gr  1 1 1 c 1088 1506 1157 15 bf black 1 1 1 c 871 1205 1265 166 bf black 871 1205 1265 166 bl 0 0 0.6 c 1 1 1
 c black 0 0 0.6 c 1265 166 m 85 X 1 Y 7 X 2 Y 3 X -3 Y 2 X 3 Y 3 X -2 Y 2 X -1 Y 3 X 4 Y 2 X -3 Y 3 X -1 Y 2 X 5 Y 3 X -2 Y 2 X -3 Y 3 X 1 Y 2 X -1 Y 3 X 5 Y 2 X -5 Y 3 X 3 Y 2 X -3 Y 3 X 3 Y 2 X -3 Y 3 X 1 Y 5 X -1 Y 5 X 1 Y 2 X -1 Y 8 X 1 Y 7 X 2
 Y 3 X -2 Y 2 X -1 Y 5 X 1 Y 5 X -1 Y 2 X 3 Y 3 X -3 Y 5 X 1 Y 2 X -1 Y 5 X 1 Y 5 X 2 Y 5 X -3 Y 8 X 3 Y 2 X -2 Y 3 X -1 Y 2 X 1 Y 3 X -1 Y 5 X 1 Y 5 X -1 Y 2 X 3 Y 3 X 1 Y 2 X -3 Y 3 X 3 Y 2 X -3 Y 8 X -1 Y 7 X 1 Y 3 X -1 Y 7 X 1 Y 3 X -1 Y 14 X 1 Y
 3 X 2 Y 2 X -2 Y 5 X 3 Y 3 X -3 Y 2 X 2 Y 3 X -3 Y 2 X 3 Y 3 X -3 Y 2 X 7 Y 5 X -2 Y 3 X -2 Y 2 X 1 Y 5 X -3 Y 3 X 2 Y 2 X 2 Y 3 X -4 Y 2 X 3 Y 3 X -3 Y 2 X 3 Y 3 X 1 Y 2 X -2 Y 3 X 1 Y 2 X 3 Y 3 X 1 Y 2 X -1 Y 3 X 1 Y 2 X 4 Y 3 X -4 Y 2 X -1 Y 3 X
 11 Y 2 X -11 Y 3 X 11 Y 2 X -6 Y 3 X 7 Y 2 X 7 Y 5 X 4 Y 5 X -4 Y 2 X 7 Y 3 X 1 Y 2 X 14 Y 3 X 7 Y 2 X 10 Y 3 X -15 Y 2 X 39 Y 3 X -18 Y 2 X 20 Y 3 X 7 Y 2 X 4 Y 3 X -7 Y 2 X 17 Y 3 X 16 Y 2 X 3 Y 3 X -11 Y 2 X 10 Y 3 X 21 Y 2 X -1 Y 3 X -22 Y 2 X
 -9 Y 3 X 30 Y 2 X -26 Y 3 X 1 Y 2 X 22 Y 3 X -34 Y 2 X -12 Y 3 X 2 Y 2 X 10 Y 3 X -14 Y 2 X -4 Y 3 X 7 Y 2 X -26 Y 3 X -5 Y 2 X 4 Y 3 X -11 Y 2 X 11 Y 3 X -18 Y 2 X 12 Y 2 X -16 Y 3 X 23 Y 2 X 1 Y 3 X -21 Y 2 X 5 Y 3 X -23 Y 2 X 18 Y 3 X 5 Y 2 X 1 Y
 3 X 22 Y 2 X -19 Y 3 X 23 Y 2 X 6 Y 3 X 11 Y 2 X 20 Y 3 X 47 Y 2 X 70 Y 3 X 78 Y 2 X 63 Y 3 X 64 Y 2 X 109 Y 3 X 93 Y 2 X 59 Y 3 X 98 Y 2 X 93 Y 3 X 80 Y 2 X 29 Y 3 X 50 Y 2 X 90 Y 3 X -66 Y 2 X -26 Y 3 X 9 Y 2 X -60 Y 3 X -128 Y 2 X -37 Y 3 X -60 Y
 2 X -206 Y 3 X 10 Y 2 X -163 Y 3 X 7 Y 2 X -97 Y 3 X -54 Y 2 X -82 Y 2 X -3 Y 3 X -70 Y 2 X 2 Y 3 X -23 Y 2 X -30 Y 3 X 2 Y 2 X -26 Y 3 X 4 Y 5 X -21 Y 2 X -7 Y 3 X -4 Y 2 X 9 Y 5 X -9 Y 3 X 1 Y 2 X -11 Y 3 X 10 Y 5 X -8 Y 2 X 5 Y 3 X -4 Y 2 X 1 Y 3
 X -2 Y 2 X -3 Y 3 X 3 Y 2 X -3 Y 3 X 1 Y 2 X -1 Y 3 X -3 Y 2 X -4 Y 3 X 3 Y 2 X 5 Y 3 X -3 Y 2 X -2 Y 3 X 2 Y 5 X -1 Y 2 X 3 Y 3 X -4 Y 2 X 2 Y 2 X -4 Y 3 X 3 Y 2 X 1 Y 3 X -2 Y 7 X 4 Y 3 X -4 Y 2 X -2 Y 5 X -1 Y 3 X 3 Y 2 X -3 Y 3 X 3 Y 5 X 1 Y 2 X
 -1 Y 5 X -2 Y 3 X 2 Y 7 X -3 Y 5 X 4 Y 3 X -1 Y 2 X -3 Y 10 X 1 Y 3 X 2 Y 5 X 1 Y 2 X -3 Y 5 X -1 Y 13 X 3 Y 2 X -2 Y 2 X -1 Y 3 X 1 Y 2 X 2 Y 8 X -3 Y 2 X 1 Y 3 X 2 Y 2 X -2 Y 8 X 2 Y 2 X -3 Y 3 X 3 Y 2 X -2 Y 3 X -1 Y 2 X 3 Y 5 X -2 Y 3 X 3 Y 2 X
 -4 Y 3 X 4 Y 2 X -1 Y 5 X s black 1265 166 m 871 X s 1265 202 m -36 Y s 1290 184 m -18 Y s 1315 184 m -18 Y s 1340 184 m -18 Y s 1365 184 m -18 Y s 1390 202 m -36 Y s 1415 184 m -18 Y s 1440 184 m -18 Y s 1464 184 m -18 Y s 1489 184 m -18 Y s 1514
 202 m -36 Y s 1539 184 m -18 Y s 1564 184 m -18 Y s 1589 184 m -18 Y s 1614 184 m -18 Y s 1639 202 m -36 Y s 1663 184 m -18 Y s 1688 184 m -18 Y s 1713 184 m -18 Y s 1738 184 m -18 Y s 1763 202 m -36 Y s 1788 184 m -18 Y s 1813 184 m -18 Y s 1838
 184 m -18 Y s 1863 184 m -18 Y s 1887 202 m -36 Y s 1912 184 m -18 Y s 1937 184 m -18 Y s 1962 184 m -18 Y s 1987 184 m -18 Y s 2012 202 m -36 Y s 2037 184 m -18 Y s 2062 184 m -18 Y s 2086 184 m -18 Y s 2111 184 m -18 Y s 2136 202 m -36 Y s
 gsave  1088 1506 1157 15 C 1254.07 116.96 t 0 r /Helvetica findfont 35.7419 sf 0 0 m (0) show NC gr 
 gsave  1088 1506 1157 15 C 1348.28 116.96 t 0 r /Helvetica findfont 35.7419 sf 0 0 m (1000) show NC gr 
 gsave  1088 1506 1157 15 C 1474.99 116.96 t 0 r /Helvetica findfont 35.7419 sf 0 0 m (2000) show NC gr 
 gsave  1088 1506 1157 15 C 1598.45 116.96 t 0 r /Helvetica findfont 35.7419 sf 0 0 m (3000) show NC gr 
 gsave  1088 1506 1157 15 C 1721.91 116.96 t 0 r /Helvetica findfont 35.7419 sf 0 0 m (4000) show NC gr 
 gsave  1088 1506 1157 15 C 1845.36 116.96 t 0 r /Helvetica findfont 35.7419 sf 0 0 m (5000) show NC gr 
 gsave  1088 1506 1157 15 C 1972.07 116.96 t 0 r /Helvetica findfont 35.7419 sf 0 0 m (6000) show NC gr 
 gsave  1088 1506 1157 15 C 2095.53 116.96 t 0 r /Helvetica findfont 35.7419 sf 0 0 m (7000) show NC gr 
 gsave  1088 1506 1157 15 C 1897.34 71.4753 t 0 r /Helvetica findfont 35.7419 sf 0 0 m (Energy B [u.a.]) show NC gr  1265 166 m 1205 Y s 1292 166 m -27 X s 1278 193 m -13 X s 1278 221 m -13 X s 1278 248 m -13 X s 1278 275 m -13 X s 1292 302 m -27 X s
 1278 330 m -13 X s 1278 357 m -13 X s 1278 384 m -13 X s 1278 412 m -13 X s 1292 439 m -27 X s 1278 466 m -13 X s 1278 493 m -13 X s 1278 521 m -13 X s 1278 548 m -13 X s 1292 575 m -27 X s 1278 603 m -13 X s 1278 630 m -13 X s 1278 657 m -13 X s
 1278 684 m -13 X s 1292 712 m -27 X s 1278 739 m -13 X s 1278 766 m -13 X s 1278 794 m -13 X s 1278 821 m -13 X s 1292 848 m -27 X s 1278 875 m -13 X s 1278 903 m -13 X s 1278 930 m -13 X s 1278 957 m -13 X s 1292 985 m -27 X s 1278 1012 m -13 X s
 1278 1039 m -13 X s 1278 1066 m -13 X s 1278 1094 m -13 X s 1292 1121 m -27 X s 1278 1148 m -13 X s 1278 1176 m -13 X s 1278 1203 m -13 X s 1278 1230 m -13 X s 1292 1257 m -27 X s 1292 1257 m -27 X s 1278 1285 m -13 X s 1278 1312 m -13 X s 1278 1339
 m -13 X s 1278 1367 m -13 X s
 gsave  1088 1506 1157 15 C 1237.82 155.946 t 0 r /Helvetica findfont 35.7419 sf 0 0 m (0) show NC gr 
 gsave  1088 1506 1157 15 C 1198.84 292.399 t 0 r /Helvetica findfont 35.7419 sf 0 0 m (100) show NC gr 
 gsave  1088 1506 1157 15 C 1198.84 428.852 t 0 r /Helvetica findfont 35.7419 sf 0 0 m (200) show NC gr 
 gsave  1088 1506 1157 15 C 1198.84 565.305 t 0 r /Helvetica findfont 35.7419 sf 0 0 m (300) show NC gr 
 gsave  1088 1506 1157 15 C 1198.84 701.758 t 0 r /Helvetica findfont 35.7419 sf 0 0 m (400) show NC gr 
 gsave  1088 1506 1157 15 C 1198.84 838.21 t 0 r /Helvetica findfont 35.7419 sf 0 0 m (500) show NC gr 
 gsave  1088 1506 1157 15 C 1198.84 974.663 t 0 r /Helvetica findfont 35.7419 sf 0 0 m (600) show NC gr 
 gsave  1088 1506 1157 15 C 1198.84 1111.12 t 0 r /Helvetica findfont 35.7419 sf 0 0 m (700) show NC gr 
 gsave  1088 1506 1157 15 C 1198.84 1247.57 t 0 r /Helvetica findfont 35.7419 sf 0 0 m (800) show NC gr  1 1 1 c black
 gsave  1088 1506 1157 15 C 1338.54 1465.24 t 0 r /Helvetica findfont 32.4927 sf 0 0 m (qlongA > 8825.915540 && qlongA < 9713.556915) show NC gr  1 1 1 c 217 421 2006 1002 bf black 2006 1002 m 217 X s 2223 1002 m 421 Y s 2223 1423 m -217 X s 2006
 1423 m -421 Y s 1 1 1 c black
 gsave  1088 1506 1157 15 C 2014.3 1361.28 t 0 r /Helvetica findfont 32.4927 sf 0 0 m (qlongB_coinc) show NC gr  2006 1318 m 217 X s
 gsave  1088 1506 1157 15 C 2014.3 1257.32 t 0 r /Helvetica findfont 25.9941 sf 0 0 m (Entries ) show NC gr 
 gsave  1088 1506 1157 15 C 2128.01 1257.32 t 0 r /Helvetica findfont 25.9941 sf 0 0 m ( 18807) show NC gr 
 gsave  1088 1506 1157 15 C 2014.3 1153.35 t 0 r /Helvetica findfont 25.9941 sf 0 0 m (Mean  ) show NC gr 
 gsave  1088 1506 1157 15 C 2128.01 1153.35 t 0 r /Helvetica findfont 25.9941 sf 0 0 m (   4398) show NC gr 
 gsave  1088 1506 1157 15 C 2014.3 1046.14 t 0 r /Helvetica findfont 25.9941 sf 0 0 m (Std Dev   ) show NC gr 
 gsave  1088 1506 1157 15 C 2134.51 1046.14 t 0 r /Helvetica findfont 25.9941 sf 0 0 m (  482.1) show NC gr  1 1 1 c black
 gsave  1088 1506 1157 15 C 1338.54 1465.24 t 0 r /Helvetica findfont 32.4927 sf 0 0 m (qlongA > 8825.915540 && qlongA < 9713.556915) show NC gr 
 gr  gr showpage
end
%%EOF
