%!PS-Adobe-2.0 EPSF-2.0
%%Title: ./Sits/1f3000_2/neg_1.eps
%%Creator: gnuplot 5.0 patchlevel 3
%%CreationDate: Sun Jan 22 20:43:15 2017
%%DocumentFonts: (atend)
%%BoundingBox: 50 50 410 302
%%EndComments
%%BeginProlog
/gnudict 256 dict def
gnudict begin
%
% The following true/false flags may be edited by hand if desired.
% The unit line width and grayscale image gamma correction may also be changed.
%
/Color false def
/Blacktext false def
/Solid false def
/Dashlength 1 def
/Landscape false def
/Level1 false def
/Level3 false def
/Rounded false def
/ClipToBoundingBox false def
/SuppressPDFMark false def
/TransparentPatterns false def
/gnulinewidth 5.000 def
/userlinewidth gnulinewidth def
/Gamma 1.0 def
/BackgroundColor {-1.000 -1.000 -1.000} def
%
/vshift -46 def
/dl1 {
  10.0 Dashlength userlinewidth gnulinewidth div mul mul mul
  Rounded { currentlinewidth 0.75 mul sub dup 0 le { pop 0.01 } if } if
} def
/dl2 {
  10.0 Dashlength userlinewidth gnulinewidth div mul mul mul
  Rounded { currentlinewidth 0.75 mul add } if
} def
/hpt_ 31.5 def
/vpt_ 31.5 def
/hpt hpt_ def
/vpt vpt_ def
/doclip {
  ClipToBoundingBox {
    newpath 50 50 moveto 410 50 lineto 410 302 lineto 50 302 lineto closepath
    clip
  } if
} def
%
% Gnuplot Prolog Version 5.1 (Oct 2015)
%
%/SuppressPDFMark true def
%
/M {moveto} bind def
/L {lineto} bind def
/R {rmoveto} bind def
/V {rlineto} bind def
/N {newpath moveto} bind def
/Z {closepath} bind def
/C {setrgbcolor} bind def
/f {rlineto fill} bind def
/g {setgray} bind def
/Gshow {show} def   % May be redefined later in the file to support UTF-8
/vpt2 vpt 2 mul def
/hpt2 hpt 2 mul def
/Lshow {currentpoint stroke M 0 vshift R 
	Blacktext {gsave 0 setgray textshow grestore} {textshow} ifelse} def
/Rshow {currentpoint stroke M dup stringwidth pop neg vshift R
	Blacktext {gsave 0 setgray textshow grestore} {textshow} ifelse} def
/Cshow {currentpoint stroke M dup stringwidth pop -2 div vshift R 
	Blacktext {gsave 0 setgray textshow grestore} {textshow} ifelse} def
/UP {dup vpt_ mul /vpt exch def hpt_ mul /hpt exch def
  /hpt2 hpt 2 mul def /vpt2 vpt 2 mul def} def
/DL {Color {setrgbcolor Solid {pop []} if 0 setdash}
 {pop pop pop 0 setgray Solid {pop []} if 0 setdash} ifelse} def
/BL {stroke userlinewidth 2 mul setlinewidth
	Rounded {1 setlinejoin 1 setlinecap} if} def
/AL {stroke userlinewidth 2 div setlinewidth
	Rounded {1 setlinejoin 1 setlinecap} if} def
/UL {dup gnulinewidth mul /userlinewidth exch def
	dup 1 lt {pop 1} if 10 mul /udl exch def} def
/PL {stroke userlinewidth setlinewidth
	Rounded {1 setlinejoin 1 setlinecap} if} def
3.8 setmiterlimit
% Classic Line colors (version 5.0)
/LCw {1 1 1} def
/LCb {0 0 0} def
/LCa {0 0 0} def
/LC0 {1 0 0} def
/LC1 {0 1 0} def
/LC2 {0 0 1} def
/LC3 {1 0 1} def
/LC4 {0 1 1} def
/LC5 {1 1 0} def
/LC6 {0 0 0} def
/LC7 {1 0.3 0} def
/LC8 {0.5 0.5 0.5} def
% Default dash patterns (version 5.0)
/LTB {BL [] LCb DL} def
/LTw {PL [] 1 setgray} def
/LTb {PL [] LCb DL} def
/LTa {AL [1 udl mul 2 udl mul] 0 setdash LCa setrgbcolor} def
/LT0 {PL [] LC0 DL} def
/LT1 {PL [2 dl1 3 dl2] LC1 DL} def
/LT2 {PL [1 dl1 1.5 dl2] LC2 DL} def
/LT3 {PL [6 dl1 2 dl2 1 dl1 2 dl2] LC3 DL} def
/LT4 {PL [1 dl1 2 dl2 6 dl1 2 dl2 1 dl1 2 dl2] LC4 DL} def
/LT5 {PL [4 dl1 2 dl2] LC5 DL} def
/LT6 {PL [1.5 dl1 1.5 dl2 1.5 dl1 1.5 dl2 1.5 dl1 6 dl2] LC6 DL} def
/LT7 {PL [3 dl1 3 dl2 1 dl1 3 dl2] LC7 DL} def
/LT8 {PL [2 dl1 2 dl2 2 dl1 6 dl2] LC8 DL} def
/SL {[] 0 setdash} def
/Pnt {stroke [] 0 setdash gsave 1 setlinecap M 0 0 V stroke grestore} def
/Dia {stroke [] 0 setdash 2 copy vpt add M
  hpt neg vpt neg V hpt vpt neg V
  hpt vpt V hpt neg vpt V closepath stroke
  Pnt} def
/Pls {stroke [] 0 setdash vpt sub M 0 vpt2 V
  currentpoint stroke M
  hpt neg vpt neg R hpt2 0 V stroke
 } def
/Box {stroke [] 0 setdash 2 copy exch hpt sub exch vpt add M
  0 vpt2 neg V hpt2 0 V 0 vpt2 V
  hpt2 neg 0 V closepath stroke
  Pnt} def
/Crs {stroke [] 0 setdash exch hpt sub exch vpt add M
  hpt2 vpt2 neg V currentpoint stroke M
  hpt2 neg 0 R hpt2 vpt2 V stroke} def
/TriU {stroke [] 0 setdash 2 copy vpt 1.12 mul add M
  hpt neg vpt -1.62 mul V
  hpt 2 mul 0 V
  hpt neg vpt 1.62 mul V closepath stroke
  Pnt} def
/Star {2 copy Pls Crs} def
/BoxF {stroke [] 0 setdash exch hpt sub exch vpt add M
  0 vpt2 neg V hpt2 0 V 0 vpt2 V
  hpt2 neg 0 V closepath fill} def
/TriUF {stroke [] 0 setdash vpt 1.12 mul add M
  hpt neg vpt -1.62 mul V
  hpt 2 mul 0 V
  hpt neg vpt 1.62 mul V closepath fill} def
/TriD {stroke [] 0 setdash 2 copy vpt 1.12 mul sub M
  hpt neg vpt 1.62 mul V
  hpt 2 mul 0 V
  hpt neg vpt -1.62 mul V closepath stroke
  Pnt} def
/TriDF {stroke [] 0 setdash vpt 1.12 mul sub M
  hpt neg vpt 1.62 mul V
  hpt 2 mul 0 V
  hpt neg vpt -1.62 mul V closepath fill} def
/DiaF {stroke [] 0 setdash vpt add M
  hpt neg vpt neg V hpt vpt neg V
  hpt vpt V hpt neg vpt V closepath fill} def
/Pent {stroke [] 0 setdash 2 copy gsave
  translate 0 hpt M 4 {72 rotate 0 hpt L} repeat
  closepath stroke grestore Pnt} def
/PentF {stroke [] 0 setdash gsave
  translate 0 hpt M 4 {72 rotate 0 hpt L} repeat
  closepath fill grestore} def
/Circle {stroke [] 0 setdash 2 copy
  hpt 0 360 arc stroke Pnt} def
/CircleF {stroke [] 0 setdash hpt 0 360 arc fill} def
/C0 {BL [] 0 setdash 2 copy moveto vpt 90 450 arc} bind def
/C1 {BL [] 0 setdash 2 copy moveto
	2 copy vpt 0 90 arc closepath fill
	vpt 0 360 arc closepath} bind def
/C2 {BL [] 0 setdash 2 copy moveto
	2 copy vpt 90 180 arc closepath fill
	vpt 0 360 arc closepath} bind def
/C3 {BL [] 0 setdash 2 copy moveto
	2 copy vpt 0 180 arc closepath fill
	vpt 0 360 arc closepath} bind def
/C4 {BL [] 0 setdash 2 copy moveto
	2 copy vpt 180 270 arc closepath fill
	vpt 0 360 arc closepath} bind def
/C5 {BL [] 0 setdash 2 copy moveto
	2 copy vpt 0 90 arc
	2 copy moveto
	2 copy vpt 180 270 arc closepath fill
	vpt 0 360 arc} bind def
/C6 {BL [] 0 setdash 2 copy moveto
	2 copy vpt 90 270 arc closepath fill
	vpt 0 360 arc closepath} bind def
/C7 {BL [] 0 setdash 2 copy moveto
	2 copy vpt 0 270 arc closepath fill
	vpt 0 360 arc closepath} bind def
/C8 {BL [] 0 setdash 2 copy moveto
	2 copy vpt 270 360 arc closepath fill
	vpt 0 360 arc closepath} bind def
/C9 {BL [] 0 setdash 2 copy moveto
	2 copy vpt 270 450 arc closepath fill
	vpt 0 360 arc closepath} bind def
/C10 {BL [] 0 setdash 2 copy 2 copy moveto vpt 270 360 arc closepath fill
	2 copy moveto
	2 copy vpt 90 180 arc closepath fill
	vpt 0 360 arc closepath} bind def
/C11 {BL [] 0 setdash 2 copy moveto
	2 copy vpt 0 180 arc closepath fill
	2 copy moveto
	2 copy vpt 270 360 arc closepath fill
	vpt 0 360 arc closepath} bind def
/C12 {BL [] 0 setdash 2 copy moveto
	2 copy vpt 180 360 arc closepath fill
	vpt 0 360 arc closepath} bind def
/C13 {BL [] 0 setdash 2 copy moveto
	2 copy vpt 0 90 arc closepath fill
	2 copy moveto
	2 copy vpt 180 360 arc closepath fill
	vpt 0 360 arc closepath} bind def
/C14 {BL [] 0 setdash 2 copy moveto
	2 copy vpt 90 360 arc closepath fill
	vpt 0 360 arc} bind def
/C15 {BL [] 0 setdash 2 copy vpt 0 360 arc closepath fill
	vpt 0 360 arc closepath} bind def
/Rec {newpath 4 2 roll moveto 1 index 0 rlineto 0 exch rlineto
	neg 0 rlineto closepath} bind def
/Square {dup Rec} bind def
/Bsquare {vpt sub exch vpt sub exch vpt2 Square} bind def
/S0 {BL [] 0 setdash 2 copy moveto 0 vpt rlineto BL Bsquare} bind def
/S1 {BL [] 0 setdash 2 copy vpt Square fill Bsquare} bind def
/S2 {BL [] 0 setdash 2 copy exch vpt sub exch vpt Square fill Bsquare} bind def
/S3 {BL [] 0 setdash 2 copy exch vpt sub exch vpt2 vpt Rec fill Bsquare} bind def
/S4 {BL [] 0 setdash 2 copy exch vpt sub exch vpt sub vpt Square fill Bsquare} bind def
/S5 {BL [] 0 setdash 2 copy 2 copy vpt Square fill
	exch vpt sub exch vpt sub vpt Square fill Bsquare} bind def
/S6 {BL [] 0 setdash 2 copy exch vpt sub exch vpt sub vpt vpt2 Rec fill Bsquare} bind def
/S7 {BL [] 0 setdash 2 copy exch vpt sub exch vpt sub vpt vpt2 Rec fill
	2 copy vpt Square fill Bsquare} bind def
/S8 {BL [] 0 setdash 2 copy vpt sub vpt Square fill Bsquare} bind def
/S9 {BL [] 0 setdash 2 copy vpt sub vpt vpt2 Rec fill Bsquare} bind def
/S10 {BL [] 0 setdash 2 copy vpt sub vpt Square fill 2 copy exch vpt sub exch vpt Square fill
	Bsquare} bind def
/S11 {BL [] 0 setdash 2 copy vpt sub vpt Square fill 2 copy exch vpt sub exch vpt2 vpt Rec fill
	Bsquare} bind def
/S12 {BL [] 0 setdash 2 copy exch vpt sub exch vpt sub vpt2 vpt Rec fill Bsquare} bind def
/S13 {BL [] 0 setdash 2 copy exch vpt sub exch vpt sub vpt2 vpt Rec fill
	2 copy vpt Square fill Bsquare} bind def
/S14 {BL [] 0 setdash 2 copy exch vpt sub exch vpt sub vpt2 vpt Rec fill
	2 copy exch vpt sub exch vpt Square fill Bsquare} bind def
/S15 {BL [] 0 setdash 2 copy Bsquare fill Bsquare} bind def
/D0 {gsave translate 45 rotate 0 0 S0 stroke grestore} bind def
/D1 {gsave translate 45 rotate 0 0 S1 stroke grestore} bind def
/D2 {gsave translate 45 rotate 0 0 S2 stroke grestore} bind def
/D3 {gsave translate 45 rotate 0 0 S3 stroke grestore} bind def
/D4 {gsave translate 45 rotate 0 0 S4 stroke grestore} bind def
/D5 {gsave translate 45 rotate 0 0 S5 stroke grestore} bind def
/D6 {gsave translate 45 rotate 0 0 S6 stroke grestore} bind def
/D7 {gsave translate 45 rotate 0 0 S7 stroke grestore} bind def
/D8 {gsave translate 45 rotate 0 0 S8 stroke grestore} bind def
/D9 {gsave translate 45 rotate 0 0 S9 stroke grestore} bind def
/D10 {gsave translate 45 rotate 0 0 S10 stroke grestore} bind def
/D11 {gsave translate 45 rotate 0 0 S11 stroke grestore} bind def
/D12 {gsave translate 45 rotate 0 0 S12 stroke grestore} bind def
/D13 {gsave translate 45 rotate 0 0 S13 stroke grestore} bind def
/D14 {gsave translate 45 rotate 0 0 S14 stroke grestore} bind def
/D15 {gsave translate 45 rotate 0 0 S15 stroke grestore} bind def
/DiaE {stroke [] 0 setdash vpt add M
  hpt neg vpt neg V hpt vpt neg V
  hpt vpt V hpt neg vpt V closepath stroke} def
/BoxE {stroke [] 0 setdash exch hpt sub exch vpt add M
  0 vpt2 neg V hpt2 0 V 0 vpt2 V
  hpt2 neg 0 V closepath stroke} def
/TriUE {stroke [] 0 setdash vpt 1.12 mul add M
  hpt neg vpt -1.62 mul V
  hpt 2 mul 0 V
  hpt neg vpt 1.62 mul V closepath stroke} def
/TriDE {stroke [] 0 setdash vpt 1.12 mul sub M
  hpt neg vpt 1.62 mul V
  hpt 2 mul 0 V
  hpt neg vpt -1.62 mul V closepath stroke} def
/PentE {stroke [] 0 setdash gsave
  translate 0 hpt M 4 {72 rotate 0 hpt L} repeat
  closepath stroke grestore} def
/CircE {stroke [] 0 setdash 
  hpt 0 360 arc stroke} def
/Opaque {gsave closepath 1 setgray fill grestore 0 setgray closepath} def
/DiaW {stroke [] 0 setdash vpt add M
  hpt neg vpt neg V hpt vpt neg V
  hpt vpt V hpt neg vpt V Opaque stroke} def
/BoxW {stroke [] 0 setdash exch hpt sub exch vpt add M
  0 vpt2 neg V hpt2 0 V 0 vpt2 V
  hpt2 neg 0 V Opaque stroke} def
/TriUW {stroke [] 0 setdash vpt 1.12 mul add M
  hpt neg vpt -1.62 mul V
  hpt 2 mul 0 V
  hpt neg vpt 1.62 mul V Opaque stroke} def
/TriDW {stroke [] 0 setdash vpt 1.12 mul sub M
  hpt neg vpt 1.62 mul V
  hpt 2 mul 0 V
  hpt neg vpt -1.62 mul V Opaque stroke} def
/PentW {stroke [] 0 setdash gsave
  translate 0 hpt M 4 {72 rotate 0 hpt L} repeat
  Opaque stroke grestore} def
/CircW {stroke [] 0 setdash 
  hpt 0 360 arc Opaque stroke} def
/BoxFill {gsave Rec 1 setgray fill grestore} def
/Density {
  /Fillden exch def
  currentrgbcolor
  /ColB exch def /ColG exch def /ColR exch def
  /ColR ColR Fillden mul Fillden sub 1 add def
  /ColG ColG Fillden mul Fillden sub 1 add def
  /ColB ColB Fillden mul Fillden sub 1 add def
  ColR ColG ColB setrgbcolor} def
/BoxColFill {gsave Rec PolyFill} def
/PolyFill {gsave Density fill grestore grestore} def
/h {rlineto rlineto rlineto gsave closepath fill grestore} bind def
%
% PostScript Level 1 Pattern Fill routine for rectangles
% Usage: x y w h s a XX PatternFill
%	x,y = lower left corner of box to be filled
%	w,h = width and height of box
%	  a = angle in degrees between lines and x-axis
%	 XX = 0/1 for no/yes cross-hatch
%
/PatternFill {gsave /PFa [ 9 2 roll ] def
  PFa 0 get PFa 2 get 2 div add PFa 1 get PFa 3 get 2 div add translate
  PFa 2 get -2 div PFa 3 get -2 div PFa 2 get PFa 3 get Rec
  TransparentPatterns {} {gsave 1 setgray fill grestore} ifelse
  clip
  currentlinewidth 0.5 mul setlinewidth
  /PFs PFa 2 get dup mul PFa 3 get dup mul add sqrt def
  0 0 M PFa 5 get rotate PFs -2 div dup translate
  0 1 PFs PFa 4 get div 1 add floor cvi
	{PFa 4 get mul 0 M 0 PFs V} for
  0 PFa 6 get ne {
	0 1 PFs PFa 4 get div 1 add floor cvi
	{PFa 4 get mul 0 2 1 roll M PFs 0 V} for
 } if
  stroke grestore} def
%
/languagelevel where
 {pop languagelevel} {1} ifelse
dup 2 lt
	{/InterpretLevel1 true def
	 /InterpretLevel3 false def}
	{/InterpretLevel1 Level1 def
	 2 gt
	    {/InterpretLevel3 Level3 def}
	    {/InterpretLevel3 false def}
	 ifelse }
 ifelse
%
% PostScript level 2 pattern fill definitions
%
/Level2PatternFill {
/Tile8x8 {/PaintType 2 /PatternType 1 /TilingType 1 /BBox [0 0 8 8] /XStep 8 /YStep 8}
	bind def
/KeepColor {currentrgbcolor [/Pattern /DeviceRGB] setcolorspace} bind def
<< Tile8x8
 /PaintProc {0.5 setlinewidth pop 0 0 M 8 8 L 0 8 M 8 0 L stroke} 
>> matrix makepattern
/Pat1 exch def
<< Tile8x8
 /PaintProc {0.5 setlinewidth pop 0 0 M 8 8 L 0 8 M 8 0 L stroke
	0 4 M 4 8 L 8 4 L 4 0 L 0 4 L stroke}
>> matrix makepattern
/Pat2 exch def
<< Tile8x8
 /PaintProc {0.5 setlinewidth pop 0 0 M 0 8 L
	8 8 L 8 0 L 0 0 L fill}
>> matrix makepattern
/Pat3 exch def
<< Tile8x8
 /PaintProc {0.5 setlinewidth pop -4 8 M 8 -4 L
	0 12 M 12 0 L stroke}
>> matrix makepattern
/Pat4 exch def
<< Tile8x8
 /PaintProc {0.5 setlinewidth pop -4 0 M 8 12 L
	0 -4 M 12 8 L stroke}
>> matrix makepattern
/Pat5 exch def
<< Tile8x8
 /PaintProc {0.5 setlinewidth pop -2 8 M 4 -4 L
	0 12 M 8 -4 L 4 12 M 10 0 L stroke}
>> matrix makepattern
/Pat6 exch def
<< Tile8x8
 /PaintProc {0.5 setlinewidth pop -2 0 M 4 12 L
	0 -4 M 8 12 L 4 -4 M 10 8 L stroke}
>> matrix makepattern
/Pat7 exch def
<< Tile8x8
 /PaintProc {0.5 setlinewidth pop 8 -2 M -4 4 L
	12 0 M -4 8 L 12 4 M 0 10 L stroke}
>> matrix makepattern
/Pat8 exch def
<< Tile8x8
 /PaintProc {0.5 setlinewidth pop 0 -2 M 12 4 L
	-4 0 M 12 8 L -4 4 M 8 10 L stroke}
>> matrix makepattern
/Pat9 exch def
/Pattern1 {PatternBgnd KeepColor Pat1 setpattern} bind def
/Pattern2 {PatternBgnd KeepColor Pat2 setpattern} bind def
/Pattern3 {PatternBgnd KeepColor Pat3 setpattern} bind def
/Pattern4 {PatternBgnd KeepColor Landscape {Pat5} {Pat4} ifelse setpattern} bind def
/Pattern5 {PatternBgnd KeepColor Landscape {Pat4} {Pat5} ifelse setpattern} bind def
/Pattern6 {PatternBgnd KeepColor Landscape {Pat9} {Pat6} ifelse setpattern} bind def
/Pattern7 {PatternBgnd KeepColor Landscape {Pat8} {Pat7} ifelse setpattern} bind def
} def
%
%
%End of PostScript Level 2 code
%
/PatternBgnd {
  TransparentPatterns {} {gsave 1 setgray fill grestore} ifelse
} def
%
% Substitute for Level 2 pattern fill codes with
% grayscale if Level 2 support is not selected.
%
/Level1PatternFill {
/Pattern1 {0.250 Density} bind def
/Pattern2 {0.500 Density} bind def
/Pattern3 {0.750 Density} bind def
/Pattern4 {0.125 Density} bind def
/Pattern5 {0.375 Density} bind def
/Pattern6 {0.625 Density} bind def
/Pattern7 {0.875 Density} bind def
} def
%
% Now test for support of Level 2 code
%
Level1 {Level1PatternFill} {Level2PatternFill} ifelse
%
/Symbol-Oblique /Symbol findfont [1 0 .167 1 0 0] makefont
dup length dict begin {1 index /FID eq {pop pop} {def} ifelse} forall
currentdict end definefont pop
%
/MFshow {
   { dup 5 get 3 ge
     { 5 get 3 eq {gsave} {grestore} ifelse }
     {dup dup 0 get findfont exch 1 get scalefont setfont
     [ currentpoint ] exch dup 2 get 0 exch R dup 5 get 2 ne {dup dup 6
     get exch 4 get {textshow} {stringwidth pop 0 R} ifelse }if dup 5 get 0 eq
     {dup 3 get {2 get neg 0 exch R pop} {pop aload pop M} ifelse} {dup 5
     get 1 eq {dup 2 get exch dup 3 get exch 6 get stringwidth pop -2 div
     dup 0 R} {dup 6 get stringwidth pop -2 div 0 R 6 get
     textshow 2 index {aload pop M neg 3 -1 roll neg R pop pop} {pop pop pop
     pop aload pop M} ifelse }ifelse }ifelse }
     ifelse }
   forall} def
/Gswidth {dup type /stringtype eq {stringwidth} {pop (n) stringwidth} ifelse} def
/MFwidth {0 exch { dup 5 get 3 ge { 5 get 3 eq { 0 } { pop } ifelse }
 {dup 3 get{dup dup 0 get findfont exch 1 get scalefont setfont
     6 get Gswidth pop add} {pop} ifelse} ifelse} forall} def
/MLshow { currentpoint stroke M
  0 exch R
  Blacktext {gsave 0 setgray MFshow grestore} {MFshow} ifelse } bind def
/MRshow { currentpoint stroke M
  exch dup MFwidth neg 3 -1 roll R
  Blacktext {gsave 0 setgray MFshow grestore} {MFshow} ifelse } bind def
/MCshow { currentpoint stroke M
  exch dup MFwidth -2 div 3 -1 roll R
  Blacktext {gsave 0 setgray MFshow grestore} {MFshow} ifelse } bind def
/XYsave    { [( ) 1 2 true false 3 ()] } bind def
/XYrestore { [( ) 1 2 true false 4 ()] } bind def
Level1 SuppressPDFMark or 
{} {
/SDict 10 dict def
systemdict /pdfmark known not {
  userdict /pdfmark systemdict /cleartomark get put
} if
SDict begin [
  /Title (./Sits/1f3000_2/neg_1.eps)
  /Subject (gnuplot plot)
  /Creator (gnuplot 5.0 patchlevel 3)
  /Author (samuele)
%  /Producer (gnuplot)
%  /Keywords ()
  /CreationDate (Sun Jan 22 20:43:15 2017)
  /DOCINFO pdfmark
end
} ifelse
%
% Support for boxed text - Ethan A Merritt May 2005
%
/InitTextBox { userdict /TBy2 3 -1 roll put userdict /TBx2 3 -1 roll put
           userdict /TBy1 3 -1 roll put userdict /TBx1 3 -1 roll put
	   /Boxing true def } def
/ExtendTextBox { Boxing
    { gsave dup false charpath pathbbox
      dup TBy2 gt {userdict /TBy2 3 -1 roll put} {pop} ifelse
      dup TBx2 gt {userdict /TBx2 3 -1 roll put} {pop} ifelse
      dup TBy1 lt {userdict /TBy1 3 -1 roll put} {pop} ifelse
      dup TBx1 lt {userdict /TBx1 3 -1 roll put} {pop} ifelse
      grestore } if } def
/PopTextBox { newpath TBx1 TBxmargin sub TBy1 TBymargin sub M
               TBx1 TBxmargin sub TBy2 TBymargin add L
	       TBx2 TBxmargin add TBy2 TBymargin add L
	       TBx2 TBxmargin add TBy1 TBymargin sub L closepath } def
/DrawTextBox { PopTextBox stroke /Boxing false def} def
/FillTextBox { gsave PopTextBox 1 1 1 setrgbcolor fill grestore /Boxing false def} def
0 0 0 0 InitTextBox
/TBxmargin 20 def
/TBymargin 20 def
/Boxing false def
/textshow { ExtendTextBox Gshow } def
%
% redundant definitions for compatibility with prologue.ps older than 5.0.2
/LTB {BL [] LCb DL} def
/LTb {PL [] LCb DL} def
end
%%EndProlog
%%Page: 1 1
gnudict begin
gsave
doclip
50 50 translate
0.050 0.050 scale
0 setgray
newpath
(Helvetica) findfont 140 scalefont setfont
BackgroundColor 0 lt 3 1 roll 0 lt exch 0 lt or or not {BackgroundColor C 1.000 0 0 7200.00 5040.00 BoxColFill} if
1.000 UL
LTb
LCb setrgbcolor
854 448 M
63 0 V
stroke
770 448 M
[ [(Helvetica) 140.0 0.0 true true 0 ( 33350)]
] -46.7 MRshow
1.000 UL
LTb
LCb setrgbcolor
854 1185 M
63 0 V
stroke
770 1185 M
[ [(Helvetica) 140.0 0.0 true true 0 ( 33400)]
] -46.7 MRshow
1.000 UL
LTb
LCb setrgbcolor
854 1922 M
63 0 V
stroke
770 1922 M
[ [(Helvetica) 140.0 0.0 true true 0 ( 33450)]
] -46.7 MRshow
1.000 UL
LTb
LCb setrgbcolor
854 2660 M
63 0 V
stroke
770 2660 M
[ [(Helvetica) 140.0 0.0 true true 0 ( 33500)]
] -46.7 MRshow
1.000 UL
LTb
LCb setrgbcolor
854 3397 M
63 0 V
stroke
770 3397 M
[ [(Helvetica) 140.0 0.0 true true 0 ( 33550)]
] -46.7 MRshow
1.000 UL
LTb
LCb setrgbcolor
854 4134 M
63 0 V
stroke
770 4134 M
[ [(Helvetica) 140.0 0.0 true true 0 ( 33600)]
] -46.7 MRshow
1.000 UL
LTb
LCb setrgbcolor
854 4871 M
63 0 V
stroke
770 4871 M
[ [(Helvetica) 140.0 0.0 true true 0 ( 33650)]
] -46.7 MRshow
1.000 UL
LTb
LCb setrgbcolor
854 448 M
0 63 V
stroke
854 308 M
[ [(Helvetica) 140.0 0.0 true true 0 (-945)]
] -46.7 MCshow
1.000 UL
LTb
LCb setrgbcolor
1098 448 M
0 63 V
stroke
1098 308 M
[ [(Helvetica) 140.0 0.0 true true 0 (-944)]
] -46.7 MCshow
1.000 UL
LTb
LCb setrgbcolor
1341 448 M
0 63 V
stroke
1341 308 M
[ [(Helvetica) 140.0 0.0 true true 0 (-943)]
] -46.7 MCshow
1.000 UL
LTb
LCb setrgbcolor
1585 448 M
0 63 V
stroke
1585 308 M
[ [(Helvetica) 140.0 0.0 true true 0 (-942)]
] -46.7 MCshow
1.000 UL
LTb
LCb setrgbcolor
1829 448 M
0 63 V
stroke
1829 308 M
[ [(Helvetica) 140.0 0.0 true true 0 (-941)]
] -46.7 MCshow
1.000 UL
LTb
LCb setrgbcolor
2073 448 M
0 63 V
stroke
2073 308 M
[ [(Helvetica) 140.0 0.0 true true 0 (-940)]
] -46.7 MCshow
1.000 UL
LTb
LCb setrgbcolor
2316 448 M
0 63 V
stroke
2316 308 M
[ [(Helvetica) 140.0 0.0 true true 0 (-939)]
] -46.7 MCshow
1.000 UL
LTb
LCb setrgbcolor
2560 448 M
0 63 V
stroke
2560 308 M
[ [(Helvetica) 140.0 0.0 true true 0 (-938)]
] -46.7 MCshow
1.000 UL
LTb
LCb setrgbcolor
2804 448 M
0 63 V
stroke
2804 308 M
[ [(Helvetica) 140.0 0.0 true true 0 (-937)]
] -46.7 MCshow
1.000 UL
LTb
LCb setrgbcolor
3047 448 M
0 63 V
stroke
3047 308 M
[ [(Helvetica) 140.0 0.0 true true 0 (-936)]
] -46.7 MCshow
1.000 UL
LTb
LCb setrgbcolor
3291 448 M
0 63 V
stroke
3291 308 M
[ [(Helvetica) 140.0 0.0 true true 0 (-935)]
] -46.7 MCshow
1.000 UL
LTb
LCb setrgbcolor
3535 448 M
0 63 V
stroke
3535 308 M
[ [(Helvetica) 140.0 0.0 true true 0 (-934)]
] -46.7 MCshow
1.000 UL
LTb
LCb setrgbcolor
3779 448 M
0 63 V
stroke
3779 308 M
[ [(Helvetica) 140.0 0.0 true true 0 (-933)]
] -46.7 MCshow
1.000 UL
LTb
LCb setrgbcolor
4022 448 M
0 63 V
stroke
4022 308 M
[ [(Helvetica) 140.0 0.0 true true 0 (-932)]
] -46.7 MCshow
1.000 UL
LTb
LCb setrgbcolor
4266 448 M
0 63 V
stroke
4266 308 M
[ [(Helvetica) 140.0 0.0 true true 0 (-931)]
] -46.7 MCshow
1.000 UL
LTb
LCb setrgbcolor
4510 448 M
0 63 V
stroke
4510 308 M
[ [(Helvetica) 140.0 0.0 true true 0 (-930)]
] -46.7 MCshow
1.000 UL
LTb
LCb setrgbcolor
4754 448 M
0 63 V
stroke
4754 308 M
[ [(Helvetica) 140.0 0.0 true true 0 (-929)]
] -46.7 MCshow
1.000 UL
LTb
LCb setrgbcolor
4997 448 M
0 63 V
stroke
4997 308 M
[ [(Helvetica) 140.0 0.0 true true 0 (-928)]
] -46.7 MCshow
1.000 UL
LTb
LCb setrgbcolor
5241 448 M
0 63 V
stroke
5241 308 M
[ [(Helvetica) 140.0 0.0 true true 0 (-927)]
] -46.7 MCshow
1.000 UL
LTb
LCb setrgbcolor
5485 448 M
0 63 V
stroke
5485 308 M
[ [(Helvetica) 140.0 0.0 true true 0 (-926)]
] -46.7 MCshow
1.000 UL
LTb
LCb setrgbcolor
5728 448 M
0 63 V
stroke
5728 308 M
[ [(Helvetica) 140.0 0.0 true true 0 (-925)]
] -46.7 MCshow
1.000 UL
LTb
LCb setrgbcolor
5972 448 M
0 63 V
stroke
5972 308 M
[ [(Helvetica) 140.0 0.0 true true 0 (-924)]
] -46.7 MCshow
1.000 UL
LTb
LCb setrgbcolor
6216 448 M
0 63 V
stroke
6216 308 M
[ [(Helvetica) 140.0 0.0 true true 0 (-923)]
] -46.7 MCshow
1.000 UL
LTb
LCb setrgbcolor
6460 448 M
0 63 V
stroke
6460 308 M
[ [(Helvetica) 140.0 0.0 true true 0 (-922)]
] -46.7 MCshow
1.000 UL
LTb
LCb setrgbcolor
6703 448 M
0 63 V
stroke
6703 308 M
[ [(Helvetica) 140.0 0.0 true true 0 (-921)]
] -46.7 MCshow
1.000 UL
LTb
LCb setrgbcolor
6947 448 M
0 63 V
stroke
6947 308 M
[ [(Helvetica) 140.0 0.0 true true 0 (-920)]
] -46.7 MCshow
1.000 UL
LTb
LCb setrgbcolor
1.000 UL
LTB
LCb setrgbcolor
854 4871 N
854 448 L
6093 0 V
0 4423 V
-6093 0 V
Z stroke
1.000 UP
1.000 UL
LTb
LCb setrgbcolor
LCb setrgbcolor
112 2659 M
currentpoint gsave translate -270 rotate 0 0 moveto
[ [(Helvetica) 140.0 0.0 true true 0 (Conteggi)]
] -46.7 MCshow
grestore
LTb
LCb setrgbcolor
3900 98 M
[ [(Helvetica) 140.0 0.0 true true 0 (Passi)]
] -46.7 MCshow
LTb
% Begin plot #1
1.000 UP
1.000 UL
LTb
LCb setrgbcolor
/Helvetica findfont 140 scalefont setfont
/vshift -46 def
6882 876 Pls
5908 2866 Pls
4933 3559 Pls
3958 4060 Pls
2983 3942 Pls
2008 3426 Pls
1033 2026 Pls
% End plot #1
% Begin plot #2
1.000 UL
LTb
LT1
LCb setrgbcolor
/Helvetica findfont 140 scalefont setfont
1033 2053 M
1 1 V
0 1 V
1 1 V
0 1 V
1 1 V
1 1 V
1 1 V
0 1 V
1 1 V
1 1 V
0 1 V
1 1 V
0 1 V
1 1 V
0 1 V
1 1 V
1 1 V
0 1 V
1 1 V
1 1 V
1 1 V
0 1 V
1 1 V
0 1 V
1 1 V
1 1 V
0 1 V
1 1 V
0 1 V
1 1 V
0 1 V
1 1 V
1 0 V
0 1 V
1 1 V
0 1 V
1 1 V
1 1 V
0 1 V
1 1 V
0 1 V
1 1 V
0 1 V
1 1 V
1 1 V
1 1 V
0 1 V
1 1 V
1 1 V
0 1 V
1 1 V
0 1 V
1 1 V
0 1 V
1 1 V
1 1 V
0 1 V
1 0 V
0 1 V
1 1 V
1 1 V
0 1 V
1 1 V
0 1 V
1 1 V
0 1 V
1 1 V
1 1 V
0 1 V
1 0 V
0 1 V
1 1 V
1 1 V
0 1 V
1 1 V
0 1 V
1 1 V
1 1 V
0 1 V
1 1 V
0 1 V
1 0 V
0 1 V
1 1 V
1 1 V
0 1 V
1 1 V
0 1 V
1 1 V
1 1 V
0 1 V
1 1 V
0 1 V
1 0 V
0 1 V
1 1 V
1 1 V
0 1 V
1 1 V
0 1 V
1 1 V
1 1 V
0 1 V
1 1 V
stroke 1096 2152 M
1 1 V
0 1 V
1 1 V
1 1 V
0 1 V
1 1 V
0 1 V
1 1 V
1 1 V
0 1 V
1 0 V
0 1 V
1 1 V
1 1 V
0 1 V
1 1 V
0 1 V
1 1 V
0 1 V
1 1 V
1 1 V
1 1 V
0 1 V
1 1 V
1 1 V
0 1 V
1 1 V
0 1 V
1 1 V
0 1 V
1 0 V
1 1 V
0 1 V
1 1 V
0 1 V
1 1 V
1 1 V
0 1 V
1 1 V
0 1 V
1 0 V
0 1 V
1 1 V
1 1 V
0 1 V
1 1 V
0 1 V
1 1 V
1 1 V
0 1 V
1 0 V
0 1 V
1 1 V
0 1 V
1 1 V
1 1 V
0 1 V
1 1 V
0 1 V
1 1 V
1 0 V
0 1 V
1 1 V
0 1 V
1 1 V
1 1 V
0 1 V
1 1 V
0 1 V
1 1 V
1 1 V
1 1 V
0 1 V
1 1 V
0 1 V
1 1 V
1 1 V
0 1 V
1 0 V
0 1 V
1 1 V
0 1 V
1 1 V
1 1 V
0 1 V
1 1 V
0 1 V
1 1 V
1 0 V
0 1 V
1 1 V
0 1 V
1 1 V
0 1 V
1 1 V
1 1 V
0 1 V
1 0 V
0 1 V
1 1 V
1 1 V
0 1 V
1 1 V
0 1 V
stroke 1158 2248 M
1 1 V
0 1 V
1 0 V
1 1 V
0 1 V
1 1 V
0 1 V
1 1 V
1 1 V
0 1 V
1 1 V
1 1 V
1 1 V
0 1 V
1 1 V
0 1 V
1 1 V
0 1 V
1 0 V
1 1 V
0 1 V
1 1 V
0 1 V
1 1 V
1 1 V
0 1 V
1 1 V
1 1 V
0 1 V
1 1 V
1 1 V
0 1 V
1 1 V
0 1 V
1 0 V
1 1 V
0 1 V
1 1 V
0 1 V
1 1 V
0 1 V
1 1 V
1 1 V
1 1 V
0 1 V
1 1 V
1 1 V
0 1 V
1 1 V
0 1 V
1 0 V
0 1 V
1 1 V
1 1 V
0 1 V
1 1 V
0 1 V
1 1 V
1 0 V
0 1 V
1 1 V
0 1 V
1 1 V
1 1 V
0 1 V
1 1 V
1 1 V
0 1 V
1 1 V
1 1 V
0 1 V
1 1 V
0 1 V
1 0 V
1 1 V
0 1 V
1 1 V
0 1 V
1 1 V
0 1 V
1 1 V
1 0 V
0 1 V
1 1 V
0 1 V
1 1 V
1 1 V
0 1 V
1 0 V
0 1 V
1 1 V
0 1 V
1 1 V
1 1 V
0 1 V
1 1 V
1 1 V
1 1 V
0 1 V
1 1 V
0 1 V
1 1 V
1 1 V
1 1 V
stroke 1223 2344 M
0 1 V
1 1 V
0 1 V
1 1 V
1 1 V
1 1 V
0 1 V
1 1 V
1 1 V
0 1 V
1 1 V
1 1 V
0 1 V
1 1 V
1 1 V
0 1 V
1 1 V
1 1 V
1 1 V
0 1 V
1 1 V
0 1 V
1 1 V
1 1 V
1 1 V
0 1 V
1 1 V
0 1 V
1 1 V
1 1 V
1 1 V
0 1 V
1 1 V
0 1 V
1 1 V
1 1 V
1 1 V
0 1 V
1 1 V
1 1 V
0 1 V
1 1 V
1 1 V
1 1 V
0 1 V
1 1 V
0 1 V
1 0 V
0 1 V
1 1 V
1 1 V
0 1 V
1 1 V
0 1 V
1 0 V
1 1 V
0 1 V
1 1 V
0 1 V
1 1 V
0 1 V
1 0 V
1 1 V
0 1 V
1 1 V
0 1 V
1 1 V
1 1 V
1 1 V
0 1 V
1 1 V
0 1 V
1 1 V
1 0 V
0 1 V
1 1 V
0 1 V
1 1 V
1 1 V
0 1 V
1 0 V
0 1 V
1 1 V
0 1 V
1 1 V
1 1 V
1 1 V
0 1 V
1 1 V
1 1 V
0 1 V
1 1 V
1 1 V
1 1 V
0 1 V
1 1 V
0 1 V
1 0 V
0 1 V
1 1 V
1 1 V
0 1 V
1 1 V
0 1 V
stroke 1289 2442 M
1 0 V
1 1 V
0 1 V
1 1 V
0 1 V
1 1 V
1 1 V
1 1 V
0 1 V
1 1 V
0 1 V
1 0 V
1 1 V
0 1 V
1 1 V
0 1 V
1 1 V
1 1 V
1 1 V
0 1 V
1 1 V
0 1 V
1 0 V
1 1 V
0 1 V
1 1 V
0 1 V
1 1 V
0 1 V
1 0 V
1 1 V
0 1 V
1 1 V
0 1 V
1 1 V
1 0 V
0 1 V
1 1 V
0 1 V
1 1 V
1 1 V
1 1 V
0 1 V
1 1 V
0 1 V
1 1 V
1 0 V
0 1 V
1 1 V
0 1 V
1 1 V
1 0 V
0 1 V
1 1 V
0 1 V
1 1 V
0 1 V
1 0 V
1 1 V
0 1 V
1 1 V
0 1 V
1 1 V
1 0 V
0 1 V
1 1 V
0 1 V
1 1 V
0 1 V
1 0 V
1 1 V
0 1 V
1 1 V
0 1 V
1 1 V
1 0 V
0 1 V
1 1 V
0 1 V
1 1 V
1 1 V
1 1 V
0 1 V
1 1 V
0 1 V
1 0 V
1 1 V
0 1 V
1 1 V
0 1 V
1 1 V
1 0 V
0 1 V
1 1 V
0 1 V
1 1 V
1 1 V
1 1 V
0 1 V
1 1 V
0 1 V
1 0 V
1 1 V
0 1 V
stroke 1353 2532 M
1 1 V
0 1 V
1 0 V
0 1 V
1 1 V
1 1 V
0 1 V
1 1 V
1 1 V
1 1 V
0 1 V
1 1 V
1 1 V
0 1 V
1 1 V
1 1 V
0 1 V
1 0 V
0 1 V
1 1 V
1 1 V
0 1 V
1 0 V
0 1 V
1 1 V
1 1 V
0 1 V
1 1 V
1 1 V
0 1 V
1 1 V
1 1 V
1 1 V
0 1 V
1 1 V
1 1 V
1 1 V
0 1 V
1 1 V
0 1 V
1 0 V
1 1 V
0 1 V
1 1 V
0 1 V
1 1 V
1 0 V
0 1 V
1 1 V
0 1 V
1 1 V
1 1 V
1 1 V
0 1 V
1 1 V
1 1 V
1 1 V
0 1 V
1 1 V
1 1 V
0 1 V
1 1 V
1 1 V
1 1 V
0 1 V
1 1 V
1 1 V
1 1 V
0 1 V
1 1 V
1 1 V
1 1 V
0 1 V
1 1 V
0 1 V
1 0 V
1 1 V
0 1 V
1 1 V
0 1 V
1 0 V
1 1 V
0 1 V
1 1 V
0 1 V
1 0 V
0 1 V
1 1 V
1 1 V
0 1 V
1 0 V
0 1 V
1 1 V
1 1 V
0 1 V
1 0 V
0 1 V
1 1 V
0 1 V
1 1 V
1 0 V
0 1 V
1 1 V
0 1 V
stroke 1420 2625 M
1 1 V
1 0 V
0 1 V
1 1 V
0 1 V
1 1 V
1 1 V
1 1 V
0 1 V
1 1 V
1 1 V
1 1 V
0 1 V
1 1 V
1 1 V
1 1 V
0 1 V
1 0 V
0 1 V
1 1 V
0 1 V
1 1 V
1 0 V
0 1 V
1 1 V
0 1 V
1 1 V
1 0 V
0 1 V
1 1 V
0 1 V
1 1 V
1 1 V
1 1 V
0 1 V
1 0 V
0 1 V
1 1 V
1 1 V
0 1 V
1 0 V
0 1 V
1 1 V
0 1 V
1 1 V
1 0 V
0 1 V
1 1 V
0 1 V
1 0 V
1 1 V
0 1 V
1 1 V
0 1 V
1 0 V
0 1 V
1 1 V
1 1 V
0 1 V
1 0 V
0 1 V
1 1 V
1 1 V
1 1 V
0 1 V
1 1 V
1 1 V
1 1 V
0 1 V
1 1 V
1 1 V
1 1 V
0 1 V
1 1 V
1 1 V
1 1 V
0 1 V
1 0 V
0 1 V
1 1 V
0 1 V
1 1 V
1 0 V
0 1 V
1 1 V
0 1 V
1 0 V
1 1 V
0 1 V
1 1 V
0 1 V
1 0 V
0 1 V
1 1 V
1 1 V
1 1 V
0 1 V
1 1 V
1 1 V
1 1 V
0 1 V
1 1 V
1 1 V
1 1 V
stroke 1488 2715 M
0 1 V
1 0 V
0 1 V
1 1 V
1 1 V
0 1 V
1 0 V
0 1 V
1 1 V
1 1 V
1 1 V
0 1 V
1 1 V
1 1 V
1 1 V
0 1 V
1 1 V
1 1 V
1 1 V
0 1 V
1 0 V
0 1 V
1 1 V
0 1 V
1 0 V
1 1 V
0 1 V
1 1 V
1 1 V
1 1 V
0 1 V
1 1 V
1 1 V
0 1 V
1 1 V
1 0 V
0 1 V
1 1 V
0 1 V
1 0 V
1 1 V
0 1 V
1 1 V
1 1 V
1 1 V
0 1 V
1 0 V
0 1 V
1 1 V
0 1 V
1 1 V
1 0 V
0 1 V
1 1 V
0 1 V
1 0 V
1 1 V
0 1 V
1 1 V
1 1 V
0 1 V
1 1 V
1 0 V
0 1 V
1 1 V
0 1 V
1 0 V
1 1 V
0 1 V
1 1 V
1 1 V
0 1 V
1 1 V
1 0 V
0 1 V
1 1 V
0 1 V
1 0 V
1 1 V
0 1 V
1 1 V
1 1 V
0 1 V
1 1 V
1 0 V
0 1 V
1 1 V
0 1 V
1 0 V
1 1 V
0 1 V
1 1 V
1 1 V
1 1 V
0 1 V
1 0 V
0 1 V
1 1 V
0 1 V
1 0 V
1 1 V
0 1 V
1 1 V
1 1 V
stroke 1555 2802 M
1 1 V
0 1 V
1 0 V
0 1 V
1 1 V
0 1 V
1 0 V
1 1 V
0 1 V
1 1 V
1 1 V
1 1 V
0 1 V
1 0 V
0 1 V
1 1 V
0 1 V
1 0 V
1 1 V
0 1 V
1 1 V
1 1 V
1 1 V
0 1 V
1 0 V
0 1 V
1 1 V
0 1 V
1 0 V
1 1 V
0 1 V
1 1 V
1 1 V
1 1 V
1 1 V
0 1 V
1 1 V
1 0 V
0 1 V
1 1 V
0 1 V
1 0 V
0 1 V
1 1 V
1 1 V
1 1 V
0 1 V
1 1 V
1 0 V
0 1 V
1 1 V
1 1 V
0 1 V
1 1 V
1 0 V
0 1 V
1 1 V
0 1 V
1 0 V
1 1 V
0 1 V
1 1 V
1 1 V
0 1 V
1 1 V
1 0 V
0 1 V
1 1 V
1 1 V
1 1 V
0 1 V
1 0 V
0 1 V
1 1 V
0 1 V
1 0 V
1 1 V
0 1 V
1 0 V
0 1 V
1 1 V
1 1 V
1 1 V
0 1 V
1 1 V
1 0 V
0 1 V
1 1 V
1 1 V
0 1 V
1 1 V
1 0 V
0 1 V
1 1 V
0 1 V
1 0 V
1 1 V
0 1 V
1 0 V
0 1 V
1 1 V
0 1 V
1 0 V
1 1 V
stroke 1622 2886 M
0 1 V
1 1 V
1 1 V
1 1 V
1 1 V
0 1 V
1 1 V
1 1 V
1 1 V
1 1 V
0 1 V
1 1 V
1 0 V
0 1 V
1 1 V
0 1 V
1 0 V
1 1 V
0 1 V
1 0 V
0 1 V
1 1 V
0 1 V
1 0 V
1 1 V
0 1 V
1 0 V
0 1 V
1 1 V
1 1 V
1 1 V
0 1 V
1 0 V
0 1 V
1 1 V
1 1 V
1 1 V
0 1 V
1 0 V
1 1 V
0 1 V
1 1 V
1 1 V
0 1 V
1 0 V
1 1 V
0 1 V
1 1 V
1 1 V
1 1 V
1 1 V
0 1 V
1 1 V
1 1 V
1 1 V
1 1 V
0 1 V
1 1 V
1 0 V
0 1 V
1 1 V
1 1 V
1 1 V
1 1 V
0 1 V
1 1 V
1 1 V
1 1 V
1 1 V
0 1 V
1 1 V
1 0 V
0 1 V
1 1 V
1 1 V
0 1 V
1 0 V
1 1 V
0 1 V
1 1 V
1 1 V
1 1 V
1 1 V
0 1 V
1 1 V
1 1 V
1 1 V
1 1 V
0 1 V
1 0 V
1 1 V
0 1 V
1 1 V
1 1 V
0 1 V
1 0 V
1 1 V
0 1 V
1 0 V
0 1 V
1 1 V
1 1 V
1 1 V
0 1 V
stroke 1695 2976 M
1 0 V
1 1 V
0 1 V
1 0 V
0 1 V
1 1 V
1 1 V
1 1 V
0 1 V
1 0 V
0 1 V
1 1 V
1 0 V
0 1 V
1 1 V
1 1 V
0 1 V
1 1 V
1 0 V
0 1 V
1 1 V
1 1 V
1 1 V
1 1 V
0 1 V
1 0 V
0 1 V
1 1 V
1 1 V
1 1 V
0 1 V
1 0 V
1 1 V
0 1 V
1 0 V
0 1 V
1 1 V
1 1 V
1 1 V
1 1 V
0 1 V
1 1 V
1 0 V
0 1 V
1 1 V
1 1 V
1 1 V
1 1 V
0 1 V
1 0 V
0 1 V
1 1 V
1 0 V
0 1 V
1 1 V
0 1 V
1 0 V
1 1 V
0 1 V
1 0 V
0 1 V
1 1 V
1 1 V
1 1 V
1 1 V
0 1 V
1 0 V
1 1 V
0 1 V
1 0 V
0 1 V
1 1 V
1 1 V
1 1 V
0 1 V
1 0 V
0 1 V
1 1 V
1 0 V
0 1 V
1 1 V
1 1 V
0 1 V
1 0 V
1 1 V
0 1 V
1 0 V
0 1 V
1 1 V
1 0 V
0 1 V
1 1 V
1 1 V
1 1 V
1 1 V
0 1 V
1 0 V
0 1 V
1 1 V
1 0 V
0 1 V
1 1 V
1 1 V
1 1 V
stroke 1766 3058 M
1 1 V
0 1 V
1 1 V
1 1 V
1 1 V
1 1 V
0 1 V
1 0 V
1 1 V
0 1 V
1 0 V
0 1 V
1 1 V
1 1 V
1 1 V
1 1 V
0 1 V
1 0 V
1 1 V
0 1 V
1 0 V
0 1 V
1 1 V
1 0 V
0 1 V
1 1 V
1 1 V
0 1 V
1 0 V
1 1 V
0 1 V
1 0 V
0 1 V
1 1 V
1 0 V
0 1 V
1 1 V
1 1 V
0 1 V
1 0 V
1 1 V
0 1 V
1 0 V
0 1 V
1 1 V
1 0 V
0 1 V
1 0 V
0 1 V
1 1 V
1 1 V
1 1 V
1 1 V
0 1 V
1 0 V
1 1 V
0 1 V
1 0 V
0 1 V
1 1 V
1 1 V
1 1 V
1 1 V
0 1 V
1 0 V
1 1 V
0 1 V
1 0 V
0 1 V
1 1 V
1 0 V
0 1 V
1 1 V
1 1 V
0 1 V
1 0 V
1 1 V
0 1 V
1 0 V
0 1 V
1 0 V
1 1 V
0 1 V
1 0 V
0 1 V
1 1 V
1 1 V
1 1 V
1 1 V
0 1 V
1 0 V
1 1 V
0 1 V
1 0 V
0 1 V
1 1 V
1 1 V
1 0 V
0 1 V
1 1 V
1 1 V
1 1 V
1 1 V
0 1 V
stroke 1836 3138 M
1 0 V
0 1 V
1 1 V
1 0 V
0 1 V
1 1 V
1 1 V
1 0 V
0 1 V
1 1 V
1 1 V
1 1 V
1 1 V
0 1 V
1 0 V
0 1 V
1 1 V
1 0 V
0 1 V
1 1 V
1 1 V
1 0 V
0 1 V
1 1 V
1 1 V
0 1 V
1 0 V
1 1 V
0 1 V
1 0 V
0 1 V
1 0 V
1 1 V
0 1 V
1 0 V
0 1 V
1 1 V
1 1 V
1 1 V
1 1 V
0 1 V
1 0 V
1 1 V
1 1 V
0 1 V
1 0 V
0 1 V
1 1 V
1 0 V
0 1 V
1 1 V
1 1 V
1 0 V
0 1 V
1 1 V
1 1 V
1 1 V
1 1 V
1 1 V
0 1 V
1 0 V
1 1 V
0 1 V
1 0 V
0 1 V
1 1 V
1 0 V
0 1 V
1 0 V
0 1 V
1 1 V
1 1 V
1 1 V
1 1 V
1 1 V
1 1 V
1 1 V
0 1 V
1 0 V
0 1 V
1 0 V
1 1 V
0 1 V
1 0 V
0 1 V
1 1 V
1 0 V
0 1 V
1 1 V
1 1 V
1 1 V
1 1 V
1 1 V
0 1 V
1 0 V
1 1 V
1 1 V
0 1 V
1 0 V
1 1 V
1 1 V
0 1 V
1 0 V
0 1 V
stroke 1909 3217 M
1 1 V
1 0 V
0 1 V
1 0 V
0 1 V
1 1 V
1 0 V
0 1 V
1 1 V
1 1 V
1 1 V
1 1 V
1 1 V
0 1 V
1 0 V
1 1 V
1 1 V
0 1 V
1 0 V
0 1 V
1 0 V
1 1 V
0 1 V
1 0 V
0 1 V
1 1 V
1 0 V
0 1 V
1 0 V
0 1 V
1 1 V
1 0 V
0 1 V
1 0 V
0 1 V
1 1 V
1 1 V
1 1 V
1 1 V
1 1 V
1 1 V
1 1 V
1 1 V
0 1 V
1 0 V
1 1 V
1 1 V
0 1 V
1 0 V
1 1 V
1 1 V
0 1 V
1 0 V
0 1 V
1 1 V
1 0 V
0 1 V
1 0 V
0 1 V
1 1 V
1 0 V
0 1 V
1 0 V
0 1 V
1 1 V
1 1 V
1 0 V
0 1 V
1 1 V
1 1 V
1 0 V
0 1 V
1 1 V
1 1 V
1 0 V
0 1 V
1 1 V
1 1 V
1 1 V
1 1 V
1 1 V
1 1 V
1 1 V
1 1 V
1 1 V
0 1 V
1 0 V
1 1 V
1 1 V
0 1 V
1 0 V
1 1 V
1 1 V
0 1 V
1 0 V
0 1 V
1 0 V
1 1 V
0 1 V
1 0 V
0 1 V
1 0 V
1 1 V
0 1 V
stroke 1983 3294 M
1 0 V
0 1 V
1 0 V
0 1 V
1 1 V
1 0 V
0 1 V
1 0 V
0 1 V
1 1 V
1 0 V
0 1 V
1 0 V
0 1 V
1 1 V
1 0 V
0 1 V
1 0 V
0 1 V
1 0 V
0 1 V
1 1 V
1 0 V
0 1 V
1 0 V
0 1 V
1 1 V
1 0 V
0 1 V
1 0 V
0 1 V
1 1 V
1 1 V
1 0 V
0 1 V
1 1 V
1 1 V
1 0 V
0 1 V
1 0 V
0 1 V
1 1 V
1 1 V
1 0 V
0 1 V
1 1 V
1 1 V
1 0 V
0 1 V
1 0 V
0 1 V
1 1 V
1 1 V
1 0 V
0 1 V
1 1 V
1 1 V
1 0 V
0 1 V
1 0 V
0 1 V
1 1 V
1 0 V
0 1 V
1 0 V
0 1 V
1 1 V
1 1 V
1 0 V
0 1 V
1 0 V
0 1 V
1 1 V
1 0 V
0 1 V
1 0 V
0 1 V
1 0 V
0 1 V
1 1 V
1 0 V
0 1 V
1 0 V
0 1 V
1 1 V
1 0 V
0 1 V
1 0 V
0 1 V
1 0 V
0 1 V
1 1 V
1 0 V
0 1 V
1 0 V
0 1 V
1 0 V
1 1 V
0 1 V
1 0 V
0 1 V
1 0 V
1 1 V
1 1 V
stroke 2049 3359 M
0 1 V
1 0 V
0 1 V
1 0 V
1 1 V
1 1 V
0 1 V
1 0 V
1 1 V
1 1 V
1 1 V
0 1 V
1 0 V
1 1 V
1 1 V
1 1 V
1 1 V
1 1 V
1 1 V
1 1 V
1 0 V
0 1 V
1 1 V
1 1 V
1 0 V
0 1 V
1 0 V
0 1 V
1 1 V
1 1 V
1 0 V
0 1 V
1 0 V
0 1 V
1 1 V
1 0 V
0 1 V
1 0 V
0 1 V
1 0 V
1 1 V
1 1 V
0 1 V
1 0 V
0 1 V
1 0 V
1 1 V
1 1 V
1 1 V
1 1 V
1 1 V
1 1 V
1 1 V
1 1 V
1 1 V
1 1 V
1 0 V
0 1 V
1 0 V
0 1 V
1 1 V
1 1 V
1 0 V
0 1 V
1 0 V
0 1 V
1 0 V
1 1 V
0 1 V
1 0 V
0 1 V
1 0 V
0 1 V
1 0 V
1 1 V
1 1 V
1 1 V
1 1 V
1 1 V
1 1 V
1 0 V
0 1 V
1 0 V
0 1 V
1 1 V
1 1 V
1 0 V
0 1 V
1 0 V
0 1 V
1 0 V
1 1 V
1 1 V
0 1 V
1 0 V
0 1 V
1 0 V
1 1 V
1 1 V
1 1 V
1 1 V
1 1 V
1 1 V
1 1 V
stroke 2127 3434 M
1 0 V
0 1 V
1 0 V
0 1 V
1 0 V
1 1 V
0 1 V
1 0 V
0 1 V
1 0 V
0 1 V
1 0 V
1 1 V
1 1 V
1 1 V
1 1 V
1 1 V
1 1 V
1 0 V
0 1 V
1 0 V
0 1 V
1 0 V
0 1 V
1 0 V
1 1 V
0 1 V
1 0 V
0 1 V
1 0 V
1 1 V
1 1 V
1 1 V
1 1 V
1 0 V
0 1 V
1 1 V
1 1 V
1 0 V
0 1 V
1 0 V
0 1 V
1 0 V
0 1 V
1 0 V
1 1 V
1 1 V
1 1 V
1 1 V
1 1 V
1 1 V
1 1 V
1 0 V
0 1 V
1 0 V
0 1 V
1 0 V
1 1 V
1 1 V
1 1 V
1 1 V
1 1 V
1 1 V
1 1 V
1 0 V
0 1 V
1 0 V
0 1 V
1 0 V
1 1 V
1 1 V
1 1 V
1 1 V
1 1 V
1 1 V
1 1 V
1 0 V
0 1 V
1 0 V
0 1 V
1 0 V
0 1 V
1 0 V
1 1 V
1 1 V
1 1 V
1 0 V
0 1 V
1 0 V
0 1 V
1 0 V
1 1 V
0 1 V
1 0 V
0 1 V
1 0 V
0 1 V
1 0 V
1 1 V
1 1 V
1 1 V
1 0 V
0 1 V
1 0 V
stroke 2204 3503 M
0 1 V
1 0 V
0 1 V
1 0 V
1 1 V
1 1 V
1 1 V
1 0 V
0 1 V
1 0 V
0 1 V
1 0 V
0 1 V
1 1 V
1 0 V
0 1 V
1 0 V
0 1 V
1 0 V
1 1 V
1 1 V
1 1 V
1 1 V
1 0 V
0 1 V
1 0 V
0 1 V
1 0 V
1 1 V
1 1 V
1 1 V
1 0 V
0 1 V
1 0 V
0 1 V
1 0 V
0 1 V
1 0 V
1 1 V
1 1 V
1 1 V
1 0 V
0 1 V
1 0 V
0 1 V
1 0 V
0 1 V
1 0 V
1 1 V
1 1 V
1 1 V
1 0 V
0 1 V
1 0 V
0 1 V
1 0 V
0 1 V
1 0 V
1 1 V
1 1 V
1 1 V
1 0 V
0 1 V
1 0 V
0 1 V
1 0 V
0 1 V
1 0 V
1 1 V
1 1 V
1 1 V
1 0 V
0 1 V
1 0 V
0 1 V
1 0 V
1 1 V
1 1 V
1 1 V
1 1 V
1 0 V
0 1 V
1 0 V
0 1 V
1 0 V
1 1 V
1 1 V
1 1 V
1 1 V
1 0 V
0 1 V
1 0 V
0 1 V
1 0 V
1 1 V
1 1 V
1 1 V
1 1 V
1 0 V
0 1 V
1 0 V
0 1 V
1 0 V
1 1 V
stroke 2279 3568 M
1 1 V
1 1 V
1 1 V
1 0 V
0 1 V
1 0 V
0 1 V
1 0 V
1 1 V
1 1 V
1 1 V
1 0 V
0 1 V
1 0 V
1 1 V
1 1 V
1 0 V
0 1 V
1 0 V
0 1 V
1 0 V
1 1 V
1 1 V
1 1 V
1 1 V
1 0 V
0 1 V
1 0 V
0 1 V
1 0 V
1 1 V
1 1 V
1 1 V
1 1 V
1 0 V
0 1 V
1 0 V
1 1 V
1 0 V
0 1 V
1 0 V
0 1 V
1 0 V
0 1 V
1 0 V
1 1 V
1 1 V
1 1 V
1 0 V
0 1 V
1 0 V
0 1 V
1 0 V
1 1 V
1 0 V
0 1 V
1 0 V
0 1 V
1 0 V
1 1 V
1 1 V
1 1 V
1 0 V
0 1 V
1 0 V
0 1 V
1 0 V
0 1 V
1 0 V
1 1 V
1 0 V
0 1 V
1 0 V
1 1 V
1 1 V
1 1 V
1 1 V
1 0 V
0 1 V
1 0 V
0 1 V
1 0 V
1 1 V
1 0 V
0 1 V
1 0 V
1 1 V
1 1 V
1 1 V
1 1 V
1 0 V
0 1 V
1 0 V
0 1 V
1 0 V
1 0 V
0 1 V
1 0 V
0 1 V
1 0 V
0 1 V
1 0 V
1 1 V
1 1 V
stroke 2356 3631 M
1 1 V
1 0 V
1 1 V
1 1 V
1 1 V
1 0 V
0 1 V
1 0 V
0 1 V
1 0 V
1 1 V
1 0 V
0 1 V
1 0 V
0 1 V
1 0 V
1 1 V
1 1 V
1 1 V
1 0 V
0 1 V
1 0 V
1 1 V
1 0 V
0 1 V
1 0 V
0 1 V
1 0 V
0 1 V
1 0 V
1 1 V
1 0 V
0 1 V
1 0 V
1 1 V
1 1 V
1 1 V
1 1 V
1 0 V
1 1 V
1 1 V
1 0 V
0 1 V
1 0 V
0 1 V
1 0 V
1 1 V
1 0 V
0 1 V
1 0 V
0 1 V
1 0 V
1 1 V
1 1 V
1 0 V
0 1 V
1 0 V
1 1 V
1 1 V
1 1 V
1 0 V
1 1 V
1 1 V
1 0 V
0 1 V
1 0 V
0 1 V
1 0 V
1 1 V
1 0 V
0 1 V
1 0 V
0 1 V
1 0 V
1 1 V
1 0 V
0 1 V
1 0 V
0 1 V
1 0 V
1 1 V
1 1 V
1 0 V
1 1 V
1 1 V
1 1 V
1 1 V
1 0 V
1 1 V
1 1 V
1 0 V
0 1 V
1 0 V
1 1 V
1 1 V
1 0 V
0 1 V
1 0 V
0 1 V
1 0 V
1 0 V
0 1 V
1 0 V
0 1 V
stroke 2435 3692 M
1 0 V
1 1 V
1 0 V
0 1 V
1 0 V
0 1 V
1 0 V
1 1 V
1 0 V
0 1 V
1 0 V
1 1 V
1 1 V
1 0 V
0 1 V
1 0 V
1 1 V
1 1 V
1 0 V
1 1 V
1 1 V
1 1 V
1 0 V
1 1 V
1 1 V
1 1 V
1 0 V
1 1 V
1 1 V
1 0 V
0 1 V
1 0 V
1 1 V
1 1 V
1 0 V
0 1 V
1 0 V
1 1 V
1 0 V
0 1 V
1 0 V
0 1 V
1 0 V
1 1 V
1 0 V
0 1 V
1 0 V
1 1 V
1 0 V
0 1 V
1 0 V
0 1 V
1 0 V
1 1 V
1 0 V
0 1 V
1 0 V
0 1 V
1 0 V
1 0 V
0 1 V
1 0 V
0 1 V
1 0 V
1 1 V
1 0 V
0 1 V
1 0 V
0 1 V
1 0 V
1 0 V
0 1 V
1 0 V
0 1 V
1 0 V
1 0 V
0 1 V
1 0 V
0 1 V
1 0 V
0 1 V
1 0 V
1 0 V
0 1 V
1 0 V
0 1 V
1 0 V
1 0 V
0 1 V
1 0 V
0 1 V
1 0 V
1 1 V
1 0 V
0 1 V
1 0 V
0 1 V
1 0 V
1 0 V
0 1 V
1 0 V
0 1 V
1 0 V
1 1 V
stroke 2509 3745 M
1 0 V
0 1 V
1 0 V
1 1 V
1 0 V
0 1 V
1 0 V
1 1 V
1 1 V
1 0 V
1 1 V
1 1 V
1 0 V
0 1 V
1 0 V
1 1 V
1 0 V
0 1 V
1 0 V
1 1 V
1 1 V
1 0 V
1 1 V
1 1 V
1 0 V
1 1 V
1 1 V
1 0 V
1 1 V
1 1 V
1 0 V
1 1 V
1 1 V
1 0 V
0 1 V
1 0 V
1 1 V
1 0 V
0 1 V
1 0 V
1 1 V
1 0 V
0 1 V
1 0 V
0 1 V
1 0 V
1 0 V
0 1 V
1 0 V
1 1 V
1 0 V
0 1 V
1 0 V
1 1 V
1 0 V
0 1 V
1 0 V
1 1 V
1 1 V
1 0 V
1 1 V
1 1 V
1 0 V
1 1 V
1 0 V
0 1 V
1 0 V
1 1 V
1 0 V
0 1 V
1 0 V
1 1 V
1 0 V
0 1 V
1 0 V
0 1 V
1 0 V
1 0 V
0 1 V
1 0 V
1 1 V
1 0 V
0 1 V
1 0 V
1 1 V
1 1 V
1 0 V
1 1 V
1 0 V
1 1 V
1 1 V
1 0 V
1 1 V
1 1 V
1 0 V
0 1 V
1 0 V
1 0 V
0 1 V
1 0 V
0 1 V
1 0 V
1 0 V
0 1 V
stroke 2592 3801 M
1 0 V
1 1 V
1 1 V
1 0 V
1 1 V
1 0 V
1 1 V
1 1 V
1 0 V
0 1 V
1 0 V
1 0 V
0 1 V
1 0 V
0 1 V
1 0 V
1 0 V
0 1 V
1 0 V
1 1 V
1 0 V
0 1 V
1 0 V
1 1 V
1 0 V
1 1 V
1 1 V
1 0 V
1 1 V
1 0 V
0 1 V
1 0 V
0 1 V
1 0 V
1 0 V
0 1 V
1 0 V
1 1 V
1 0 V
1 1 V
1 1 V
1 0 V
1 1 V
1 0 V
0 1 V
1 0 V
1 1 V
1 0 V
0 1 V
1 0 V
1 1 V
1 0 V
1 1 V
1 1 V
1 0 V
1 1 V
1 0 V
1 1 V
1 0 V
0 1 V
1 0 V
0 1 V
1 0 V
1 0 V
0 1 V
1 0 V
1 1 V
1 0 V
1 1 V
1 0 V
0 1 V
1 0 V
1 1 V
1 0 V
0 1 V
1 0 V
1 0 V
0 1 V
1 0 V
1 1 V
1 0 V
1 1 V
1 1 V
1 0 V
1 1 V
1 0 V
0 1 V
1 0 V
1 1 V
1 0 V
1 1 V
1 0 V
1 1 V
1 1 V
1 0 V
1 1 V
1 0 V
0 1 V
1 0 V
1 1 V
1 0 V
1 1 V
1 0 V
1 1 V
stroke 2678 3854 M
1 1 V
1 0 V
0 1 V
1 0 V
1 0 V
0 1 V
1 0 V
1 1 V
1 0 V
1 1 V
1 0 V
0 1 V
1 0 V
1 0 V
0 1 V
1 0 V
1 1 V
1 0 V
1 1 V
1 0 V
0 1 V
1 0 V
1 1 V
1 0 V
0 1 V
1 0 V
1 0 V
0 1 V
1 0 V
1 1 V
1 0 V
1 1 V
1 0 V
0 1 V
1 0 V
1 0 V
0 1 V
1 0 V
1 1 V
1 0 V
1 1 V
1 0 V
0 1 V
1 0 V
1 0 V
0 1 V
1 0 V
1 1 V
1 0 V
1 1 V
1 0 V
0 1 V
1 0 V
1 0 V
0 1 V
1 0 V
1 1 V
1 0 V
1 1 V
1 0 V
1 1 V
1 0 V
0 1 V
1 0 V
1 1 V
1 0 V
1 1 V
1 0 V
1 1 V
1 0 V
0 1 V
1 0 V
1 1 V
1 0 V
1 1 V
1 0 V
1 1 V
1 0 V
0 1 V
1 0 V
1 1 V
1 0 V
1 1 V
1 0 V
1 0 V
0 1 V
1 0 V
1 1 V
1 0 V
1 1 V
1 0 V
0 1 V
1 0 V
1 0 V
0 1 V
1 0 V
1 1 V
1 0 V
1 1 V
1 0 V
0 1 V
1 0 V
1 0 V
0 1 V
stroke 2761 3902 M
1 0 V
1 0 V
1 1 V
1 0 V
0 1 V
1 0 V
1 1 V
1 0 V
1 1 V
1 0 V
1 1 V
1 0 V
0 1 V
1 0 V
1 0 V
1 1 V
1 0 V
0 1 V
1 0 V
1 0 V
0 1 V
1 0 V
1 1 V
1 0 V
1 1 V
1 0 V
1 1 V
1 0 V
1 1 V
1 0 V
1 1 V
1 0 V
0 1 V
1 0 V
1 1 V
1 0 V
1 0 V
0 1 V
1 0 V
1 0 V
0 1 V
1 0 V
1 1 V
1 0 V
1 1 V
1 0 V
1 1 V
1 0 V
1 1 V
1 0 V
0 1 V
1 0 V
1 0 V
1 1 V
1 0 V
1 1 V
1 0 V
0 1 V
1 0 V
1 0 V
1 1 V
1 0 V
0 1 V
1 0 V
1 0 V
0 1 V
1 0 V
1 0 V
1 1 V
1 0 V
0 1 V
1 0 V
1 1 V
1 0 V
1 0 V
0 1 V
1 0 V
1 0 V
0 1 V
1 0 V
1 1 V
1 0 V
1 0 V
0 1 V
1 0 V
1 1 V
1 0 V
1 0 V
0 1 V
1 0 V
1 1 V
1 0 V
1 1 V
1 0 V
1 0 V
0 1 V
1 0 V
1 1 V
1 0 V
1 0 V
0 1 V
1 0 V
1 1 V
1 0 V
stroke 2847 3946 M
1 0 V
0 1 V
1 0 V
1 0 V
0 1 V
1 0 V
1 0 V
0 1 V
1 0 V
1 0 V
0 1 V
1 0 V
1 0 V
1 1 V
1 0 V
0 1 V
1 0 V
1 0 V
1 1 V
1 0 V
0 1 V
1 0 V
1 0 V
1 1 V
1 0 V
0 1 V
1 0 V
1 0 V
1 1 V
1 0 V
1 1 V
1 0 V
1 1 V
1 0 V
1 0 V
0 1 V
1 0 V
1 1 V
1 0 V
1 0 V
0 1 V
1 0 V
1 0 V
0 1 V
1 0 V
1 0 V
0 1 V
1 0 V
1 0 V
1 1 V
1 0 V
1 1 V
1 0 V
1 1 V
1 0 V
1 0 V
0 1 V
1 0 V
1 1 V
1 0 V
1 0 V
0 1 V
1 0 V
1 0 V
1 1 V
1 0 V
0 1 V
1 0 V
1 0 V
1 1 V
1 0 V
1 0 V
0 1 V
1 0 V
1 0 V
0 1 V
1 0 V
1 0 V
0 1 V
1 0 V
1 0 V
1 1 V
1 0 V
1 1 V
1 0 V
1 0 V
0 1 V
1 0 V
1 1 V
1 0 V
1 0 V
0 1 V
1 0 V
1 0 V
1 1 V
1 0 V
1 1 V
1 0 V
1 0 V
0 1 V
1 0 V
1 0 V
1 1 V
1 0 V
stroke 2931 3985 M
0 1 V
1 0 V
1 0 V
1 1 V
1 0 V
1 0 V
0 1 V
1 0 V
1 0 V
0 1 V
1 0 V
1 0 V
1 1 V
1 0 V
1 0 V
0 1 V
1 0 V
1 0 V
0 1 V
1 0 V
1 0 V
1 1 V
1 0 V
1 0 V
0 1 V
1 0 V
1 0 V
0 1 V
1 0 V
1 0 V
1 1 V
1 0 V
1 0 V
0 1 V
1 0 V
1 0 V
0 1 V
1 0 V
1 0 V
1 1 V
1 0 V
1 0 V
0 1 V
1 0 V
1 0 V
1 1 V
1 0 V
1 1 V
1 0 V
1 0 V
0 1 V
1 0 V
1 0 V
1 1 V
1 0 V
1 1 V
1 0 V
1 0 V
0 1 V
1 0 V
1 0 V
1 0 V
0 1 V
1 0 V
1 0 V
0 1 V
1 0 V
1 0 V
1 1 V
1 0 V
1 0 V
0 1 V
1 0 V
1 0 V
0 1 V
1 0 V
1 0 V
1 1 V
1 0 V
1 0 V
1 1 V
1 0 V
1 0 V
0 1 V
1 0 V
1 0 V
0 1 V
1 0 V
1 0 V
1 1 V
1 0 V
1 0 V
1 1 V
1 0 V
1 1 V
1 0 V
1 0 V
0 1 V
1 0 V
1 0 V
1 0 V
0 1 V
1 0 V
1 0 V
stroke 3015 4020 M
1 1 V
1 0 V
1 0 V
1 1 V
1 0 V
1 1 V
1 0 V
1 0 V
0 1 V
1 0 V
1 0 V
1 0 V
0 1 V
1 0 V
1 0 V
1 1 V
1 0 V
1 0 V
0 1 V
1 0 V
1 0 V
1 1 V
1 0 V
1 0 V
1 1 V
1 0 V
1 1 V
1 0 V
1 0 V
1 1 V
1 0 V
1 0 V
0 1 V
1 0 V
1 0 V
1 0 V
0 1 V
1 0 V
1 0 V
1 0 V
0 1 V
1 0 V
1 0 V
1 1 V
1 0 V
1 0 V
0 1 V
1 0 V
1 0 V
1 0 V
0 1 V
1 0 V
1 0 V
1 1 V
1 0 V
1 0 V
1 1 V
1 0 V
1 0 V
1 1 V
1 0 V
1 1 V
1 0 V
1 0 V
1 1 V
1 0 V
1 0 V
1 1 V
1 0 V
1 0 V
1 1 V
1 0 V
1 0 V
1 1 V
1 0 V
1 0 V
1 1 V
1 0 V
1 1 V
1 0 V
1 0 V
1 1 V
1 0 V
1 0 V
1 1 V
1 0 V
1 0 V
1 1 V
1 0 V
1 0 V
1 1 V
1 0 V
1 0 V
0 1 V
1 0 V
1 0 V
1 0 V
0 1 V
1 0 V
1 0 V
1 0 V
0 1 V
1 0 V
1 0 V
stroke 3108 4054 M
1 0 V
1 1 V
1 0 V
1 0 V
1 1 V
1 0 V
1 0 V
1 1 V
1 0 V
1 0 V
1 1 V
1 0 V
1 0 V
1 1 V
1 0 V
1 0 V
1 1 V
1 0 V
1 0 V
1 1 V
1 0 V
1 0 V
1 1 V
1 0 V
1 0 V
1 0 V
0 1 V
1 0 V
1 0 V
1 0 V
0 1 V
1 0 V
1 0 V
1 0 V
0 1 V
1 0 V
1 0 V
1 0 V
1 1 V
1 0 V
1 0 V
1 1 V
1 0 V
1 0 V
1 0 V
0 1 V
1 0 V
1 0 V
1 0 V
0 1 V
1 0 V
1 0 V
1 0 V
1 1 V
1 0 V
1 0 V
1 1 V
1 0 V
1 0 V
1 1 V
1 0 V
1 0 V
1 0 V
1 1 V
1 0 V
1 0 V
1 0 V
0 1 V
1 0 V
1 0 V
1 1 V
1 0 V
1 0 V
1 0 V
1 1 V
1 0 V
1 0 V
1 1 V
1 0 V
1 0 V
1 0 V
1 1 V
1 0 V
1 0 V
1 1 V
1 0 V
1 0 V
1 0 V
1 1 V
1 0 V
1 0 V
1 1 V
1 0 V
1 0 V
1 0 V
1 1 V
1 0 V
1 0 V
1 0 V
0 1 V
1 0 V
1 0 V
1 0 V
1 1 V
stroke 3205 4084 M
1 0 V
1 0 V
1 0 V
0 1 V
1 0 V
1 0 V
1 0 V
1 0 V
0 1 V
1 0 V
1 0 V
1 0 V
1 1 V
1 0 V
1 0 V
1 0 V
0 1 V
1 0 V
1 0 V
1 0 V
1 0 V
0 1 V
1 0 V
1 0 V
1 0 V
1 1 V
1 0 V
1 0 V
1 0 V
1 1 V
1 0 V
1 0 V
1 0 V
0 1 V
1 0 V
1 0 V
1 0 V
1 0 V
1 1 V
1 0 V
1 0 V
1 0 V
1 1 V
1 0 V
1 0 V
1 0 V
1 1 V
1 0 V
1 0 V
1 0 V
0 1 V
1 0 V
1 0 V
1 0 V
1 0 V
0 1 V
1 0 V
1 0 V
1 0 V
1 0 V
0 1 V
1 0 V
1 0 V
1 0 V
1 0 V
1 1 V
1 0 V
1 0 V
1 0 V
1 0 V
0 1 V
1 0 V
1 0 V
1 0 V
1 0 V
0 1 V
1 0 V
1 0 V
1 0 V
1 0 V
0 1 V
1 0 V
1 0 V
1 0 V
1 0 V
0 1 V
1 0 V
1 0 V
1 0 V
1 0 V
1 0 V
0 1 V
1 0 V
1 0 V
1 0 V
1 0 V
1 1 V
1 0 V
1 0 V
1 0 V
1 1 V
1 0 V
1 0 V
1 0 V
stroke 3296 4106 M
1 0 V
1 1 V
1 0 V
1 0 V
1 0 V
1 0 V
0 1 V
1 0 V
1 0 V
1 0 V
1 0 V
1 1 V
1 0 V
1 0 V
1 0 V
1 0 V
1 1 V
1 0 V
1 0 V
1 0 V
1 0 V
0 1 V
1 0 V
1 0 V
1 0 V
1 0 V
1 1 V
1 0 V
1 0 V
1 0 V
1 0 V
1 0 V
0 1 V
1 0 V
1 0 V
1 0 V
1 0 V
1 1 V
1 0 V
1 0 V
1 0 V
1 0 V
1 0 V
0 1 V
1 0 V
1 0 V
1 0 V
1 0 V
1 1 V
1 0 V
1 0 V
1 0 V
1 0 V
1 0 V
0 1 V
1 0 V
1 0 V
1 0 V
1 0 V
1 0 V
0 1 V
1 0 V
1 0 V
1 0 V
1 0 V
1 0 V
1 0 V
0 1 V
1 0 V
1 0 V
1 0 V
1 0 V
1 0 V
1 1 V
1 0 V
1 0 V
1 0 V
1 0 V
1 0 V
0 1 V
1 0 V
1 0 V
1 0 V
1 0 V
1 0 V
1 1 V
1 0 V
1 0 V
1 0 V
1 0 V
1 0 V
1 1 V
1 0 V
1 0 V
1 0 V
1 0 V
1 0 V
1 1 V
1 0 V
1 0 V
1 0 V
1 0 V
1 0 V
1 1 V
stroke 3392 4125 M
1 0 V
1 0 V
1 0 V
1 0 V
1 0 V
1 0 V
0 1 V
1 0 V
1 0 V
1 0 V
1 0 V
1 0 V
1 0 V
1 1 V
1 0 V
1 0 V
1 0 V
1 0 V
1 0 V
1 0 V
0 1 V
1 0 V
1 0 V
1 0 V
1 0 V
1 0 V
1 0 V
1 1 V
1 0 V
1 0 V
1 0 V
1 0 V
1 0 V
1 0 V
1 1 V
1 0 V
1 0 V
1 0 V
1 0 V
1 0 V
1 0 V
1 1 V
1 0 V
1 0 V
1 0 V
1 0 V
1 0 V
1 0 V
1 0 V
0 1 V
1 0 V
1 0 V
1 0 V
1 0 V
1 0 V
1 0 V
1 0 V
1 1 V
1 0 V
1 0 V
1 0 V
1 0 V
1 0 V
1 0 V
1 0 V
0 1 V
1 0 V
1 0 V
1 0 V
1 0 V
1 0 V
1 0 V
1 0 V
1 0 V
1 1 V
1 0 V
1 0 V
1 0 V
1 0 V
1 0 V
1 0 V
1 0 V
1 0 V
0 1 V
1 0 V
1 0 V
1 0 V
1 0 V
1 0 V
1 0 V
1 0 V
1 0 V
1 0 V
0 1 V
1 0 V
1 0 V
1 0 V
1 0 V
1 0 V
1 0 V
1 0 V
1 0 V
1 0 V
1 1 V
stroke 3490 4138 M
1 0 V
1 0 V
1 0 V
1 0 V
1 0 V
1 0 V
1 0 V
1 0 V
1 0 V
1 1 V
1 0 V
1 0 V
1 0 V
1 0 V
1 0 V
1 0 V
1 0 V
1 0 V
1 0 V
1 0 V
1 1 V
1 0 V
1 0 V
1 0 V
1 0 V
1 0 V
1 0 V
1 0 V
1 0 V
1 0 V
1 0 V
1 0 V
0 1 V
1 0 V
1 0 V
1 0 V
1 0 V
1 0 V
1 0 V
1 0 V
1 0 V
1 0 V
1 0 V
1 0 V
1 0 V
1 1 V
1 0 V
1 0 V
1 0 V
1 0 V
1 0 V
1 0 V
1 0 V
1 0 V
1 0 V
1 0 V
1 0 V
1 0 V
1 0 V
1 1 V
1 0 V
1 0 V
1 0 V
1 0 V
1 0 V
1 0 V
1 0 V
1 0 V
1 0 V
1 0 V
1 0 V
1 0 V
1 0 V
1 0 V
1 0 V
1 1 V
1 0 V
1 0 V
1 0 V
1 0 V
1 0 V
1 0 V
1 0 V
1 0 V
1 0 V
1 0 V
1 0 V
1 0 V
1 0 V
1 0 V
1 0 V
1 0 V
1 0 V
1 0 V
1 0 V
0 1 V
1 0 V
1 0 V
1 0 V
1 0 V
1 0 V
1 0 V
1 0 V
1 0 V
stroke 3592 4145 M
1 0 V
1 0 V
1 0 V
1 0 V
1 0 V
1 0 V
1 0 V
1 0 V
1 0 V
1 0 V
1 0 V
1 0 V
1 0 V
1 0 V
1 0 V
1 0 V
1 0 V
1 0 V
1 1 V
1 0 V
1 0 V
1 0 V
1 0 V
1 0 V
1 0 V
1 0 V
1 0 V
1 0 V
1 0 V
1 0 V
1 0 V
1 0 V
1 0 V
1 0 V
1 0 V
1 0 V
1 0 V
1 0 V
1 0 V
1 0 V
1 0 V
1 0 V
1 0 V
1 0 V
1 0 V
1 0 V
1 0 V
1 0 V
1 0 V
1 0 V
1 0 V
1 0 V
1 0 V
1 0 V
1 0 V
1 0 V
1 0 V
1 0 V
1 0 V
1 0 V
1 0 V
1 0 V
1 0 V
1 0 V
1 0 V
1 0 V
1 0 V
1 0 V
1 0 V
1 0 V
1 0 V
1 0 V
1 0 V
1 0 V
1 0 V
1 0 V
1 0 V
1 0 V
1 0 V
1 0 V
1 0 V
1 0 V
1 0 V
1 0 V
1 0 V
1 0 V
1 0 V
1 0 V
1 0 V
1 0 V
1 0 V
1 0 V
1 0 V
1 0 V
1 0 V
1 0 V
1 0 V
1 0 V
1 0 V
1 0 V
1 0 V
1 0 V
1 0 V
1 0 V
stroke 3696 4146 M
1 0 V
1 0 V
1 0 V
1 0 V
1 0 V
1 0 V
1 0 V
1 0 V
1 0 V
1 0 V
1 0 V
1 -1 V
1 0 V
1 0 V
1 0 V
1 0 V
1 0 V
1 0 V
1 0 V
1 0 V
1 0 V
1 0 V
1 0 V
1 0 V
1 0 V
1 0 V
1 0 V
1 0 V
1 0 V
1 0 V
1 0 V
1 0 V
1 0 V
1 0 V
1 0 V
1 0 V
1 0 V
1 -1 V
1 0 V
1 0 V
1 0 V
1 0 V
1 0 V
1 0 V
1 0 V
1 0 V
1 0 V
1 0 V
1 0 V
1 0 V
1 0 V
1 0 V
1 0 V
1 0 V
1 0 V
1 0 V
1 0 V
1 -1 V
1 0 V
1 0 V
1 0 V
1 0 V
1 0 V
1 0 V
1 0 V
1 0 V
1 0 V
1 0 V
1 0 V
1 0 V
1 0 V
1 0 V
1 0 V
1 -1 V
1 0 V
1 0 V
1 0 V
1 0 V
1 0 V
1 0 V
1 0 V
1 0 V
1 0 V
1 0 V
1 0 V
1 0 V
1 0 V
1 -1 V
1 0 V
1 0 V
1 0 V
1 0 V
1 0 V
1 0 V
1 0 V
1 0 V
1 0 V
1 0 V
1 0 V
1 0 V
1 -1 V
1 0 V
1 0 V
1 0 V
stroke 3800 4140 M
1 0 V
1 0 V
1 0 V
1 0 V
1 0 V
1 0 V
1 0 V
1 -1 V
1 0 V
1 0 V
1 0 V
1 0 V
1 0 V
1 0 V
1 0 V
1 0 V
1 0 V
1 0 V
0 -1 V
1 0 V
1 0 V
1 0 V
1 0 V
1 0 V
1 0 V
1 0 V
1 0 V
1 0 V
1 0 V
1 -1 V
1 0 V
1 0 V
1 0 V
1 0 V
1 0 V
1 0 V
1 0 V
1 0 V
1 0 V
0 -1 V
1 0 V
1 0 V
1 0 V
1 0 V
1 0 V
1 0 V
1 0 V
1 0 V
1 -1 V
1 0 V
1 0 V
1 0 V
1 0 V
1 0 V
1 0 V
1 0 V
1 0 V
1 -1 V
1 0 V
1 0 V
1 0 V
1 0 V
1 0 V
1 0 V
1 0 V
1 -1 V
1 0 V
1 0 V
1 0 V
1 0 V
1 0 V
1 0 V
1 0 V
0 -1 V
1 0 V
1 0 V
1 0 V
1 0 V
1 0 V
1 0 V
1 0 V
1 0 V
0 -1 V
1 0 V
1 0 V
1 0 V
1 0 V
1 0 V
1 0 V
1 0 V
1 -1 V
1 0 V
1 0 V
1 0 V
1 0 V
1 0 V
1 0 V
1 -1 V
1 0 V
1 0 V
1 0 V
1 0 V
1 0 V
1 0 V
stroke 3900 4129 M
1 -1 V
1 0 V
1 0 V
1 0 V
1 0 V
1 0 V
1 0 V
0 -1 V
1 0 V
1 0 V
1 0 V
1 0 V
1 0 V
1 0 V
1 0 V
0 -1 V
1 0 V
1 0 V
1 0 V
1 0 V
1 0 V
1 0 V
1 -1 V
1 0 V
1 0 V
1 0 V
1 0 V
1 0 V
0 -1 V
1 0 V
1 0 V
1 0 V
1 0 V
1 0 V
1 0 V
1 -1 V
1 0 V
1 0 V
1 0 V
1 0 V
1 0 V
1 -1 V
1 0 V
1 0 V
1 0 V
1 0 V
1 0 V
1 -1 V
1 0 V
1 0 V
1 0 V
1 0 V
1 0 V
0 -1 V
1 0 V
1 0 V
1 0 V
1 0 V
1 0 V
1 -1 V
1 0 V
1 0 V
1 0 V
1 0 V
1 0 V
1 -1 V
1 0 V
1 0 V
1 0 V
1 0 V
1 -1 V
1 0 V
1 0 V
1 0 V
1 0 V
1 0 V
0 -1 V
1 0 V
1 0 V
1 0 V
1 0 V
1 0 V
0 -1 V
1 0 V
1 0 V
1 0 V
1 0 V
1 0 V
1 -1 V
1 0 V
1 0 V
1 0 V
1 0 V
0 -1 V
1 0 V
1 0 V
1 0 V
1 0 V
1 0 V
1 -1 V
1 0 V
1 0 V
1 0 V
1 0 V
stroke 3997 4112 M
0 -1 V
1 0 V
1 0 V
1 0 V
1 0 V
1 -1 V
1 0 V
1 0 V
1 0 V
1 0 V
1 0 V
0 -1 V
1 0 V
1 0 V
1 0 V
1 0 V
1 -1 V
1 0 V
1 0 V
1 0 V
1 -1 V
1 0 V
1 0 V
1 0 V
1 0 V
1 -1 V
1 0 V
1 0 V
1 0 V
1 0 V
0 -1 V
1 0 V
1 0 V
1 0 V
1 0 V
1 -1 V
1 0 V
1 0 V
1 0 V
1 0 V
0 -1 V
1 0 V
1 0 V
1 0 V
1 0 V
1 -1 V
1 0 V
1 0 V
1 0 V
1 -1 V
1 0 V
1 0 V
1 0 V
1 -1 V
1 0 V
1 0 V
1 0 V
1 0 V
1 -1 V
1 0 V
1 0 V
1 0 V
1 -1 V
1 0 V
1 0 V
1 0 V
1 -1 V
1 0 V
1 0 V
1 0 V
1 -1 V
1 0 V
1 0 V
1 0 V
1 -1 V
1 0 V
1 0 V
1 0 V
1 0 V
0 -1 V
1 0 V
1 0 V
1 0 V
1 -1 V
1 0 V
1 0 V
1 0 V
1 -1 V
1 0 V
1 0 V
1 0 V
1 -1 V
1 0 V
1 0 V
1 0 V
0 -1 V
1 0 V
1 0 V
1 0 V
1 0 V
0 -1 V
1 0 V
1 0 V
1 0 V
stroke 4094 4089 M
1 -1 V
1 0 V
1 0 V
1 0 V
1 -1 V
1 0 V
1 0 V
1 0 V
1 -1 V
1 0 V
1 0 V
1 0 V
1 -1 V
1 0 V
1 0 V
1 0 V
0 -1 V
1 0 V
1 0 V
1 0 V
1 -1 V
1 0 V
1 0 V
1 0 V
0 -1 V
1 0 V
1 0 V
1 0 V
1 -1 V
1 0 V
1 0 V
1 0 V
0 -1 V
1 0 V
1 0 V
1 0 V
1 -1 V
1 0 V
1 0 V
1 0 V
0 -1 V
1 0 V
1 0 V
1 0 V
1 -1 V
1 0 V
1 0 V
1 0 V
0 -1 V
1 0 V
1 0 V
1 0 V
1 -1 V
1 0 V
1 0 V
1 0 V
0 -1 V
1 0 V
1 0 V
1 0 V
1 -1 V
1 0 V
1 0 V
1 -1 V
1 0 V
1 0 V
1 0 V
0 -1 V
1 0 V
1 0 V
1 0 V
1 -1 V
1 0 V
1 0 V
1 -1 V
1 0 V
1 0 V
1 0 V
0 -1 V
1 0 V
1 0 V
1 -1 V
1 0 V
1 0 V
1 0 V
1 -1 V
1 0 V
1 0 V
1 -1 V
1 0 V
1 0 V
1 -1 V
1 0 V
1 0 V
1 -1 V
1 0 V
1 0 V
1 0 V
0 -1 V
1 0 V
1 0 V
1 0 V
0 -1 V
1 0 V
stroke 4188 4061 M
1 0 V
1 0 V
0 -1 V
1 0 V
1 0 V
1 0 V
1 -1 V
1 0 V
1 0 V
1 -1 V
1 0 V
1 0 V
1 -1 V
1 0 V
1 0 V
1 -1 V
1 0 V
1 0 V
1 -1 V
1 0 V
1 0 V
1 -1 V
1 0 V
1 0 V
1 -1 V
1 0 V
1 0 V
1 -1 V
1 0 V
1 0 V
1 -1 V
1 0 V
1 0 V
1 -1 V
1 0 V
1 0 V
1 -1 V
1 0 V
1 0 V
1 -1 V
1 0 V
1 0 V
1 -1 V
1 0 V
1 0 V
0 -1 V
1 0 V
1 0 V
1 0 V
0 -1 V
1 0 V
1 0 V
1 0 V
0 -1 V
1 0 V
1 0 V
1 -1 V
1 0 V
1 0 V
1 -1 V
1 0 V
1 0 V
0 -1 V
1 0 V
1 0 V
1 0 V
0 -1 V
1 0 V
1 0 V
1 0 V
0 -1 V
1 0 V
1 0 V
1 -1 V
1 0 V
1 0 V
1 -1 V
1 0 V
1 0 V
1 -1 V
1 0 V
1 -1 V
1 0 V
1 0 V
1 -1 V
1 0 V
1 0 V
1 -1 V
1 0 V
1 -1 V
1 0 V
1 0 V
1 -1 V
1 0 V
1 0 V
0 -1 V
1 0 V
1 0 V
1 0 V
0 -1 V
1 0 V
1 0 V
1 -1 V
1 0 V
stroke 4283 4028 M
1 0 V
0 -1 V
1 0 V
1 0 V
1 -1 V
1 0 V
1 0 V
1 -1 V
1 0 V
1 0 V
0 -1 V
1 0 V
1 0 V
1 -1 V
1 0 V
1 0 V
0 -1 V
1 0 V
1 0 V
1 0 V
0 -1 V
1 0 V
1 0 V
1 -1 V
1 0 V
1 -1 V
1 0 V
1 0 V
1 -1 V
1 0 V
1 0 V
0 -1 V
1 0 V
1 0 V
1 -1 V
1 0 V
1 0 V
0 -1 V
1 0 V
1 0 V
1 -1 V
1 0 V
1 0 V
0 -1 V
1 0 V
1 0 V
1 0 V
0 -1 V
1 0 V
1 0 V
0 -1 V
1 0 V
1 0 V
1 -1 V
1 0 V
1 0 V
0 -1 V
1 0 V
1 0 V
0 -1 V
1 0 V
1 0 V
1 0 V
0 -1 V
1 0 V
1 0 V
1 -1 V
1 0 V
1 -1 V
1 0 V
1 0 V
0 -1 V
1 0 V
1 0 V
1 -1 V
1 0 V
1 -1 V
1 0 V
1 0 V
0 -1 V
1 0 V
1 0 V
1 -1 V
1 0 V
1 0 V
0 -1 V
1 0 V
1 0 V
0 -1 V
1 0 V
1 0 V
1 -1 V
1 0 V
1 0 V
0 -1 V
1 0 V
1 0 V
0 -1 V
1 0 V
1 0 V
1 -1 V
1 0 V
1 0 V
0 -1 V
stroke 4368 3993 M
1 0 V
1 0 V
0 -1 V
1 0 V
1 0 V
1 -1 V
1 0 V
1 0 V
0 -1 V
1 0 V
1 0 V
1 -1 V
1 0 V
1 -1 V
1 0 V
1 0 V
0 -1 V
1 0 V
1 0 V
1 -1 V
1 0 V
1 -1 V
1 0 V
1 0 V
0 -1 V
1 0 V
1 0 V
1 -1 V
1 0 V
0 -1 V
1 0 V
1 0 V
1 -1 V
1 0 V
1 -1 V
1 0 V
1 0 V
0 -1 V
1 0 V
1 0 V
1 -1 V
1 0 V
0 -1 V
1 0 V
1 0 V
1 -1 V
1 0 V
1 0 V
0 -1 V
1 0 V
1 0 V
0 -1 V
1 0 V
1 0 V
0 -1 V
1 0 V
1 0 V
1 -1 V
1 0 V
1 -1 V
1 0 V
1 0 V
0 -1 V
1 0 V
1 -1 V
1 0 V
1 0 V
0 -1 V
1 0 V
1 0 V
1 -1 V
1 0 V
0 -1 V
1 0 V
1 0 V
1 -1 V
1 0 V
1 -1 V
1 0 V
1 -1 V
1 0 V
1 0 V
0 -1 V
1 0 V
1 -1 V
1 0 V
1 0 V
0 -1 V
1 0 V
1 0 V
1 -1 V
1 0 V
0 -1 V
1 0 V
1 0 V
1 -1 V
1 0 V
0 -1 V
1 0 V
1 0 V
1 -1 V
1 0 V
1 -1 V
1 0 V
stroke 4455 3954 M
1 -1 V
1 0 V
1 0 V
0 -1 V
1 0 V
1 -1 V
1 0 V
1 0 V
0 -1 V
1 0 V
1 -1 V
1 0 V
1 0 V
0 -1 V
1 0 V
1 0 V
0 -1 V
1 0 V
1 0 V
1 -1 V
1 0 V
0 -1 V
1 0 V
1 -1 V
1 0 V
1 0 V
0 -1 V
1 0 V
1 0 V
0 -1 V
1 0 V
1 0 V
0 -1 V
1 0 V
1 0 V
0 -1 V
1 0 V
1 0 V
1 -1 V
1 0 V
0 -1 V
1 0 V
1 -1 V
1 0 V
1 0 V
0 -1 V
1 0 V
1 0 V
0 -1 V
1 0 V
1 0 V
0 -1 V
1 0 V
1 0 V
0 -1 V
1 0 V
1 -1 V
1 0 V
1 0 V
0 -1 V
1 0 V
1 0 V
0 -1 V
1 0 V
1 -1 V
1 0 V
1 0 V
0 -1 V
1 0 V
1 -1 V
1 0 V
1 -1 V
1 0 V
1 -1 V
1 0 V
1 -1 V
1 0 V
1 -1 V
1 0 V
0 -1 V
1 0 V
1 0 V
1 -1 V
1 0 V
0 -1 V
1 0 V
1 0 V
0 -1 V
1 0 V
1 0 V
1 -1 V
1 0 V
0 -1 V
1 0 V
1 -1 V
1 0 V
1 -1 V
1 0 V
1 -1 V
1 0 V
1 -1 V
1 0 V
1 -1 V
1 0 V
stroke 4538 3912 M
0 -1 V
1 0 V
1 0 V
0 -1 V
1 0 V
1 -1 V
1 0 V
1 0 V
0 -1 V
1 0 V
1 -1 V
1 0 V
1 -1 V
1 0 V
0 -1 V
1 0 V
1 0 V
0 -1 V
1 0 V
1 0 V
1 -1 V
1 0 V
0 -1 V
1 0 V
1 0 V
0 -1 V
1 0 V
1 -1 V
1 0 V
1 -1 V
1 0 V
0 -1 V
1 0 V
1 0 V
0 -1 V
1 0 V
1 -1 V
1 0 V
1 -1 V
1 0 V
1 -1 V
1 0 V
1 -1 V
1 0 V
0 -1 V
1 0 V
1 0 V
0 -1 V
1 0 V
1 -1 V
1 0 V
1 -1 V
1 0 V
0 -1 V
1 0 V
1 0 V
0 -1 V
1 0 V
1 -1 V
1 0 V
1 -1 V
1 0 V
1 -1 V
1 0 V
0 -1 V
1 0 V
1 -1 V
1 0 V
1 -1 V
1 0 V
1 -1 V
1 0 V
0 -1 V
1 0 V
1 -1 V
1 0 V
1 -1 V
1 0 V
1 -1 V
1 0 V
0 -1 V
1 0 V
1 -1 V
1 0 V
1 -1 V
1 0 V
1 -1 V
1 0 V
0 -1 V
1 0 V
1 -1 V
1 0 V
1 -1 V
1 0 V
1 -1 V
1 0 V
0 -1 V
1 0 V
1 0 V
0 -1 V
1 0 V
1 -1 V
1 0 V
1 -1 V
stroke 4623 3864 M
1 0 V
0 -1 V
1 0 V
1 0 V
0 -1 V
1 0 V
0 -1 V
1 0 V
1 -1 V
1 0 V
1 -1 V
1 0 V
1 -1 V
1 0 V
0 -1 V
1 0 V
1 -1 V
1 0 V
1 -1 V
1 0 V
1 -1 V
1 0 V
0 -1 V
1 0 V
1 -1 V
1 0 V
0 -1 V
1 0 V
1 -1 V
1 0 V
1 -1 V
1 0 V
1 -1 V
1 0 V
0 -1 V
1 0 V
1 -1 V
1 0 V
0 -1 V
1 0 V
1 -1 V
1 0 V
1 -1 V
1 0 V
0 -1 V
1 0 V
1 0 V
0 -1 V
1 0 V
0 -1 V
1 0 V
1 0 V
0 -1 V
1 0 V
1 -1 V
1 0 V
1 -1 V
1 0 V
0 -1 V
1 0 V
1 -1 V
1 0 V
0 -1 V
1 0 V
1 0 V
0 -1 V
1 0 V
1 -1 V
1 0 V
1 -1 V
1 -1 V
1 0 V
1 -1 V
1 0 V
0 -1 V
1 0 V
1 -1 V
1 0 V
0 -1 V
1 0 V
1 -1 V
1 0 V
1 -1 V
1 -1 V
1 0 V
1 -1 V
1 0 V
0 -1 V
1 0 V
1 0 V
0 -1 V
1 0 V
0 -1 V
1 0 V
1 -1 V
1 0 V
1 -1 V
1 0 V
1 -1 V
1 -1 V
1 0 V
1 -1 V
1 0 V
0 -1 V
stroke 4706 3813 M
1 0 V
0 -1 V
1 0 V
1 0 V
0 -1 V
1 0 V
1 -1 V
1 0 V
0 -1 V
1 0 V
1 -1 V
1 0 V
1 -1 V
1 -1 V
1 0 V
1 -1 V
1 0 V
0 -1 V
1 0 V
0 -1 V
1 0 V
1 0 V
0 -1 V
1 0 V
1 -1 V
1 0 V
0 -1 V
1 0 V
1 -1 V
1 -1 V
1 0 V
1 -1 V
1 0 V
1 -1 V
1 -1 V
1 0 V
1 -1 V
1 0 V
0 -1 V
1 0 V
0 -1 V
1 0 V
1 0 V
0 -1 V
1 0 V
0 -1 V
1 0 V
1 0 V
0 -1 V
1 0 V
1 -1 V
1 -1 V
1 0 V
1 -1 V
1 -1 V
1 0 V
1 -1 V
1 0 V
0 -1 V
1 0 V
1 -1 V
1 0 V
0 -1 V
1 0 V
1 -1 V
1 0 V
0 -1 V
1 0 V
0 -1 V
1 0 V
1 0 V
0 -1 V
1 0 V
0 -1 V
1 0 V
1 0 V
0 -1 V
1 0 V
1 -1 V
1 0 V
0 -1 V
1 0 V
1 -1 V
1 -1 V
1 0 V
1 -1 V
1 -1 V
1 0 V
1 -1 V
1 -1 V
1 0 V
1 -1 V
1 -1 V
1 0 V
1 -1 V
1 -1 V
1 0 V
0 -1 V
1 0 V
1 -1 V
1 0 V
0 -1 V
1 0 V
1 -1 V
stroke 4788 3759 M
1 0 V
0 -1 V
1 0 V
1 -1 V
1 0 V
0 -1 V
1 0 V
0 -1 V
1 0 V
1 0 V
0 -1 V
1 0 V
0 -1 V
1 0 V
1 0 V
0 -1 V
1 0 V
0 -1 V
1 0 V
1 -1 V
1 0 V
0 -1 V
1 0 V
1 -1 V
1 0 V
0 -1 V
1 0 V
1 -1 V
1 -1 V
1 0 V
0 -1 V
1 0 V
1 -1 V
1 0 V
0 -1 V
1 0 V
1 -1 V
1 -1 V
1 0 V
1 -1 V
1 -1 V
1 0 V
0 -1 V
1 0 V
1 -1 V
1 0 V
0 -1 V
1 0 V
1 -1 V
1 -1 V
1 0 V
1 -1 V
1 -1 V
1 0 V
0 -1 V
1 0 V
1 -1 V
1 -1 V
1 0 V
1 -1 V
1 -1 V
1 0 V
0 -1 V
1 0 V
1 -1 V
1 -1 V
1 0 V
1 -1 V
1 -1 V
1 0 V
0 -1 V
1 0 V
1 -1 V
1 -1 V
1 0 V
0 -1 V
1 0 V
1 -1 V
1 0 V
0 -1 V
1 0 V
1 -1 V
1 0 V
0 -1 V
1 0 V
0 -1 V
1 0 V
1 -1 V
1 0 V
0 -1 V
1 0 V
0 -1 V
1 0 V
1 0 V
0 -1 V
1 0 V
0 -1 V
1 0 V
0 -1 V
1 0 V
1 0 V
0 -1 V
1 0 V
0 -1 V
stroke 4865 3704 M
1 0 V
1 -1 V
1 0 V
0 -1 V
1 0 V
0 -1 V
1 0 V
1 -1 V
1 0 V
0 -1 V
1 0 V
1 -1 V
1 -1 V
1 0 V
0 -1 V
1 0 V
1 -1 V
1 -1 V
1 0 V
1 -1 V
1 -1 V
1 -1 V
1 0 V
0 -1 V
1 0 V
1 -1 V
1 -1 V
1 0 V
0 -1 V
1 0 V
1 -1 V
1 0 V
0 -1 V
1 0 V
0 -1 V
1 0 V
0 -1 V
1 0 V
1 0 V
0 -1 V
1 0 V
0 -1 V
1 0 V
1 -1 V
1 0 V
0 -1 V
1 0 V
0 -1 V
1 0 V
1 -1 V
1 -1 V
1 0 V
1 -1 V
1 -1 V
1 -1 V
1 -1 V
1 0 V
1 -1 V
1 -1 V
1 0 V
0 -1 V
1 0 V
0 -1 V
1 0 V
1 0 V
0 -1 V
1 0 V
0 -1 V
1 0 V
0 -1 V
1 0 V
1 -1 V
1 0 V
0 -1 V
1 0 V
1 -1 V
1 -1 V
1 -1 V
1 -1 V
1 0 V
1 -1 V
1 -1 V
1 0 V
0 -1 V
1 0 V
0 -1 V
1 0 V
1 -1 V
1 0 V
0 -1 V
1 0 V
0 -1 V
1 0 V
1 -1 V
1 -1 V
1 0 V
1 -1 V
1 -1 V
1 -1 V
1 -1 V
1 0 V
0 -1 V
1 0 V
1 -1 V
stroke 4945 3644 M
1 0 V
0 -1 V
1 0 V
0 -1 V
1 0 V
0 -1 V
1 0 V
1 -1 V
1 -1 V
1 0 V
1 -1 V
1 -1 V
1 -1 V
1 -1 V
1 0 V
0 -1 V
1 0 V
1 -1 V
1 0 V
0 -1 V
1 0 V
0 -1 V
1 0 V
0 -1 V
1 0 V
1 -1 V
1 -1 V
1 -1 V
1 0 V
1 -1 V
1 -1 V
1 0 V
0 -1 V
1 0 V
0 -1 V
1 0 V
0 -1 V
1 0 V
1 -1 V
1 0 V
0 -1 V
1 0 V
1 -1 V
1 -1 V
1 -1 V
1 -1 V
1 0 V
0 -1 V
1 0 V
0 -1 V
1 0 V
1 -1 V
1 0 V
0 -1 V
1 0 V
0 -1 V
1 0 V
1 -1 V
1 -1 V
1 -1 V
1 0 V
0 -1 V
1 0 V
0 -1 V
1 0 V
0 -1 V
1 0 V
1 -1 V
1 0 V
0 -1 V
1 0 V
1 -1 V
1 -1 V
1 -1 V
1 0 V
0 -1 V
1 0 V
0 -1 V
1 0 V
0 -1 V
1 0 V
1 -1 V
1 -1 V
1 -1 V
1 0 V
1 -1 V
1 -1 V
1 -1 V
1 0 V
0 -1 V
1 0 V
0 -1 V
1 0 V
1 -1 V
1 -1 V
1 -1 V
1 -1 V
1 0 V
0 -1 V
1 0 V
0 -1 V
1 0 V
1 -1 V
1 -1 V
stroke 5023 3581 M
1 0 V
0 -1 V
1 0 V
1 -1 V
1 -1 V
1 -1 V
1 0 V
0 -1 V
1 0 V
0 -1 V
1 0 V
1 -1 V
1 -1 V
1 -1 V
1 -1 V
1 0 V
0 -1 V
1 0 V
0 -1 V
1 0 V
1 -1 V
1 -1 V
1 -1 V
1 -1 V
1 0 V
0 -1 V
1 0 V
0 -1 V
1 0 V
1 -1 V
1 -1 V
1 -1 V
1 -1 V
1 0 V
0 -1 V
1 0 V
0 -1 V
1 0 V
1 0 V
0 -1 V
1 0 V
0 -1 V
1 0 V
1 -1 V
1 -1 V
1 -1 V
1 -1 V
1 0 V
0 -1 V
1 0 V
0 -1 V
1 0 V
1 -1 V
1 -1 V
1 -1 V
1 -1 V
1 0 V
0 -1 V
1 0 V
0 -1 V
1 0 V
1 -1 V
1 -1 V
1 -1 V
1 -1 V
1 0 V
0 -1 V
1 0 V
0 -1 V
1 0 V
1 -1 V
1 -1 V
1 -1 V
1 -1 V
1 0 V
0 -1 V
1 -1 V
1 -1 V
1 0 V
0 -1 V
1 0 V
0 -1 V
1 0 V
1 -1 V
1 -1 V
1 -1 V
1 -1 V
1 0 V
0 -1 V
1 0 V
0 -1 V
1 0 V
1 -1 V
1 -1 V
1 -1 V
1 -1 V
1 0 V
0 -1 V
1 0 V
0 -1 V
1 0 V
1 -1 V
1 -1 V
1 -1 V
stroke 5103 3513 M
1 -1 V
1 0 V
0 -1 V
1 0 V
0 -1 V
1 0 V
1 -1 V
1 -1 V
1 -1 V
0 -1 V
1 0 V
1 -1 V
1 -1 V
1 -1 V
1 0 V
0 -1 V
1 0 V
0 -1 V
1 0 V
1 -1 V
1 -1 V
1 -1 V
1 -1 V
1 0 V
0 -1 V
1 0 V
0 -1 V
1 0 V
1 -1 V
1 -1 V
0 -1 V
1 0 V
0 -1 V
1 0 V
1 -1 V
1 -1 V
1 -1 V
1 0 V
0 -1 V
1 0 V
0 -1 V
1 0 V
0 -1 V
1 0 V
1 -1 V
1 -1 V
1 -1 V
1 -1 V
1 -1 V
1 -1 V
1 -1 V
1 0 V
0 -1 V
1 0 V
0 -1 V
1 0 V
1 -1 V
1 -1 V
1 -1 V
1 0 V
0 -1 V
1 -1 V
1 -1 V
1 -1 V
1 0 V
0 -1 V
1 0 V
0 -1 V
1 0 V
1 -1 V
1 -1 V
1 -1 V
0 -1 V
1 0 V
1 -1 V
1 -1 V
1 -1 V
1 0 V
0 -1 V
1 0 V
0 -1 V
1 0 V
0 -1 V
1 0 V
1 -1 V
0 -1 V
1 0 V
0 -1 V
1 0 V
1 -1 V
1 -1 V
1 -1 V
1 -1 V
1 0 V
0 -1 V
1 -1 V
1 -1 V
1 0 V
0 -1 V
1 0 V
0 -1 V
1 0 V
1 -1 V
1 -1 V
stroke 5181 3443 M
1 -1 V
0 -1 V
1 0 V
1 -1 V
1 -1 V
1 -1 V
1 0 V
0 -1 V
1 0 V
0 -1 V
1 0 V
0 -1 V
1 -1 V
1 0 V
0 -1 V
1 0 V
0 -1 V
1 0 V
1 -1 V
1 -1 V
1 -1 V
0 -1 V
1 0 V
1 -1 V
1 -1 V
1 -1 V
1 0 V
0 -1 V
1 0 V
0 -1 V
1 -1 V
1 0 V
0 -1 V
1 0 V
0 -1 V
1 0 V
0 -1 V
1 0 V
1 -1 V
0 -1 V
1 0 V
0 -1 V
1 0 V
1 -1 V
1 -1 V
1 -1 V
1 -1 V
1 -1 V
1 -1 V
1 -1 V
1 0 V
0 -1 V
1 0 V
0 -1 V
1 -1 V
1 -1 V
1 0 V
0 -1 V
1 0 V
0 -1 V
1 0 V
1 -1 V
0 -1 V
1 0 V
0 -1 V
1 0 V
0 -1 V
1 0 V
1 -1 V
1 -1 V
0 -1 V
1 0 V
1 -1 V
1 -1 V
1 -1 V
1 -1 V
1 -1 V
1 -1 V
1 -1 V
1 0 V
0 -1 V
1 -1 V
1 -1 V
1 0 V
0 -1 V
1 0 V
0 -1 V
1 0 V
0 -1 V
1 -1 V
1 0 V
0 -1 V
1 0 V
0 -1 V
1 0 V
1 -1 V
0 -1 V
1 0 V
0 -1 V
1 0 V
0 -1 V
1 0 V
1 -1 V
0 -1 V
stroke 5253 3374 M
1 0 V
0 -1 V
1 0 V
1 -1 V
1 -1 V
1 -1 V
0 -1 V
1 0 V
1 -1 V
1 -1 V
1 -1 V
1 -1 V
1 -1 V
1 -1 V
1 0 V
0 -1 V
1 -1 V
1 -1 V
1 -1 V
1 0 V
0 -1 V
1 -1 V
1 -1 V
1 0 V
0 -1 V
1 0 V
0 -1 V
1 -1 V
1 -1 V
1 0 V
0 -1 V
1 0 V
0 -1 V
1 -1 V
1 0 V
0 -1 V
1 0 V
0 -1 V
1 -1 V
1 -1 V
1 0 V
0 -1 V
1 0 V
0 -1 V
1 -1 V
1 0 V
0 -1 V
1 0 V
0 -1 V
1 0 V
0 -1 V
1 -1 V
1 0 V
0 -1 V
1 0 V
0 -1 V
1 -1 V
1 0 V
0 -1 V
1 0 V
0 -1 V
1 0 V
1 -1 V
0 -1 V
1 0 V
0 -1 V
1 0 V
0 -1 V
1 0 V
1 -1 V
0 -1 V
1 0 V
0 -1 V
1 0 V
1 -1 V
0 -1 V
1 0 V
0 -1 V
1 0 V
0 -1 V
1 -1 V
1 0 V
0 -1 V
1 0 V
0 -1 V
1 0 V
1 -1 V
0 -1 V
1 0 V
0 -1 V
1 0 V
0 -1 V
1 -1 V
1 0 V
0 -1 V
1 0 V
0 -1 V
1 0 V
1 -1 V
0 -1 V
1 0 V
0 -1 V
1 0 V
1 -1 V
stroke 5321 3308 M
0 -1 V
1 0 V
0 -1 V
1 0 V
0 -1 V
1 -1 V
1 0 V
0 -1 V
1 0 V
0 -1 V
1 -1 V
1 0 V
0 -1 V
1 0 V
0 -1 V
1 0 V
0 -1 V
1 -1 V
1 0 V
0 -1 V
1 0 V
0 -1 V
1 -1 V
1 0 V
0 -1 V
1 0 V
0 -1 V
1 -1 V
1 -1 V
1 0 V
0 -1 V
1 -1 V
1 -1 V
1 0 V
0 -1 V
1 -1 V
1 -1 V
1 -1 V
1 -1 V
1 -1 V
1 -1 V
1 -1 V
1 -1 V
1 -1 V
1 -1 V
1 -1 V
1 -1 V
0 -1 V
1 0 V
1 -1 V
1 -1 V
0 -1 V
1 0 V
1 -1 V
1 -1 V
0 -1 V
1 0 V
0 -1 V
1 0 V
1 -1 V
0 -1 V
1 0 V
0 -1 V
1 0 V
1 -1 V
0 -1 V
1 0 V
0 -1 V
1 -1 V
1 -1 V
1 0 V
0 -1 V
1 -1 V
1 -1 V
1 0 V
0 -1 V
1 -1 V
1 -1 V
1 -1 V
1 -1 V
1 -1 V
1 -1 V
1 -1 V
1 -1 V
0 -1 V
1 0 V
1 -1 V
1 -1 V
0 -1 V
1 0 V
0 -1 V
1 0 V
1 -1 V
0 -1 V
1 0 V
0 -1 V
1 -1 V
1 0 V
0 -1 V
1 0 V
0 -1 V
1 -1 V
1 -1 V
1 0 V
stroke 5394 3233 M
0 -1 V
1 -1 V
1 -1 V
1 -1 V
1 -1 V
1 -1 V
0 -1 V
1 0 V
1 -1 V
1 -1 V
0 -1 V
1 0 V
1 -1 V
0 -1 V
1 0 V
0 -1 V
1 0 V
0 -1 V
1 -1 V
1 0 V
0 -1 V
1 -1 V
1 -1 V
1 0 V
0 -1 V
1 -1 V
1 -1 V
1 0 V
0 -1 V
1 -1 V
1 -1 V
0 -1 V
1 0 V
1 -1 V
1 -1 V
0 -1 V
1 0 V
1 -1 V
0 -1 V
1 0 V
0 -1 V
1 0 V
0 -1 V
1 -1 V
1 0 V
0 -1 V
1 -1 V
1 -1 V
1 -1 V
1 -1 V
1 -1 V
0 -1 V
1 0 V
1 -1 V
0 -1 V
1 0 V
0 -1 V
1 0 V
1 -1 V
0 -1 V
1 0 V
0 -1 V
1 -1 V
1 -1 V
1 0 V
0 -1 V
1 -1 V
1 -1 V
1 -1 V
1 -1 V
0 -1 V
1 0 V
1 -1 V
1 -1 V
0 -1 V
1 0 V
0 -1 V
1 -1 V
1 0 V
0 -1 V
1 -1 V
1 -1 V
1 0 V
0 -1 V
1 -1 V
1 -1 V
0 -1 V
1 0 V
1 -1 V
0 -1 V
1 0 V
0 -1 V
1 0 V
1 -1 V
0 -1 V
1 0 V
0 -1 V
1 -1 V
1 -1 V
1 -1 V
1 -1 V
0 -1 V
1 0 V
1 -1 V
stroke 5466 3155 M
1 -1 V
0 -1 V
1 0 V
1 -1 V
0 -1 V
1 0 V
0 -1 V
1 -1 V
1 -1 V
1 -1 V
1 -1 V
1 -1 V
1 -1 V
1 -1 V
0 -1 V
1 0 V
0 -1 V
1 -1 V
1 0 V
0 -1 V
1 -1 V
1 -1 V
1 0 V
0 -1 V
1 -1 V
1 -1 V
0 -1 V
1 0 V
1 -1 V
0 -1 V
1 0 V
0 -1 V
1 -1 V
1 0 V
0 -1 V
1 -1 V
1 -1 V
0 -1 V
1 0 V
1 -1 V
1 -1 V
0 -1 V
1 0 V
1 -1 V
0 -1 V
1 0 V
0 -1 V
1 -1 V
1 0 V
0 -1 V
1 -1 V
1 -1 V
0 -1 V
1 0 V
1 -1 V
0 -1 V
1 0 V
0 -1 V
1 -1 V
1 0 V
0 -1 V
1 -1 V
1 -1 V
0 -1 V
1 0 V
1 -1 V
1 -1 V
0 -1 V
1 0 V
1 -1 V
0 -1 V
1 0 V
0 -1 V
1 -1 V
1 -1 V
1 -1 V
1 -1 V
0 -1 V
1 0 V
1 -1 V
0 -1 V
1 0 V
0 -1 V
1 -1 V
1 -1 V
1 -1 V
1 -1 V
0 -1 V
1 0 V
1 -1 V
0 -1 V
1 0 V
0 -1 V
1 -1 V
1 0 V
0 -1 V
1 -1 V
1 -1 V
0 -1 V
1 0 V
1 -1 V
0 -1 V
1 0 V
0 -1 V
stroke 5536 3076 M
1 -1 V
1 0 V
0 -1 V
1 -1 V
1 -1 V
0 -1 V
1 0 V
1 -1 V
0 -1 V
1 0 V
0 -1 V
1 -1 V
1 0 V
0 -1 V
1 -1 V
1 -1 V
0 -1 V
1 0 V
1 -1 V
0 -1 V
1 0 V
0 -1 V
1 -1 V
1 0 V
0 -1 V
1 -1 V
1 -1 V
0 -1 V
1 0 V
1 -1 V
0 -1 V
1 0 V
0 -1 V
1 -1 V
1 0 V
0 -1 V
1 -1 V
1 -1 V
1 -1 V
0 -1 V
1 0 V
0 -1 V
1 -1 V
1 -1 V
1 -1 V
1 -1 V
0 -1 V
1 0 V
1 -1 V
0 -1 V
1 0 V
0 -1 V
1 -1 V
1 -1 V
1 -1 V
1 -1 V
0 -1 V
1 0 V
1 -1 V
0 -1 V
1 0 V
0 -1 V
1 -1 V
0 -1 V
1 0 V
1 -1 V
0 -1 V
1 0 V
0 -1 V
1 -1 V
1 0 V
0 -1 V
1 -1 V
1 -1 V
0 -1 V
1 0 V
1 -1 V
0 -1 V
1 0 V
0 -1 V
1 -1 V
1 -1 V
1 -1 V
0 -1 V
1 0 V
1 -1 V
0 -1 V
1 0 V
0 -1 V
1 -1 V
1 -1 V
1 -1 V
1 -1 V
0 -1 V
1 -1 V
1 0 V
0 -1 V
1 -1 V
1 -1 V
0 -1 V
1 0 V
1 -1 V
0 -1 V
1 0 V
stroke 5605 2997 M
0 -1 V
1 -1 V
1 0 V
0 -1 V
1 -1 V
0 -1 V
1 0 V
0 -1 V
1 -1 V
1 0 V
0 -1 V
1 -1 V
1 -1 V
1 -1 V
0 -1 V
1 0 V
0 -1 V
1 -1 V
1 0 V
0 -1 V
1 -1 V
1 -1 V
0 -1 V
1 0 V
1 -1 V
0 -1 V
1 -1 V
1 -1 V
1 -1 V
1 -1 V
0 -1 V
1 0 V
0 -1 V
1 -1 V
1 -1 V
1 -1 V
0 -1 V
1 0 V
1 -1 V
0 -1 V
1 0 V
0 -1 V
1 -1 V
0 -1 V
1 0 V
1 -1 V
0 -1 V
1 0 V
0 -1 V
1 -1 V
1 0 V
0 -1 V
1 -1 V
0 -1 V
1 0 V
0 -1 V
1 -1 V
1 0 V
0 -1 V
1 -1 V
1 -1 V
1 -1 V
0 -1 V
1 0 V
0 -1 V
1 -1 V
1 0 V
0 -1 V
1 -1 V
0 -1 V
1 0 V
0 -1 V
1 -1 V
1 0 V
0 -1 V
1 -1 V
0 -1 V
1 0 V
1 -1 V
0 -1 V
1 0 V
0 -1 V
1 -1 V
1 -1 V
1 -1 V
0 -1 V
1 0 V
0 -1 V
1 -1 V
1 0 V
0 -1 V
1 -1 V
0 -1 V
1 0 V
0 -1 V
1 -1 V
1 0 V
0 -1 V
1 -1 V
0 -1 V
1 0 V
1 -1 V
0 -1 V
1 0 V
stroke 5670 2919 M
0 -1 V
1 -1 V
0 -1 V
1 0 V
1 -1 V
0 -1 V
1 0 V
0 -1 V
1 -1 V
1 -1 V
1 -1 V
0 -1 V
1 0 V
1 -1 V
0 -1 V
1 -1 V
1 -1 V
0 -1 V
1 0 V
1 -1 V
0 -1 V
1 -1 V
1 -1 V
1 -1 V
0 -1 V
1 0 V
0 -1 V
1 -1 V
1 -1 V
1 -1 V
0 -1 V
1 0 V
0 -1 V
1 -1 V
1 0 V
0 -1 V
1 -1 V
0 -1 V
1 0 V
0 -1 V
1 -1 V
1 0 V
0 -1 V
1 -1 V
0 -1 V
1 0 V
1 -1 V
0 -1 V
1 -1 V
1 -1 V
0 -1 V
1 0 V
1 -1 V
0 -1 V
1 -1 V
1 -1 V
1 -1 V
0 -1 V
1 0 V
0 -1 V
1 -1 V
1 0 V
0 -1 V
1 -1 V
0 -1 V
1 0 V
0 -1 V
1 -1 V
1 -1 V
1 -1 V
0 -1 V
1 0 V
1 -1 V
0 -1 V
1 -1 V
1 -1 V
0 -1 V
1 -1 V
1 0 V
0 -1 V
1 -1 V
0 -1 V
1 0 V
1 -1 V
0 -1 V
1 0 V
0 -1 V
1 -1 V
0 -1 V
1 0 V
1 -1 V
0 -1 V
1 -1 V
1 -1 V
1 -1 V
0 -1 V
1 0 V
0 -1 V
1 -1 V
1 -1 V
1 -1 V
0 -1 V
1 0 V
0 -1 V
stroke 5736 2836 M
1 -1 V
1 -1 V
1 -1 V
0 -1 V
1 -1 V
1 0 V
0 -1 V
1 -1 V
0 -1 V
1 0 V
0 -1 V
1 -1 V
1 -1 V
1 -1 V
0 -1 V
1 -1 V
1 0 V
0 -1 V
1 -1 V
1 -1 V
0 -1 V
1 -1 V
1 0 V
0 -1 V
1 -1 V
0 -1 V
1 0 V
1 -1 V
0 -1 V
1 -1 V
1 -1 V
0 -1 V
1 -1 V
1 0 V
0 -1 V
1 -1 V
0 -1 V
1 0 V
1 -1 V
0 -1 V
1 -1 V
1 -1 V
1 -1 V
0 -1 V
1 0 V
0 -1 V
1 -1 V
0 -1 V
1 0 V
1 -1 V
0 -1 V
1 -1 V
1 -1 V
1 -1 V
0 -1 V
1 0 V
0 -1 V
1 -1 V
0 -1 V
1 0 V
1 -1 V
0 -1 V
1 -1 V
1 -1 V
1 -1 V
0 -1 V
1 0 V
0 -1 V
1 -1 V
0 -1 V
1 0 V
1 -1 V
0 -1 V
1 -1 V
1 -1 V
1 -1 V
0 -1 V
1 0 V
0 -1 V
1 -1 V
0 -1 V
1 0 V
1 -1 V
0 -1 V
1 -1 V
1 -1 V
1 -1 V
0 -1 V
1 -1 V
1 -1 V
1 -1 V
0 -1 V
1 0 V
0 -1 V
1 -1 V
0 -1 V
1 0 V
1 -1 V
0 -1 V
1 -1 V
1 -1 V
1 -1 V
0 -1 V
1 0 V
stroke 5804 2750 M
0 -1 V
1 -1 V
0 -1 V
1 0 V
1 -1 V
0 -1 V
1 -1 V
0 -1 V
1 0 V
1 -1 V
0 -1 V
1 -1 V
1 -1 V
0 -1 V
1 -1 V
1 0 V
0 -1 V
1 -1 V
0 -1 V
1 0 V
1 -1 V
0 -1 V
1 -1 V
0 -1 V
1 0 V
0 -1 V
1 -1 V
1 -1 V
1 -1 V
0 -1 V
1 -1 V
1 0 V
0 -1 V
1 -1 V
0 -1 V
1 -1 V
1 0 V
0 -1 V
1 -1 V
0 -1 V
1 0 V
0 -1 V
1 -1 V
1 -1 V
1 -1 V
0 -1 V
1 -1 V
1 -1 V
1 -1 V
0 -1 V
1 -1 V
1 -1 V
1 -1 V
0 -1 V
1 -1 V
1 -1 V
1 -1 V
0 -1 V
1 0 V
0 -1 V
1 -1 V
0 -1 V
1 -1 V
1 0 V
0 -1 V
1 -1 V
0 -1 V
1 0 V
1 -1 V
0 -1 V
1 -1 V
1 -1 V
0 -1 V
1 -1 V
1 -1 V
1 -1 V
0 -1 V
1 -1 V
1 -1 V
1 -1 V
0 -1 V
1 -1 V
1 0 V
0 -1 V
1 -1 V
0 -1 V
1 -1 V
1 -1 V
1 -1 V
0 -1 V
1 0 V
0 -1 V
1 -1 V
1 -1 V
0 -1 V
1 0 V
0 -1 V
1 -1 V
0 -1 V
1 -1 V
1 0 V
0 -1 V
1 -1 V
0 -1 V
stroke 5870 2661 M
1 0 V
1 -1 V
0 -1 V
1 -1 V
0 -1 V
1 0 V
0 -1 V
1 -1 V
1 -1 V
0 -1 V
1 0 V
0 -1 V
1 -1 V
1 -1 V
1 -1 V
0 -1 V
1 -1 V
1 -1 V
1 -1 V
0 -1 V
1 -1 V
0 -1 V
1 0 V
1 -1 V
0 -1 V
1 -1 V
0 -1 V
1 0 V
1 -1 V
0 -1 V
1 -1 V
1 -1 V
0 -1 V
1 -1 V
1 -1 V
1 -1 V
0 -1 V
1 -1 V
1 -1 V
1 -1 V
0 -1 V
1 -1 V
0 -1 V
1 0 V
1 -1 V
0 -1 V
1 -1 V
0 -1 V
1 0 V
1 -1 V
0 -1 V
1 -1 V
0 -1 V
1 0 V
0 -1 V
1 -1 V
1 -1 V
0 -1 V
1 0 V
0 -1 V
1 -1 V
1 -1 V
0 -1 V
1 0 V
0 -1 V
1 -1 V
1 -1 V
0 -1 V
1 0 V
0 -1 V
1 -1 V
0 -1 V
1 -1 V
1 0 V
0 -1 V
1 -1 V
0 -1 V
1 -1 V
1 0 V
0 -1 V
1 -1 V
0 -1 V
1 -1 V
1 -1 V
1 -1 V
0 -1 V
1 -1 V
1 -1 V
1 -1 V
0 -1 V
1 -1 V
1 -1 V
0 -1 V
1 -1 V
1 -1 V
1 -1 V
0 -1 V
1 -1 V
1 -1 V
0 -1 V
1 0 V
0 -1 V
1 -1 V
0 -1 V
stroke 5936 2571 M
1 -1 V
1 0 V
0 -1 V
1 -1 V
0 -1 V
1 -1 V
1 0 V
0 -1 V
1 -1 V
0 -1 V
1 -1 V
1 0 V
0 -1 V
1 -1 V
0 -1 V
1 -1 V
0 -1 V
1 0 V
1 -1 V
0 -1 V
1 -1 V
0 -1 V
1 0 V
1 -1 V
0 -1 V
1 -1 V
0 -1 V
1 0 V
0 -1 V
1 -1 V
1 -1 V
0 -1 V
1 -1 V
1 -1 V
1 -1 V
0 -1 V
1 -1 V
1 -1 V
0 -1 V
1 -1 V
1 -1 V
0 -1 V
1 0 V
0 -1 V
1 -1 V
1 -1 V
0 -1 V
1 0 V
0 -1 V
1 -1 V
0 -1 V
1 -1 V
1 -1 V
1 -1 V
0 -1 V
1 -1 V
1 -1 V
1 -1 V
0 -1 V
1 -1 V
1 -1 V
0 -1 V
1 0 V
0 -1 V
1 -1 V
0 -1 V
1 -1 V
1 -1 V
1 -1 V
0 -1 V
1 -1 V
1 -1 V
1 -1 V
0 -1 V
1 -1 V
0 -1 V
1 -1 V
1 0 V
0 -1 V
1 -1 V
0 -1 V
1 -1 V
1 -1 V
1 -1 V
0 -1 V
1 -1 V
0 -1 V
1 -1 V
1 0 V
0 -1 V
1 -1 V
0 -1 V
1 -1 V
1 -1 V
1 -1 V
0 -1 V
1 -1 V
0 -1 V
1 0 V
1 -1 V
0 -1 V
1 -1 V
0 -1 V
1 -1 V
stroke 6002 2479 M
1 0 V
0 -1 V
1 -1 V
0 -1 V
1 -1 V
1 -1 V
1 -1 V
0 -1 V
1 -1 V
0 -1 V
1 -1 V
1 0 V
0 -1 V
1 -1 V
0 -1 V
1 -1 V
1 -1 V
0 -1 V
1 0 V
0 -1 V
1 -1 V
0 -1 V
1 -1 V
1 -1 V
1 -1 V
0 -1 V
1 -1 V
1 -1 V
0 -1 V
1 0 V
0 -1 V
1 -1 V
0 -1 V
1 -1 V
1 -1 V
1 -1 V
0 -1 V
1 -1 V
1 -1 V
0 -1 V
1 0 V
0 -1 V
1 -1 V
1 -1 V
0 -1 V
1 -1 V
0 -1 V
1 0 V
0 -1 V
1 -1 V
1 -1 V
0 -1 V
1 -1 V
1 -1 V
1 -1 V
0 -1 V
1 -1 V
0 -1 V
1 0 V
0 -1 V
1 -1 V
1 -1 V
0 -1 V
1 -1 V
0 -1 V
1 0 V
1 -1 V
0 -1 V
1 -1 V
0 -1 V
1 -1 V
0 -1 V
1 0 V
1 -1 V
0 -1 V
1 -1 V
0 -1 V
1 -1 V
1 0 V
0 -1 V
1 -1 V
0 -1 V
1 -1 V
0 -1 V
1 -1 V
1 0 V
0 -1 V
1 -1 V
0 -1 V
1 -1 V
1 -1 V
0 -1 V
1 0 V
0 -1 V
1 -1 V
1 -1 V
0 -1 V
1 -1 V
1 -1 V
0 -1 V
1 -1 V
1 -1 V
0 -1 V
1 -1 V
stroke 6066 2387 M
1 -1 V
1 -1 V
0 -1 V
1 -1 V
0 -1 V
1 -1 V
1 -1 V
1 -1 V
0 -1 V
1 -1 V
0 -1 V
1 -1 V
1 0 V
0 -1 V
1 -1 V
0 -1 V
1 -1 V
0 -1 V
1 -1 V
1 0 V
0 -1 V
1 -1 V
0 -1 V
1 -1 V
1 -1 V
0 -1 V
1 0 V
0 -1 V
1 -1 V
0 -1 V
1 -1 V
1 -1 V
0 -1 V
1 -1 V
1 -1 V
1 -1 V
0 -1 V
1 -1 V
0 -1 V
1 -1 V
1 0 V
0 -1 V
1 -1 V
0 -1 V
1 -1 V
0 -1 V
1 -1 V
1 0 V
0 -1 V
1 -1 V
0 -1 V
1 -1 V
1 -1 V
0 -1 V
1 -1 V
1 -1 V
0 -1 V
1 -1 V
1 -1 V
0 -1 V
1 -1 V
1 -1 V
1 -1 V
0 -1 V
1 -1 V
0 -1 V
1 -1 V
0 -1 V
1 0 V
1 -1 V
0 -1 V
1 -1 V
0 -1 V
1 -1 V
1 -1 V
0 -1 V
1 0 V
0 -1 V
1 -1 V
0 -1 V
1 -1 V
1 -1 V
0 -1 V
1 -1 V
1 -1 V
1 -1 V
0 -1 V
1 -1 V
0 -1 V
1 -1 V
1 -1 V
1 -1 V
0 -1 V
1 -1 V
0 -1 V
1 -1 V
1 -1 V
0 -1 V
1 0 V
0 -1 V
1 -1 V
1 -1 V
0 -1 V
1 -1 V
stroke 6131 2291 M
0 -1 V
1 -1 V
1 -1 V
1 -1 V
0 -1 V
1 -1 V
0 -1 V
1 -1 V
1 -1 V
1 -1 V
0 -1 V
1 -1 V
0 -1 V
1 -1 V
1 -1 V
0 -1 V
1 -1 V
1 -1 V
1 -1 V
0 -1 V
1 -1 V
0 -1 V
1 -1 V
1 -1 V
1 -1 V
0 -1 V
1 -1 V
0 -1 V
1 -1 V
1 -1 V
0 -1 V
1 -1 V
1 -1 V
1 -1 V
0 -1 V
1 -1 V
0 -1 V
1 -1 V
0 -1 V
1 -1 V
1 0 V
0 -1 V
1 -1 V
0 -1 V
1 -1 V
1 -1 V
0 -1 V
1 -1 V
0 -1 V
1 0 V
0 -1 V
1 -1 V
1 -1 V
0 -1 V
1 -1 V
0 -1 V
1 -1 V
1 -1 V
1 -1 V
0 -1 V
1 -1 V
0 -1 V
1 -1 V
1 -1 V
0 -1 V
1 -1 V
1 -1 V
1 -1 V
0 -1 V
1 -1 V
0 -1 V
1 -1 V
1 -1 V
0 -1 V
1 0 V
0 -1 V
1 -1 V
0 -1 V
1 -1 V
1 -1 V
0 -1 V
1 -1 V
0 -1 V
1 -1 V
1 0 V
0 -1 V
1 -1 V
0 -1 V
1 -1 V
0 -1 V
1 -1 V
1 -1 V
0 -1 V
1 -1 V
1 -1 V
1 -1 V
0 -1 V
1 -1 V
0 -1 V
1 -1 V
0 -1 V
1 -1 V
1 -1 V
1 -1 V
stroke 6197 2191 M
0 -1 V
1 -1 V
1 -1 V
0 -1 V
1 -1 V
0 -1 V
1 -1 V
0 -1 V
1 0 V
1 -1 V
0 -1 V
1 -1 V
0 -1 V
1 -1 V
1 -1 V
0 -1 V
1 -1 V
0 -1 V
1 0 V
1 -1 V
0 -1 V
1 -1 V
0 -1 V
1 -1 V
0 -1 V
1 -1 V
1 -1 V
0 -1 V
1 -1 V
1 -1 V
1 -1 V
0 -1 V
1 -1 V
0 -1 V
1 -1 V
0 -1 V
1 -1 V
1 -1 V
0 -1 V
1 0 V
0 -1 V
1 -1 V
1 -1 V
0 -1 V
1 -1 V
0 -1 V
1 -1 V
0 -1 V
1 -1 V
1 -1 V
1 -1 V
0 -1 V
1 -1 V
1 -1 V
0 -1 V
1 -1 V
0 -1 V
1 -1 V
0 -1 V
1 -1 V
1 -1 V
1 -1 V
0 -1 V
1 -1 V
1 -1 V
0 -1 V
1 -1 V
0 -1 V
1 -1 V
1 -1 V
0 -1 V
1 -1 V
1 -1 V
0 -1 V
1 -1 V
1 -1 V
0 -1 V
1 -1 V
0 -1 V
1 -1 V
1 -1 V
0 -1 V
1 -1 V
1 -1 V
0 -1 V
1 -1 V
1 -1 V
0 -1 V
1 -1 V
0 -1 V
1 -1 V
1 -1 V
0 -1 V
1 -1 V
0 -1 V
1 0 V
0 -1 V
1 -1 V
1 -1 V
0 -1 V
1 -1 V
0 -1 V
1 -1 V
1 -1 V
stroke 6261 2091 M
0 -1 V
1 -1 V
0 -1 V
1 -1 V
1 -1 V
1 -1 V
0 -1 V
1 -1 V
0 -1 V
1 -1 V
1 -1 V
0 -1 V
1 -1 V
0 -1 V
1 -1 V
1 -1 V
1 -1 V
0 -1 V
1 -1 V
0 -1 V
1 -1 V
1 -1 V
0 -1 V
1 -1 V
0 -1 V
1 -1 V
1 -1 V
0 -1 V
1 -1 V
0 -1 V
1 0 V
0 -1 V
1 -1 V
1 -1 V
0 -1 V
1 -1 V
0 -1 V
1 -1 V
1 -1 V
0 -1 V
1 -1 V
0 -1 V
1 -1 V
0 -1 V
1 0 V
1 -1 V
0 -1 V
1 -1 V
0 -1 V
1 -1 V
1 -1 V
0 -1 V
1 -1 V
0 -1 V
1 -1 V
1 -1 V
0 -1 V
1 -1 V
0 -1 V
1 -1 V
1 -1 V
1 -1 V
0 -1 V
1 -1 V
0 -1 V
1 -1 V
1 -1 V
0 -1 V
1 -1 V
0 -1 V
1 -1 V
0 -1 V
1 -1 V
1 -1 V
0 -1 V
1 0 V
0 -1 V
1 -1 V
1 -1 V
0 -1 V
1 -1 V
0 -1 V
1 -1 V
0 -1 V
1 -1 V
1 -1 V
0 -1 V
1 -1 V
0 -1 V
1 -1 V
1 -1 V
0 -1 V
1 -1 V
1 -1 V
0 -1 V
1 -1 V
1 -1 V
0 -1 V
1 -1 V
0 -1 V
1 -1 V
1 -1 V
0 -1 V
1 -1 V
stroke 6324 1990 M
0 -1 V
1 -1 V
1 -1 V
0 -1 V
1 -1 V
0 -1 V
1 0 V
0 -1 V
1 -1 V
1 -1 V
0 -1 V
1 -1 V
0 -1 V
1 -1 V
1 -1 V
0 -1 V
1 -1 V
0 -1 V
1 -1 V
0 -1 V
1 -1 V
1 -1 V
0 -1 V
1 -1 V
0 -1 V
1 -1 V
1 0 V
0 -1 V
1 -1 V
0 -1 V
1 -1 V
0 -1 V
1 -1 V
1 -1 V
0 -1 V
1 -1 V
0 -1 V
1 -1 V
1 -1 V
0 -1 V
1 -1 V
0 -1 V
1 -1 V
0 -1 V
1 -1 V
1 -1 V
0 -1 V
1 -1 V
1 -1 V
1 -1 V
0 -1 V
1 -1 V
0 -1 V
1 -1 V
1 -1 V
0 -1 V
1 -1 V
0 -1 V
1 -1 V
0 -1 V
1 -1 V
1 -1 V
0 -1 V
1 -1 V
0 -1 V
1 -1 V
1 -1 V
0 -1 V
1 -1 V
0 -1 V
1 -1 V
0 -1 V
1 0 V
1 -1 V
0 -1 V
1 -1 V
0 -1 V
1 -1 V
1 -1 V
0 -1 V
1 -1 V
0 -1 V
1 -1 V
0 -1 V
1 -1 V
1 -1 V
0 -1 V
1 -1 V
0 -1 V
1 -1 V
1 -1 V
0 -1 V
1 -1 V
0 -1 V
1 -1 V
0 -1 V
1 -1 V
1 -1 V
0 -1 V
1 -1 V
1 -1 V
1 -1 V
0 -1 V
1 -1 V
stroke 6386 1889 M
0 -1 V
1 -1 V
1 -1 V
0 -1 V
1 -1 V
0 -1 V
1 -1 V
0 -1 V
1 -1 V
1 -1 V
0 -1 V
1 -1 V
0 -1 V
1 -1 V
1 -1 V
0 -1 V
1 -1 V
0 -1 V
1 -1 V
0 -1 V
1 -1 V
1 -1 V
0 -1 V
1 -1 V
0 -1 V
1 -1 V
1 -1 V
0 -1 V
1 -1 V
0 -1 V
1 0 V
0 -1 V
1 -1 V
1 -1 V
0 -1 V
1 -1 V
0 -1 V
1 -1 V
1 -1 V
0 -1 V
1 -1 V
0 -1 V
1 -1 V
1 -1 V
0 -1 V
1 -1 V
0 -1 V
1 -1 V
0 -1 V
1 -1 V
1 -1 V
0 -1 V
1 -1 V
0 -1 V
1 -1 V
1 -1 V
0 -1 V
1 -1 V
0 -1 V
1 -1 V
0 -1 V
1 -1 V
1 -1 V
0 -1 V
1 -1 V
0 -1 V
1 -1 V
1 -1 V
0 -1 V
1 -1 V
0 -1 V
1 -1 V
0 -1 V
1 -1 V
1 -1 V
0 -1 V
1 -1 V
0 -1 V
1 -1 V
1 -1 V
1 -1 V
0 -1 V
1 -1 V
0 -1 V
1 -1 V
1 -1 V
0 -1 V
1 -1 V
0 -1 V
1 -1 V
1 -1 V
0 -1 V
1 -1 V
0 -1 V
1 -1 V
1 -1 V
0 -1 V
1 -1 V
0 -1 V
1 -1 V
0 -1 V
1 -1 V
1 -1 V
0 -1 V
stroke 6447 1786 M
1 -1 V
0 -1 V
1 -1 V
1 -1 V
0 -1 V
1 -1 V
0 -1 V
1 -1 V
0 -1 V
1 -1 V
1 -1 V
0 -1 V
1 -1 V
0 -1 V
1 -1 V
1 -1 V
0 -1 V
1 -1 V
0 -1 V
1 -1 V
0 -1 V
1 -1 V
1 -1 V
0 -1 V
1 -1 V
0 -1 V
1 -1 V
1 -1 V
0 -1 V
1 -1 V
0 -1 V
1 -1 V
0 -1 V
1 -1 V
1 -1 V
0 -1 V
1 -1 V
0 -1 V
1 -1 V
1 -1 V
0 -1 V
1 -1 V
0 -1 V
1 -1 V
1 -1 V
0 -1 V
1 -1 V
0 -1 V
1 -1 V
0 -1 V
1 -1 V
1 -1 V
0 -1 V
1 -1 V
0 -1 V
1 -1 V
1 -1 V
0 -1 V
1 -1 V
0 -1 V
1 -1 V
0 -1 V
1 -1 V
1 -1 V
0 -1 V
1 -1 V
0 -1 V
1 -1 V
1 -1 V
0 -1 V
1 -1 V
0 -1 V
1 -1 V
0 -1 V
1 -1 V
1 -1 V
0 -1 V
1 -1 V
0 -1 V
1 -1 V
1 -1 V
0 -1 V
1 -1 V
0 -1 V
1 -1 V
0 -1 V
1 -1 V
1 -1 V
0 -1 V
1 -1 V
0 -1 V
1 -1 V
1 -1 V
0 -1 V
1 -1 V
0 -1 V
1 -1 V
1 -1 V
0 -1 V
1 -1 V
0 -1 V
1 -1 V
0 -1 V
1 -1 V
stroke 6508 1682 M
1 -1 V
0 -1 V
1 -1 V
0 -1 V
1 -1 V
1 -1 V
0 -1 V
1 -1 V
0 -1 V
1 -1 V
0 -1 V
1 -1 V
1 -2 V
0 -1 V
1 -1 V
0 -1 V
1 -1 V
1 -1 V
0 -1 V
1 -1 V
0 -1 V
1 -1 V
0 -1 V
1 -1 V
1 -1 V
0 -1 V
1 -1 V
0 -1 V
1 -1 V
1 -1 V
0 -1 V
1 -1 V
0 -1 V
1 -1 V
0 -1 V
1 -1 V
1 -1 V
0 -1 V
1 -1 V
0 -1 V
1 -1 V
1 -1 V
0 -1 V
1 -1 V
0 -1 V
1 -1 V
1 -1 V
0 -1 V
1 -1 V
0 -1 V
1 -1 V
0 -1 V
1 -1 V
1 -1 V
0 -1 V
1 -1 V
0 -1 V
1 -1 V
1 -1 V
0 -1 V
1 -1 V
0 -1 V
1 -2 V
0 -1 V
1 -1 V
1 -1 V
0 -1 V
1 -1 V
0 -1 V
1 -1 V
1 -1 V
0 -1 V
1 -1 V
0 -1 V
1 -1 V
0 -1 V
1 -1 V
1 -1 V
0 -1 V
1 -1 V
0 -1 V
1 -1 V
1 -1 V
0 -1 V
1 -1 V
0 -1 V
1 -1 V
1 -1 V
0 -1 V
1 -1 V
0 -1 V
1 -1 V
0 -1 V
1 -1 V
1 -1 V
0 -1 V
1 -1 V
0 -2 V
1 -1 V
1 -1 V
0 -1 V
1 -1 V
0 -1 V
1 -1 V
stroke 6569 1575 M
0 -1 V
1 -1 V
1 -1 V
0 -1 V
1 -1 V
0 -1 V
1 -1 V
1 -1 V
0 -1 V
1 -1 V
0 -1 V
1 -1 V
0 -1 V
1 -1 V
1 -1 V
0 -1 V
1 -1 V
0 -1 V
1 -1 V
1 -1 V
0 -1 V
1 -2 V
0 -1 V
1 -1 V
0 -1 V
1 -1 V
1 -1 V
0 -1 V
1 -1 V
0 -1 V
1 -1 V
1 -1 V
0 -1 V
1 -1 V
0 -1 V
1 -1 V
1 -1 V
0 -1 V
1 -1 V
0 -1 V
1 -1 V
0 -1 V
1 -1 V
1 -1 V
0 -1 V
1 -1 V
0 -2 V
1 -1 V
1 -1 V
0 -1 V
1 -1 V
0 -1 V
1 -1 V
0 -1 V
1 -1 V
1 -1 V
0 -1 V
1 -1 V
0 -1 V
1 -1 V
1 -1 V
0 -1 V
1 -1 V
0 -1 V
1 -1 V
0 -1 V
1 -1 V
1 -1 V
0 -2 V
1 -1 V
0 -1 V
1 -1 V
1 -1 V
0 -1 V
1 -1 V
0 -1 V
1 -1 V
0 -1 V
1 -1 V
1 -1 V
0 -1 V
1 -1 V
0 -1 V
1 -1 V
1 -1 V
0 -1 V
1 -1 V
0 -1 V
1 -2 V
1 -1 V
0 -1 V
1 -1 V
0 -1 V
1 -1 V
0 -1 V
1 -1 V
1 -1 V
0 -1 V
1 -1 V
0 -1 V
1 -1 V
1 -1 V
0 -1 V
1 -1 V
stroke 6630 1467 M
0 -1 V
1 -1 V
0 -2 V
1 -1 V
1 -1 V
0 -1 V
1 -1 V
0 -1 V
1 -1 V
1 -1 V
0 -1 V
1 -1 V
0 -1 V
1 -1 V
0 -1 V
1 -1 V
1 -1 V
0 -1 V
1 -1 V
0 -1 V
1 -2 V
1 -1 V
0 -1 V
1 -1 V
0 -1 V
1 -1 V
0 -1 V
1 -1 V
1 -1 V
0 -1 V
1 -1 V
0 -1 V
1 -1 V
1 -1 V
0 -1 V
1 -1 V
0 -2 V
1 -1 V
1 -1 V
0 -1 V
1 -1 V
0 -1 V
1 -1 V
0 -1 V
1 -1 V
1 -1 V
0 -1 V
1 -1 V
0 -1 V
1 -1 V
1 -1 V
0 -1 V
1 -2 V
0 -1 V
1 -1 V
0 -1 V
1 -1 V
1 -1 V
0 -1 V
1 -1 V
0 -1 V
1 -1 V
1 -1 V
0 -1 V
1 -1 V
0 -1 V
1 -2 V
0 -1 V
1 -1 V
1 -1 V
0 -1 V
1 -1 V
0 -1 V
1 -1 V
1 -1 V
0 -1 V
1 -1 V
0 -1 V
1 -1 V
0 -1 V
1 -1 V
1 -2 V
0 -1 V
1 -1 V
0 -1 V
1 -1 V
1 -1 V
0 -1 V
1 -1 V
0 -1 V
1 -1 V
1 -1 V
0 -1 V
1 -1 V
0 -2 V
1 -1 V
0 -1 V
1 -1 V
1 -1 V
0 -1 V
1 -1 V
0 -1 V
1 -1 V
1 -1 V
stroke 6691 1356 M
0 -1 V
1 -1 V
0 -1 V
1 -2 V
0 -1 V
1 -1 V
1 -1 V
0 -1 V
1 -1 V
0 -1 V
1 -1 V
1 -1 V
0 -1 V
1 -1 V
0 -1 V
1 -1 V
0 -2 V
1 -1 V
1 -1 V
0 -1 V
1 -1 V
0 -1 V
1 -1 V
1 -1 V
0 -1 V
1 -1 V
0 -1 V
1 -1 V
1 -2 V
0 -1 V
1 -1 V
0 -1 V
1 -1 V
0 -1 V
1 -1 V
1 -1 V
0 -1 V
1 -1 V
0 -1 V
1 -1 V
1 -2 V
0 -1 V
1 -1 V
0 -1 V
1 -1 V
0 -1 V
1 -1 V
1 -1 V
0 -1 V
1 -1 V
0 -1 V
1 -1 V
1 -2 V
0 -1 V
1 -1 V
0 -1 V
1 -1 V
0 -1 V
1 -1 V
1 -1 V
0 -1 V
1 -1 V
0 -1 V
1 -2 V
1 -1 V
0 -1 V
1 -1 V
0 -1 V
1 -1 V
0 -1 V
1 -1 V
1 -1 V
0 -1 V
1 -1 V
0 -2 V
1 -1 V
1 -1 V
0 -1 V
1 -1 V
0 -1 V
1 -1 V
1 -1 V
0 -1 V
1 -1 V
0 -1 V
1 -2 V
0 -1 V
1 -1 V
1 -1 V
0 -1 V
1 -1 V
0 -1 V
1 -1 V
1 -1 V
0 -1 V
1 -2 V
0 -1 V
1 -1 V
0 -1 V
1 -1 V
1 -1 V
0 -1 V
1 -1 V
0 -1 V
stroke 6751 1243 M
1 -1 V
1 -2 V
0 -1 V
1 -1 V
0 -1 V
1 -1 V
0 -1 V
1 -1 V
1 -1 V
0 -1 V
1 -1 V
0 -2 V
1 -1 V
1 -1 V
0 -1 V
1 -1 V
0 -1 V
1 -1 V
0 -1 V
1 -1 V
1 -1 V
0 -2 V
1 -1 V
0 -1 V
1 -1 V
1 -1 V
0 -1 V
1 -1 V
0 -1 V
1 -1 V
1 -1 V
0 -2 V
1 -1 V
0 -1 V
1 -1 V
0 -1 V
1 -1 V
1 -1 V
0 -1 V
1 -1 V
0 -2 V
1 -1 V
1 -1 V
0 -1 V
1 -1 V
0 -1 V
1 -1 V
0 -1 V
1 -1 V
1 -2 V
0 -1 V
1 -1 V
0 -1 V
1 -1 V
1 -1 V
0 -1 V
1 -1 V
0 -1 V
1 -1 V
0 -2 V
1 -1 V
1 -1 V
0 -1 V
1 -1 V
0 -1 V
1 -1 V
1 -1 V
0 -2 V
1 -1 V
0 -1 V
1 -1 V
0 -1 V
1 -1 V
1 -1 V
0 -1 V
1 -1 V
0 -2 V
1 -1 V
1 -1 V
0 -1 V
1 -1 V
0 -1 V
1 -1 V
1 -1 V
0 -1 V
1 -2 V
0 -1 V
1 -1 V
0 -1 V
1 -1 V
1 -1 V
0 -1 V
1 -1 V
0 -2 V
1 -1 V
1 -1 V
0 -1 V
1 -1 V
0 -1 V
1 -1 V
0 -1 V
1 -1 V
1 -2 V
0 -1 V
stroke 6812 1127 M
1 -1 V
0 -1 V
1 -1 V
1 -1 V
0 -1 V
1 -1 V
0 -2 V
1 -1 V
0 -1 V
1 -1 V
1 -1 V
0 -1 V
1 -1 V
0 -1 V
1 -2 V
1 -1 V
0 -1 V
1 -1 V
0 -1 V
1 -1 V
1 -1 V
0 -1 V
1 -2 V
0 -1 V
1 -1 V
0 -1 V
1 -1 V
1 -1 V
0 -1 V
1 -1 V
0 -2 V
1 -1 V
1 -1 V
0 -1 V
1 -1 V
0 -1 V
1 -1 V
0 -1 V
1 -2 V
1 -1 V
0 -1 V
1 -1 V
0 -1 V
1 -1 V
1 -1 V
0 -1 V
1 -2 V
0 -1 V
1 -1 V
0 -1 V
1 -1 V
1 -1 V
0 -1 V
1 -1 V
0 -2 V
1 -1 V
1 -1 V
0 -1 V
1 -1 V
0 -1 V
1 -1 V
0 -2 V
1 -1 V
1 -1 V
0 -1 V
1 -1 V
0 -1 V
1 -1 V
1 -1 V
0 -2 V
1 -1 V
0 -1 V
1 -1 V
1 -1 V
0 -1 V
1 -1 V
0 -2 V
1 -1 V
0 -1 V
1 -1 V
1 -1 V
0 -1 V
1 -1 V
0 -2 V
1 -1 V
1 -1 V
0 -1 V
1 -1 V
0 -1 V
1 -1 V
0 -1 V
1 -2 V
1 -1 V
0 -1 V
1 -1 V
0 -1 V
1 -1 V
1 -1 V
0 -2 V
1 -1 V
0 -1 V
1 -1 V
0 -1 V
1 -1 V
stroke 6873 1010 M
1 -1 V
0 -2 V
1 -1 V
0 -1 V
1 -1 V
1 -1 V
0 -1 V
1 -1 V
0 -2 V
1 -1 V
0 -1 V
1 -1 V
1 -1 V
0 -1 V
1 -1 V
0 -2 V
% End plot #2
stroke
2.000 UL
LTb
LCb setrgbcolor
1.000 UL
LTB
LCb setrgbcolor
854 4871 N
854 448 L
6093 0 V
0 4423 V
-6093 0 V
Z stroke
1.000 UP
1.000 UL
LTb
LCb setrgbcolor
stroke
grestore
end
showpage
%%Trailer
%%DocumentFonts: Helvetica
