RESISTENZE					CAPACITÀ					
										
PORTATA	SIGMA_K	DIGIT	RISOLUZIONE		PORTATA	SIGMA_K	DIGIT	RISOLUZIONE		
1000	0.1%	8	0.01		0.000000001	2.5%	15	0.000000000001		
10000	0.07%	8	0.1		0.00000001	1%	8	0.00000000001		
100000	0.07%	8	1		0.0000001	1%	8	0.0000000001		
1000000	0.07%	8	10		0.000001	1%	10	0.000000001		
10000000	1%	80	100		0.00001	1%	10	0.00000001		
100000000	3%	80	1000		0.0001	1%	10	0.0000001		
					0.01	1%	15	0.000001		
					0.01	1.5%	15	0.00001		
										
										
										
										
										
2.1 : Amplificatore non-invertente										
VALORE	ERRORE	Gain_err	Digit_err	FondoScala	NOME		GUADAGNO A = -R2/R1		-8.26230170758816	0.00388404883861855
9897	6.10998631776973	3.99982492991881	4.61880215351701	100000	R1		ERRORE IN PERCENTUALE			3.17468081984053%
81772	33.3689645836766	33.0477603485219	4.61880215351701	100000	R2					
46.9	0.0535400473166271	0.0270777276249934	0.0461880215351701	1000	R3					
9836	6.09387613483132	3.97517207342441	4.61880215351701	100000	R1b					
81993	33.4574232122459	33.1370764351655	4.61880215351701	100000	R2b					
46.83	0.0535196191441357	0.0270373131061502	0.0461880215351701	1000	R3b					
