0.046&0.148&0.000433013&0.00130042
0.0435&0.139&0.000433013&0.0012841
0.04&0.128&0.000433013&0.00126528
0.037&0.12&0.000433013&0.00125241
0.035&0.112&0.000433013&0.00124025
0.033&0.106&0.000433013&0.00123161
0.031&0.1&0.000433013&0.00122338
0.029&0.096&0.000433013&0.00121814
0.028&0.09&0.000433013&0.00121063
0.0265&0.086&0.000433013&0.00120588
