\relax 
\@writefile{lot}{\contentsline {table}{\numberline {1}{\ignorespaces  Fluke 111\relax }}{1}}
\providecommand*\caption@xref[2]{\@setref\relax\@undefined{#1}}
\newlabel{tab:fluke}{{1}{1}}
\select@language{italian}
\@writefile{toc}{\select@language{italian}}
\@writefile{lof}{\select@language{italian}}
\@writefile{lot}{\select@language{italian}}
\select@language{italian}
\@writefile{toc}{\select@language{italian}}
\@writefile{lof}{\select@language{italian}}
\@writefile{lot}{\select@language{italian}}
\@writefile{lot}{\contentsline {table}{\numberline {2}{\ignorespaces  Agilent U1232A\relax }}{2}}
\newlabel{tab:agilent}{{2}{2}}
\@writefile{lot}{\contentsline {table}{\numberline {3}{\ignorespaces  Valori resistenze\relax }}{2}}
\newlabel{tab:1a}{{3}{2}}
\@writefile{lot}{\contentsline {table}{\numberline {4}{\ignorespaces  Valori resistenze $R_5$ e $R_6$ separatamente, della loro serie e del loro parallelo \relax }}{2}}
\newlabel{tab:1b}{{4}{2}}
\@writefile{lot}{\contentsline {table}{\numberline {5}{\ignorespaces  Valori circuito\relax }}{3}}
\newlabel{tab:2a}{{5}{3}}
\@writefile{lot}{\contentsline {table}{\numberline {6}{\ignorespaces  Valori circuito variando $R_5$\relax }}{3}}
\newlabel{tab:2b}{{6}{3}}
\@writefile{lot}{\contentsline {table}{\numberline {7}{\ignorespaces  Valori per la misura resistenza del generatore di tensione\relax }}{3}}
\newlabel{tab:3}{{7}{3}}
\@writefile{lot}{\contentsline {table}{\numberline {8}{\ignorespaces  Valori per la misura resistenza interna del Fluke 111 usato come voltmetro\relax }}{3}}
\newlabel{tab:3}{{8}{3}}
