Record Length,2.500000e+03,,  -0.000125000000,  -0.14400,
Sample Interval,1.000000e-07,,  -0.000124900000,  -0.14400,
Trigger Point,1.250000000000e+03,,  -0.000124800000,  -0.14400,
,,,  -0.000124700000,  -0.14400,
,,,  -0.000124600000,  -0.14400,
,,,  -0.000124500000,  -0.13600,
Source,CH2,,  -0.000124400000,  -0.13600,
Vertical Units,V,,  -0.000124300000,  -0.13600,
Vertical Scale,2.000000e-01,,  -0.000124200000,  -0.13600,
Vertical Offset,0.000000e+00,,  -0.000124100000,  -0.13600,
Horizontal Units,s,,  -0.000124000000,  -0.13600,
Horizontal Scale,2.500000e-05,,  -0.000123900000,  -0.13600,
Pt Fmt,Y,,  -0.000123800000,  -0.13600,
Yzero,0.000000e+00,,  -0.000123700000,  -0.13600,
Probe Atten,1.000000e+01,,  -0.000123600000,  -0.13600,
Model Number,TBS1102B-EDU,,  -0.000123500000,  -0.13600,
Serial Number,C015509,,  -0.000123400000,  -0.13600,
Firmware Version,FV:v4.06,,  -0.000123300000,  -0.13600,
,,,-00.000123200000,  -0.13600,
,,,-00.000123100000,  -0.13600,
,,,-00.000123000000,  -0.13600,
,,,-00.000122900000,  -0.12800,
,,,-00.000122800000,  -0.12800,
,,,-00.000122700000,  -0.12800,
,,,-00.000122600000,  -0.12800,
,,,-00.000122500000,  -0.12800,
,,,-00.000122400000,  -0.12800,
,,,-00.000122300000,  -0.12800,
,,,-00.000122200000,  -0.12800,
,,,-00.000122100000,  -0.12800,
,,,-00.000122000000,  -0.12800,
,,,-00.000121900000,  -0.12800,
,,,-00.000121800000,  -0.12000,
,,,-00.000121700000,  -0.12800,
,,,-00.000121600000,  -0.12000,
,,,-00.000121500000,  -0.12000,
,,,-00.000121400000,  -0.12000,
,,,-00.000121300000,  -0.12000,
,,,-00.000121200000,  -0.12000,
,,,-00.000121100000,  -0.12000,
,,,-00.000121000000,  -0.12000,
,,,-00.000120900000,  -0.12000,
,,,-00.000120800000,  -0.12000,
,,,-00.000120700000,  -0.12000,
,,,-00.000120600000,  -0.11200,
,,,-00.000120500000,  -0.11200,
,,,-00.000120400000,  -0.11200,
,,,-00.000120300000,  -0.11200,
,,,-00.000120200000,  -0.11200,
,,,-00.000120100000,  -0.11200,
,,,-00.000120000000,  -0.11200,
,,,-00.000119900000,  -0.11200,
,,,-00.000119800000,  -0.11200,
,,,-00.000119700000,  -0.11200,
,,,-00.000119600000,  -0.11200,
,,,-00.000119500000,  -0.10400,
,,,-00.000119400000,  -0.10400,
,,,-00.000119300000,  -0.10400,
,,,-00.000119200000,  -0.10400,
,,,-00.000119100000,  -0.10400,
,,,-00.000119000000,  -0.10400,
,,,-00.000118900000,  -0.10400,
,,,-00.000118800000,  -0.10400,
,,,-00.000118700000,  -0.10400,
,,,-00.000118600000,  -0.10400,
,,,-00.000118500000,  -0.09600,
,,,-00.000118400000,  -0.09600,
,,,-00.000118300000,  -0.09600,
,,,-00.000118200000,  -0.09600,
,,,-00.000118100000,  -0.09600,
,,,-00.000118000000,  -0.09600,
,,,-00.000117900000,  -0.09600,
,,,-00.000117800000,  -0.09600,
,,,-00.000117700000,  -0.09600,
,,,-00.000117600000,  -0.09600,
,,,-00.000117500000,  -0.08800,
,,,-00.000117400000,  -0.08800,
,,,-00.000117300000,  -0.08800,
,,,-00.000117200000,  -0.08800,
,,,-00.000117100000,  -0.08800,
,,,-00.000117000000,  -0.08800,
,,,-00.000116900000,  -0.08800,
,,,-00.000116800000,  -0.08800,
,,,-00.000116700000,  -0.08800,
,,,-00.000116600000,  -0.08000,
,,,-00.000116500000,  -0.08000,
,,,-00.000116400000,  -0.08000,
,,,-00.000116300000,  -0.08000,
,,,-00.000116200000,  -0.08000,
,,,-00.000116100000,  -0.08000,
,,,-00.000116000000,  -0.08000,
,,,-00.000115900000,  -0.08000,
,,,-00.000115800000,  -0.08000,
,,,-00.000115700000,  -0.08000,
,,,-00.000115600000,  -0.07200,
,,,-00.000115500000,  -0.07200,
,,,-00.000115400000,  -0.07200,
,,,-00.000115300000,  -0.07200,
,,,-00.000115200000,  -0.07200,
,,,-00.000115100000,  -0.07200,
,,,-00.000115000000,  -0.07200,
,,,-00.000114900000,  -0.07200,
,,,-00.000114800000,  -0.06400,
,,,-00.000114700000,  -0.06400,
,,,-00.000114600000,  -0.06400,
,,,-00.000114500000,  -0.06400,
,,,-00.000114400000,  -0.06400,
,,,-00.000114300000,  -0.06400,
,,,-00.000114200000,  -0.06400,
,,,-00.000114100000,  -0.06400,
,,,-00.000114000000,  -0.05600,
,,,-00.000113900000,  -0.05600,
,,,-00.000113800000,  -0.05600,
,,,-00.000113700000,  -0.05600,
,,,-00.000113600000,  -0.05600,
,,,-00.000113500000,  -0.05600,
,,,-00.000113400000,  -0.05600,
,,,-00.000113300000,  -0.05600,
,,,-00.000113200000,  -0.04800,
,,,-00.000113100000,  -0.04800,
,,,-00.000113000000,  -0.04800,
,,,-00.000112900000,  -0.04800,
,,,-00.000112800000,  -0.04800,
,,,-00.000112700000,  -0.04800,
,,,-00.000112600000,  -0.04000,
,,,-00.000112500000,  -0.04800,
,,,-00.000112400000,  -0.04000,
,,,-00.000112300000,  -0.04000,
,,,-00.000112200000,  -0.04000,
,,,-00.000112100000,  -0.04000,
,,,-00.000112000000,  -0.04000,
,,,-00.000111900000,  -0.04000,
,,,-00.000111800000,  -0.04000,
,,,-00.000111700000,  -0.04000,
,,,-00.000111600000,  -0.03200,
,,,-00.000111500000,  -0.03200,
,,,-00.000111400000,  -0.03200,
,,,-00.000111300000,  -0.03200,
,,,-00.000111200000,  -0.03200,
,,,-00.000111100000,  -0.03200,
,,,-00.000111000000,  -0.02400,
,,,-00.000110900000,  -0.02400,
,,,-00.000110800000,  -0.02400,
,,,-00.000110700000,  -0.02400,
,,,-00.000110600000,  -0.02400,
,,,-00.000110500000,  -0.02400,
,,,-00.000110400000,  -0.02400,
,,,-00.000110300000,  -0.02400,
,,,-00.000110200000,  -0.01600,
,,,-00.000110100000,  -0.01600,
,,,-00.000110000000,  -0.01600,
,,,-00.000109900000,  -0.01600,
,,,-00.000109800000,  -0.01600,
,,,-00.000109700000,  -0.01600,
,,,-00.000109600000,  -0.01600,
,,,-00.000109500000,  -0.01600,
,,,-00.000109400000,  -0.00800,
,,,-00.000109300000,  -0.00800,
,,,-00.000109200000,  -0.00800,
,,,-00.000109100000,  -0.00800,
,,,-00.000109000000,  -0.00800,
,,,-00.000108900000,  -0.00800,
,,,-00.000108800000,  -0.00800,
,,,-00.000108700000,  -0.00800,
,,,-00.000108600000,   0.00000,
,,,-00.000108500000,   0.00000,
,,,-00.000108400000,   0.00000,
,,,-00.000108300000,   0.00000,
,,,-00.000108200000,   0.00000,
,,,-00.000108100000,   0.00000,
,,,-00.000108000000,   0.00000,
,,,-00.000107900000,   0.00000,
,,,-00.000107800000,   0.00800,
,,,-00.000107700000,   0.00800,
,,,-00.000107600000,   0.00800,
,,,-00.000107500000,   0.00800,
,,,-00.000107400000,   0.00800,
,,,-00.000107300000,   0.00800,
,,,-00.000107200000,   0.00800,
,,,-00.000107100000,   0.01600,
,,,-00.000107000000,   0.01600,
,,,-00.000106900000,   0.01600,
,,,-00.000106800000,   0.01600,
,,,-00.000106700000,   0.01600,
,,,-00.000106600000,   0.01600,
,,,-00.000106500000,   0.01600,
,,,-00.000106400000,   0.01600,
,,,-00.000106300000,   0.02400,
,,,-00.000106200000,   0.02400,
,,,-00.000106100000,   0.02400,
,,,-00.000106000000,   0.02400,
,,,-00.000105900000,   0.02400,
,,,-00.000105800000,   0.02400,
,,,-00.000105700000,   0.02400,
,,,-00.000105600000,   0.02400,
,,,-00.000105500000,   0.02400,
,,,-00.000105400000,   0.03200,
,,,-00.000105300000,   0.03200,
,,,-00.000105200000,   0.03200,
,,,-00.000105100000,   0.03200,
,,,-00.000105000000,   0.03200,
,,,-00.000104900000,   0.03200,
,,,-00.000104800000,   0.03200,
,,,-00.000104700000,   0.04000,
,,,-00.000104600000,   0.04000,
,,,-00.000104500000,   0.04000,
,,,-00.000104400000,   0.04000,
,,,-00.000104300000,   0.04000,
,,,-00.000104200000,   0.04000,
,,,-00.000104100000,   0.04000,
,,,-00.000104000000,   0.04800,
,,,-00.000103900000,   0.04800,
,,,-00.000103800000,   0.04800,
,,,-00.000103700000,   0.04800,
,,,-00.000103600000,   0.04800,
,,,-00.000103500000,   0.04800,
,,,-00.000103400000,   0.04800,
,,,-00.000103300000,   0.04800,
,,,-00.000103200000,   0.05600,
,,,-00.000103100000,   0.05600,
,,,-00.000103000000,   0.05600,
,,,-00.000102900000,   0.05600,
,,,-00.000102800000,   0.05600,
,,,-00.000102700000,   0.05600,
,,,-00.000102600000,   0.05600,
,,,-00.000102500000,   0.06400,
,,,-00.000102400000,   0.06400,
,,,-00.000102300000,   0.06400,
,,,-00.000102200000,   0.06400,
,,,-00.000102100000,   0.06400,
,,,-00.000102000000,   0.06400,
,,,-00.000101900000,   0.06400,
,,,-00.000101800000,   0.06400,
,,,-00.000101700000,   0.06400,
,,,-00.000101600000,   0.06400,
,,,-00.000101500000,   0.07200,
,,,-00.000101400000,   0.07200,
,,,-00.000101300000,   0.07200,
,,,-00.000101200000,   0.07200,
,,,-00.000101100000,   0.07200,
,,,-00.000101000000,   0.07200,
,,,-00.000100900000,   0.07200,
,,,-00.000100800000,   0.07200,
,,,-00.000100700000,   0.07200,
,,,-00.000100600000,   0.08000,
,,,-00.000100500000,   0.08000,
,,,-00.000100400000,   0.08000,
,,,-00.000100300000,   0.08000,
,,,-00.000100200000,   0.08000,
,,,-00.000100100000,   0.08000,
,,,-00.000100000000,   0.08000,
,,,-00.000099900000,   0.08000,
,,,-00.000099800000,   0.08000,
,,,-00.000099700000,   0.08800,
,,,-00.000099600000,   0.08800,
,,,-00.000099500000,   0.08800,
,,,-00.000099400000,   0.08800,
,,,-00.000099300000,   0.08800,
,,,-00.000099200000,   0.08800,
,,,-00.000099100000,   0.08800,
,,,-00.000099000000,   0.09600,
,,,-00.000098900000,   0.09600,
,,,-00.000098800000,   0.09600,
,,,-00.000098700000,   0.09600,
,,,-00.000098600000,   0.09600,
,,,-00.000098500000,   0.09600,
,,,-00.000098400000,   0.09600,
,,,-00.000098300000,   0.09600,
,,,-00.000098200000,   0.09600,
,,,-00.000098100000,   0.10400,
,,,-00.000098000000,   0.10400,
,,,-00.000097900000,   0.10400,
,,,-00.000097800000,   0.10400,
,,,-00.000097700000,   0.10400,
,,,-00.000097600000,   0.10400,
,,,-00.000097500000,   0.10400,
,,,-00.000097400000,   0.10400,
,,,-00.000097300000,   0.10400,
,,,-00.000097200000,   0.11200,
,,,-00.000097100000,   0.11200,
,,,-00.000097000000,   0.11200,
,,,-00.000096900000,   0.11200,
,,,-00.000096800000,   0.11200,
,,,-00.000096700000,   0.11200,
,,,-00.000096600000,   0.11200,
,,,-00.000096500000,   0.11200,
,,,-00.000096400000,   0.11200,
,,,-00.000096300000,   0.11200,
,,,-00.000096200000,   0.12000,
,,,-00.000096100000,   0.12000,
,,,-00.000096000000,   0.12000,
,,,-00.000095900000,   0.12000,
,,,-00.000095800000,   0.12000,
,,,-00.000095700000,   0.12000,
,,,-00.000095600000,   0.12000,
,,,-00.000095500000,   0.12000,
,,,-00.000095400000,   0.12000,
,,,-00.000095300000,   0.12000,
,,,-00.000095200000,   0.12000,
,,,-00.000095100000,   0.12000,
,,,-00.000095000000,   0.12800,
,,,-00.000094900000,   0.12800,
,,,-00.000094800000,   0.12800,
,,,-00.000094700000,   0.12800,
,,,-00.000094600000,   0.12800,
,,,-00.000094500000,   0.12800,
,,,-00.000094400000,   0.12800,
,,,-00.000094300000,   0.12800,
,,,-00.000094200000,   0.12800,
,,,-00.000094100000,   0.12800,
,,,-00.000094000000,   0.12800,
,,,-00.000093900000,   0.12800,
,,,-00.000093800000,   0.13600,
,,,-00.000093700000,   0.12800,
,,,-00.000093600000,   0.13600,
,,,-00.000093500000,   0.13600,
,,,-00.000093400000,   0.13600,
,,,-00.000093300000,   0.13600,
,,,-00.000093200000,   0.13600,
,,,-00.000093100000,   0.13600,
,,,-00.000093000000,   0.13600,
,,,-00.000092900000,   0.13600,
,,,-00.000092800000,   0.13600,
,,,-00.000092700000,   0.14400,
,,,-00.000092600000,   0.14400,
,,,-00.000092500000,   0.14400,
,,,-00.000092400000,   0.14400,
,,,-00.000092300000,   0.14400,
,,,-00.000092200000,   0.14400,
,,,-00.000092100000,   0.14400,
,,,-00.000092000000,   0.14400,
,,,-00.000091900000,   0.14400,
,,,-00.000091800000,   0.14400,
,,,-00.000091700000,   0.14400,
,,,-00.000091600000,   0.14400,
,,,-00.000091500000,   0.14400,
,,,-00.000091400000,   0.14400,
,,,-00.000091300000,   0.14400,
,,,-00.000091200000,   0.15200,
,,,-00.000091100000,   0.15200,
,,,-00.000091000000,   0.15200,
,,,-00.000090900000,   0.15200,
,,,-00.000090800000,   0.15200,
,,,-00.000090700000,   0.15200,
,,,-00.000090600000,   0.15200,
,,,-00.000090500000,   0.15200,
,,,-00.000090400000,   0.15200,
,,,-00.000090300000,   0.15200,
,,,-00.000090200000,   0.15200,
,,,-00.000090100000,   0.15200,
,,,-00.000090000000,   0.15200,
,,,-00.000089900000,   0.15200,
,,,-00.000089800000,   0.15200,
,,,-00.000089700000,   0.15200,
,,,-00.000089600000,   0.15200,
,,,-00.000089500000,   0.15200,
,,,-00.000089400000,   0.15200,
,,,-00.000089300000,   0.15200,
,,,-00.000089200000,   0.15200,
,,,-00.000089100000,   0.15200,
,,,-00.000089000000,   0.16000,
,,,-00.000088900000,   0.16000,
,,,-00.000088800000,   0.16000,
,,,-00.000088700000,   0.16000,
,,,-00.000088600000,   0.16000,
,,,-00.000088500000,   0.16000,
,,,-00.000088400000,   0.16000,
,,,-00.000088300000,   0.16000,
,,,-00.000088200000,   0.16000,
,,,-00.000088100000,   0.16000,
,,,-00.000088000000,   0.16000,
,,,-00.000087900000,   0.16000,
,,,-00.000087800000,   0.16000,
,,,-00.000087700000,   0.16000,
,,,-00.000087600000,   0.16000,
,,,-00.000087500000,   0.16000,
,,,-00.000087400000,   0.16000,
,,,-00.000087300000,   0.16000,
,,,-00.000087200000,   0.16000,
,,,-00.000087100000,   0.16000,
,,,-00.000087000000,   0.16000,
,,,-00.000086900000,   0.16000,
,,,-00.000086800000,   0.16000,
,,,-00.000086700000,   0.16800,
,,,-00.000086600000,   0.16800,
,,,-00.000086500000,   0.16800,
,,,-00.000086400000,   0.16800,
,,,-00.000086300000,   0.16800,
,,,-00.000086200000,   0.16800,
,,,-00.000086100000,   0.16800,
,,,-00.000086000000,   0.16800,
,,,-00.000085900000,   0.16800,
,,,-00.000085800000,   0.16800,
,,,-00.000085700000,   0.16800,
,,,-00.000085600000,   0.16800,
,,,-00.000085500000,   0.16800,
,,,-00.000085400000,   0.16800,
,,,-00.000085300000,   0.16800,
,,,-00.000085200000,   0.16800,
,,,-00.000085100000,   0.16800,
,,,-00.000085000000,   0.16800,
,,,-00.000084900000,   0.16800,
,,,-00.000084800000,   0.16800,
,,,-00.000084700000,   0.16800,
,,,-00.000084600000,   0.16800,
,,,-00.000084500000,   0.16800,
,,,-00.000084400000,   0.16800,
,,,-00.000084300000,   0.16800,
,,,-00.000084200000,   0.16800,
,,,-00.000084100000,   0.16800,
,,,-00.000084000000,   0.16800,
,,,-00.000083900000,   0.16800,
,,,-00.000083800000,   0.16800,
,,,-00.000083700000,   0.16800,
,,,-00.000083600000,   0.16800,
,,,-00.000083500000,   0.16800,
,,,-00.000083400000,   0.16800,
,,,-00.000083300000,   0.16800,
,,,-00.000083200000,   0.16800,
,,,-00.000083100000,   0.16800,
,,,-00.000083000000,   0.16800,
,,,-00.000082900000,   0.16800,
,,,-00.000082800000,   0.16800,
,,,-00.000082700000,   0.16800,
,,,-00.000082600000,   0.16800,
,,,-00.000082500000,   0.16800,
,,,-00.000082400000,   0.16800,
,,,-00.000082300000,   0.16800,
,,,-00.000082200000,   0.16800,
,,,-00.000082100000,   0.16800,
,,,-00.000082000000,   0.16800,
,,,-00.000081900000,   0.16800,
,,,-00.000081800000,   0.16800,
,,,-00.000081700000,   0.16800,
,,,-00.000081600000,   0.16800,
,,,-00.000081500000,   0.16800,
,,,-00.000081400000,   0.16800,
,,,-00.000081300000,   0.16800,
,,,-00.000081200000,   0.16800,
,,,-00.000081100000,   0.16800,
,,,-00.000081000000,   0.16800,
,,,-00.000080900000,   0.16800,
,,,-00.000080800000,   0.16800,
,,,-00.000080700000,   0.16800,
,,,-00.000080600000,   0.16800,
,,,-00.000080500000,   0.16800,
,,,-00.000080400000,   0.16800,
,,,-00.000080300000,   0.16800,
,,,-00.000080200000,   0.16800,
,,,-00.000080100000,   0.16800,
,,,-00.000080000000,   0.16800,
,,,-00.000079900000,   0.16800,
,,,-00.000079800000,   0.16800,
,,,-00.000079700000,   0.16800,
,,,-00.000079600000,   0.16800,
,,,-00.000079500000,   0.16800,
,,,-00.000079400000,   0.16800,
,,,-00.000079300000,   0.16800,
,,,-00.000079200000,   0.16800,
,,,-00.000079100000,   0.16000,
,,,-00.000079000000,   0.16800,
,,,-00.000078900000,   0.16000,
,,,-00.000078800000,   0.16000,
,,,-00.000078700000,   0.16800,
,,,-00.000078600000,   0.16000,
,,,-00.000078500000,   0.16000,
,,,-00.000078400000,   0.16000,
,,,-00.000078300000,   0.16000,
,,,-00.000078200000,   0.16000,
,,,-00.000078100000,   0.16000,
,,,-00.000078000000,   0.16000,
,,,-00.000077900000,   0.16000,
,,,-00.000077800000,   0.16000,
,,,-00.000077700000,   0.16000,
,,,-00.000077600000,   0.16000,
,,,-00.000077500000,   0.16000,
,,,-00.000077400000,   0.16000,
,,,-00.000077300000,   0.16000,
,,,-00.000077200000,   0.16000,
,,,-00.000077100000,   0.16000,
,,,-00.000077000000,   0.16000,
,,,-00.000076900000,   0.16000,
,,,-00.000076800000,   0.16000,
,,,-00.000076700000,   0.16000,
,,,-00.000076600000,   0.16000,
,,,-00.000076500000,   0.16000,
,,,-00.000076400000,   0.15200,
,,,-00.000076300000,   0.15200,
,,,-00.000076200000,   0.16000,
,,,-00.000076100000,   0.15200,
,,,-00.000076000000,   0.15200,
,,,-00.000075900000,   0.15200,
,,,-00.000075800000,   0.15200,
,,,-00.000075700000,   0.15200,
,,,-00.000075600000,   0.15200,
,,,-00.000075500000,   0.15200,
,,,-00.000075400000,   0.15200,
,,,-00.000075300000,   0.15200,
,,,-00.000075200000,   0.15200,
,,,-00.000075100000,   0.15200,
,,,-00.000075000000,   0.15200,
,,,-00.000074900000,   0.15200,
,,,-00.000074800000,   0.15200,
,,,-00.000074700000,   0.15200,
,,,-00.000074600000,   0.15200,
,,,-00.000074500000,   0.14400,
,,,-00.000074400000,   0.14400,
,,,-00.000074300000,   0.14400,
,,,-00.000074200000,   0.14400,
,,,-00.000074100000,   0.14400,
,,,-00.000074000000,   0.14400,
,,,-00.000073900000,   0.14400,
,,,-00.000073800000,   0.14400,
,,,-00.000073700000,   0.14400,
,,,-00.000073600000,   0.14400,
,,,-00.000073500000,   0.14400,
,,,-00.000073400000,   0.14400,
,,,-00.000073300000,   0.14400,
,,,-00.000073200000,   0.13600,
,,,-00.000073100000,   0.14400,
,,,-00.000073000000,   0.13600,
,,,-00.000072900000,   0.13600,
,,,-00.000072800000,   0.13600,
,,,-00.000072700000,   0.13600,
,,,-00.000072600000,   0.13600,
,,,-00.000072500000,   0.13600,
,,,-00.000072400000,   0.13600,
,,,-00.000072300000,   0.13600,
,,,-00.000072200000,   0.13600,
,,,-00.000072100000,   0.13600,
,,,-00.000072000000,   0.13600,
,,,-00.000071900000,   0.13600,
,,,-00.000071800000,   0.13600,
,,,-00.000071700000,   0.12800,
,,,-00.000071600000,   0.12800,
,,,-00.000071500000,   0.12800,
,,,-00.000071400000,   0.12800,
,,,-00.000071300000,   0.12800,
,,,-00.000071200000,   0.12800,
,,,-00.000071100000,   0.12800,
,,,-00.000071000000,   0.12800,
,,,-00.000070900000,   0.12800,
,,,-00.000070800000,   0.12800,
,,,-00.000070700000,   0.12800,
,,,-00.000070600000,   0.12800,
,,,-00.000070500000,   0.12800,
,,,-00.000070400000,   0.12000,
,,,-00.000070300000,   0.12000,
,,,-00.000070200000,   0.12000,
,,,-00.000070100000,   0.12000,
,,,-00.000070000000,   0.12000,
,,,-00.000069900000,   0.12000,
,,,-00.000069800000,   0.12000,
,,,-00.000069700000,   0.12000,
,,,-00.000069600000,   0.12000,
,,,-00.000069500000,   0.12000,
,,,-00.000069400000,   0.11200,
,,,-00.000069300000,   0.11200,
,,,-00.000069200000,   0.11200,
,,,-00.000069100000,   0.11200,
,,,-00.000069000000,   0.11200,
,,,-00.000068900000,   0.11200,
,,,-00.000068800000,   0.11200,
,,,-00.000068700000,   0.11200,
,,,-00.000068600000,   0.11200,
,,,-00.000068500000,   0.10400,
,,,-00.000068400000,   0.10400,
,,,-00.000068300000,   0.10400,
,,,-00.000068200000,   0.10400,
,,,-00.000068100000,   0.10400,
,,,-00.000068000000,   0.10400,
,,,-00.000067900000,   0.10400,
,,,-00.000067800000,   0.10400,
,,,-00.000067700000,   0.10400,
,,,-00.000067600000,   0.09600,
,,,-00.000067500000,   0.09600,
,,,-00.000067400000,   0.09600,
,,,-00.000067300000,   0.09600,
,,,-00.000067200000,   0.09600,
,,,-00.000067100000,   0.09600,
,,,-00.000067000000,   0.09600,
,,,-00.000066900000,   0.09600,
,,,-00.000066800000,   0.09600,
,,,-00.000066700000,   0.09600,
,,,-00.000066600000,   0.08800,
,,,-00.000066500000,   0.08800,
,,,-00.000066400000,   0.08800,
,,,-00.000066300000,   0.08800,
,,,-00.000066200000,   0.08800,
,,,-00.000066100000,   0.08800,
,,,-00.000066000000,   0.08800,
,,,-00.000065900000,   0.08800,
,,,-00.000065800000,   0.08800,
,,,-00.000065700000,   0.08000,
,,,-00.000065600000,   0.08000,
,,,-00.000065500000,   0.08000,
,,,-00.000065400000,   0.08000,
,,,-00.000065300000,   0.08000,
,,,-00.000065200000,   0.08000,
,,,-00.000065100000,   0.08000,
,,,-00.000065000000,   0.08000,
,,,-00.000064900000,   0.07200,
,,,-00.000064800000,   0.07200,
,,,-00.000064700000,   0.07200,
,,,-00.000064600000,   0.07200,
,,,-00.000064500000,   0.07200,
,,,-00.000064400000,   0.07200,
,,,-00.000064300000,   0.07200,
,,,-00.000064200000,   0.07200,
,,,-00.000064100000,   0.07200,
,,,-00.000064000000,   0.06400,
,,,-00.000063900000,   0.06400,
,,,-00.000063800000,   0.06400,
,,,-00.000063700000,   0.06400,
,,,-00.000063600000,   0.06400,
,,,-00.000063500000,   0.06400,
,,,-00.000063400000,   0.06400,
,,,-00.000063300000,   0.05600,
,,,-00.000063200000,   0.06400,
,,,-00.000063100000,   0.05600,
,,,-00.000063000000,   0.05600,
,,,-00.000062900000,   0.05600,
,,,-00.000062800000,   0.05600,
,,,-00.000062700000,   0.05600,
,,,-00.000062600000,   0.05600,
,,,-00.000062500000,   0.05600,
,,,-00.000062400000,   0.05600,
,,,-00.000062300000,   0.04800,
,,,-00.000062200000,   0.04800,
,,,-00.000062100000,   0.04800,
,,,-00.000062000000,   0.04800,
,,,-00.000061900000,   0.04800,
,,,-00.000061800000,   0.04800,
,,,-00.000061700000,   0.04000,
,,,-00.000061600000,   0.04800,
,,,-00.000061500000,   0.04000,
,,,-00.000061400000,   0.04000,
,,,-00.000061300000,   0.04000,
,,,-00.000061200000,   0.04000,
,,,-00.000061100000,   0.04000,
,,,-00.000061000000,   0.04000,
,,,-00.000060900000,   0.04000,
,,,-00.000060800000,   0.03200,
,,,-00.000060700000,   0.03200,
,,,-00.000060600000,   0.03200,
,,,-00.000060500000,   0.03200,
,,,-00.000060400000,   0.03200,
,,,-00.000060300000,   0.03200,
,,,-00.000060200000,   0.03200,
,,,-00.000060100000,   0.02400,
,,,-00.000060000000,   0.02400,
,,,-00.000059900000,   0.02400,
,,,-00.000059800000,   0.02400,
,,,-00.000059700000,   0.02400,
,,,-00.000059600000,   0.02400,
,,,-00.000059500000,   0.02400,
,,,-00.000059400000,   0.02400,
,,,-00.000059300000,   0.02400,
,,,-00.000059200000,   0.01600,
,,,-00.000059100000,   0.01600,
,,,-00.000059000000,   0.01600,
,,,-00.000058900000,   0.01600,
,,,-00.000058800000,   0.01600,
,,,-00.000058700000,   0.01600,
,,,-00.000058600000,   0.01600,
,,,-00.000058500000,   0.01600,
,,,-00.000058400000,   0.01600,
,,,-00.000058300000,   0.00800,
,,,-00.000058200000,   0.00800,
,,,-00.000058100000,   0.00800,
,,,-00.000058000000,   0.00800,
,,,-00.000057900000,   0.00800,
,,,-00.000057800000,   0.00800,
,,,-00.000057700000,   0.00000,
,,,-00.000057600000,   0.00000,
,,,-00.000057500000,   0.00000,
,,,-00.000057400000,   0.00000,
,,,-00.000057300000,   0.00000,
,,,-00.000057200000,   0.00000,
,,,-00.000057100000,   0.00000,
,,,-00.000057000000,   0.00000,
,,,-00.000056900000,   0.00000,
,,,-00.000056800000,  -0.00800,
,,,-00.000056700000,  -0.00800,
,,,-00.000056600000,  -0.00800,
,,,-00.000056500000,  -0.00800,
,,,-00.000056400000,  -0.00800,
,,,-00.000056300000,  -0.00800,
,,,-00.000056200000,  -0.01600,
,,,-00.000056100000,  -0.01600,
,,,-00.000056000000,  -0.01600,
,,,-00.000055900000,  -0.01600,
,,,-00.000055800000,  -0.01600,
,,,-00.000055700000,  -0.01600,
,,,-00.000055600000,  -0.01600,
,,,-00.000055500000,  -0.01600,
,,,-00.000055400000,  -0.01600,
,,,-00.000055300000,  -0.02400,
,,,-00.000055200000,  -0.02400,
,,,-00.000055100000,  -0.02400,
,,,-00.000055000000,  -0.02400,
,,,-00.000054900000,  -0.02400,
,,,-00.000054800000,  -0.02400,
,,,-00.000054700000,  -0.02400,
,,,-00.000054600000,  -0.03200,
,,,-00.000054500000,  -0.03200,
,,,-00.000054400000,  -0.03200,
,,,-00.000054300000,  -0.03200,
,,,-00.000054200000,  -0.03200,
,,,-00.000054100000,  -0.03200,
,,,-00.000054000000,  -0.03200,
,,,-00.000053900000,  -0.03200,
,,,-00.000053800000,  -0.04000,
,,,-00.000053700000,  -0.04000,
,,,-00.000053600000,  -0.04000,
,,,-00.000053500000,  -0.04000,
,,,-00.000053400000,  -0.04000,
,,,-00.000053300000,  -0.04000,
,,,-00.000053200000,  -0.04000,
,,,-00.000053100000,  -0.04800,
,,,-00.000053000000,  -0.04800,
,,,-00.000052900000,  -0.04800,
,,,-00.000052800000,  -0.04800,
,,,-00.000052700000,  -0.04800,
,,,-00.000052600000,  -0.04800,
,,,-00.000052500000,  -0.04800,
,,,-00.000052400000,  -0.04800,
,,,-00.000052300000,  -0.05600,
,,,-00.000052200000,  -0.05600,
,,,-00.000052100000,  -0.05600,
,,,-00.000052000000,  -0.05600,
,,,-00.000051900000,  -0.05600,
,,,-00.000051800000,  -0.05600,
,,,-00.000051700000,  -0.05600,
,,,-00.000051600000,  -0.05600,
,,,-00.000051500000,  -0.06400,
,,,-00.000051400000,  -0.06400,
,,,-00.000051300000,  -0.06400,
,,,-00.000051200000,  -0.06400,
,,,-00.000051100000,  -0.06400,
,,,-00.000051000000,  -0.06400,
,,,-00.000050900000,  -0.06400,
,,,-00.000050800000,  -0.06400,
,,,-00.000050700000,  -0.06400,
,,,-00.000050600000,  -0.07200,
,,,-00.000050500000,  -0.07200,
,,,-00.000050400000,  -0.07200,
,,,-00.000050300000,  -0.07200,
,,,-00.000050200000,  -0.07200,
,,,-00.000050100000,  -0.07200,
,,,-00.000050000000,  -0.07200,
,,,-00.000049900000,  -0.07200,
,,,-00.000049800000,  -0.07200,
,,,-00.000049700000,  -0.08000,
,,,-00.000049600000,  -0.08000,
,,,-00.000049500000,  -0.08000,
,,,-00.000049400000,  -0.08000,
,,,-00.000049300000,  -0.08000,
,,,-00.000049200000,  -0.08000,
,,,-00.000049100000,  -0.08000,
,,,-00.000049000000,  -0.08000,
,,,-00.000048900000,  -0.08800,
,,,-00.000048800000,  -0.08800,
,,,-00.000048700000,  -0.08800,
,,,-00.000048600000,  -0.08800,
,,,-00.000048500000,  -0.08800,
,,,-00.000048400000,  -0.08800,
,,,-00.000048300000,  -0.08800,
,,,-00.000048200000,  -0.08800,
,,,-00.000048100000,  -0.08800,
,,,-00.000048000000,  -0.08800,
,,,-00.000047900000,  -0.09600,
,,,-00.000047800000,  -0.09600,
,,,-00.000047700000,  -0.09600,
,,,-00.000047600000,  -0.09600,
,,,-00.000047500000,  -0.09600,
,,,-00.000047400000,  -0.09600,
,,,-00.000047300000,  -0.09600,
,,,-00.000047200000,  -0.09600,
,,,-00.000047100000,  -0.09600,
,,,-00.000047000000,  -0.09600,
,,,-00.000046900000,  -0.10400,
,,,-00.000046800000,  -0.10400,
,,,-00.000046700000,  -0.10400,
,,,-00.000046600000,  -0.10400,
,,,-00.000046500000,  -0.10400,
,,,-00.000046400000,  -0.10400,
,,,-00.000046300000,  -0.10400,
,,,-00.000046200000,  -0.10400,
,,,-00.000046100000,  -0.10400,
,,,-00.000046000000,  -0.10400,
,,,-00.000045900000,  -0.11200,
,,,-00.000045800000,  -0.11200,
,,,-00.000045700000,  -0.11200,
,,,-00.000045600000,  -0.11200,
,,,-00.000045500000,  -0.11200,
,,,-00.000045400000,  -0.11200,
,,,-00.000045300000,  -0.11200,
,,,-00.000045200000,  -0.11200,
,,,-00.000045100000,  -0.11200,
,,,-00.000045000000,  -0.11200,
,,,-00.000044900000,  -0.12000,
,,,-00.000044800000,  -0.12000,
,,,-00.000044700000,  -0.12000,
,,,-00.000044600000,  -0.12000,
,,,-00.000044500000,  -0.12000,
,,,-00.000044400000,  -0.12000,
,,,-00.000044300000,  -0.12000,
,,,-00.000044200000,  -0.12000,
,,,-00.000044100000,  -0.12000,
,,,-00.000044000000,  -0.12000,
,,,-00.000043900000,  -0.12000,
,,,-00.000043800000,  -0.12000,
,,,-00.000043700000,  -0.12800,
,,,-00.000043600000,  -0.12800,
,,,-00.000043500000,  -0.12800,
,,,-00.000043400000,  -0.12800,
,,,-00.000043300000,  -0.12800,
,,,-00.000043200000,  -0.12800,
,,,-00.000043100000,  -0.12800,
,,,-00.000043000000,  -0.12800,
,,,-00.000042900000,  -0.12800,
,,,-00.000042800000,  -0.12800,
,,,-00.000042700000,  -0.12800,
,,,-00.000042600000,  -0.12800,
,,,-00.000042500000,  -0.13600,
,,,-00.000042400000,  -0.13600,
,,,-00.000042300000,  -0.13600,
,,,-00.000042200000,  -0.13600,
,,,-00.000042100000,  -0.13600,
,,,-00.000042000000,  -0.13600,
,,,-00.000041900000,  -0.13600,
,,,-00.000041800000,  -0.13600,
,,,-00.000041700000,  -0.13600,
,,,-00.000041600000,  -0.13600,
,,,-00.000041500000,  -0.13600,
,,,-00.000041400000,  -0.13600,
,,,-00.000041300000,  -0.13600,
,,,-00.000041200000,  -0.13600,
,,,-00.000041100000,  -0.13600,
,,,-00.000041000000,  -0.14400,
,,,-00.000040900000,  -0.14400,
,,,-00.000040800000,  -0.14400,
,,,-00.000040700000,  -0.14400,
,,,-00.000040600000,  -0.14400,
,,,-00.000040500000,  -0.14400,
,,,-00.000040400000,  -0.14400,
,,,-00.000040300000,  -0.14400,
,,,-00.000040200000,  -0.14400,
,,,-00.000040100000,  -0.14400,
,,,-00.000040000000,  -0.14400,
,,,-00.000039900000,  -0.14400,
,,,-00.000039800000,  -0.14400,
,,,-00.000039700000,  -0.14400,
,,,-00.000039600000,  -0.14400,
,,,-00.000039500000,  -0.15200,
,,,-00.000039400000,  -0.14400,
,,,-00.000039300000,  -0.14400,
,,,-00.000039200000,  -0.15200,
,,,-00.000039100000,  -0.15200,
,,,-00.000039000000,  -0.15200,
,,,-00.000038900000,  -0.15200,
,,,-00.000038800000,  -0.15200,
,,,-00.000038700000,  -0.15200,
,,,-00.000038600000,  -0.15200,
,,,-00.000038500000,  -0.15200,
,,,-00.000038400000,  -0.15200,
,,,-00.000038300000,  -0.15200,
,,,-00.000038200000,  -0.15200,
,,,-00.000038100000,  -0.15200,
,,,-00.000038000000,  -0.15200,
,,,-00.000037900000,  -0.15200,
,,,-00.000037800000,  -0.15200,
,,,-00.000037700000,  -0.15200,
,,,-00.000037600000,  -0.15200,
,,,-00.000037500000,  -0.15200,
,,,-00.000037400000,  -0.15200,
,,,-00.000037300000,  -0.15200,
,,,-00.000037200000,  -0.15200,
,,,-00.000037100000,  -0.16000,
,,,-00.000037000000,  -0.16000,
,,,-00.000036900000,  -0.16000,
,,,-00.000036800000,  -0.16000,
,,,-00.000036700000,  -0.16000,
,,,-00.000036600000,  -0.16000,
,,,-00.000036500000,  -0.16000,
,,,-00.000036400000,  -0.16000,
,,,-00.000036300000,  -0.16000,
,,,-00.000036200000,  -0.16000,
,,,-00.000036100000,  -0.16000,
,,,-00.000036000000,  -0.16000,
,,,-00.000035900000,  -0.16000,
,,,-00.000035800000,  -0.16000,
,,,-00.000035700000,  -0.16000,
,,,-00.000035600000,  -0.16000,
,,,-00.000035500000,  -0.16000,
,,,-00.000035400000,  -0.16000,
,,,-00.000035300000,  -0.16000,
,,,-00.000035200000,  -0.16000,
,,,-00.000035100000,  -0.16000,
,,,-00.000035000000,  -0.16000,
,,,-00.000034900000,  -0.16000,
,,,-00.000034800000,  -0.16000,
,,,-00.000034700000,  -0.16000,
,,,-00.000034600000,  -0.16000,
,,,-00.000034500000,  -0.16000,
,,,-00.000034400000,  -0.16000,
,,,-00.000034300000,  -0.16000,
,,,-00.000034200000,  -0.16000,
,,,-00.000034100000,  -0.16000,
,,,-00.000034000000,  -0.16000,
,,,-00.000033900000,  -0.16000,
,,,-00.000033800000,  -0.16000,
,,,-00.000033700000,  -0.16000,
,,,-00.000033600000,  -0.16000,
,,,-00.000033500000,  -0.16000,
,,,-00.000033400000,  -0.16000,
,,,-00.000033300000,  -0.16000,
,,,-00.000033200000,  -0.16000,
,,,-00.000033100000,  -0.16000,
,,,-00.000033000000,  -0.16000,
,,,-00.000032900000,  -0.16000,
,,,-00.000032800000,  -0.16000,
,,,-00.000032700000,  -0.16000,
,,,-00.000032600000,  -0.16000,
,,,-00.000032500000,  -0.16000,
,,,-00.000032400000,  -0.16000,
,,,-00.000032300000,  -0.16000,
,,,-00.000032200000,  -0.16000,
,,,-00.000032100000,  -0.16000,
,,,-00.000032000000,  -0.16000,
,,,-00.000031900000,  -0.16000,
,,,-00.000031800000,  -0.16000,
,,,-00.000031700000,  -0.16000,
,,,-00.000031600000,  -0.16000,
,,,-00.000031500000,  -0.16000,
,,,-00.000031400000,  -0.16000,
,,,-00.000031300000,  -0.16000,
,,,-00.000031200000,  -0.16000,
,,,-00.000031100000,  -0.16000,
,,,-00.000031000000,  -0.16000,
,,,-00.000030900000,  -0.16000,
,,,-00.000030800000,  -0.16000,
,,,-00.000030700000,  -0.16000,
,,,-00.000030600000,  -0.16000,
,,,-00.000030500000,  -0.16000,
,,,-00.000030400000,  -0.16000,
,,,-00.000030300000,  -0.16000,
,,,-00.000030200000,  -0.16000,
,,,-00.000030100000,  -0.16000,
,,,-00.000030000000,  -0.16000,
,,,-00.000029900000,  -0.16000,
,,,-00.000029800000,  -0.16000,
,,,-00.000029700000,  -0.16000,
,,,-00.000029600000,  -0.16000,
,,,-00.000029500000,  -0.16000,
,,,-00.000029400000,  -0.16000,
,,,-00.000029300000,  -0.16000,
,,,-00.000029200000,  -0.16000,
,,,-00.000029100000,  -0.16000,
,,,-00.000029000000,  -0.16000,
,,,-00.000028900000,  -0.16000,
,,,-00.000028800000,  -0.16000,
,,,-00.000028700000,  -0.15200,
,,,-00.000028600000,  -0.15200,
,,,-00.000028500000,  -0.16000,
,,,-00.000028400000,  -0.16000,
,,,-00.000028300000,  -0.15200,
,,,-00.000028200000,  -0.15200,
,,,-00.000028100000,  -0.15200,
,,,-00.000028000000,  -0.15200,
,,,-00.000027900000,  -0.15200,
,,,-00.000027800000,  -0.15200,
,,,-00.000027700000,  -0.15200,
,,,-00.000027600000,  -0.15200,
,,,-00.000027500000,  -0.15200,
,,,-00.000027400000,  -0.15200,
,,,-00.000027300000,  -0.15200,
,,,-00.000027200000,  -0.15200,
,,,-00.000027100000,  -0.15200,
,,,-00.000027000000,  -0.15200,
,,,-00.000026900000,  -0.15200,
,,,-00.000026800000,  -0.15200,
,,,-00.000026700000,  -0.15200,
,,,-00.000026600000,  -0.15200,
,,,-00.000026500000,  -0.15200,
,,,-00.000026400000,  -0.15200,
,,,-00.000026300000,  -0.15200,
,,,-00.000026200000,  -0.14400,
,,,-00.000026100000,  -0.14400,
,,,-00.000026000000,  -0.14400,
,,,-00.000025900000,  -0.14400,
,,,-00.000025800000,  -0.14400,
,,,-00.000025700000,  -0.14400,
,,,-00.000025600000,  -0.14400,
,,,-00.000025500000,  -0.14400,
,,,-00.000025400000,  -0.14400,
,,,-00.000025300000,  -0.14400,
,,,-00.000025200000,  -0.14400,
,,,-00.000025100000,  -0.14400,
,,,-00.000025000000,  -0.14400,
,,,-00.000024900000,  -0.14400,
,,,-00.000024800000,  -0.14400,
,,,-00.000024700000,  -0.14400,
,,,-00.000024600000,  -0.14400,
,,,-00.000024500000,  -0.13600,
,,,-00.000024400000,  -0.13600,
,,,-00.000024300000,  -0.13600,
,,,-00.000024200000,  -0.13600,
,,,-00.000024100000,  -0.13600,
,,,-00.000024000000,  -0.13600,
,,,-00.000023900000,  -0.13600,
,,,-00.000023800000,  -0.13600,
,,,-00.000023700000,  -0.13600,
,,,-00.000023600000,  -0.13600,
,,,-00.000023500000,  -0.13600,
,,,-00.000023400000,  -0.13600,
,,,-00.000023300000,  -0.13600,
,,,-00.000023200000,  -0.12800,
,,,-00.000023100000,  -0.13600,
,,,-00.000023000000,  -0.12800,
,,,-00.000022900000,  -0.12800,
,,,-00.000022800000,  -0.12800,
,,,-00.000022700000,  -0.12800,
,,,-00.000022600000,  -0.12800,
,,,-00.000022500000,  -0.12800,
,,,-00.000022400000,  -0.12800,
,,,-00.000022300000,  -0.12800,
,,,-00.000022200000,  -0.12800,
,,,-00.000022100000,  -0.12800,
,,,-00.000022000000,  -0.12800,
,,,-00.000021900000,  -0.12000,
,,,-00.000021800000,  -0.12000,
,,,-00.000021700000,  -0.12000,
,,,-00.000021600000,  -0.12000,
,,,-00.000021500000,  -0.12000,
,,,-00.000021400000,  -0.12000,
,,,-00.000021300000,  -0.12000,
,,,-00.000021200000,  -0.12000,
,,,-00.000021100000,  -0.12000,
,,,-00.000021000000,  -0.12000,
,,,-00.000020900000,  -0.12000,
,,,-00.000020800000,  -0.11200,
,,,-00.000020700000,  -0.12000,
,,,-00.000020600000,  -0.11200,
,,,-00.000020500000,  -0.11200,
,,,-00.000020400000,  -0.11200,
,,,-00.000020300000,  -0.11200,
,,,-00.000020200000,  -0.11200,
,,,-00.000020100000,  -0.11200,
,,,-00.000020000000,  -0.11200,
,,,-00.000019900000,  -0.11200,
,,,-00.000019800000,  -0.11200,
,,,-00.000019700000,  -0.10400,
,,,-00.000019600000,  -0.10400,
,,,-00.000019500000,  -0.10400,
,,,-00.000019400000,  -0.10400,
,,,-00.000019300000,  -0.10400,
,,,-00.000019200000,  -0.10400,
,,,-00.000019100000,  -0.10400,
,,,-00.000019000000,  -0.10400,
,,,-00.000018900000,  -0.10400,
,,,-00.000018800000,  -0.10400,
,,,-00.000018700000,  -0.10400,
,,,-00.000018600000,  -0.10400,
,,,-00.000018500000,  -0.10400,
,,,-00.000018400000,  -0.09600,
,,,-00.000018300000,  -0.09600,
,,,-00.000018200000,  -0.09600,
,,,-00.000018100000,  -0.09600,
,,,-00.000018000000,  -0.09600,
,,,-00.000017900000,  -0.09600,
,,,-00.000017800000,  -0.08800,
,,,-00.000017700000,  -0.08800,
,,,-00.000017600000,  -0.08800,
,,,-00.000017500000,  -0.08800,
,,,-00.000017400000,  -0.08800,
,,,-00.000017300000,  -0.08800,
,,,-00.000017200000,  -0.08800,
,,,-00.000017100000,  -0.08800,
,,,-00.000017000000,  -0.08800,
,,,-00.000016900000,  -0.08800,
,,,-00.000016800000,  -0.08800,
,,,-00.000016700000,  -0.08000,
,,,-00.000016600000,  -0.08000,
,,,-00.000016500000,  -0.08000,
,,,-00.000016400000,  -0.08000,
,,,-00.000016300000,  -0.08000,
,,,-00.000016200000,  -0.08000,
,,,-00.000016100000,  -0.08000,
,,,-00.000016000000,  -0.08000,
,,,-00.000015900000,  -0.08000,
,,,-00.000015800000,  -0.07200,
,,,-00.000015700000,  -0.07200,
,,,-00.000015600000,  -0.07200,
,,,-00.000015500000,  -0.07200,
,,,-00.000015400000,  -0.07200,
,,,-00.000015300000,  -0.07200,
,,,-00.000015200000,  -0.07200,
,,,-00.000015100000,  -0.07200,
,,,-00.000015000000,  -0.07200,
,,,-00.000014900000,  -0.07200,
,,,-00.000014800000,  -0.06400,
,,,-00.000014700000,  -0.06400,
,,,-00.000014600000,  -0.06400,
,,,-00.000014500000,  -0.06400,
,,,-00.000014400000,  -0.06400,
,,,-00.000014300000,  -0.06400,
,,,-00.000014200000,  -0.06400,
,,,-00.000014100000,  -0.06400,
,,,-00.000014000000,  -0.05600,
,,,-00.000013900000,  -0.05600,
,,,-00.000013800000,  -0.05600,
,,,-00.000013700000,  -0.05600,
,,,-00.000013600000,  -0.05600,
,,,-00.000013500000,  -0.05600,
,,,-00.000013400000,  -0.05600,
,,,-00.000013300000,  -0.05600,
,,,-00.000013200000,  -0.04800,
,,,-00.000013100000,  -0.04800,
,,,-00.000013000000,  -0.04800,
,,,-00.000012900000,  -0.04800,
,,,-00.000012800000,  -0.04800,
,,,-00.000012700000,  -0.04800,
,,,-00.000012600000,  -0.04800,
,,,-00.000012500000,  -0.04000,
,,,-00.000012400000,  -0.04000,
,,,-00.000012300000,  -0.04000,
,,,-00.000012200000,  -0.04000,
,,,-00.000012100000,  -0.04000,
,,,-00.000012000000,  -0.04000,
,,,-00.000011900000,  -0.04000,
,,,-00.000011800000,  -0.04000,
,,,-00.000011700000,  -0.03200,
,,,-00.000011600000,  -0.03200,
,,,-00.000011500000,  -0.03200,
,,,-00.000011400000,  -0.03200,
,,,-00.000011300000,  -0.03200,
,,,-00.000011200000,  -0.03200,
,,,-00.000011100000,  -0.03200,
,,,-00.000011000000,  -0.02400,
,,,-00.000010900000,  -0.03200,
,,,-00.000010800000,  -0.02400,
,,,-00.000010700000,  -0.02400,
,,,-00.000010600000,  -0.02400,
,,,-00.000010500000,  -0.02400,
,,,-00.000010400000,  -0.02400,
,,,-00.000010300000,  -0.02400,
,,,-00.000010200000,  -0.02400,
,,,-00.000010100000,  -0.01600,
,,,-00.000010000000,  -0.01600,
,,,-00.000009900000,  -0.01600,
,,,-00.000009800000,  -0.01600,
,,,-00.000009700000,  -0.01600,
,,,-00.000009600000,  -0.01600,
,,,-00.000009500000,  -0.01600,
,,,-00.000009400000,  -0.01600,
,,,-00.000009300000,  -0.00800,
,,,-00.000009200000,  -0.00800,
,,,-00.000009100000,  -0.00800,
,,,-00.000009000000,  -0.00800,
,,,-00.000008900000,  -0.00800,
,,,-00.000008800000,  -0.00800,
,,,-00.000008700000,  -0.00800,
,,,-00.000008600000,  -0.00800,
,,,-00.000008500000,   0.00000,
,,,-00.000008400000,   0.00000,
,,,-00.000008300000,   0.00000,
,,,-00.000008200000,   0.00000,
,,,-00.000008100000,   0.00000,
,,,-00.000008000000,   0.00000,
,,,-00.000007900000,   0.00000,
,,,-00.000007800000,   0.00800,
,,,-00.000007700000,   0.00800,
,,,-00.000007600000,   0.00800,
,,,-00.000007500000,   0.00800,
,,,-00.000007400000,   0.00800,
,,,-00.000007300000,   0.00800,
,,,-00.000007200000,   0.00800,
,,,-00.000007100000,   0.01600,
,,,-00.000007000000,   0.00800,
,,,-00.000006900000,   0.01600,
,,,-00.000006800000,   0.01600,
,,,-00.000006700000,   0.01600,
,,,-00.000006600000,   0.01600,
,,,-00.000006500000,   0.01600,
,,,-00.000006400000,   0.02400,
,,,-00.000006300000,   0.01600,
,,,-00.000006200000,   0.02400,
,,,-00.000006100000,   0.02400,
,,,-00.000006000000,   0.02400,
,,,-00.000005900000,   0.02400,
,,,-00.000005800000,   0.02400,
,,,-00.000005700000,   0.02400,
,,,-00.000005600000,   0.02400,
,,,-00.000005500000,   0.03200,
,,,-00.000005400000,   0.03200,
,,,-00.000005300000,   0.03200,
,,,-00.000005200000,   0.03200,
,,,-00.000005100000,   0.03200,
,,,-00.000005000000,   0.03200,
,,,-00.000004900000,   0.03200,
,,,-00.000004800000,   0.03200,
,,,-00.000004700000,   0.04000,
,,,-00.000004600000,   0.04000,
,,,-00.000004500000,   0.04000,
,,,-00.000004400000,   0.04000,
,,,-00.000004300000,   0.04000,
,,,-00.000004200000,   0.04000,
,,,-00.000004100000,   0.04000,
,,,-00.000004000000,   0.04800,
,,,-00.000003900000,   0.04000,
,,,-00.000003800000,   0.04800,
,,,-00.000003700000,   0.04800,
,,,-00.000003600000,   0.04800,
,,,-00.000003500000,   0.04800,
,,,-00.000003400000,   0.04800,
,,,-00.000003300000,   0.04800,
,,,-00.000003200000,   0.05600,
,,,-00.000003100000,   0.05600,
,,,-00.000003000000,   0.05600,
,,,-00.000002900000,   0.05600,
,,,-00.000002800000,   0.05600,
,,,-00.000002700000,   0.05600,
,,,-00.000002600000,   0.05600,
,,,-00.000002500000,   0.05600,
,,,-00.000002400000,   0.06400,
,,,-00.000002300000,   0.06400,
,,,-00.000002200000,   0.06400,
,,,-00.000002100000,   0.06400,
,,,-00.000002000000,   0.06400,
,,,-00.000001900000,   0.06400,
,,,-00.000001800000,   0.06400,
,,,-00.000001700000,   0.06400,
,,,-00.000001600000,   0.07200,
,,,-00.000001500000,   0.07200,
,,,-00.000001400000,   0.07200,
,,,-00.000001300000,   0.07200,
,,,-00.000001200000,   0.07200,
,,,-00.000001100000,   0.07200,
,,,-00.000001000000,   0.07200,
,,,-00.000000900000,   0.07200,
,,,-00.000000800000,   0.07200,
,,,-00.000000700000,   0.08000,
,,,-00.000000600000,   0.08000,
,,,-00.000000500000,   0.08000,
,,,-00.000000400000,   0.08000,
,,,-00.000000300000,   0.08000,
,,,-00.000000200000,   0.08000,
,,,-00.000000100000,   0.08000,
,,,-00.000000000000,   0.08000,
,,,00.000000100000,   0.08000,
,,,00.000000200000,   0.08800,
,,,00.000000300000,   0.08800,
,,,00.000000400000,   0.08800,
,,,00.000000500000,   0.08800,
,,,00.000000600000,   0.08800,
,,,00.000000700000,   0.08800,
,,,00.000000800000,   0.08800,
,,,00.000000900000,   0.08800,
,,,00.000001000000,   0.09600,
,,,00.000001100000,   0.08800,
,,,00.000001200000,   0.09600,
,,,00.000001300000,   0.09600,
,,,00.000001400000,   0.09600,
,,,00.000001500000,   0.09600,
,,,00.000001600000,   0.09600,
,,,00.000001700000,   0.09600,
,,,00.000001800000,   0.09600,
,,,00.000001900000,   0.09600,
,,,00.000002000000,   0.10400,
,,,00.000002100000,   0.10400,
,,,00.000002200000,   0.10400,
,,,00.000002300000,   0.10400,
,,,00.000002400000,   0.10400,
,,,00.000002500000,   0.10400,
,,,00.000002600000,   0.10400,
,,,00.000002700000,   0.10400,
,,,00.000002800000,   0.10400,
,,,00.000002900000,   0.11200,
,,,00.000003000000,   0.11200,
,,,00.000003100000,   0.11200,
,,,00.000003200000,   0.11200,
,,,00.000003300000,   0.11200,
,,,00.000003400000,   0.11200,
,,,00.000003500000,   0.11200,
,,,00.000003600000,   0.11200,
,,,00.000003700000,   0.11200,
,,,00.000003800000,   0.11200,
,,,00.000003900000,   0.11200,
,,,00.000004000000,   0.12000,
,,,00.000004100000,   0.12000,
,,,00.000004200000,   0.12000,
,,,00.000004300000,   0.12000,
,,,00.000004400000,   0.12000,
,,,00.000004500000,   0.12000,
,,,00.000004600000,   0.12000,
,,,00.000004700000,   0.12000,
,,,00.000004800000,   0.12000,
,,,00.000004900000,   0.12000,
,,,00.000005000000,   0.12800,
,,,00.000005100000,   0.12800,
,,,00.000005200000,   0.12800,
,,,00.000005300000,   0.12800,
,,,00.000005400000,   0.12800,
,,,00.000005500000,   0.12800,
,,,00.000005600000,   0.12800,
,,,00.000005700000,   0.12800,
,,,00.000005800000,   0.12800,
,,,00.000005900000,   0.12800,
,,,00.000006000000,   0.12800,
,,,00.000006100000,   0.12800,
,,,00.000006200000,   0.13600,
,,,00.000006300000,   0.13600,
,,,00.000006400000,   0.13600,
,,,00.000006500000,   0.13600,
,,,00.000006600000,   0.13600,
,,,00.000006700000,   0.13600,
,,,00.000006800000,   0.13600,
,,,00.000006900000,   0.13600,
,,,00.000007000000,   0.13600,
,,,00.000007100000,   0.13600,
,,,00.000007200000,   0.14400,
,,,00.000007300000,   0.14400,
,,,00.000007400000,   0.14400,
,,,00.000007500000,   0.14400,
,,,00.000007600000,   0.14400,
,,,00.000007700000,   0.14400,
,,,00.000007800000,   0.14400,
,,,00.000007900000,   0.14400,
,,,00.000008000000,   0.14400,
,,,00.000008100000,   0.14400,
,,,00.000008200000,   0.14400,
,,,00.000008300000,   0.14400,
,,,00.000008400000,   0.14400,
,,,00.000008500000,   0.14400,
,,,00.000008600000,   0.14400,
,,,00.000008700000,   0.14400,
,,,00.000008800000,   0.15200,
,,,00.000008900000,   0.15200,
,,,00.000009000000,   0.15200,
,,,00.000009100000,   0.15200,
,,,00.000009200000,   0.15200,
,,,00.000009300000,   0.15200,
,,,00.000009400000,   0.15200,
,,,00.000009500000,   0.15200,
,,,00.000009600000,   0.15200,
,,,00.000009700000,   0.15200,
,,,00.000009800000,   0.15200,
,,,00.000009900000,   0.15200,
,,,00.000010000000,   0.15200,
,,,00.000010100000,   0.15200,
,,,00.000010200000,   0.15200,
,,,00.000010300000,   0.15200,
,,,00.000010400000,   0.15200,
,,,00.000010500000,   0.15200,
,,,00.000010600000,   0.16000,
,,,00.000010700000,   0.15200,
,,,00.000010800000,   0.16000,
,,,00.000010900000,   0.16000,
,,,00.000011000000,   0.16000,
,,,00.000011100000,   0.16000,
,,,00.000011200000,   0.16000,
,,,00.000011300000,   0.16000,
,,,00.000011400000,   0.16000,
,,,00.000011500000,   0.16000,
,,,00.000011600000,   0.16000,
,,,00.000011700000,   0.16000,
,,,00.000011800000,   0.16000,
,,,00.000011900000,   0.16000,
,,,00.000012000000,   0.16000,
,,,00.000012100000,   0.16000,
,,,00.000012200000,   0.16000,
,,,00.000012300000,   0.16000,
,,,00.000012400000,   0.16000,
,,,00.000012500000,   0.16000,
,,,00.000012600000,   0.16000,
,,,00.000012700000,   0.16000,
,,,00.000012800000,   0.16000,
,,,00.000012900000,   0.16000,
,,,00.000013000000,   0.16000,
,,,00.000013100000,   0.16000,
,,,00.000013200000,   0.16800,
,,,00.000013300000,   0.16800,
,,,00.000013400000,   0.16800,
,,,00.000013500000,   0.16800,
,,,00.000013600000,   0.16800,
,,,00.000013700000,   0.16800,
,,,00.000013800000,   0.16800,
,,,00.000013900000,   0.16000,
,,,00.000014000000,   0.16800,
,,,00.000014100000,   0.16800,
,,,00.000014200000,   0.16800,
,,,00.000014300000,   0.16800,
,,,00.000014400000,   0.16800,
,,,00.000014500000,   0.16800,
,,,00.000014600000,   0.16800,
,,,00.000014700000,   0.16800,
,,,00.000014800000,   0.16800,
,,,00.000014900000,   0.16800,
,,,00.000015000000,   0.16800,
,,,00.000015100000,   0.16800,
,,,00.000015200000,   0.16800,
,,,00.000015300000,   0.16800,
,,,00.000015400000,   0.16800,
,,,00.000015500000,   0.16800,
,,,00.000015600000,   0.16800,
,,,00.000015700000,   0.16800,
,,,00.000015800000,   0.16800,
,,,00.000015900000,   0.16800,
,,,00.000016000000,   0.16800,
,,,00.000016100000,   0.16800,
,,,00.000016200000,   0.16800,
,,,00.000016300000,   0.16800,
,,,00.000016400000,   0.16800,
,,,00.000016500000,   0.16800,
,,,00.000016600000,   0.16800,
,,,00.000016700000,   0.16800,
,,,00.000016800000,   0.16800,
,,,00.000016900000,   0.16800,
,,,00.000017000000,   0.16800,
,,,00.000017100000,   0.16800,
,,,00.000017200000,   0.16800,
,,,00.000017300000,   0.16800,
,,,00.000017400000,   0.16800,
,,,00.000017500000,   0.16800,
,,,00.000017600000,   0.16800,
,,,00.000017700000,   0.16800,
,,,00.000017800000,   0.16800,
,,,00.000017900000,   0.16800,
,,,00.000018000000,   0.16800,
,,,00.000018100000,   0.16800,
,,,00.000018200000,   0.16800,
,,,00.000018300000,   0.16800,
,,,00.000018400000,   0.16800,
,,,00.000018500000,   0.16800,
,,,00.000018600000,   0.16800,
,,,00.000018700000,   0.16800,
,,,00.000018800000,   0.16800,
,,,00.000018900000,   0.16800,
,,,00.000019000000,   0.16800,
,,,00.000019100000,   0.16800,
,,,00.000019200000,   0.16800,
,,,00.000019300000,   0.16800,
,,,00.000019400000,   0.16800,
,,,00.000019500000,   0.16800,
,,,00.000019600000,   0.16800,
,,,00.000019700000,   0.16800,
,,,00.000019800000,   0.16800,
,,,00.000019900000,   0.16800,
,,,00.000020000000,   0.16800,
,,,00.000020100000,   0.16800,
,,,00.000020200000,   0.16800,
,,,00.000020300000,   0.16800,
,,,00.000020400000,   0.16800,
,,,00.000020500000,   0.16800,
,,,00.000020600000,   0.16800,
,,,00.000020700000,   0.16800,
,,,00.000020800000,   0.16800,
,,,00.000020900000,   0.16800,
,,,00.000021000000,   0.16000,
,,,00.000021100000,   0.16800,
,,,00.000021200000,   0.16800,
,,,00.000021300000,   0.16000,
,,,00.000021400000,   0.16800,
,,,00.000021500000,   0.16000,
,,,00.000021600000,   0.16000,
,,,00.000021700000,   0.16000,
,,,00.000021800000,   0.16000,
,,,00.000021900000,   0.16000,
,,,00.000022000000,   0.16000,
,,,00.000022100000,   0.16000,
,,,00.000022200000,   0.16000,
,,,00.000022300000,   0.16000,
,,,00.000022400000,   0.16000,
,,,00.000022500000,   0.16000,
,,,00.000022600000,   0.16000,
,,,00.000022700000,   0.16000,
,,,00.000022800000,   0.16000,
,,,00.000022900000,   0.16000,
,,,00.000023000000,   0.16000,
,,,00.000023100000,   0.16000,
,,,00.000023200000,   0.16000,
,,,00.000023300000,   0.16000,
,,,00.000023400000,   0.16000,
,,,00.000023500000,   0.16000,
,,,00.000023600000,   0.15200,
,,,00.000023700000,   0.16000,
,,,00.000023800000,   0.15200,
,,,00.000023900000,   0.15200,
,,,00.000024000000,   0.15200,
,,,00.000024100000,   0.15200,
,,,00.000024200000,   0.15200,
,,,00.000024300000,   0.15200,
,,,00.000024400000,   0.15200,
,,,00.000024500000,   0.15200,
,,,00.000024600000,   0.15200,
,,,00.000024700000,   0.15200,
,,,00.000024800000,   0.15200,
,,,00.000024900000,   0.15200,
,,,00.000025000000,   0.15200,
,,,00.000025100000,   0.15200,
,,,00.000025200000,   0.15200,
,,,00.000025300000,   0.15200,
,,,00.000025400000,   0.15200,
,,,00.000025500000,   0.15200,
,,,00.000025600000,   0.14400,
,,,00.000025700000,   0.14400,
,,,00.000025800000,   0.14400,
,,,00.000025900000,   0.14400,
,,,00.000026000000,   0.14400,
,,,00.000026100000,   0.14400,
,,,00.000026200000,   0.14400,
,,,00.000026300000,   0.14400,
,,,00.000026400000,   0.14400,
,,,00.000026500000,   0.14400,
,,,00.000026600000,   0.14400,
,,,00.000026700000,   0.14400,
,,,00.000026800000,   0.14400,
,,,00.000026900000,   0.13600,
,,,00.000027000000,   0.14400,
,,,00.000027100000,   0.13600,
,,,00.000027200000,   0.13600,
,,,00.000027300000,   0.13600,
,,,00.000027400000,   0.13600,
,,,00.000027500000,   0.13600,
,,,00.000027600000,   0.13600,
,,,00.000027700000,   0.13600,
,,,00.000027800000,   0.13600,
,,,00.000027900000,   0.13600,
,,,00.000028000000,   0.13600,
,,,00.000028100000,   0.13600,
,,,00.000028200000,   0.12800,
,,,00.000028300000,   0.13600,
,,,00.000028400000,   0.12800,
,,,00.000028500000,   0.12800,
,,,00.000028600000,   0.12800,
,,,00.000028700000,   0.12800,
,,,00.000028800000,   0.12800,
,,,00.000028900000,   0.12800,
,,,00.000029000000,   0.12800,
,,,00.000029100000,   0.12800,
,,,00.000029200000,   0.12800,
,,,00.000029300000,   0.12800,
,,,00.000029400000,   0.12800,
,,,00.000029500000,   0.12000,
,,,00.000029600000,   0.12000,
,,,00.000029700000,   0.12000,
,,,00.000029800000,   0.12000,
,,,00.000029900000,   0.12000,
,,,00.000030000000,   0.12000,
,,,00.000030100000,   0.12000,
,,,00.000030200000,   0.12000,
,,,00.000030300000,   0.12000,
,,,00.000030400000,   0.12000,
,,,00.000030500000,   0.12000,
,,,00.000030600000,   0.12000,
,,,00.000030700000,   0.11200,
,,,00.000030800000,   0.11200,
,,,00.000030900000,   0.11200,
,,,00.000031000000,   0.11200,
,,,00.000031100000,   0.11200,
,,,00.000031200000,   0.11200,
,,,00.000031300000,   0.11200,
,,,00.000031400000,   0.11200,
,,,00.000031500000,   0.10400,
,,,00.000031600000,   0.10400,
,,,00.000031700000,   0.10400,
,,,00.000031800000,   0.10400,
,,,00.000031900000,   0.10400,
,,,00.000032000000,   0.10400,
,,,00.000032100000,   0.10400,
,,,00.000032200000,   0.10400,
,,,00.000032300000,   0.10400,
,,,00.000032400000,   0.09600,
,,,00.000032500000,   0.09600,
,,,00.000032600000,   0.09600,
,,,00.000032700000,   0.09600,
,,,00.000032800000,   0.09600,
,,,00.000032900000,   0.09600,
,,,00.000033000000,   0.09600,
,,,00.000033100000,   0.09600,
,,,00.000033200000,   0.09600,
,,,00.000033300000,   0.09600,
,,,00.000033400000,   0.08800,
,,,00.000033500000,   0.09600,
,,,00.000033600000,   0.08800,
,,,00.000033700000,   0.08800,
,,,00.000033800000,   0.08800,
,,,00.000033900000,   0.08800,
,,,00.000034000000,   0.08800,
,,,00.000034100000,   0.08800,
,,,00.000034200000,   0.08000,
,,,00.000034300000,   0.08000,
,,,00.000034400000,   0.08000,
,,,00.000034500000,   0.08000,
,,,00.000034600000,   0.08000,
,,,00.000034700000,   0.08000,
,,,00.000034800000,   0.08000,
,,,00.000034900000,   0.08000,
,,,00.000035000000,   0.08000,
,,,00.000035100000,   0.08000,
,,,00.000035200000,   0.07200,
,,,00.000035300000,   0.07200,
,,,00.000035400000,   0.07200,
,,,00.000035500000,   0.07200,
,,,00.000035600000,   0.07200,
,,,00.000035700000,   0.07200,
,,,00.000035800000,   0.07200,
,,,00.000035900000,   0.07200,
,,,00.000036000000,   0.07200,
,,,00.000036100000,   0.06400,
,,,00.000036200000,   0.06400,
,,,00.000036300000,   0.06400,
,,,00.000036400000,   0.06400,
,,,00.000036500000,   0.06400,
,,,00.000036600000,   0.06400,
,,,00.000036700000,   0.06400,
,,,00.000036800000,   0.05600,
,,,00.000036900000,   0.05600,
,,,00.000037000000,   0.05600,
,,,00.000037100000,   0.05600,
,,,00.000037200000,   0.05600,
,,,00.000037300000,   0.05600,
,,,00.000037400000,   0.05600,
,,,00.000037500000,   0.05600,
,,,00.000037600000,   0.04800,
,,,00.000037700000,   0.04800,
,,,00.000037800000,   0.04800,
,,,00.000037900000,   0.04800,
,,,00.000038000000,   0.04800,
,,,00.000038100000,   0.04800,
,,,00.000038200000,   0.04800,
,,,00.000038300000,   0.04800,
,,,00.000038400000,   0.04000,
,,,00.000038500000,   0.04000,
,,,00.000038600000,   0.04000,
,,,00.000038700000,   0.04000,
,,,00.000038800000,   0.04000,
,,,00.000038900000,   0.04000,
,,,00.000039000000,   0.04000,
,,,00.000039100000,   0.04000,
,,,00.000039200000,   0.03200,
,,,00.000039300000,   0.03200,
,,,00.000039400000,   0.03200,
,,,00.000039500000,   0.03200,
,,,00.000039600000,   0.03200,
,,,00.000039700000,   0.03200,
,,,00.000039800000,   0.03200,
,,,00.000039900000,   0.02400,
,,,00.000040000000,   0.02400,
,,,00.000040100000,   0.02400,
,,,00.000040200000,   0.02400,
,,,00.000040300000,   0.02400,
,,,00.000040400000,   0.02400,
,,,00.000040500000,   0.02400,
,,,00.000040600000,   0.02400,
,,,00.000040700000,   0.01600,
,,,00.000040800000,   0.01600,
,,,00.000040900000,   0.01600,
,,,00.000041000000,   0.01600,
,,,00.000041100000,   0.01600,
,,,00.000041200000,   0.01600,
,,,00.000041300000,   0.01600,
,,,00.000041400000,   0.01600,
,,,00.000041500000,   0.00800,
,,,00.000041600000,   0.00800,
,,,00.000041700000,   0.00800,
,,,00.000041800000,   0.00800,
,,,00.000041900000,   0.00800,
,,,00.000042000000,   0.00800,
,,,00.000042100000,   0.00800,
,,,00.000042200000,   0.00800,
,,,00.000042300000,   0.00000,
,,,00.000042400000,   0.00000,
,,,00.000042500000,   0.00000,
,,,00.000042600000,   0.00000,
,,,00.000042700000,   0.00000,
,,,00.000042800000,   0.00000,
,,,00.000042900000,   0.00000,
,,,00.000043000000,   0.00000,
,,,00.000043100000,  -0.00800,
,,,00.000043200000,  -0.00800,
,,,00.000043300000,  -0.00800,
,,,00.000043400000,  -0.00800,
,,,00.000043500000,  -0.00800,
,,,00.000043600000,  -0.00800,
,,,00.000043700000,  -0.00800,
,,,00.000043800000,  -0.01600,
,,,00.000043900000,  -0.01600,
,,,00.000044000000,  -0.01600,
,,,00.000044100000,  -0.01600,
,,,00.000044200000,  -0.01600,
,,,00.000044300000,  -0.01600,
,,,00.000044400000,  -0.01600,
,,,00.000044500000,  -0.02400,
,,,00.000044600000,  -0.02400,
,,,00.000044700000,  -0.02400,
,,,00.000044800000,  -0.02400,
,,,00.000044900000,  -0.02400,
,,,00.000045000000,  -0.02400,
,,,00.000045100000,  -0.02400,
,,,00.000045200000,  -0.02400,
,,,00.000045300000,  -0.02400,
,,,00.000045400000,  -0.03200,
,,,00.000045500000,  -0.03200,
,,,00.000045600000,  -0.03200,
,,,00.000045700000,  -0.03200,
,,,00.000045800000,  -0.03200,
,,,00.000045900000,  -0.03200,
,,,00.000046000000,  -0.03200,
,,,00.000046100000,  -0.03200,
,,,00.000046200000,  -0.04000,
,,,00.000046300000,  -0.04000,
,,,00.000046400000,  -0.04000,
,,,00.000046500000,  -0.04000,
,,,00.000046600000,  -0.04000,
,,,00.000046700000,  -0.04000,
,,,00.000046800000,  -0.04000,
,,,00.000046900000,  -0.04800,
,,,00.000047000000,  -0.04800,
,,,00.000047100000,  -0.04800,
,,,00.000047200000,  -0.04800,
,,,00.000047300000,  -0.04800,
,,,00.000047400000,  -0.04800,
,,,00.000047500000,  -0.04800,
,,,00.000047600000,  -0.04800,
,,,00.000047700000,  -0.05600,
,,,00.000047800000,  -0.05600,
,,,00.000047900000,  -0.05600,
,,,00.000048000000,  -0.05600,
,,,00.000048100000,  -0.05600,
,,,00.000048200000,  -0.05600,
,,,00.000048300000,  -0.05600,
,,,00.000048400000,  -0.05600,
,,,00.000048500000,  -0.06400,
,,,00.000048600000,  -0.06400,
,,,00.000048700000,  -0.06400,
,,,00.000048800000,  -0.06400,
,,,00.000048900000,  -0.06400,
,,,00.000049000000,  -0.06400,
,,,00.000049100000,  -0.06400,
,,,00.000049200000,  -0.06400,
,,,00.000049300000,  -0.06400,
,,,00.000049400000,  -0.07200,
,,,00.000049500000,  -0.07200,
,,,00.000049600000,  -0.07200,
,,,00.000049700000,  -0.07200,
,,,00.000049800000,  -0.07200,
,,,00.000049900000,  -0.07200,
,,,00.000050000000,  -0.07200,
,,,00.000050100000,  -0.07200,
,,,00.000050200000,  -0.07200,
,,,00.000050300000,  -0.08000,
,,,00.000050400000,  -0.08000,
,,,00.000050500000,  -0.08000,
,,,00.000050600000,  -0.08000,
,,,00.000050700000,  -0.08000,
,,,00.000050800000,  -0.08000,
,,,00.000050900000,  -0.08000,
,,,00.000051000000,  -0.08000,
,,,00.000051100000,  -0.08000,
,,,00.000051200000,  -0.08800,
,,,00.000051300000,  -0.08800,
,,,00.000051400000,  -0.08800,
,,,00.000051500000,  -0.08800,
,,,00.000051600000,  -0.08800,
,,,00.000051700000,  -0.08800,
,,,00.000051800000,  -0.08800,
,,,00.000051900000,  -0.08800,
,,,00.000052000000,  -0.09600,
,,,00.000052100000,  -0.09600,
,,,00.000052200000,  -0.09600,
,,,00.000052300000,  -0.09600,
,,,00.000052400000,  -0.09600,
,,,00.000052500000,  -0.09600,
,,,00.000052600000,  -0.09600,
,,,00.000052700000,  -0.09600,
,,,00.000052800000,  -0.09600,
,,,00.000052900000,  -0.09600,
,,,00.000053000000,  -0.10400,
,,,00.000053100000,  -0.10400,
,,,00.000053200000,  -0.10400,
,,,00.000053300000,  -0.10400,
,,,00.000053400000,  -0.10400,
,,,00.000053500000,  -0.10400,
,,,00.000053600000,  -0.10400,
,,,00.000053700000,  -0.10400,
,,,00.000053800000,  -0.10400,
,,,00.000053900000,  -0.11200,
,,,00.000054000000,  -0.11200,
,,,00.000054100000,  -0.11200,
,,,00.000054200000,  -0.11200,
,,,00.000054300000,  -0.11200,
,,,00.000054400000,  -0.11200,
,,,00.000054500000,  -0.11200,
,,,00.000054600000,  -0.11200,
,,,00.000054700000,  -0.11200,
,,,00.000054800000,  -0.11200,
,,,00.000054900000,  -0.11200,
,,,00.000055000000,  -0.12000,
,,,00.000055100000,  -0.12000,
,,,00.000055200000,  -0.12000,
,,,00.000055300000,  -0.12000,
,,,00.000055400000,  -0.12000,
,,,00.000055500000,  -0.12000,
,,,00.000055600000,  -0.12000,
,,,00.000055700000,  -0.12000,
,,,00.000055800000,  -0.12000,
,,,00.000055900000,  -0.12000,
,,,00.000056000000,  -0.12000,
,,,00.000056100000,  -0.12000,
,,,00.000056200000,  -0.12000,
,,,00.000056300000,  -0.12800,
,,,00.000056400000,  -0.12800,
,,,00.000056500000,  -0.12800,
,,,00.000056600000,  -0.12800,
,,,00.000056700000,  -0.12800,
,,,00.000056800000,  -0.12800,
,,,00.000056900000,  -0.12800,
,,,00.000057000000,  -0.12800,
,,,00.000057100000,  -0.12800,
,,,00.000057200000,  -0.12800,
,,,00.000057300000,  -0.12800,
,,,00.000057400000,  -0.12800,
,,,00.000057500000,  -0.13600,
,,,00.000057600000,  -0.13600,
,,,00.000057700000,  -0.13600,
,,,00.000057800000,  -0.13600,
,,,00.000057900000,  -0.13600,
,,,00.000058000000,  -0.13600,
,,,00.000058100000,  -0.13600,
,,,00.000058200000,  -0.13600,
,,,00.000058300000,  -0.13600,
,,,00.000058400000,  -0.13600,
,,,00.000058500000,  -0.13600,
,,,00.000058600000,  -0.13600,
,,,00.000058700000,  -0.13600,
,,,00.000058800000,  -0.13600,
,,,00.000058900000,  -0.14400,
,,,00.000059000000,  -0.14400,
,,,00.000059100000,  -0.14400,
,,,00.000059200000,  -0.14400,
,,,00.000059300000,  -0.14400,
,,,00.000059400000,  -0.14400,
,,,00.000059500000,  -0.14400,
,,,00.000059600000,  -0.14400,
,,,00.000059700000,  -0.14400,
,,,00.000059800000,  -0.14400,
,,,00.000059900000,  -0.14400,
,,,00.000060000000,  -0.14400,
,,,00.000060100000,  -0.14400,
,,,00.000060200000,  -0.15200,
,,,00.000060300000,  -0.14400,
,,,00.000060400000,  -0.14400,
,,,00.000060500000,  -0.14400,
,,,00.000060600000,  -0.15200,
,,,00.000060700000,  -0.15200,
,,,00.000060800000,  -0.15200,
,,,00.000060900000,  -0.15200,
,,,00.000061000000,  -0.15200,
,,,00.000061100000,  -0.15200,
,,,00.000061200000,  -0.15200,
,,,00.000061300000,  -0.15200,
,,,00.000061400000,  -0.15200,
,,,00.000061500000,  -0.15200,
,,,00.000061600000,  -0.15200,
,,,00.000061700000,  -0.15200,
,,,00.000061800000,  -0.15200,
,,,00.000061900000,  -0.15200,
,,,00.000062000000,  -0.15200,
,,,00.000062100000,  -0.15200,
,,,00.000062200000,  -0.15200,
,,,00.000062300000,  -0.15200,
,,,00.000062400000,  -0.15200,
,,,00.000062500000,  -0.15200,
,,,00.000062600000,  -0.15200,
,,,00.000062700000,  -0.16000,
,,,00.000062800000,  -0.16000,
,,,00.000062900000,  -0.16000,
,,,00.000063000000,  -0.16000,
,,,00.000063100000,  -0.16000,
,,,00.000063200000,  -0.16000,
,,,00.000063300000,  -0.16000,
,,,00.000063400000,  -0.16000,
,,,00.000063500000,  -0.16000,
,,,00.000063600000,  -0.16000,
,,,00.000063700000,  -0.16000,
,,,00.000063800000,  -0.16000,
,,,00.000063900000,  -0.16000,
,,,00.000064000000,  -0.16000,
,,,00.000064100000,  -0.16000,
,,,00.000064200000,  -0.16000,
,,,00.000064300000,  -0.16000,
,,,00.000064400000,  -0.16000,
,,,00.000064500000,  -0.16000,
,,,00.000064600000,  -0.16000,
,,,00.000064700000,  -0.16000,
,,,00.000064800000,  -0.16000,
,,,00.000064900000,  -0.16000,
,,,00.000065000000,  -0.16000,
,,,00.000065100000,  -0.16000,
,,,00.000065200000,  -0.16000,
,,,00.000065300000,  -0.16000,
,,,00.000065400000,  -0.16000,
,,,00.000065500000,  -0.16000,
,,,00.000065600000,  -0.16000,
,,,00.000065700000,  -0.16000,
,,,00.000065800000,  -0.16000,
,,,00.000065900000,  -0.16000,
,,,00.000066000000,  -0.16000,
,,,00.000066100000,  -0.16800,
,,,00.000066200000,  -0.16000,
,,,00.000066300000,  -0.16000,
,,,00.000066400000,  -0.16000,
,,,00.000066500000,  -0.16000,
,,,00.000066600000,  -0.16000,
,,,00.000066700000,  -0.16000,
,,,00.000066800000,  -0.16000,
,,,00.000066900000,  -0.16800,
,,,00.000067000000,  -0.16000,
,,,00.000067100000,  -0.16000,
,,,00.000067200000,  -0.16000,
,,,00.000067300000,  -0.16000,
,,,00.000067400000,  -0.16000,
,,,00.000067500000,  -0.16000,
,,,00.000067600000,  -0.16000,
,,,00.000067700000,  -0.16800,
,,,00.000067800000,  -0.16000,
,,,00.000067900000,  -0.16000,
,,,00.000068000000,  -0.16000,
,,,00.000068100000,  -0.16000,
,,,00.000068200000,  -0.16000,
,,,00.000068300000,  -0.16000,
,,,00.000068400000,  -0.16000,
,,,00.000068500000,  -0.16000,
,,,00.000068600000,  -0.16000,
,,,00.000068700000,  -0.16000,
,,,00.000068800000,  -0.16000,
,,,00.000068900000,  -0.16000,
,,,00.000069000000,  -0.16000,
,,,00.000069100000,  -0.16000,
,,,00.000069200000,  -0.16000,
,,,00.000069300000,  -0.16000,
,,,00.000069400000,  -0.16000,
,,,00.000069500000,  -0.16000,
,,,00.000069600000,  -0.16000,
,,,00.000069700000,  -0.16000,
,,,00.000069800000,  -0.16000,
,,,00.000069900000,  -0.16000,
,,,00.000070000000,  -0.16000,
,,,00.000070100000,  -0.16000,
,,,00.000070200000,  -0.16000,
,,,00.000070300000,  -0.16000,
,,,00.000070400000,  -0.16000,
,,,00.000070500000,  -0.16000,
,,,00.000070600000,  -0.16000,
,,,00.000070700000,  -0.16000,
,,,00.000070800000,  -0.16000,
,,,00.000070900000,  -0.16000,
,,,00.000071000000,  -0.16000,
,,,00.000071100000,  -0.16000,
,,,00.000071200000,  -0.16000,
,,,00.000071300000,  -0.16000,
,,,00.000071400000,  -0.16000,
,,,00.000071500000,  -0.16000,
,,,00.000071600000,  -0.16000,
,,,00.000071700000,  -0.16000,
,,,00.000071800000,  -0.16000,
,,,00.000071900000,  -0.15200,
,,,00.000072000000,  -0.15200,
,,,00.000072100000,  -0.15200,
,,,00.000072200000,  -0.15200,
,,,00.000072300000,  -0.15200,
,,,00.000072400000,  -0.15200,
,,,00.000072500000,  -0.15200,
,,,00.000072600000,  -0.15200,
,,,00.000072700000,  -0.15200,
,,,00.000072800000,  -0.15200,
,,,00.000072900000,  -0.15200,
,,,00.000073000000,  -0.15200,
,,,00.000073100000,  -0.15200,
,,,00.000073200000,  -0.15200,
,,,00.000073300000,  -0.15200,
,,,00.000073400000,  -0.15200,
,,,00.000073500000,  -0.15200,
,,,00.000073600000,  -0.15200,
,,,00.000073700000,  -0.15200,
,,,00.000073800000,  -0.15200,
,,,00.000073900000,  -0.15200,
,,,00.000074000000,  -0.14400,
,,,00.000074100000,  -0.14400,
,,,00.000074200000,  -0.14400,
,,,00.000074300000,  -0.14400,
,,,00.000074400000,  -0.14400,
,,,00.000074500000,  -0.14400,
,,,00.000074600000,  -0.14400,
,,,00.000074700000,  -0.14400,
,,,00.000074800000,  -0.14400,
,,,00.000074900000,  -0.14400,
,,,00.000075000000,  -0.14400,
,,,00.000075100000,  -0.14400,
,,,00.000075200000,  -0.14400,
,,,00.000075300000,  -0.14400,
,,,00.000075400000,  -0.14400,
,,,00.000075500000,  -0.14400,
,,,00.000075600000,  -0.13600,
,,,00.000075700000,  -0.13600,
,,,00.000075800000,  -0.13600,
,,,00.000075900000,  -0.13600,
,,,00.000076000000,  -0.13600,
,,,00.000076100000,  -0.13600,
,,,00.000076200000,  -0.13600,
,,,00.000076300000,  -0.13600,
,,,00.000076400000,  -0.13600,
,,,00.000076500000,  -0.13600,
,,,00.000076600000,  -0.13600,
,,,00.000076700000,  -0.13600,
,,,00.000076800000,  -0.13600,
,,,00.000076900000,  -0.13600,
,,,00.000077000000,  -0.12800,
,,,00.000077100000,  -0.12800,
,,,00.000077200000,  -0.12800,
,,,00.000077300000,  -0.12800,
,,,00.000077400000,  -0.12800,
,,,00.000077500000,  -0.12800,
,,,00.000077600000,  -0.12800,
,,,00.000077700000,  -0.12800,
,,,00.000077800000,  -0.12800,
,,,00.000077900000,  -0.12800,
,,,00.000078000000,  -0.12800,
,,,00.000078100000,  -0.12000,
,,,00.000078200000,  -0.12800,
,,,00.000078300000,  -0.12000,
,,,00.000078400000,  -0.12000,
,,,00.000078500000,  -0.12000,
,,,00.000078600000,  -0.12000,
,,,00.000078700000,  -0.12000,
,,,00.000078800000,  -0.12000,
,,,00.000078900000,  -0.12000,
,,,00.000079000000,  -0.12000,
,,,00.000079100000,  -0.12000,
,,,00.000079200000,  -0.12000,
,,,00.000079300000,  -0.11200,
,,,00.000079400000,  -0.11200,
,,,00.000079500000,  -0.11200,
,,,00.000079600000,  -0.11200,
,,,00.000079700000,  -0.11200,
,,,00.000079800000,  -0.11200,
,,,00.000079900000,  -0.11200,
,,,00.000080000000,  -0.11200,
,,,00.000080100000,  -0.11200,
,,,00.000080200000,  -0.11200,
,,,00.000080300000,  -0.11200,
,,,00.000080400000,  -0.10400,
,,,00.000080500000,  -0.11200,
,,,00.000080600000,  -0.10400,
,,,00.000080700000,  -0.10400,
,,,00.000080800000,  -0.10400,
,,,00.000080900000,  -0.10400,
,,,00.000081000000,  -0.10400,
,,,00.000081100000,  -0.10400,
,,,00.000081200000,  -0.10400,
,,,00.000081300000,  -0.10400,
,,,00.000081400000,  -0.09600,
,,,00.000081500000,  -0.09600,
,,,00.000081600000,  -0.09600,
,,,00.000081700000,  -0.09600,
,,,00.000081800000,  -0.09600,
,,,00.000081900000,  -0.09600,
,,,00.000082000000,  -0.09600,
,,,00.000082100000,  -0.09600,
,,,00.000082200000,  -0.09600,
,,,00.000082300000,  -0.09600,
,,,00.000082400000,  -0.08800,
,,,00.000082500000,  -0.09600,
,,,00.000082600000,  -0.08800,
,,,00.000082700000,  -0.08800,
,,,00.000082800000,  -0.08800,
,,,00.000082900000,  -0.08800,
,,,00.000083000000,  -0.08800,
,,,00.000083100000,  -0.08800,
,,,00.000083200000,  -0.08800,
,,,00.000083300000,  -0.08800,
,,,00.000083400000,  -0.08000,
,,,00.000083500000,  -0.08000,
,,,00.000083600000,  -0.08000,
,,,00.000083700000,  -0.08000,
,,,00.000083800000,  -0.08000,
,,,00.000083900000,  -0.08000,
,,,00.000084000000,  -0.08000,
,,,00.000084100000,  -0.08000,
,,,00.000084200000,  -0.08000,
,,,00.000084300000,  -0.07200,
,,,00.000084400000,  -0.07200,
,,,00.000084500000,  -0.07200,
,,,00.000084600000,  -0.07200,
,,,00.000084700000,  -0.07200,
,,,00.000084800000,  -0.07200,
,,,00.000084900000,  -0.07200,
,,,00.000085000000,  -0.07200,
,,,00.000085100000,  -0.06400,
,,,00.000085200000,  -0.07200,
,,,00.000085300000,  -0.06400,
,,,00.000085400000,  -0.06400,
,,,00.000085500000,  -0.06400,
,,,00.000085600000,  -0.06400,
,,,00.000085700000,  -0.06400,
,,,00.000085800000,  -0.06400,
,,,00.000085900000,  -0.06400,
,,,00.000086000000,  -0.05600,
,,,00.000086100000,  -0.05600,
,,,00.000086200000,  -0.05600,
,,,00.000086300000,  -0.05600,
,,,00.000086400000,  -0.05600,
,,,00.000086500000,  -0.05600,
,,,00.000086600000,  -0.05600,
,,,00.000086700000,  -0.04800,
,,,00.000086800000,  -0.04800,
,,,00.000086900000,  -0.04800,
,,,00.000087000000,  -0.04800,
,,,00.000087100000,  -0.04800,
,,,00.000087200000,  -0.04800,
,,,00.000087300000,  -0.04800,
,,,00.000087400000,  -0.04800,
,,,00.000087500000,  -0.04800,
,,,00.000087600000,  -0.04000,
,,,00.000087700000,  -0.04000,
,,,00.000087800000,  -0.04000,
,,,00.000087900000,  -0.04000,
,,,00.000088000000,  -0.04000,
,,,00.000088100000,  -0.04000,
,,,00.000088200000,  -0.04000,
,,,00.000088300000,  -0.03200,
,,,00.000088400000,  -0.03200,
,,,00.000088500000,  -0.03200,
,,,00.000088600000,  -0.03200,
,,,00.000088700000,  -0.03200,
,,,00.000088800000,  -0.03200,
,,,00.000088900000,  -0.03200,
,,,00.000089000000,  -0.03200,
,,,00.000089100000,  -0.02400,
,,,00.000089200000,  -0.02400,
,,,00.000089300000,  -0.02400,
,,,00.000089400000,  -0.02400,
,,,00.000089500000,  -0.02400,
,,,00.000089600000,  -0.02400,
,,,00.000089700000,  -0.02400,
,,,00.000089800000,  -0.01600,
,,,00.000089900000,  -0.01600,
,,,00.000090000000,  -0.01600,
,,,00.000090100000,  -0.01600,
,,,00.000090200000,  -0.01600,
,,,00.000090300000,  -0.01600,
,,,00.000090400000,  -0.01600,
,,,00.000090500000,  -0.01600,
,,,00.000090600000,  -0.01600,
,,,00.000090700000,  -0.00800,
,,,00.000090800000,  -0.00800,
,,,00.000090900000,  -0.00800,
,,,00.000091000000,  -0.00800,
,,,00.000091100000,  -0.00800,
,,,00.000091200000,  -0.00800,
,,,00.000091300000,   0.00000,
,,,00.000091400000,   0.00000,
,,,00.000091500000,   0.00000,
,,,00.000091600000,   0.00000,
,,,00.000091700000,   0.00000,
,,,00.000091800000,   0.00000,
,,,00.000091900000,   0.00000,
,,,00.000092000000,   0.00000,
,,,00.000092100000,   0.00000,
,,,00.000092200000,   0.00800,
,,,00.000092300000,   0.00800,
,,,00.000092400000,   0.00800,
,,,00.000092500000,   0.00800,
,,,00.000092600000,   0.00800,
,,,00.000092700000,   0.00800,
,,,00.000092800000,   0.00800,
,,,00.000092900000,   0.01600,
,,,00.000093000000,   0.01600,
,,,00.000093100000,   0.01600,
,,,00.000093200000,   0.01600,
,,,00.000093300000,   0.01600,
,,,00.000093400000,   0.01600,
,,,00.000093500000,   0.01600,
,,,00.000093600000,   0.01600,
,,,00.000093700000,   0.01600,
,,,00.000093800000,   0.02400,
,,,00.000093900000,   0.02400,
,,,00.000094000000,   0.02400,
,,,00.000094100000,   0.02400,
,,,00.000094200000,   0.02400,
,,,00.000094300000,   0.02400,
,,,00.000094400000,   0.02400,
,,,00.000094500000,   0.02400,
,,,00.000094600000,   0.03200,
,,,00.000094700000,   0.03200,
,,,00.000094800000,   0.03200,
,,,00.000094900000,   0.03200,
,,,00.000095000000,   0.03200,
,,,00.000095100000,   0.03200,
,,,00.000095200000,   0.04000,
,,,00.000095300000,   0.04000,
,,,00.000095400000,   0.04000,
,,,00.000095500000,   0.04000,
,,,00.000095600000,   0.04000,
,,,00.000095700000,   0.04000,
,,,00.000095800000,   0.04000,
,,,00.000095900000,   0.04000,
,,,00.000096000000,   0.04000,
,,,00.000096100000,   0.04800,
,,,00.000096200000,   0.04800,
,,,00.000096300000,   0.04800,
,,,00.000096400000,   0.04800,
,,,00.000096500000,   0.04800,
,,,00.000096600000,   0.04800,
,,,00.000096700000,   0.04800,
,,,00.000096800000,   0.05600,
,,,00.000096900000,   0.05600,
,,,00.000097000000,   0.05600,
,,,00.000097100000,   0.05600,
,,,00.000097200000,   0.05600,
,,,00.000097300000,   0.05600,
,,,00.000097400000,   0.05600,
,,,00.000097500000,   0.05600,
,,,00.000097600000,   0.05600,
,,,00.000097700000,   0.06400,
,,,00.000097800000,   0.06400,
,,,00.000097900000,   0.06400,
,,,00.000098000000,   0.06400,
,,,00.000098100000,   0.06400,
,,,00.000098200000,   0.06400,
,,,00.000098300000,   0.06400,
,,,00.000098400000,   0.07200,
,,,00.000098500000,   0.07200,
,,,00.000098600000,   0.07200,
,,,00.000098700000,   0.07200,
,,,00.000098800000,   0.07200,
,,,00.000098900000,   0.07200,
,,,00.000099000000,   0.07200,
,,,00.000099100000,   0.07200,
,,,00.000099200000,   0.08000,
,,,00.000099300000,   0.08000,
,,,00.000099400000,   0.08000,
,,,00.000099500000,   0.08000,
,,,00.000099600000,   0.08000,
,,,00.000099700000,   0.08000,
,,,00.000099800000,   0.08000,
,,,00.000099900000,   0.08000,
,,,00.000100000000,   0.08000,
,,,00.000100100000,   0.08000,
,,,00.000100200000,   0.08000,
,,,00.000100300000,   0.08800,
,,,00.000100400000,   0.08800,
,,,00.000100500000,   0.08800,
,,,00.000100600000,   0.08800,
,,,00.000100700000,   0.08800,
,,,00.000100800000,   0.08800,
,,,00.000100900000,   0.08800,
,,,00.000101000000,   0.09600,
,,,00.000101100000,   0.09600,
,,,00.000101200000,   0.09600,
,,,00.000101300000,   0.09600,
,,,00.000101400000,   0.09600,
,,,00.000101500000,   0.09600,
,,,00.000101600000,   0.09600,
,,,00.000101700000,   0.09600,
,,,00.000101800000,   0.09600,
,,,00.000101900000,   0.10400,
,,,00.000102000000,   0.09600,
,,,00.000102100000,   0.10400,
,,,00.000102200000,   0.10400,
,,,00.000102300000,   0.10400,
,,,00.000102400000,   0.10400,
,,,00.000102500000,   0.10400,
,,,00.000102600000,   0.10400,
,,,00.000102700000,   0.10400,
,,,00.000102800000,   0.10400,
,,,00.000102900000,   0.11200,
,,,00.000103000000,   0.11200,
,,,00.000103100000,   0.11200,
,,,00.000103200000,   0.11200,
,,,00.000103300000,   0.11200,
,,,00.000103400000,   0.11200,
,,,00.000103500000,   0.11200,
,,,00.000103600000,   0.11200,
,,,00.000103700000,   0.11200,
,,,00.000103800000,   0.11200,
,,,00.000103900000,   0.12000,
,,,00.000104000000,   0.12000,
,,,00.000104100000,   0.12000,
,,,00.000104200000,   0.12000,
,,,00.000104300000,   0.12000,
,,,00.000104400000,   0.12000,
,,,00.000104500000,   0.12000,
,,,00.000104600000,   0.12000,
,,,00.000104700000,   0.12000,
,,,00.000104800000,   0.12000,
,,,00.000104900000,   0.12800,
,,,00.000105000000,   0.12800,
,,,00.000105100000,   0.12800,
,,,00.000105200000,   0.12800,
,,,00.000105300000,   0.12800,
,,,00.000105400000,   0.12800,
,,,00.000105500000,   0.12800,
,,,00.000105600000,   0.12800,
,,,00.000105700000,   0.12800,
,,,00.000105800000,   0.12800,
,,,00.000105900000,   0.12800,
,,,00.000106000000,   0.12800,
,,,00.000106100000,   0.12800,
,,,00.000106200000,   0.13600,
,,,00.000106300000,   0.13600,
,,,00.000106400000,   0.13600,
,,,00.000106500000,   0.13600,
,,,00.000106600000,   0.13600,
,,,00.000106700000,   0.13600,
,,,00.000106800000,   0.13600,
,,,00.000106900000,   0.13600,
,,,00.000107000000,   0.13600,
,,,00.000107100000,   0.13600,
,,,00.000107200000,   0.13600,
,,,00.000107300000,   0.14400,
,,,00.000107400000,   0.14400,
,,,00.000107500000,   0.14400,
,,,00.000107600000,   0.14400,
,,,00.000107700000,   0.14400,
,,,00.000107800000,   0.14400,
,,,00.000107900000,   0.14400,
,,,00.000108000000,   0.14400,
,,,00.000108100000,   0.14400,
,,,00.000108200000,   0.14400,
,,,00.000108300000,   0.14400,
,,,00.000108400000,   0.14400,
,,,00.000108500000,   0.14400,
,,,00.000108600000,   0.14400,
,,,00.000108700000,   0.14400,
,,,00.000108800000,   0.14400,
,,,00.000108900000,   0.14400,
,,,00.000109000000,   0.15200,
,,,00.000109100000,   0.15200,
,,,00.000109200000,   0.15200,
,,,00.000109300000,   0.15200,
,,,00.000109400000,   0.15200,
,,,00.000109500000,   0.15200,
,,,00.000109600000,   0.15200,
,,,00.000109700000,   0.15200,
,,,00.000109800000,   0.15200,
,,,00.000109900000,   0.15200,
,,,00.000110000000,   0.15200,
,,,00.000110100000,   0.15200,
,,,00.000110200000,   0.15200,
,,,00.000110300000,   0.15200,
,,,00.000110400000,   0.15200,
,,,00.000110500000,   0.15200,
,,,00.000110600000,   0.16000,
,,,00.000110700000,   0.16000,
,,,00.000110800000,   0.16000,
,,,00.000110900000,   0.16000,
,,,00.000111000000,   0.16000,
,,,00.000111100000,   0.16000,
,,,00.000111200000,   0.16000,
,,,00.000111300000,   0.16000,
,,,00.000111400000,   0.16000,
,,,00.000111500000,   0.16000,
,,,00.000111600000,   0.16000,
,,,00.000111700000,   0.16000,
,,,00.000111800000,   0.16000,
,,,00.000111900000,   0.16000,
,,,00.000112000000,   0.16000,
,,,00.000112100000,   0.16000,
,,,00.000112200000,   0.16000,
,,,00.000112300000,   0.16000,
,,,00.000112400000,   0.16000,
,,,00.000112500000,   0.16000,
,,,00.000112600000,   0.16000,
,,,00.000112700000,   0.16800,
,,,00.000112800000,   0.16000,
,,,00.000112900000,   0.16000,
,,,00.000113000000,   0.16000,
,,,00.000113100000,   0.16000,
,,,00.000113200000,   0.16000,
,,,00.000113300000,   0.16000,
,,,00.000113400000,   0.16000,
,,,00.000113500000,   0.16800,
,,,00.000113600000,   0.16800,
,,,00.000113700000,   0.16800,
,,,00.000113800000,   0.16800,
,,,00.000113900000,   0.16800,
,,,00.000114000000,   0.16800,
,,,00.000114100000,   0.16800,
,,,00.000114200000,   0.16800,
,,,00.000114300000,   0.16800,
,,,00.000114400000,   0.16800,
,,,00.000114500000,   0.16800,
,,,00.000114600000,   0.16800,
,,,00.000114700000,   0.16800,
,,,00.000114800000,   0.16800,
,,,00.000114900000,   0.16800,
,,,00.000115000000,   0.16800,
,,,00.000115100000,   0.16800,
,,,00.000115200000,   0.16800,
,,,00.000115300000,   0.16800,
,,,00.000115400000,   0.16800,
,,,00.000115500000,   0.16800,
,,,00.000115600000,   0.16800,
,,,00.000115700000,   0.16800,
,,,00.000115800000,   0.16800,
,,,00.000115900000,   0.16800,
,,,00.000116000000,   0.16800,
,,,00.000116100000,   0.16800,
,,,00.000116200000,   0.16800,
,,,00.000116300000,   0.16800,
,,,00.000116400000,   0.16800,
,,,00.000116500000,   0.16800,
,,,00.000116600000,   0.16800,
,,,00.000116700000,   0.16800,
,,,00.000116800000,   0.16800,
,,,00.000116900000,   0.16800,
,,,00.000117000000,   0.16800,
,,,00.000117100000,   0.16800,
,,,00.000117200000,   0.16800,
,,,00.000117300000,   0.16800,
,,,00.000117400000,   0.16800,
,,,00.000117500000,   0.16800,
,,,00.000117600000,   0.16800,
,,,00.000117700000,   0.16800,
,,,00.000117800000,   0.16800,
,,,00.000117900000,   0.16800,
,,,00.000118000000,   0.16800,
,,,00.000118100000,   0.16800,
,,,00.000118200000,   0.16800,
,,,00.000118300000,   0.16800,
,,,00.000118400000,   0.16800,
,,,00.000118500000,   0.16800,
,,,00.000118600000,   0.16800,
,,,00.000118700000,   0.16800,
,,,00.000118800000,   0.16800,
,,,00.000118900000,   0.16800,
,,,00.000119000000,   0.16800,
,,,00.000119100000,   0.16800,
,,,00.000119200000,   0.16800,
,,,00.000119300000,   0.16800,
,,,00.000119400000,   0.16800,
,,,00.000119500000,   0.16800,
,,,00.000119600000,   0.16800,
,,,00.000119700000,   0.16800,
,,,00.000119800000,   0.16800,
,,,00.000119900000,   0.16800,
,,,00.000120000000,   0.16800,
,,,00.000120100000,   0.16800,
,,,00.000120200000,   0.16800,
,,,00.000120300000,   0.16800,
,,,00.000120400000,   0.16800,
,,,00.000120500000,   0.16800,
,,,00.000120600000,   0.16800,
,,,00.000120700000,   0.16800,
,,,00.000120800000,   0.16800,
,,,00.000120900000,   0.16800,
,,,00.000121000000,   0.16800,
,,,00.000121100000,   0.16000,
,,,00.000121200000,   0.16000,
,,,00.000121300000,   0.16800,
,,,00.000121400000,   0.16000,
,,,00.000121500000,   0.16000,
,,,00.000121600000,   0.16000,
,,,00.000121700000,   0.16000,
,,,00.000121800000,   0.16000,
,,,00.000121900000,   0.16000,
,,,00.000122000000,   0.16000,
,,,00.000122100000,   0.16000,
,,,00.000122200000,   0.16000,
,,,00.000122300000,   0.16000,
,,,00.000122400000,   0.16000,
,,,00.000122500000,   0.16000,
,,,00.000122600000,   0.16000,
,,,00.000122700000,   0.16000,
,,,00.000122800000,   0.16000,
,,,00.000122900000,   0.16000,
,,,00.000123000000,   0.16000,
,,,00.000123100000,   0.16000,
,,,00.000123200000,   0.16000,
,,,00.000123300000,   0.16000,
,,,00.000123400000,   0.16000,
,,,00.000123500000,   0.16000,
,,,00.000123600000,   0.16000,
,,,00.000123700000,   0.15200,
,,,00.000123800000,   0.15200,
,,,00.000123900000,   0.15200,
,,,00.000124000000,   0.15200,
,,,00.000124100000,   0.15200,
,,,00.000124200000,   0.15200,
,,,00.000124300000,   0.15200,
,,,00.000124400000,   0.15200,
,,,00.000124500000,   0.15200,
,,,00.000124600000,   0.15200,
,,,00.000124700000,   0.15200,
,,,00.000124800000,   0.15200,
,,,00.000124900000,   0.15200,
