%!PS-Adobe-2.0 EPSF-2.0
%%BoundingBox:  0 0 567 384
%%Title: Co-60_hq0.eps: Co-60_hq0
%%Creator: ROOT Version 6.13/01
%%CreationDate: Sat May 12 15:01:33 2018
%%DocumentNeededResources: ProcSet (FontSetInit)
%%EndComments
%%BeginProlog
80 dict begin
/s {stroke} def /l {lineto} def /m {moveto} def /t {translate} def
/r {rotate} def /rl {roll}  def /R {repeat} def
/d {rlineto} def /rm {rmoveto} def /gr {grestore} def /f {eofill} def
/c {setrgbcolor} def /black {0 setgray} def /sd {setdash} def
/cl {closepath} def /sf {scalefont setfont} def /lw {setlinewidth} def
/box {m dup 0 exch d exch 0 d 0 exch neg d cl} def
/NC{systemdict begin initclip end}def/C{NC box clip newpath}def
/bl {box s} def /bf {gsave box gsave f grestore 1 lw [] 0 sd s grestore} def /Y { 0 exch d} def /X { 0 d} def 
/K {{pop pop 0 moveto} exch kshow} bind def
/ita {/ang 15 def gsave [1 0 ang dup sin exch cos div 1 0 0] concat} def 
/mp {newpath /y exch def /x exch def} def
/side {[w .77 mul w .23 mul] .385 w mul sd w 0 l currentpoint t -144 r} def
/mr {mp x y w2 0 360 arc} def /m24 {mr s} def /m20 {mr f} def
/mb {mp x y w2 add m w2 neg 0 d 0 w neg d w 0 d 0 w d cl} def
/mt {mp x y w2 add m w2 neg w neg d w 0 d cl} def
/w4 {w 4 div} def
/w6 {w 6 div} def
/w8 {w 8 div} def
/m21 {mb f} def /m25 {mb s} def /m22 {mt f} def /m26{mt s} def
/m23 {mp x y w2 sub m w2 w d w neg 0 d cl f} def
/m27 {mp x y w2 add m w3 neg w2 neg d w3 w2 neg d w3 w2 d cl s} def
/m28 {mp x w2 sub y w2 sub w3 add m w3 0 d  0 w3 neg d w3 0 d 0 w3 d w3 0 d  0 w3 d w3 neg 0 d 0 w3 d w3 neg 0 d 0 w3 neg d w3 neg 0 d cl s } def
/m29 {mp gsave x w2 sub y w2 add w3 sub m currentpoint t 4 {side} repeat cl fill gr} def
/m30 {mp gsave x w2 sub y w2 add w3 sub m currentpoint t 4 {side} repeat cl s gr} def
/m31 {mp x y w2 sub m 0 w d x w2 sub y m w 0 d x w2 sub y w2 add m w w neg d x w2 sub y w2 sub m w w d s} def
/m32 {mp x y w2 sub m w2 w d w neg 0 d cl s} def
/m33 {mp x y w2 add m w3 neg w2 neg d w3 w2 neg d w3 w2 d cl f} def
/m34 {mp x w2 sub y w2 sub w3 add m w3 0 d  0 w3 neg d w3 0 d 0 w3 d w3 0 d  0 w3 d w3 neg 0 d 0 w3 d w3 neg 0 d 0 w3 neg d w3 neg 0 d cl f } def
/m35 {mp x y w2 add m w2 neg w2 neg d w2 w2 neg d w2 w2 d w2 neg w2 d x y w2 sub m 0 w d x w2 sub y m w 0 d s} def
/m36 {mb x w2 sub y w2 add m w w neg d x w2 sub y w2 sub m w w d s} def
/m37 {mp x y m w4 neg w2 d w4 neg w2 neg d w2 0 d  w4 neg w2 neg d w2 0 d w4 neg w2 d w2 0 d w4 neg w2 d w4 neg w2 neg d cl s} def
/m38 {mp x w4 sub y w2 add m w4 neg w4 neg d 0 w2 neg d w4 w4 neg d w2 0 d w4 w4 d 0 w2 d w4 neg w4 d w2 neg 0 d x y w2 sub m 0 w d x w2 sub y m w 0 d cl s} def
/m39 {mp x y m w4 neg w2 d w4 neg w2 neg d w2 0 d  w4 neg w2 neg d w2 0 d w4 neg w2 d w2 0 d w4 neg w2 d w4 neg w2 neg d cl f} def
/m40 {mp x y m w4 w2 d w4 w4 neg d w2 neg w4 neg d w2 w4 neg d w4 neg w4 neg d w4 neg w2 d w4 neg w2 neg d w4 neg w4 d w2 w4 d w2 neg w4 d w4 w4 d w4 w2 neg d cl s} def
/m41 {mp x y m w4 w2 d w4 w4 neg d w2 neg w4 neg d w2 w4 neg d w4 neg w4 neg d w4 neg w2 d w4 neg w2 neg d w4 neg w4 d w2 w4 d w2 neg w4 d w4 w4 d w4 w2 neg d cl f} def
/m42 {mp x y w2 add m w8 neg w2 -3 4 div mul d w2 -3 4 div mul w8 neg d w2 3 4 div mul w8 neg d w8 w2 -3 4 div mul d w8 w2 3 4 div mul d w2 3 4 div mul w8 d w2 -3 4 div mul w8 d w8 neg w2 3 4 div mul d cl s} def
/m43 {mp x y w2 add m w8 neg w2 -3 4 div mul d w2 -3 4 div mul w8 neg d w2 3 4 div mul w8 neg d w8 w2 -3 4 div mul d w8 w2 3 4 div mul d w2 3 4 div mul w8 d w2 -3 4 div mul w8 d w8 neg w2 3 4 div mul d cl f} def
/m44 {mp x y m w6 neg w2 d w2 2 3 div mul 0 d w6 neg w2 neg d w2 w6 d 0 w2 -2 3 div mul d w2 neg w6 d w6 w2 neg d w2 -2 3 div mul 0 d w6 w2 d w2 neg w6 neg d 0 w2 2 3 div mul d w2 w6 neg d cl s} def
/m45 {mp x y m w6 neg w2 d w2 2 3 div mul 0 d w6 neg w2 neg d w2 w6 d 0 w2 -2 3 div mul d w2 neg w6 d w6 w2 neg d w2 -2 3 div mul 0 d w6 w2 d w2 neg w6 neg d 0 w2 2 3 div mul d w2 w6 neg d cl f} def
/m46 {mp x y w4 add m w4 neg w4 d w4 neg w4 neg d  w4 w4 neg d w4 neg w4 neg d w4 w4 neg d w4 w4 d w4 w4 neg d w4 w4 d w4 neg w4 d w4 w4 d w4 neg w4 d w4 neg w4 neg d cl s} def
/m47 {mp x y w4 add m w4 neg w4 d w4 neg w4 neg d w4 w4 neg d w4 neg w4 neg d  w4 w4 neg d w4 w4 d w4 w4 neg d w4 w4 d w4 neg w4 d w4 w4 d w4 neg w4 d w4 neg w4 neg d cl f} def
/m48 {mp x y w4 add m w4 neg w4 d w4 neg w4 neg d w4 w4 neg d  w4 neg w4 neg d w4 w4 neg d w4 w4 d w4 w4 neg d w4 w4 d w4 neg w4 d w4 w4 d w4 neg w4 d w4 neg w4 neg d  w4 w4 neg d w4 neg w4 neg d w4 neg w4 d w4 w4 d cl f} def
/m49 {mp x w2 sub w3 add y w2 sub w3 add m  0 w3 neg d w3 0 d 0 w3 d w3 0 d 0 w3 d w3 neg 0 d 0 w3 d w3 neg 0 d 0 w3 neg d w3 neg 0 d 0 w3 neg d w3 0 d 0 w3 d w3 0 d 0 w3 neg d w3 neg 0 d cl f } def
/m2 {mp x y w2 sub m 0 w d x w2 sub y m w 0 d s} def
/m5 {mp x w2 sub y w2 sub m w w d x w2 sub y w2 add m w w neg d s} def
%%IncludeResource: ProcSet (FontSetInit)
%%IncludeResource: font Times-Roman
%%IncludeResource: font Times-Italic
%%IncludeResource: font Times-Bold
%%IncludeResource: font Times-BoldItalic
%%IncludeResource: font Helvetica
%%IncludeResource: font Helvetica-Oblique
%%IncludeResource: font Helvetica-Bold
%%IncludeResource: font Helvetica-BoldOblique
%%IncludeResource: font Courier
%%IncludeResource: font Courier-Oblique
%%IncludeResource: font Courier-Bold
%%IncludeResource: font Courier-BoldOblique
%%IncludeResource: font Symbol
%%IncludeResource: font ZapfDingbats
/reEncode {exch findfont dup length dict begin {1 index /FID eq  {pop pop} {def} ifelse } forall /Encoding exch def currentdict end dup /FontName get exch definefont pop } def [/Times-Bold /Times-Italic /Times-BoldItalic /Helvetica /Helvetica-Oblique
 /Helvetica-Bold /Helvetica-BoldOblique /Courier /Courier-Oblique /Courier-Bold /Courier-BoldOblique /Times-Roman /AvantGarde-Book /AvantGarde-BookOblique /AvantGarde-Demi /AvantGarde-DemiOblique /Bookman-Demi /Bookman-DemiItalic /Bookman-Light
 /Bookman-LightItalic /Helvetica-Narrow /Helvetica-Narrow-Bold /Helvetica-Narrow-BoldOblique /Helvetica-Narrow-Oblique /NewCenturySchlbk-Roman /NewCenturySchlbk-Bold /NewCenturySchlbk-BoldItalic /NewCenturySchlbk-Italic /Palatino-Bold
 /Palatino-BoldItalic /Palatino-Italic /Palatino-Roman ] {ISOLatin1Encoding reEncode } forall
%%EndProlog
%%BeginSetup
%%EndSetup
newpath  gsave  .25 .25 scale  gsave  0 0 t black[  ] 0 sd 3 lw 1 1 1 c 2268 1537 0 0 bf black 1 1 1 c 1814 1229 227 154 bf black 1814 1229 227 154 bl 1 1 1 c 1814 1229 227 154 bf black 1814 1229 227 154 bl 0 0 0.6 c 1 1 1 c black 0 0 0.6 c 228 154 m
 86 X 1 Y 1 -1 d 3 X 1 Y 1 X 2 -1 d 1 X 1 Y 16 X 1 Y 1 X s 339 156 m 2 X 3 2 d 2 X 2 1 d 2 2 d 3 -1 d 1 2 d 1 2 d 1 3 d 1 3 d 1 Y 2 -2 d 2 1 d 1 1 d 2 Y 1 6 d 1 1 d 1 Y 2 -2 d 1 2 d 3 Y 1 6 d 1 1 d 2 8 d 2 9 d 1 Y 2 7 d 1 4 d 1 6 d 1 9 d 1 14 d 1 4 d
 3 Y 2 5 d 1 Y 1 4 d 6 Y 1 13 d 2 17 d 1 8 d 2 27 d 1 16 d 1 8 d 1 5 d 1 12 d 3 16 d 4 Y 1 14 d 1 5 d 2 Y 1 3 d 1 3 d 3 Y 1 4 d 6 Y 1 13 d 5 Y 1 3 d 4 Y 2 1 d 2 1 d 3 Y 1 5 d 1 6 d 4 Y 3 -11 d 1 X 1 1 d 3 Y 1 4 d 1 4 d 2 Y 1 1 d 1 -1 d -1 Y 2 -13 d
 -1 Y 1 X 2 Y 1 4 d 1 6 d 1 Y 1 5 d 5 Y 1 2 d 1 Y -1 Y 1 -3 d -4 Y 1 -9 d -5 Y 1 X 1 Y 1 2 d 1 4 d 1 4 d 1 1 d -2 Y 2 -12 d 1 -2 d 1 -2 d 1 -1 d 1 -2 d 1 X 5 Y 1 10 d 1 3 d 1 Y -1 Y 1 -1 d 1 -12 d 1 -4 d 1 -1 d 1 X 1 Y 1 3 d 4 Y 1 1 d 1 Y 1 -1 d 1 -2
 d -2 Y s 450 471 m -6 Y 1 -2 d -7 Y 1 -1 d -2 Y 1 X 5 Y 1 4 d 4 Y 1 X -3 Y 1 -2 d -10 Y 1 -1 d -1 Y 1 Y 1 1 d 8 Y 1 2 d 2 Y 1 -1 d -4 Y 1 -5 d -4 Y 1 X 6 Y 1 3 d 10 Y 1 X -2 Y 1 -1 d -8 Y 1 -1 d -3 Y 3 X 2 -4 d -1 Y 1 -1 d -1 Y 1 -1 d 1 -7 d 1 -1 d
 -1 Y 1 X 1 Y 1 1 d 2 Y 1 1 d 4 Y 1 3 d 3 Y 1 1 d 2 Y 1 1 d 1 1 d -1 Y 1 -1 d -2 Y 1 -5 d -1 Y 1 -1 d -4 Y 1 -2 d -4 Y 1 -1 d -1 Y 1 X 1 Y 1 X 3 Y 1 3 d 2 Y 1 1 d 1 Y -1 Y 2 -4 d -1 Y 1 1 d 1 Y 1 1 d 1 -1 d -5 Y 1 -5 d -7 Y 1 X 3 Y 1 1 d 12 Y 1 1 d 3
 Y 1 X 1 -3 d 1 -1 d 1 -4 d 1 X -1 Y 1 -2 d 1 X 3 Y 1 1 d 8 Y 1 1 d 2 Y 1 X -2 Y 1 -3 d -1 Y 1 -1 d 1 X -1 Y 1 X -1 Y 1 -2 d -1 Y 1 X 1 1 d 1 Y 1 2 d 1 Y 2 X 1 -1 d 1 X -1 Y 1 X -2 Y 2 -5 d -1 Y 1 -3 d 1 X -1 Y 1 X 1 Y 1 2 d 2 Y 1 X 1 Y 1 2 d 2 Y 1 X
 -2 Y 1 -3 d -2 Y 1 X -1 Y 1 Y 1 X 4 Y 1 2 d 3 Y 1 X 2 -1 d 1 X -1 Y 1 X -4 Y 1 -2 d -7 Y 1 -1 d -2 Y 1 Y 1 X 12 Y 1 2 d 6 Y 1 X -1 Y 2 -6 d -1 Y 2 X 1 Y 1 1 d 1 Y 1 3 d 2 Y 1 1 d 5 Y 1 X 2 Y 1 -1 d -6 Y 1 -7 d -6 Y 1 -1 d 2 Y 1 1 d 4 Y 1 1 d 1 Y -1
 Y 1 X -4 Y 1 -1 d -9 Y s 561 422 m 4 Y 1 2 d 7 Y 1 1 d 2 Y 1 1 d -1 Y 1 -3 d 2 X 2 Y 1 1 d 1 X 1 -1 d -1 Y 1 -1 d -3 Y 1 -3 d -3 Y 1 X 4 Y 1 3 d 4 Y 1 X 1 Y -2 Y 1 -1 d -6 Y 1 -1 d -2 Y 1 Y 1 X 4 Y 1 4 d 4 Y 1 1 d -1 Y 1 X -1 Y 1 -1 d -4 Y 1 -3 d -6
 Y 1 -1 d -1 Y 2 Y 1 1 d 11 Y 1 2 d 6 Y 1 1 d 1 Y 1 X -1 Y 1 X -1 Y 1 -1 d -3 Y 1 -1 d -9 Y 1 -3 d -15 Y 1 -1 d -1 Y 1 Y 1 1 d 17 Y 1 1 d 7 Y 1 1 d 2 Y 1 X -1 Y 1 X -7 Y 1 -6 d -4 Y 1 X -1 Y 1 Y 1 1 d 4 Y 1 1 d 2 Y 2 1 d 1 X 3 Y 1 3 d 3 Y 1 X -2 Y 1
 -1 d -6 Y 1 -1 d 1 1 d 2 Y 1 1 d 1 Y 2 -4 d 1 -1 d 2 X 2 -2 d 2 X 1 Y 1 X 2 Y 1 2 d 1 Y 1 1 d 1 1 d 1 Y 1 X -3 Y 1 -4 d 1 -1 d 1 Y 1 1 d 4 Y 1 4 d 5 Y 1 1 d 1 Y 1 X 1 -1 d -6 Y 1 -6 d -3 Y 1 -1 d -1 Y 1 Y 1 1 d 3 Y 1 2 d 2 Y 1 2 d 1 Y 1 X 1 Y -1 Y 1
 X -2 Y 1 -3 d -1 Y 1 X 1 Y 1 1 d 5 Y 1 X 1 Y -1 Y 2 -6 d 1 X -1 Y 1 X 1 Y 1 1 d 1 Y 1 2 d 2 Y 1 1 d 1 Y 1 3 d 1 Y 1 X 1 Y -1 Y 1 X -1 Y 1 -2 d -2 Y 1 -1 d -1 Y 1 -5 d -2 Y 1 X 2 Y 1 1 d 2 Y 1 1 d 1 Y 1 X 1 -1 d 1 -1 d 2 X 2 Y 1 1 d 1 Y 1 1 d 5 Y 1 3
 d 4 Y 1 X 1 Y -2 Y 1 X -5 Y 1 -1 d 1 X 3 Y 1 2 d 9 Y s 672 462 m 1 -2 d -1 Y 1 -2 d -1 Y 1 -1 d -1 Y 2 X -2 Y 2 -10 d 2 X 1 Y 1 -1 d 2 X 3 Y 1 2 d 5 Y 1 1 d 2 Y 1 -1 d 1 -5 d 1 -1 d 1 -5 d -2 Y 1 X 6 Y 1 4 d 4 Y 1 1 d 1 Y -1 Y 2 -10 d 1 X 2 Y 1 2 d
 1 Y 1 X 2 Y 1 3 d 2 Y 1 X -2 Y 1 -3 d -3 Y 1 X -1 Y 1 X 1 Y 6 X 2 Y 1 1 d 1 3 d 2 Y 1 3 d 1 1 d 1 Y 1 1 d 1 Y 2 X 1 -1 d 1 -2 d -1 Y 1 -3 d 1 X -1 Y 1 X 1 Y 1 1 d 1 -1 d -1 Y 1 -3 d -1 Y 1 X 7 Y 1 3 d 11 Y 1 1 d 4 Y 1 1 d 1 Y 1 X -1 Y 1 -1 d -4 Y 1
 -3 d -4 Y 1 X 1 Y 1 1 d 3 Y 1 1 d 6 Y 1 3 d 4 Y 1 1 d 1 Y -2 Y 1 -1 d -8 Y 1 -2 d -2 Y 1 1 d 2 Y 1 3 d 2 Y 1 -1 d 2 -7 d 6 Y 1 3 d 10 Y 1 X 2 Y -2 Y 1 -1 d -10 Y 1 -1 d -4 Y 1 Y 1 X 6 Y 1 4 d 10 Y 1 X 1 Y 2 1 d 1 2 d 1 1 d 1 -1 d 1 -1 d -4 Y 1 -1 d
 -6 Y 1 -2 d -3 Y 1 -1 d 3 Y 1 2 d 5 Y 1 2 d 3 Y 1 4 d 2 Y 1 1 d 1 Y -1 Y 1 X -3 Y 1 -4 d -2 Y 2 X 1 Y 1 X 1 Y 1 1 d 1 Y 1 X -2 Y 1 -2 d -4 Y 1 -1 d -2 Y 1 Y 1 X 5 Y 1 3 d 4 Y 1 1 d 1 Y 2 X 1 -2 d 1 -1 d 1 Y 1 1 d 2 Y 1 1 d 1 Y 1 1 d 1 Y 1 X -1 Y s
 783 509 m 1 -2 d 1 -2 d -1 Y 1 -1 d 1 X 1 1 d 1 Y 1 -1 d -1 Y 1 X -1 Y 1 -1 d -2 Y 1 -6 d -2 Y 1 X 6 Y 1 5 d 9 Y 1 1 d 4 Y 1 X 1 -1 d 1 -1 d 1 X -1 Y 1 -2 d -2 Y 1 -7 d 1 -2 d -1 Y 1 -1 d 1 -1 d -1 Y 2 -17 d 1 X 8 Y 1 3 d 5 Y 1 X -4 Y 1 -7 d -1 Y 1
 -1 d -1 Y 1 1 d 1 Y 1 2 d 1 Y 1 2 d 3 Y 1 1 d 1 Y -1 Y 1 -1 d -6 Y 1 -3 d -3 Y 1 -1 d 1 Y 1 3 d 1 Y 1 X -5 Y 1 -4 d -10 Y 1 -3 d -4 Y 1 X -1 Y 1 -1 d 1 -2 d 1 -6 d 1 X -1 Y 2 X -1 Y 2 -7 d 1 -1 d -1 Y 3 X -1 Y 1 -1 d -6 Y 1 -4 d -13 Y 1 -3 d -6 Y 1
 -1 d -1 Y 2 X 1 Y 1 2 d 1 Y 1 -1 d 2 -1 d 1 1 d 1 Y 1 X -1 Y 1 -1 d -4 Y 1 -2 d -3 Y 1 1 d 5 Y 1 2 d 3 Y 2 X 1 -2 d -1 Y 2 -5 d -1 Y 1 X 1 1 d -1 Y 1 -1 d 1 -7 d 1 X 1 -4 d -1 Y 1 X 2 Y 1 2 d 3 Y 1 1 d 1 -1 d 1 -11 d 1 X -1 Y 1 X 1 Y 1 -1 d -1 Y 1
 -3 d 1 -1 d -1 Y 1 X 1 1 d 1 1 d 1 2 d 2 X 1 Y 1 1 d 2 Y 1 5 d 2 Y 1 X 1 Y 2 -10 d 1 -2 d -1 Y 2 -1 d 1 -1 d 1 -1 d 2 X 2 -1 d 1 X 1 1 d 1 2 d s 895 373 m 2 -7 d 2 -8 d 1 3 d 1 10 d 2 Y 1 -1 d 2 -8 d 2 -5 d 1 1 d 1 4 d 2 2 d 1 -5 d 2 -9 d 1 -1 d 1 4
 d 2 6 d 2 8 d 1 1 d 2 -2 d 2 X 2 5 d 4 Y 3 13 d 2 12 d 1 10 d 1 19 d 1 17 d 1 13 d 5 Y 1 4 d 2 5 d 1 Y 1 11 d 13 Y 1 12 d 1 15 d 1 35 d 8 Y 1 11 d 1 25 d 1 5 d 20 Y 2 34 d 6 Y 1 33 d 1 39 d 2 50 d 26 Y 2 48 d 1 14 d 26 Y 2 46 d 3 Y 2 67 d 1 24 d 1
 38 d 19 Y 1 11 d 2 32 d 14 Y 1 31 d 1 17 d 7 Y 1 14 d 1 28 d 2 33 d 9 Y 1 9 d 1 8 d 1 2 d 1 7 d 1 -1 d -5 Y 2 -30 d 2 -23 d 1 -4 d 1 -19 d -8 Y 1 -10 d 2 -85 d 1 -15 d 1 -32 d -14 Y 3 -91 d -30 Y 2 -51 d 2 -83 d 2 -82 d 2 -56 d 1 -20 d 2 -58 d -13 Y
 1 -31 d 1 -27 d 2 -51 d 2 -34 d 1 -24 d s 1006 429 m 1 -35 d 1 -11 d 2 -32 d -8 Y 1 -6 d 1 -7 d 1 -3 d 2 -12 d -2 Y 2 -23 d 1 -1 d 1 3 d 2 1 d 1 -1 d 2 -14 d 1 Y 1 5 d 1 8 d 1 Y 2 6 d 3 8 d 1 9 d 1 4 d 1 8 d 1 17 d 2 19 d 1 10 d 2 20 d 2 Y 2 24 d 1
 10 d 24 Y 1 14 d 4 Y 2 28 d 1 7 d 12 Y 1 24 d 1 22 d 6 Y 2 50 d 1 26 d 1 25 d 6 Y 3 45 d 12 Y 1 21 d 31 Y 1 13 d 4 Y 2 45 d 1 15 d 1 46 d 2 43 d 1 15 d 1 34 d 1 14 d 3 Y 1 11 d 10 Y 1 8 d 2 18 d 1 7 d 1 22 d 1 7 d 5 Y 1 3 d 1 X 1 -2 d 1 -8 d -5 Y 3
 -23 d -1 Y 1 X -1 Y 1 -2 d -8 Y 2 -46 d 2 -51 d 2 -36 d 1 -15 d -18 Y 2 -50 d 2 -70 d 1 -22 d 1 -39 d 2 -46 d 1 -17 d 2 -77 d -12 Y 1 -13 d 1 -21 d 2 -41 d 1 -4 d 2 -52 d 2 -44 d -6 Y 1 -16 d 1 -15 d -4 Y 1 -8 d 2 -14 d 1 -19 d 1 -10 d s 1117 294 m
 1 -8 d 1 -9 d -3 Y 2 -13 d -6 Y 1 -2 d -2 Y 1 -3 d 1 -4 d 1 -6 d 1 -4 d 1 -2 d 1 -5 d 2 -7 d 3 -8 d 1 -4 d 1 -1 d -1 Y 1 X 1 Y 2 X -4 Y 1 -2 d -2 Y 1 X 1 1 d 2 Y 1 1 d 1 1 d 1 X -1 Y 1 -1 d -2 Y 1 -2 d -2 Y 1 X 1 Y 1 2 d 1 Y 1 X 1 -1 d 1 -2 d 1 -2 d
 1 -1 d -1 Y 1 1 d 1 1 d 2 X 1 -1 d -1 Y 1 -2 d 1 -1 d 1 Y 1 X 2 Y 1 1 d 1 Y 1 X -2 Y 1 -2 d -1 Y 1 X 1 1 d 1 1 d -1 Y 2 -2 d 1 -1 d 1 X 1 1 d 1 Y 1 1 d 1 X 1 -3 d 1 X 1 Y 1 1 d 1 2 d 2 -2 d 2 -1 d 1 X 1 Y 1 2 d 1 1 d 1 X 1 -4 d 1 -1 d 3 X 1 -1 d 2
 -4 d 1 1 d 2 Y 1 1 d 1 Y 3 X 2 2 d 1 Y 2 X 2 -6 d -1 Y 1 X 1 Y 1 2 d 1 1 d 1 1 d 1 Y 1 X -1 Y 2 -1 d 1 1 d 1 1 d 1 X 2 -3 d -1 Y 1 X 1 Y 1 1 d 1 2 d 3 Y 1 1 d 1 Y 1 -1 d 1 -3 d 1 -1 d 1 -3 d 1 -1 d 1 Y 1 1 d 1 Y 1 1 d 1 Y s 1228 191 m -1 Y 1 -1 d -1
 Y 2 X 2 Y 1 1 d 2 Y 1 X -1 Y 2 X 1 -1 d 1 -1 d 1 X -1 Y 6 X -1 Y 2 -2 d 1 X -1 Y 1 X -1 Y 1 X 1 Y 1 1 d 2 Y 1 X 1 Y 1 1 d 1 Y 2 X -1 Y 1 X -1 Y 1 X -2 Y 1 X -1 Y 1 X 2 Y 1 1 d 2 Y 1 X 2 -5 d 1 X 1 Y 1 X 1 1 d 3 X -1 Y 1 X -2 Y 1 -2 d -1 Y 1 -1 d 1 1
 d 1 Y 1 1 d 2 Y 1 1 d 2 Y 1 X 1 Y 1 X -1 Y 1 -1 d -4 Y 2 X 1 Y 1 X 1 Y 1 X 1 Y 1 X 1 Y 1 X -1 Y 1 -1 d 1 X -1 Y 3 X 1 Y 2 X 1 -1 d -1 Y 1 X 1 Y 3 X -2 Y 2 X 3 Y 1 X 1 Y 1 X 1 -1 d -1 Y 4 X 1 -1 d 1 X -2 Y 2 X 2 Y 1 2 d 2 Y 1 X -1 Y 1 -1 d -3 Y 1 X
 -1 Y 1 -1 d 2 X 1 Y 1 1 d 1 Y 1 1 d 2 X 2 -4 d 1 X 1 Y 1 1 d 1 X 1 Y 1 X 1 Y 1 X 1 -1 d 1 X -1 Y 1 X -1 Y 2 X 1 Y 1 1 d 1 X 1 -1 d 1 -1 d 1 1 d 1 X -1 Y 1 X -1 Y 1 X -1 Y s 1339 180 m 3 X 3 Y 1 1 d 2 Y 1 X -1 Y 1 -1 d -2 Y 2 X 2 Y 2 X -1 Y 1 -2 d -1
 Y 1 -1 d 3 X 8 Y 1 X -1 Y 1 X -3 Y 1 X -1 Y 1 -1 d 2 X 1 Y 1 1 d 1 X 2 -2 d 9 X 1 Y 1 X 1 Y 1 X 1 1 d 2 X 1 Y 1 X 2 Y 1 X 2 -5 d 2 X 1 Y 1 X 1 1 d 1 Y 1 X -1 Y 1 X -2 Y 4 X 1 Y 1 1 d 1 X -1 Y 1 X -3 Y 4 X 1 -1 d 1 X 1 1 d 4 X -1 Y 2 X 1 Y 1 X 1 Y 1
 1 d 2 Y 1 X 1 Y 1 X -1 Y 1 X -4 Y 2 X 2 Y 1 X 1 Y 1 X 1 Y 2 X -1 Y 1 X 1 -1 d -1 Y 1 -1 d 1 X -1 Y 1 Y 1 X 1 Y 1 1 d 1 1 d 2 X -1 Y 1 -1 d s 1429 181 m 2 X 1 Y 1 1 d 1 X -2 Y 1 X -1 Y 1 X 1 Y 1 1 d 1 Y 1 X -1 Y 1 X -3 Y 4 X 2 Y 1 1 d 1 X -1 Y 1 -1 d
 -1 Y 1 X 1 1 d 3 Y 1 1 d 2 X s 1450 184 m 1 -1 d 1 X -1 Y 1 X -1 Y 1 X -1 Y 1 X 1 Y 1 X 1 Y 2 X 1 -2 d 4 X -1 Y 1 X 1 Y 1 X 1 1 d 1 1 d 1 Y 1 X 1 Y 1 X -1 Y 1 -1 d -1 Y 3 X 1 Y 1 X 1 Y 3 X 1 -1 d 1 X -1 Y 1 X -1 Y 1 -1 d 2 X 2 Y 3 X -1 Y 2 X 1 Y 1 X
 1 1 d 2 X 1 -1 d -1 Y 9 X 1 Y 6 X 5 Y 2 X -1 Y 1 -2 d -1 Y 1 X -1 Y 2 X -1 Y 2 X 1 Y 1 X 2 Y 2 X -1 Y 1 -1 d -1 Y 1 X 1 Y 1 X 2 Y 1 X -1 Y 1 X -2 Y 1 X -1 Y 1 X -1 Y 1 X 1 Y 1 X 1 1 d 1 Y 1 X 1 -1 d 2 X 1 Y 1 X 1 Y 2 X -1 Y 1 X -1 Y 1 X -1 Y 1 X 1 Y
 1 X 2 Y 3 X -1 Y 1 Y 1 X 1 1 d 1 X -1 Y 1 -2 d s 1547 180 m -1 Y 2 X 1 Y 1 X 2 -1 d 3 X 1 Y 3 X -1 Y 2 X 1 1 d 1 Y s 1561 181 m 1 1 d 1 Y 2 X 2 -4 d 1 1 d 1 X 1 Y 5 X -1 Y 1 -1 d -1 Y 2 X 1 Y 1 1 d 1 X 1 Y 1 1 d 1 1 d 3 X -2 Y 2 X 1 Y 1 X 1 Y 1 X 1
 -1 d 1 X 1 Y 1 1 d 1 Y 2 X 1 -1 d 2 -3 d 1 X 1 Y 1 1 d 1 1 d 2 X 1 1 d 2 X -1 Y 1 -2 d 1 X -1 Y 1 -2 d -1 Y 1 X 1 Y 1 X 1 Y 1 X 2 -1 d -1 Y 1 X 1 Y 1 X 1 Y 1 X 1 Y 1 1 d 1 Y 1 X 2 -3 d -1 Y 1 Y 2 X 1 Y 1 X -1 Y 1 -1 d 1 X 1 Y 1 1 d 1 X 2 -2 d 5 X 1
 Y 1 X 1 Y 1 X -1 Y 2 -5 d 1 X 1 Y 1 1 d 1 Y 1 X 2 -2 d 1 X 1 -1 d 2 X 1 -1 d 2 X 1 Y 3 X -1 Y 1 X 2 -3 d 1 X 1 Y 1 X 1 Y 1 X -1 Y 1 -1 d -2 Y 1 X -1 Y 1 1 d 1 Y 1 X 2 -1 d 2 -1 d 1 X 1 1 d 1 X 1 Y -1 Y 1 X 1 -1 d 1 -1 d 1 X s 1672 167 m 1 X -1 Y 1
 -1 d 2 X 1 1 d 3 X 2 -4 d 2 X 1 1 d 1 Y 3 X 1 -1 d 1 -1 d 3 X 1 1 d 1 X 1 -1 d 1 -1 d 1 X 1 1 d 3 X -1 Y 2 -1 d 1 -1 d 2 X 1 Y 1 X 1 1 d 2 -1 d 2 -1 d 3 X 1 Y 2 X 1 1 d -1 Y 1 X 2 -1 d 1 X 1 1 d 4 X 1 1 d 2 -2 d 1 X 1 Y 1 1 d 1 Y 1 X 2 -1 d 2 X 1 Y
 1 X 1 1 d 1 Y 1 -1 d 2 -1 d 1 1 d 1 X 1 Y 1 1 d 2 Y 1 X 1 Y 1 X 2 -3 d 1 1 d 1 X 1 Y 1 1 d 1 Y 1 1 d 2 -1 d 1 X 1 Y 1 1 d 2 Y 1 1 d 2 X 1 Y 1 1 d 2 Y 1 X 1 Y 3 X 1 Y 1 2 d 2 Y 1 X 1 Y 1 1 d 1 1 d 2 1 d 2 X 1 Y 1 X 3 Y 1 3 d 1 Y 1 1 d 2 Y 1 1 d 1 X 1
 Y 1 1 d 1 1 d 3 X s 1784 203 m 4 Y 1 1 d 1 Y 1 1 d -1 Y 1 -1 d -2 Y 1 X -1 Y 1 1 d 1 Y 1 2 d 1 Y 3 X 1 Y 1 1 d 1 Y 1 1 d 1 Y 2 -1 d 2 X 1 -1 d 1 -2 d -2 Y 1 X 1 Y 1 1 d 2 Y 1 X 1 Y 1 X 1 -1 d -1 Y 1 -1 d 2 -5 d -2 Y 1 -2 d -1 Y 1 -1 d 1 -1 d 1 -1 d
 1 -1 d 1 -1 d -2 Y 1 X 2 -9 d -1 Y 1 -1 d 1 -1 d 1 -1 d 1 -1 d 1 X 1 -1 d 1 -1 d -2 Y 1 -3 d -1 Y 1 -1 d 1 1 d 1 1 d -1 Y 1 -1 d -2 Y 1 -2 d -1 Y 1 -1 d 1 X 1 -1 d 2 -3 d 1 -1 d 2 X 1 1 d 1 X 1 -1 d 1 -1 d 1 X 1 -1 d 2 X 2 -2 d 1 X 1 Y 2 X 2 -1 d 2
 X 2 -1 d 19 X 2 -1 d 16 X s 1895 154 m 8 X 1 Y 1 X -1 Y 14 X 1 Y 3 X -1 Y 25 X 1 1 d -1 Y 37 X s 1984 154 m 17 X 1 Y 5 X s 2006 155 m -1 Y 9 X 1 Y -1 Y 11 X s 2026 154 m 14 X s black 1 1 1 c 453 430 1769 1007 bf black 1769 1007 m 453 X s 2222 1007 m
 430 Y s 2222 1437 m -453 X s 1769 1437 m -430 Y s 1 1 1 c black
 gsave  2268 1537 0 0 C 1786.88 1358.03 t 0 r /Helvetica findfont 84.4708 sf 0 0 m (Co\25560_hq0) show NC gr  1769 1329 m 453 X s
 gsave  2268 1537 0 0 C 1790.13 1257.32 t 0 r /Helvetica findfont 51.982 sf 0 0 m (Entries ) show NC gr 
 gsave  2268 1537 0 0 C 2011.06 1257.32 t 0 r /Helvetica findfont 51.982 sf 0 0 m ( 896594) show NC gr 
 gsave  2268 1537 0 0 C 1790.13 1150.1 t 0 r /Helvetica findfont 51.982 sf 0 0 m (Mean  ) show NC gr 
 gsave  2268 1537 0 0 C 2040.3 1150.1 t 0 r /Helvetica findfont 51.982 sf 0 0 m (   6824) show NC gr 
 gsave  2268 1537 0 0 C 1790.13 1042.89 t 0 r /Helvetica findfont 51.982 sf 0 0 m (Std Dev   ) show NC gr 
 gsave  2268 1537 0 0 C 2040.3 1042.89 t 0 r /Helvetica findfont 51.982 sf 0 0 m (   3056) show NC gr  227 154 m 1814 X s 227 191 m -37 Y s 272 172 m -18 Y s 317 172 m -18 Y s 363 172 m -18 Y s 408 191 m -37 Y s 454 172 m -18 Y s 499 172 m -18 Y s
 544 172 m -18 Y s 590 191 m -37 Y s 635 172 m -18 Y s 680 172 m -18 Y s 726 172 m -18 Y s 771 191 m -37 Y s 816 172 m -18 Y s 862 172 m -18 Y s 907 172 m -18 Y s 952 191 m -37 Y s 998 172 m -18 Y s 1043 172 m -18 Y s 1089 172 m -18 Y s 1134 191 m
 -37 Y s 1179 172 m -18 Y s 1225 172 m -18 Y s 1270 172 m -18 Y s 1315 191 m -37 Y s 1361 172 m -18 Y s 1406 172 m -18 Y s 1451 172 m -18 Y s 1497 191 m -37 Y s 1542 172 m -18 Y s 1587 172 m -18 Y s 1633 172 m -18 Y s 1678 191 m -37 Y s 1723 172 m
 -18 Y s 1769 172 m -18 Y s 1814 172 m -18 Y s 1860 191 m -37 Y s 1905 172 m -18 Y s 1950 172 m -18 Y s 1996 172 m -18 Y s 2041 191 m -37 Y s
 gsave  2268 1537 0 0 C 211.177 103.964 t 0 r /Helvetica findfont 48.7332 sf 0 0 m (0) show NC gr 
 gsave  2268 1537 0 0 C 350.879 103.964 t 0 r /Helvetica findfont 48.7332 sf 0 0 m (2000) show NC gr 
 gsave  2268 1537 0 0 C 532.816 103.964 t 0 r /Helvetica findfont 48.7332 sf 0 0 m (4000) show NC gr 
 gsave  2268 1537 0 0 C 714.753 103.964 t 0 r /Helvetica findfont 48.7332 sf 0 0 m (6000) show NC gr 
 gsave  2268 1537 0 0 C 896.69 103.964 t 0 r /Helvetica findfont 48.7332 sf 0 0 m (8000) show NC gr 
 gsave  2268 1537 0 0 C 1065.63 103.964 t 0 r /Helvetica findfont 48.7332 sf 0 0 m (10000) show NC gr 
 gsave  2268 1537 0 0 C 1244.32 103.964 t 0 r /Helvetica findfont 48.7332 sf 0 0 m (12000) show NC gr 
 gsave  2268 1537 0 0 C 1426.26 103.964 t 0 r /Helvetica findfont 48.7332 sf 0 0 m (14000) show NC gr 
 gsave  2268 1537 0 0 C 1608.19 103.964 t 0 r /Helvetica findfont 48.7332 sf 0 0 m (16000) show NC gr 
 gsave  2268 1537 0 0 C 1790.13 103.964 t 0 r /Helvetica findfont 48.7332 sf 0 0 m (18000) show NC gr 
 gsave  2268 1537 0 0 C 1972.07 103.964 t 0 r /Helvetica findfont 48.7332 sf 0 0 m (20000) show NC gr 
 gsave  2268 1537 0 0 C 1764.14 55.2309 t 0 r /Helvetica findfont 48.7332 sf 0 0 m (Energy [a.u.]) show NC gr  227 154 m 1229 Y s 281 154 m -54 X s 254 182 m -27 X s 254 210 m -27 X s 254 238 m -27 X s 254 266 m -27 X s 281 294 m -54 X s 254 322 m
 -27 X s 254 350 m -27 X s 254 379 m -27 X s 254 407 m -27 X s 281 435 m -54 X s 254 463 m -27 X s 254 491 m -27 X s 254 519 m -27 X s 254 547 m -27 X s 281 575 m -54 X s 254 603 m -27 X s 254 631 m -27 X s 254 660 m -27 X s 254 688 m -27 X s 281 716
 m -54 X s 254 744 m -27 X s 254 772 m -27 X s 254 800 m -27 X s 254 828 m -27 X s 281 856 m -54 X s 254 884 m -27 X s 254 912 m -27 X s 254 941 m -27 X s 254 969 m -27 X s 281 997 m -54 X s 254 1025 m -27 X s 254 1053 m -27 X s 254 1081 m -27 X s
 254 1109 m -27 X s 281 1137 m -54 X s 254 1165 m -27 X s 254 1194 m -27 X s 254 1222 m -27 X s 254 1250 m -27 X s 281 1278 m -54 X s 281 1278 m -54 X s 254 1306 m -27 X s 254 1334 m -27 X s 254 1362 m -27 X s
 gsave  2268 1537 0 0 C 188.435 136.453 t 0 r /Helvetica findfont 48.7332 sf 0 0 m (0) show NC gr 
 gsave  2268 1537 0 0 C 107.213 276.155 t 0 r /Helvetica findfont 48.7332 sf 0 0 m (1000) show NC gr 
 gsave  2268 1537 0 0 C 107.213 415.856 t 0 r /Helvetica findfont 48.7332 sf 0 0 m (2000) show NC gr 
 gsave  2268 1537 0 0 C 107.213 558.807 t 0 r /Helvetica findfont 48.7332 sf 0 0 m (3000) show NC gr 
 gsave  2268 1537 0 0 C 107.213 698.509 t 0 r /Helvetica findfont 48.7332 sf 0 0 m (4000) show NC gr 
 gsave  2268 1537 0 0 C 107.213 838.21 t 0 r /Helvetica findfont 48.7332 sf 0 0 m (5000) show NC gr 
 gsave  2268 1537 0 0 C 107.213 977.912 t 0 r /Helvetica findfont 48.7332 sf 0 0 m (6000) show NC gr 
 gsave  2268 1537 0 0 C 107.213 1120.86 t 0 r /Helvetica findfont 48.7332 sf 0 0 m (7000) show NC gr 
 gsave  2268 1537 0 0 C 107.213 1260.56 t 0 r /Helvetica findfont 48.7332 sf 0 0 m (8000) show NC gr 
 gsave  2268 1537 0 0 C 58.4798 695.26 t 90 r /Helvetica findfont 48.7332 sf 0 0 m (Counts) show NC gr  1 1 1 c 453 430 1769 1007 bf black 1769 1007 m 453 X s 2222 1007 m 430 Y s 2222 1437 m -453 X s 1769 1437 m -430 Y s 1 1 1 c black
 gsave  2268 1537 0 0 C 1786.88 1358.03 t 0 r /Helvetica findfont 84.4708 sf 0 0 m (Co\25560_hq0) show NC gr  1769 1329 m 453 X s
 gsave  2268 1537 0 0 C 1790.13 1257.32 t 0 r /Helvetica findfont 51.982 sf 0 0 m (Entries ) show NC gr 
 gsave  2268 1537 0 0 C 2011.06 1257.32 t 0 r /Helvetica findfont 51.982 sf 0 0 m ( 896594) show NC gr 
 gsave  2268 1537 0 0 C 1790.13 1150.1 t 0 r /Helvetica findfont 51.982 sf 0 0 m (Mean  ) show NC gr 
 gsave  2268 1537 0 0 C 2040.3 1150.1 t 0 r /Helvetica findfont 51.982 sf 0 0 m (   6824) show NC gr 
 gsave  2268 1537 0 0 C 1790.13 1042.89 t 0 r /Helvetica findfont 51.982 sf 0 0 m (Std Dev   ) show NC gr 
 gsave  2268 1537 0 0 C 2040.3 1042.89 t 0 r /Helvetica findfont 51.982 sf 0 0 m (   3056) show NC gr  1 1 1 c black
 gsave  2268 1537 0 0 C 948.672 1461.99 t 0 r /Helvetica findfont 74.7242 sf 0 0 m (Co\25560_hq0) show NC gr 
 gr  gr showpage
end
%%EOF
