%!PS-Adobe-2.0 EPSF-2.0
%%BoundingBox:  0 0 567 384
%%Title: Cs-137_hq0.eps: Cs-137_hq0
%%Creator: ROOT Version 6.13/01
%%CreationDate: Sat May 12 15:01:34 2018
%%DocumentNeededResources: ProcSet (FontSetInit)
%%EndComments
%%BeginProlog
80 dict begin
/s {stroke} def /l {lineto} def /m {moveto} def /t {translate} def
/r {rotate} def /rl {roll}  def /R {repeat} def
/d {rlineto} def /rm {rmoveto} def /gr {grestore} def /f {eofill} def
/c {setrgbcolor} def /black {0 setgray} def /sd {setdash} def
/cl {closepath} def /sf {scalefont setfont} def /lw {setlinewidth} def
/box {m dup 0 exch d exch 0 d 0 exch neg d cl} def
/NC{systemdict begin initclip end}def/C{NC box clip newpath}def
/bl {box s} def /bf {gsave box gsave f grestore 1 lw [] 0 sd s grestore} def /Y { 0 exch d} def /X { 0 d} def 
/K {{pop pop 0 moveto} exch kshow} bind def
/ita {/ang 15 def gsave [1 0 ang dup sin exch cos div 1 0 0] concat} def 
/mp {newpath /y exch def /x exch def} def
/side {[w .77 mul w .23 mul] .385 w mul sd w 0 l currentpoint t -144 r} def
/mr {mp x y w2 0 360 arc} def /m24 {mr s} def /m20 {mr f} def
/mb {mp x y w2 add m w2 neg 0 d 0 w neg d w 0 d 0 w d cl} def
/mt {mp x y w2 add m w2 neg w neg d w 0 d cl} def
/w4 {w 4 div} def
/w6 {w 6 div} def
/w8 {w 8 div} def
/m21 {mb f} def /m25 {mb s} def /m22 {mt f} def /m26{mt s} def
/m23 {mp x y w2 sub m w2 w d w neg 0 d cl f} def
/m27 {mp x y w2 add m w3 neg w2 neg d w3 w2 neg d w3 w2 d cl s} def
/m28 {mp x w2 sub y w2 sub w3 add m w3 0 d  0 w3 neg d w3 0 d 0 w3 d w3 0 d  0 w3 d w3 neg 0 d 0 w3 d w3 neg 0 d 0 w3 neg d w3 neg 0 d cl s } def
/m29 {mp gsave x w2 sub y w2 add w3 sub m currentpoint t 4 {side} repeat cl fill gr} def
/m30 {mp gsave x w2 sub y w2 add w3 sub m currentpoint t 4 {side} repeat cl s gr} def
/m31 {mp x y w2 sub m 0 w d x w2 sub y m w 0 d x w2 sub y w2 add m w w neg d x w2 sub y w2 sub m w w d s} def
/m32 {mp x y w2 sub m w2 w d w neg 0 d cl s} def
/m33 {mp x y w2 add m w3 neg w2 neg d w3 w2 neg d w3 w2 d cl f} def
/m34 {mp x w2 sub y w2 sub w3 add m w3 0 d  0 w3 neg d w3 0 d 0 w3 d w3 0 d  0 w3 d w3 neg 0 d 0 w3 d w3 neg 0 d 0 w3 neg d w3 neg 0 d cl f } def
/m35 {mp x y w2 add m w2 neg w2 neg d w2 w2 neg d w2 w2 d w2 neg w2 d x y w2 sub m 0 w d x w2 sub y m w 0 d s} def
/m36 {mb x w2 sub y w2 add m w w neg d x w2 sub y w2 sub m w w d s} def
/m37 {mp x y m w4 neg w2 d w4 neg w2 neg d w2 0 d  w4 neg w2 neg d w2 0 d w4 neg w2 d w2 0 d w4 neg w2 d w4 neg w2 neg d cl s} def
/m38 {mp x w4 sub y w2 add m w4 neg w4 neg d 0 w2 neg d w4 w4 neg d w2 0 d w4 w4 d 0 w2 d w4 neg w4 d w2 neg 0 d x y w2 sub m 0 w d x w2 sub y m w 0 d cl s} def
/m39 {mp x y m w4 neg w2 d w4 neg w2 neg d w2 0 d  w4 neg w2 neg d w2 0 d w4 neg w2 d w2 0 d w4 neg w2 d w4 neg w2 neg d cl f} def
/m40 {mp x y m w4 w2 d w4 w4 neg d w2 neg w4 neg d w2 w4 neg d w4 neg w4 neg d w4 neg w2 d w4 neg w2 neg d w4 neg w4 d w2 w4 d w2 neg w4 d w4 w4 d w4 w2 neg d cl s} def
/m41 {mp x y m w4 w2 d w4 w4 neg d w2 neg w4 neg d w2 w4 neg d w4 neg w4 neg d w4 neg w2 d w4 neg w2 neg d w4 neg w4 d w2 w4 d w2 neg w4 d w4 w4 d w4 w2 neg d cl f} def
/m42 {mp x y w2 add m w8 neg w2 -3 4 div mul d w2 -3 4 div mul w8 neg d w2 3 4 div mul w8 neg d w8 w2 -3 4 div mul d w8 w2 3 4 div mul d w2 3 4 div mul w8 d w2 -3 4 div mul w8 d w8 neg w2 3 4 div mul d cl s} def
/m43 {mp x y w2 add m w8 neg w2 -3 4 div mul d w2 -3 4 div mul w8 neg d w2 3 4 div mul w8 neg d w8 w2 -3 4 div mul d w8 w2 3 4 div mul d w2 3 4 div mul w8 d w2 -3 4 div mul w8 d w8 neg w2 3 4 div mul d cl f} def
/m44 {mp x y m w6 neg w2 d w2 2 3 div mul 0 d w6 neg w2 neg d w2 w6 d 0 w2 -2 3 div mul d w2 neg w6 d w6 w2 neg d w2 -2 3 div mul 0 d w6 w2 d w2 neg w6 neg d 0 w2 2 3 div mul d w2 w6 neg d cl s} def
/m45 {mp x y m w6 neg w2 d w2 2 3 div mul 0 d w6 neg w2 neg d w2 w6 d 0 w2 -2 3 div mul d w2 neg w6 d w6 w2 neg d w2 -2 3 div mul 0 d w6 w2 d w2 neg w6 neg d 0 w2 2 3 div mul d w2 w6 neg d cl f} def
/m46 {mp x y w4 add m w4 neg w4 d w4 neg w4 neg d  w4 w4 neg d w4 neg w4 neg d w4 w4 neg d w4 w4 d w4 w4 neg d w4 w4 d w4 neg w4 d w4 w4 d w4 neg w4 d w4 neg w4 neg d cl s} def
/m47 {mp x y w4 add m w4 neg w4 d w4 neg w4 neg d w4 w4 neg d w4 neg w4 neg d  w4 w4 neg d w4 w4 d w4 w4 neg d w4 w4 d w4 neg w4 d w4 w4 d w4 neg w4 d w4 neg w4 neg d cl f} def
/m48 {mp x y w4 add m w4 neg w4 d w4 neg w4 neg d w4 w4 neg d  w4 neg w4 neg d w4 w4 neg d w4 w4 d w4 w4 neg d w4 w4 d w4 neg w4 d w4 w4 d w4 neg w4 d w4 neg w4 neg d  w4 w4 neg d w4 neg w4 neg d w4 neg w4 d w4 w4 d cl f} def
/m49 {mp x w2 sub w3 add y w2 sub w3 add m  0 w3 neg d w3 0 d 0 w3 d w3 0 d 0 w3 d w3 neg 0 d 0 w3 d w3 neg 0 d 0 w3 neg d w3 neg 0 d 0 w3 neg d w3 0 d 0 w3 d w3 0 d 0 w3 neg d w3 neg 0 d cl f } def
/m2 {mp x y w2 sub m 0 w d x w2 sub y m w 0 d s} def
/m5 {mp x w2 sub y w2 sub m w w d x w2 sub y w2 add m w w neg d s} def
%%IncludeResource: ProcSet (FontSetInit)
%%IncludeResource: font Times-Roman
%%IncludeResource: font Times-Italic
%%IncludeResource: font Times-Bold
%%IncludeResource: font Times-BoldItalic
%%IncludeResource: font Helvetica
%%IncludeResource: font Helvetica-Oblique
%%IncludeResource: font Helvetica-Bold
%%IncludeResource: font Helvetica-BoldOblique
%%IncludeResource: font Courier
%%IncludeResource: font Courier-Oblique
%%IncludeResource: font Courier-Bold
%%IncludeResource: font Courier-BoldOblique
%%IncludeResource: font Symbol
%%IncludeResource: font ZapfDingbats
/reEncode {exch findfont dup length dict begin {1 index /FID eq  {pop pop} {def} ifelse } forall /Encoding exch def currentdict end dup /FontName get exch definefont pop } def [/Times-Bold /Times-Italic /Times-BoldItalic /Helvetica /Helvetica-Oblique
 /Helvetica-Bold /Helvetica-BoldOblique /Courier /Courier-Oblique /Courier-Bold /Courier-BoldOblique /Times-Roman /AvantGarde-Book /AvantGarde-BookOblique /AvantGarde-Demi /AvantGarde-DemiOblique /Bookman-Demi /Bookman-DemiItalic /Bookman-Light
 /Bookman-LightItalic /Helvetica-Narrow /Helvetica-Narrow-Bold /Helvetica-Narrow-BoldOblique /Helvetica-Narrow-Oblique /NewCenturySchlbk-Roman /NewCenturySchlbk-Bold /NewCenturySchlbk-BoldItalic /NewCenturySchlbk-Italic /Palatino-Bold
 /Palatino-BoldItalic /Palatino-Italic /Palatino-Roman ] {ISOLatin1Encoding reEncode } forall
%%EndProlog
%%BeginSetup
%%EndSetup
newpath  gsave  .25 .25 scale  gsave  0 0 t black[  ] 0 sd 3 lw 1 1 1 c 2268 1537 0 0 bf black 1 1 1 c 1814 1229 227 154 bf black 1814 1229 227 154 bl 1 1 1 c 1814 1229 227 154 bf black 1814 1229 227 154 bl 0 0 0.6 c 1 1 1 c black 0 0 0.6 c 229 154 m
 81 X 1 1 d 23 X 1 1 d 3 X 1 -1 d 16 X 1 Y 6 X -1 Y 5 X 2 1 d 3 X 1 -1 d 3 X 1 1 d 15 X 1 Y 26 X 1 1 d 3 X 1 1 d 7 X 1 1 d 1 X s 431 160 m 2 1 d 2 1 d 4 X 2 1 d 2 1 d 4 2 d 3 1 d 1 1 d 5 3 d 4 2 d 4 2 d 4 4 d 4 2 d 2 2 d 2 3 d 3 3 d 1 1 d 4 2 d 2 2 d
 2 4 d 1 1 d 1 1 d 2 1 d 1 X 1 2 d 3 6 d 4 6 d 1 2 d 1 4 d 1 3 d 1 2 d 1 1 d 2 2 d 1 1 d 1 1 d 1 3 d 2 7 d 1 Y 4 11 d 4 11 d 1 1 d 1 4 d 3 11 d 1 5 d 1 6 d 1 2 d 1 2 d 1 Y 4 X 1 1 d 3 Y 1 5 d 1 4 d 1 3 d 1 1 d 2 3 d 1 2 d 1 Y 1 3 d 1 4 d 1 7 d 1 3 d
 2 Y 1 2 d 3 4 d 4 4 d 1 1 d 2 Y 1 4 d 2 4 d 2 Y 1 1 d 1 Y 1 X 3 -2 d 1 1 d 3 1 d 2 2 d 1 1 d 2 X 3 -4 d 1 X 2 2 d 1 1 d 4 -1 d 1 1 d 1 3 d 1 3 d 1 1 d 1 X 1 -1 d 3 -5 d 2 -2 d 1 -1 d 1 X 1 1 d 1 1 d 2 2 d 2 2 d 2 X 1 -1 d 1 -2 d 1 -4 d 1 -1 d 1 -1 d
 1 1 d 2 1 d 1 Y 1 1 d 1 3 d 2 2 d 1 X 4 -3 d 3 -3 d 1 X 2 -1 d 3 X 2 2 d 1 X s 633 364 m 1 2 d 1 Y 1 1 d 1 1 d 1 X 1 -1 d -1 Y 1 -2 d 1 -2 d 1 -1 d -1 Y 2 X 1 2 d 1 X 2 1 d 2 -1 d 3 -2 d 2 X 1 2 d 1 2 d 1 1 d 2 X 2 -4 d 1 X 1 1 d 2 1 d 2 X -1 Y 2 -2
 d 1 -1 d 1 X 1 1 d 1 1 d 1 2 d 1 1 d 2 3 d 1 Y 2 X -1 Y 2 -3 d -1 Y 1 -1 d 2 X 1 1 d 1 2 d 5 3 d 1 Y 2 2 d 1 1 d 1 X 1 -1 d -2 Y 2 -4 d -1 Y 1 -1 d 1 1 d 1 1 d 1 1 d 1 Y 1 X -1 Y 1 -1 d -1 Y 2 -5 d -1 Y 1 X -1 Y 1 X 1 Y 1 1 d 3 Y 1 3 d 1 1 d 1 Y 1 1
 d 1 1 d 3 X 1 -2 d 1 -1 d 1 X 1 1 d 1 1 d 2 Y 1 2 d 1 1 d 1 Y 1 X 4 -9 d 1 -1 d 1 -1 d 2 X 1 1 d 1 2 d 1 1 d 1 X 1 -2 d 1 -2 d 1 -5 d 1 -1 d -1 Y 1 -1 d 6 X 1 1 d -1 Y 3 X 1 -1 d 1 -1 d 4 -7 d -1 Y 2 X 1 -1 d 1 X 1 -2 d 1 -1 d 1 -2 d 1 -1 d 1 -2 d 3
 -10 d 2 -4 d 1 -2 d 1 -2 d 1 -1 d 1 X 1 1 d 1 -1 d 1 -1 d 1 -2 d 1 -2 d 1 -5 d 3 -10 d 1 -2 d -1 Y 1 -1 d 1 -1 d 2 X 1 -1 d -1 Y 2 -3 d 2 -3 d 1 -3 d 2 -4 d -1 Y 1 -1 d 4 X 1 -1 d 2 -5 d 1 -1 d 2 X 1 1 d 1 X -1 Y 4 -4 d 1 -1 d 3 -2 d -1 Y 5 -6 d 1 1
 d 2 1 d 1 X -1 Y 1 -1 d 2 -5 d 1 X 1 -1 d 1 -1 d 2 X s 835 248 m 4 -1 d 4 X 4 1 d 4 -4 d 5 3 d 4 -5 d 4 -2 d 4 3 d 4 -6 d 4 2 d 4 -7 d 2 2 d 2 5 d 5 X 4 2 d 4 3 d 4 -4 d 4 3 d 4 X 4 5 d 4 2 d 2 4 d 2 6 d 1 1 d 4 -1 d 4 7 d 4 3 d 3 7 d 1 4 d 4 16 d 4
 19 d 4 18 d 3 17 d 2 11 d 3 25 d 1 9 d 2 21 d 2 22 d 2 28 d 2 29 d 2 41 d 2 26 d 3 57 d 1 16 d 3 61 d 1 16 d 2 31 d 2 64 d 4 92 d 2 45 d 3 58 d 2 62 d 2 32 d 4 77 d 4 Y 1 28 d 2 42 d 1 18 d 6 Y 1 17 d 1 14 d 1 11 d 1 6 d 1 5 d 1 1 d 2 -1 d 2 -4 d 2
 -9 d 3 -10 d 1 -6 d -2 Y 2 -13 d 1 -15 d 1 -21 d 1 -6 d 1 -18 d 3 -71 d 3 -65 d 1 -28 d 1 -41 d 2 -43 d 1 -34 d s 1037 939 m 2 -46 d 1 -46 d 1 -24 d 1 -34 d 3 -68 d 4 -102 d 3 -72 d 1 -24 d 2 -26 d 2 -32 d 1 -18 d 2 -34 d 1 -23 d 1 -7 d 1 -18 d 2
 -23 d 1 -7 d 2 -17 d 2 -21 d 3 -27 d 1 -6 d 2 -12 d 2 -10 d 3 -11 d 1 -4 d 3 -9 d 1 -3 d 5 -7 d 4 -7 d 4 -8 d 4 X 4 -1 d 4 -7 d 2 X 2 1 d 4 -4 d 5 -2 d 4 -6 d 1 1 d 3 3 d 4 -4 d 4 1 d 4 -1 d 4 1 d 4 -5 d 5 X 4 2 d 4 1 d 4 -1 d 4 1 d 4 -2 d 4 1 d 4 X
 5 -2 d 4 1 d 4 X 4 2 d 4 -1 d 4 -1 d 4 1 d 4 1 d 5 1 d 4 -2 d 4 -1 d 4 1 d 4 1 d s 1239 173 m -1 Y 7 X 1 Y 2 X 1 -1 d 8 X 1 -1 d 6 X 1 Y 2 X 1 1 d 6 X 1 -1 d 4 X 1 -1 d 1 X 1 -1 d 1 -1 d 1 -1 d 3 X 1 Y 1 X 1 1 d 4 X 1 1 d 1 X 1 1 d 3 X 3 -1 d 3 X 1
 1 d -1 Y 2 X 1 -1 d 16 X 1 Y 10 X 4 -2 d 4 X 1 1 d 9 X -1 Y 12 X 1 1 d 3 X -1 Y 1 X -1 Y 1 X -1 Y 5 X 1 1 d 1 X 1 1 d 2 X 3 -1 d 1 X 1 -1 d 5 X 1 Y 3 X -1 Y 11 X 1 Y 3 X 1 Y 1 X 1 -1 d 1 X -1 Y 1 X -1 Y 4 X 1 1 d 1 X 1 1 d 4 X -1 Y 1 -1 d -1 Y 3 X 1
 Y 1 X 1 Y 3 X -1 Y 6 X 1 Y 4 X -1 Y 1 X s 1441 166 m 1 1 d 6 X 1 -1 d 7 X -1 Y 1 X 1 1 d 1 X 1 1 d 11 X 3 -2 d 8 X 1 Y 5 X -1 Y 2 X 1 -1 d 3 X 1 Y 3 X 2 -1 d 1 X 1 Y 3 X 1 Y 2 X -1 Y 1 X 1 -1 d 3 X 1 1 d 11 X 2 -1 d 6 X 2 -1 d 7 X 2 1 d 8 X 3 -1 d 8
 X 1 -1 d 1 X 1 1 d 4 X 1 -1 d 7 X 1 1 d 3 X 3 -1 d 1 X -1 Y 8 X 2 1 d 2 X 4 -1 d 3 X 1 Y 10 X 1 -1 d 9 X 1 1 d 9 X -1 Y 4 -1 d 3 X 1 1 d 4 X s 1643 161 m 2 X 1 Y 3 X 1 -1 d 1 X -1 Y 7 X 1 Y 1 X 1 Y 3 X 2 -1 d 10 X 1 1 d 2 X 4 -1 d 2 X 1 1 d 3 X 1 1
 d 7 X 1 -1 d 1 X -1 Y 2 X 1 Y 11 X 4 -1 d 1 X 1 Y 1 X 1 1 d 1 X 1 Y 1 X 3 -1 d 4 -1 d 7 X 1 Y 7 X 1 -1 d 2 X 1 Y 2 X 1 Y 3 X 3 -1 d 9 X 4 -1 d 1 1 d 3 X 1 Y 20 X 1 1 d 1 X 1 1 d 6 X -1 Y 1 X 2 -1 d 1 X 1 -1 d 5 X 1 1 d 6 X 1 Y 11 X 5 -2 d 2 X -1 Y 2
 X 1 Y 2 X 1 Y 1 X 1 Y 7 X -1 Y 1 X 1 -1 d -1 Y s 1845 162 m 5 X 2 -1 d 6 X -1 Y 13 X 3 -2 d 1 X 1 -1 d 2 X -1 Y 5 X 1 Y 4 X 3 -1 d 10 X 2 -1 d 4 X 1 1 d 2 X 1 -1 d 6 X 2 -1 d 16 X 1 1 d 2 X 2 -1 d 100 X s black 1 1 1 c 453 430 1769 1007 bf black
 1769 1007 m 453 X s 2222 1007 m 430 Y s 2222 1437 m -453 X s 1769 1437 m -430 Y s 1 1 1 c black
 gsave  2268 1537 0 0 C 1790.13 1361.28 t 0 r /Helvetica findfont 74.7242 sf 0 0 m (Cs\255137_hq0) show NC gr  1769 1329 m 453 X s
 gsave  2268 1537 0 0 C 1790.13 1257.32 t 0 r /Helvetica findfont 51.982 sf 0 0 m (Entries ) show NC gr 
 gsave  2268 1537 0 0 C 2011.06 1257.32 t 0 r /Helvetica findfont 51.982 sf 0 0 m ( 610460) show NC gr 
 gsave  2268 1537 0 0 C 1790.13 1150.1 t 0 r /Helvetica findfont 51.982 sf 0 0 m (Mean  ) show NC gr 
 gsave  2268 1537 0 0 C 2040.3 1150.1 t 0 r /Helvetica findfont 51.982 sf 0 0 m (   4064) show NC gr 
 gsave  2268 1537 0 0 C 1790.13 1042.89 t 0 r /Helvetica findfont 51.982 sf 0 0 m (Std Dev   ) show NC gr 
 gsave  2268 1537 0 0 C 2040.3 1042.89 t 0 r /Helvetica findfont 51.982 sf 0 0 m (   1384) show NC gr  227 154 m 1814 X s 227 191 m -37 Y s 309 172 m -18 Y s 392 172 m -18 Y s 474 172 m -18 Y s 557 191 m -37 Y s 639 172 m -18 Y s 722 172 m -18 Y s
 804 172 m -18 Y s 886 191 m -37 Y s 969 172 m -18 Y s 1051 172 m -18 Y s 1134 172 m -18 Y s 1216 191 m -37 Y s 1299 172 m -18 Y s 1381 172 m -18 Y s 1464 172 m -18 Y s 1546 191 m -37 Y s 1629 172 m -18 Y s 1711 172 m -18 Y s 1794 172 m -18 Y s 1876
 191 m -37 Y s 1876 191 m -37 Y s 1958 172 m -18 Y s
 gsave  2268 1537 0 0 C 211.177 103.964 t 0 r /Helvetica findfont 48.7332 sf 0 0 m (0) show NC gr 
 gsave  2268 1537 0 0 C 500.327 103.964 t 0 r /Helvetica findfont 48.7332 sf 0 0 m (2000) show NC gr 
 gsave  2268 1537 0 0 C 828.464 103.964 t 0 r /Helvetica findfont 48.7332 sf 0 0 m (4000) show NC gr 
 gsave  2268 1537 0 0 C 1159.85 103.964 t 0 r /Helvetica findfont 48.7332 sf 0 0 m (6000) show NC gr 
 gsave  2268 1537 0 0 C 1487.99 103.964 t 0 r /Helvetica findfont 48.7332 sf 0 0 m (8000) show NC gr 
 gsave  2268 1537 0 0 C 1806.38 103.964 t 0 r /Helvetica findfont 48.7332 sf 0 0 m (10000) show NC gr 
 gsave  2268 1537 0 0 C 1764.14 55.2309 t 0 r /Helvetica findfont 48.7332 sf 0 0 m (Energy [a.u.]) show NC gr  227 154 m 1229 Y s 281 154 m -54 X s 254 187 m -27 X s 254 219 m -27 X s 254 252 m -27 X s 281 285 m -54 X s 254 318 m -27 X s 254 351 m
 -27 X s 254 384 m -27 X s 281 417 m -54 X s 254 450 m -27 X s 254 483 m -27 X s 254 515 m -27 X s 281 548 m -54 X s 254 581 m -27 X s 254 614 m -27 X s 254 647 m -27 X s 281 680 m -54 X s 254 713 m -27 X s 254 746 m -27 X s 254 779 m -27 X s 281 811
 m -54 X s 254 844 m -27 X s 254 877 m -27 X s 254 910 m -27 X s 281 943 m -54 X s 254 976 m -27 X s 254 1009 m -27 X s 254 1042 m -27 X s 281 1075 m -54 X s 254 1107 m -27 X s 254 1140 m -27 X s 254 1173 m -27 X s 281 1206 m -54 X s 254 1239 m -27 X
 s 254 1272 m -27 X s 254 1305 m -27 X s 281 1338 m -54 X s 281 1338 m -54 X s 254 1371 m -27 X s
 gsave  2268 1537 0 0 C 188.435 136.453 t 0 r /Helvetica findfont 48.7332 sf 0 0 m (0) show NC gr 
 gsave  2268 1537 0 0 C 107.213 266.408 t 0 r /Helvetica findfont 48.7332 sf 0 0 m (2000) show NC gr 
 gsave  2268 1537 0 0 C 107.213 399.612 t 0 r /Helvetica findfont 48.7332 sf 0 0 m (4000) show NC gr 
 gsave  2268 1537 0 0 C 107.213 529.567 t 0 r /Helvetica findfont 48.7332 sf 0 0 m (6000) show NC gr 
 gsave  2268 1537 0 0 C 107.213 662.771 t 0 r /Helvetica findfont 48.7332 sf 0 0 m (8000) show NC gr 
 gsave  2268 1537 0 0 C 81.2219 792.726 t 0 r /Helvetica findfont 48.7332 sf 0 0 m (10000) show NC gr 
 gsave  2268 1537 0 0 C 81.2219 925.93 t 0 r /Helvetica findfont 48.7332 sf 0 0 m (12000) show NC gr 
 gsave  2268 1537 0 0 C 81.2219 1055.89 t 0 r /Helvetica findfont 48.7332 sf 0 0 m (14000) show NC gr 
 gsave  2268 1537 0 0 C 81.2219 1189.09 t 0 r /Helvetica findfont 48.7332 sf 0 0 m (16000) show NC gr 
 gsave  2268 1537 0 0 C 81.2219 1319.04 t 0 r /Helvetica findfont 48.7332 sf 0 0 m (18000) show NC gr 
 gsave  2268 1537 0 0 C 32.4888 695.26 t 90 r /Helvetica findfont 48.7332 sf 0 0 m (Counts) show NC gr  1 1 1 c 453 430 1769 1007 bf black 1769 1007 m 453 X s 2222 1007 m 430 Y s 2222 1437 m -453 X s 1769 1437 m -430 Y s 1 1 1 c black
 gsave  2268 1537 0 0 C 1790.13 1361.28 t 0 r /Helvetica findfont 74.7242 sf 0 0 m (Cs\255137_hq0) show NC gr  1769 1329 m 453 X s
 gsave  2268 1537 0 0 C 1790.13 1257.32 t 0 r /Helvetica findfont 51.982 sf 0 0 m (Entries ) show NC gr 
 gsave  2268 1537 0 0 C 2011.06 1257.32 t 0 r /Helvetica findfont 51.982 sf 0 0 m ( 610460) show NC gr 
 gsave  2268 1537 0 0 C 1790.13 1150.1 t 0 r /Helvetica findfont 51.982 sf 0 0 m (Mean  ) show NC gr 
 gsave  2268 1537 0 0 C 2040.3 1150.1 t 0 r /Helvetica findfont 51.982 sf 0 0 m (   4064) show NC gr 
 gsave  2268 1537 0 0 C 1790.13 1042.89 t 0 r /Helvetica findfont 51.982 sf 0 0 m (Std Dev   ) show NC gr 
 gsave  2268 1537 0 0 C 2040.3 1042.89 t 0 r /Helvetica findfont 51.982 sf 0 0 m (   1384) show NC gr  1 1 1 c black
 gsave  2268 1537 0 0 C 929.179 1461.99 t 0 r /Helvetica findfont 74.7242 sf 0 0 m (Cs\255137_hq0) show NC gr 
 gr  gr showpage
end
%%EOF
