%!PS-Adobe-2.0 EPSF-2.0
%%BoundingBox:  0 0 567 384
%%Title: KCl_hq0.eps: KCl_hq0
%%Creator: ROOT Version 6.13/01
%%CreationDate: Sat May 12 15:01:34 2018
%%DocumentNeededResources: ProcSet (FontSetInit)
%%EndComments
%%BeginProlog
80 dict begin
/s {stroke} def /l {lineto} def /m {moveto} def /t {translate} def
/r {rotate} def /rl {roll}  def /R {repeat} def
/d {rlineto} def /rm {rmoveto} def /gr {grestore} def /f {eofill} def
/c {setrgbcolor} def /black {0 setgray} def /sd {setdash} def
/cl {closepath} def /sf {scalefont setfont} def /lw {setlinewidth} def
/box {m dup 0 exch d exch 0 d 0 exch neg d cl} def
/NC{systemdict begin initclip end}def/C{NC box clip newpath}def
/bl {box s} def /bf {gsave box gsave f grestore 1 lw [] 0 sd s grestore} def /Y { 0 exch d} def /X { 0 d} def 
/K {{pop pop 0 moveto} exch kshow} bind def
/ita {/ang 15 def gsave [1 0 ang dup sin exch cos div 1 0 0] concat} def 
/mp {newpath /y exch def /x exch def} def
/side {[w .77 mul w .23 mul] .385 w mul sd w 0 l currentpoint t -144 r} def
/mr {mp x y w2 0 360 arc} def /m24 {mr s} def /m20 {mr f} def
/mb {mp x y w2 add m w2 neg 0 d 0 w neg d w 0 d 0 w d cl} def
/mt {mp x y w2 add m w2 neg w neg d w 0 d cl} def
/w4 {w 4 div} def
/w6 {w 6 div} def
/w8 {w 8 div} def
/m21 {mb f} def /m25 {mb s} def /m22 {mt f} def /m26{mt s} def
/m23 {mp x y w2 sub m w2 w d w neg 0 d cl f} def
/m27 {mp x y w2 add m w3 neg w2 neg d w3 w2 neg d w3 w2 d cl s} def
/m28 {mp x w2 sub y w2 sub w3 add m w3 0 d  0 w3 neg d w3 0 d 0 w3 d w3 0 d  0 w3 d w3 neg 0 d 0 w3 d w3 neg 0 d 0 w3 neg d w3 neg 0 d cl s } def
/m29 {mp gsave x w2 sub y w2 add w3 sub m currentpoint t 4 {side} repeat cl fill gr} def
/m30 {mp gsave x w2 sub y w2 add w3 sub m currentpoint t 4 {side} repeat cl s gr} def
/m31 {mp x y w2 sub m 0 w d x w2 sub y m w 0 d x w2 sub y w2 add m w w neg d x w2 sub y w2 sub m w w d s} def
/m32 {mp x y w2 sub m w2 w d w neg 0 d cl s} def
/m33 {mp x y w2 add m w3 neg w2 neg d w3 w2 neg d w3 w2 d cl f} def
/m34 {mp x w2 sub y w2 sub w3 add m w3 0 d  0 w3 neg d w3 0 d 0 w3 d w3 0 d  0 w3 d w3 neg 0 d 0 w3 d w3 neg 0 d 0 w3 neg d w3 neg 0 d cl f } def
/m35 {mp x y w2 add m w2 neg w2 neg d w2 w2 neg d w2 w2 d w2 neg w2 d x y w2 sub m 0 w d x w2 sub y m w 0 d s} def
/m36 {mb x w2 sub y w2 add m w w neg d x w2 sub y w2 sub m w w d s} def
/m37 {mp x y m w4 neg w2 d w4 neg w2 neg d w2 0 d  w4 neg w2 neg d w2 0 d w4 neg w2 d w2 0 d w4 neg w2 d w4 neg w2 neg d cl s} def
/m38 {mp x w4 sub y w2 add m w4 neg w4 neg d 0 w2 neg d w4 w4 neg d w2 0 d w4 w4 d 0 w2 d w4 neg w4 d w2 neg 0 d x y w2 sub m 0 w d x w2 sub y m w 0 d cl s} def
/m39 {mp x y m w4 neg w2 d w4 neg w2 neg d w2 0 d  w4 neg w2 neg d w2 0 d w4 neg w2 d w2 0 d w4 neg w2 d w4 neg w2 neg d cl f} def
/m40 {mp x y m w4 w2 d w4 w4 neg d w2 neg w4 neg d w2 w4 neg d w4 neg w4 neg d w4 neg w2 d w4 neg w2 neg d w4 neg w4 d w2 w4 d w2 neg w4 d w4 w4 d w4 w2 neg d cl s} def
/m41 {mp x y m w4 w2 d w4 w4 neg d w2 neg w4 neg d w2 w4 neg d w4 neg w4 neg d w4 neg w2 d w4 neg w2 neg d w4 neg w4 d w2 w4 d w2 neg w4 d w4 w4 d w4 w2 neg d cl f} def
/m42 {mp x y w2 add m w8 neg w2 -3 4 div mul d w2 -3 4 div mul w8 neg d w2 3 4 div mul w8 neg d w8 w2 -3 4 div mul d w8 w2 3 4 div mul d w2 3 4 div mul w8 d w2 -3 4 div mul w8 d w8 neg w2 3 4 div mul d cl s} def
/m43 {mp x y w2 add m w8 neg w2 -3 4 div mul d w2 -3 4 div mul w8 neg d w2 3 4 div mul w8 neg d w8 w2 -3 4 div mul d w8 w2 3 4 div mul d w2 3 4 div mul w8 d w2 -3 4 div mul w8 d w8 neg w2 3 4 div mul d cl f} def
/m44 {mp x y m w6 neg w2 d w2 2 3 div mul 0 d w6 neg w2 neg d w2 w6 d 0 w2 -2 3 div mul d w2 neg w6 d w6 w2 neg d w2 -2 3 div mul 0 d w6 w2 d w2 neg w6 neg d 0 w2 2 3 div mul d w2 w6 neg d cl s} def
/m45 {mp x y m w6 neg w2 d w2 2 3 div mul 0 d w6 neg w2 neg d w2 w6 d 0 w2 -2 3 div mul d w2 neg w6 d w6 w2 neg d w2 -2 3 div mul 0 d w6 w2 d w2 neg w6 neg d 0 w2 2 3 div mul d w2 w6 neg d cl f} def
/m46 {mp x y w4 add m w4 neg w4 d w4 neg w4 neg d  w4 w4 neg d w4 neg w4 neg d w4 w4 neg d w4 w4 d w4 w4 neg d w4 w4 d w4 neg w4 d w4 w4 d w4 neg w4 d w4 neg w4 neg d cl s} def
/m47 {mp x y w4 add m w4 neg w4 d w4 neg w4 neg d w4 w4 neg d w4 neg w4 neg d  w4 w4 neg d w4 w4 d w4 w4 neg d w4 w4 d w4 neg w4 d w4 w4 d w4 neg w4 d w4 neg w4 neg d cl f} def
/m48 {mp x y w4 add m w4 neg w4 d w4 neg w4 neg d w4 w4 neg d  w4 neg w4 neg d w4 w4 neg d w4 w4 d w4 w4 neg d w4 w4 d w4 neg w4 d w4 w4 d w4 neg w4 d w4 neg w4 neg d  w4 w4 neg d w4 neg w4 neg d w4 neg w4 d w4 w4 d cl f} def
/m49 {mp x w2 sub w3 add y w2 sub w3 add m  0 w3 neg d w3 0 d 0 w3 d w3 0 d 0 w3 d w3 neg 0 d 0 w3 d w3 neg 0 d 0 w3 neg d w3 neg 0 d 0 w3 neg d w3 0 d 0 w3 d w3 0 d 0 w3 neg d w3 neg 0 d cl f } def
/m2 {mp x y w2 sub m 0 w d x w2 sub y m w 0 d s} def
/m5 {mp x w2 sub y w2 sub m w w d x w2 sub y w2 add m w w neg d s} def
%%IncludeResource: ProcSet (FontSetInit)
%%IncludeResource: font Times-Roman
%%IncludeResource: font Times-Italic
%%IncludeResource: font Times-Bold
%%IncludeResource: font Times-BoldItalic
%%IncludeResource: font Helvetica
%%IncludeResource: font Helvetica-Oblique
%%IncludeResource: font Helvetica-Bold
%%IncludeResource: font Helvetica-BoldOblique
%%IncludeResource: font Courier
%%IncludeResource: font Courier-Oblique
%%IncludeResource: font Courier-Bold
%%IncludeResource: font Courier-BoldOblique
%%IncludeResource: font Symbol
%%IncludeResource: font ZapfDingbats
/reEncode {exch findfont dup length dict begin {1 index /FID eq  {pop pop} {def} ifelse } forall /Encoding exch def currentdict end dup /FontName get exch definefont pop } def [/Times-Bold /Times-Italic /Times-BoldItalic /Helvetica /Helvetica-Oblique
 /Helvetica-Bold /Helvetica-BoldOblique /Courier /Courier-Oblique /Courier-Bold /Courier-BoldOblique /Times-Roman /AvantGarde-Book /AvantGarde-BookOblique /AvantGarde-Demi /AvantGarde-DemiOblique /Bookman-Demi /Bookman-DemiItalic /Bookman-Light
 /Bookman-LightItalic /Helvetica-Narrow /Helvetica-Narrow-Bold /Helvetica-Narrow-BoldOblique /Helvetica-Narrow-Oblique /NewCenturySchlbk-Roman /NewCenturySchlbk-Bold /NewCenturySchlbk-BoldItalic /NewCenturySchlbk-Italic /Palatino-Bold
 /Palatino-BoldItalic /Palatino-Italic /Palatino-Roman ] {ISOLatin1Encoding reEncode } forall
%%EndProlog
%%BeginSetup
%%EndSetup
newpath  gsave  .25 .25 scale  gsave  0 0 t black[  ] 0 sd 3 lw 1 1 1 c 2268 1537 0 0 bf black 1 1 1 c 1814 1229 227 154 bf black 1814 1229 227 154 bl 1 1 1 c 1814 1229 227 154 bf black 1814 1229 227 154 bl 0 0 0.6 c 1 1 1 c black 0 0 0.6 c 228 154 m
 55 X 1 -1 d -1 Y 1 X 1 Y 1 X 5 Y 1 2 d 10 Y 1 6 d 10 Y 1 1 d 2 Y 1 1 d 1 X -1 Y 1 -1 d -3 Y 1 -2 d -2 Y 1 -9 d -4 Y 1 X -1 Y 2 Y 1 X 6 Y 1 6 d 5 Y 1 1 d 2 Y 1 1 d 1 X -1 Y 1 -1 d -1 Y 3 -13 d 1 X 1 Y 1 1 d 2 Y 1 2 d 5 Y 1 2 d 16 Y 1 3 d 8 Y 1 1 d 1
 -1 d -16 Y 1 -13 d -17 Y 1 X -1 Y 2 Y 1 X 17 Y 1 7 d 14 Y 1 1 d 1 -1 d -6 Y 1 -7 d -3 Y 1 -1 d -2 Y 1 X 1 Y 1 1 d 2 Y 1 3 d 1 1 d 3 Y 1 3 d 2 Y 1 4 d 4 Y 1 2 d 4 Y 1 4 d 6 Y 1 1 d -1 Y 1 X -6 Y 1 -3 d -11 Y 1 -2 d -7 Y 1 -3 d -7 Y 1 -2 d -4 Y 1 -1 d
 -1 Y 1 Y 1 X 10 Y 1 5 d 16 Y 1 1 d 1 Y 1 -1 d -7 Y 1 -3 d -14 Y 1 -3 d -6 Y 1 -3 d -4 Y 1 -2 d -2 Y 1 -1 d -2 Y 1 X -1 Y 2 X 2 Y 1 1 d 5 Y 1 5 d 5 Y 1 1 d 3 Y 1 1 d 1 Y 1 X 1 -1 d -2 Y 1 -1 d -7 Y 1 -10 d -4 Y 1 -1 d -4 Y 1 1 d 3 Y 1 4 d 2 Y 1 2 d 2
 Y 1 X -1 Y 1 -1 d -3 Y 1 -1 d -1 Y 1 X 1 Y 1 1 d 1 Y 1 2 d 2 Y 1 1 d 6 Y 1 5 d 4 Y 1 2 d 3 Y 1 X 2 -7 d 3 -7 d 3 -7 d s 376 174 m 3 14 d 3 12 d 2 Y 2 1 d 2 -1 d 2 -5 d 1 -2 d 3 -14 d 1 X 1 4 d 1 3 d 1 10 d 1 8 d 1 9 d 9 Y 1 18 d 29 Y 1 11 d 8 Y 1 1
 d -9 Y 1 -14 d 1 -48 d -11 Y 1 -1 d 9 Y 1 13 d 23 Y 1 31 d 13 Y 1 7 d 13 Y 1 10 d 1 8 d 1 4 d 1 -6 d 1 -5 d 1 Y 1 3 d 8 Y 1 13 d 1 27 d 26 Y 1 8 d 1 43 d 1 16 d 1 9 d 8 Y 2 12 d 1 8 d 11 Y 1 22 d 2 29 d 6 Y 1 13 d 2 30 d 5 Y 1 22 d 2 53 d 1 19 d 1
 37 d 21 Y 1 5 d 1 Y 1 -4 d -9 Y 1 -27 d -5 Y 1 -1 d 23 Y 1 17 d 23 Y 1 44 d 40 Y 1 24 d 18 Y 1 25 d 21 Y 1 18 d 15 Y 1 10 d 6 Y 1 3 d 2 -2 d -1 Y 2 -11 d 1 Y 1 3 d 17 Y 1 14 d 54 Y 1 58 d 23 Y 1 15 d 27 Y 1 5 d 1 Y 1 -2 d -9 Y 1 -10 d 2 -75 d 1 -5 d
 -3 Y 5 Y 1 8 d 32 Y 1 36 d 31 Y 1 17 d 16 Y 1 11 d 8 Y 1 5 d 3 Y 1 X 1 -2 d 2 -32 d 1 X 1 4 d 5 Y 1 X -2 Y 1 -6 d -11 Y 1 -43 d 1 -6 d -3 Y 4 Y 1 7 d 15 Y 1 31 d 27 Y 1 12 d 14 Y 1 2 d -8 Y 2 -35 d 1 -20 d 2 -37 d -5 Y 2 -37 d 1 -4 d -1 Y 1 Y 1 4 d
 25 Y 1 29 d 1 10 d 8 Y -1 Y 1 -3 d -23 Y 1 -21 d -47 Y 1 -15 d -14 Y 1 3 d 35 Y 1 31 d 1 41 d 34 Y 1 33 d 1 15 d 10 Y 1 4 d 1 Y -1 Y 1 -5 d -22 Y 1 -30 d -35 Y 1 -15 d -17 Y 1 X 13 Y 1 18 d 27 Y 1 11 d 8 Y -1 Y 1 -5 d -43 Y 1 -47 d -31 Y 1 -18 d -21
 Y 1 1 d 27 Y 1 21 d 46 Y 1 18 d 18 Y -1 Y 1 -3 d -35 Y 1 -25 d 1 -72 d -42 Y 1 -1 d 10 Y 1 15 d 27 Y 1 30 d 27 Y 1 1 d 3 Y -1 Y 1 -6 d 2 -30 d -13 Y 2 -52 d 1 -4 d 1 -13 d -8 Y 1 -5 d 1 -1 d s 525 1044 m 1 5 d 2 8 d 2 11 d 5 Y 1 5 d 12 Y 1 12 d 26 Y
 1 9 d 11 Y 1 X -24 Y 1 -11 d -37 Y 1 -66 d -39 Y 1 -9 d -16 Y 1 -11 d -20 Y 1 -6 d -8 Y 1 -1 d 3 Y 1 5 d 8 Y 1 14 d 17 Y 1 8 d 8 Y 1 20 d 13 Y 1 8 d 5 Y 1 1 d -11 Y 1 -9 d -15 Y 1 -26 d -20 Y 1 -1 d -1 Y 10 Y 1 8 d 25 Y 1 32 d 28 Y 1 4 d 3 Y -1 Y 1
 -3 d 2 -65 d -13 Y 2 -34 d -10 Y 1 -7 d -8 Y 1 -2 d -1 Y 1 X -2 Y 1 -3 d -13 Y 1 -11 d 1 -30 d -13 Y 1 -2 d -1 Y 4 Y 1 6 d 20 Y 1 32 d 19 Y 1 4 d 4 Y -1 Y 1 -3 d -7 Y 1 -15 d -17 Y 1 -3 d -2 Y 3 Y 1 5 d 8 Y 1 17 d 10 Y 1 1 d -20 Y 1 -9 d -51 Y 1 -60
 d -45 Y 1 -5 d -5 Y 3 Y 1 5 d 42 Y 1 42 d 52 Y 1 6 d 9 Y -1 Y 1 -2 d 2 -60 d 1 3 d 12 Y 1 14 d 1 12 d 14 Y 1 17 d 1 10 d 9 Y 1 1 d -6 Y 1 -6 d -46 Y 1 -53 d 1 -14 d -22 Y 1 -14 d -10 Y 1 -6 d -7 Y 1 -1 d 8 Y 1 5 d 50 Y 1 37 d 26 Y 1 8 d 15 Y 1 X -14
 Y 2 -38 d -11 Y 1 -8 d -14 Y 1 -31 d -9 Y 1 -7 d -6 Y 1 Y 1 2 d 12 Y 1 14 d 20 Y 1 9 d 10 Y 1 1 d -2 Y 2 -40 d 1 -8 d 1 -23 d 1 -5 d -5 Y 1 X 1 Y 1 3 d 1 17 d 1 7 d 1 13 d 1 4 d 3 Y 1 1 d 2 -8 d 1 -4 d 1 -3 d 1 -1 d 2 Y 1 4 d 1 4 d 6 Y 1 6 d 14 Y 1
 6 d 35 Y 1 24 d 47 Y 1 12 d 20 Y 1 -1 d -24 Y 1 -13 d -58 Y 1 -14 d -27 Y 1 -3 d -1 Y 1 Y 1 3 d 4 Y 1 18 d 5 Y 1 5 d 1 14 d 4 Y 1 1 d -3 Y 1 -4 d -14 Y 1 -12 d -22 Y 1 -28 d -27 Y 1 -3 d -19 Y 1 -9 d -4 Y 1 -2 d 4 Y 1 3 d 55 Y 1 18 d 130 Y 1 14 d 41
 Y 1 2 d -9 Y 1 -8 d -24 Y 1 -41 d -25 Y 1 -3 d -9 Y 1 -2 d -2 Y 1 -2 d -2 Y 1 -3 d -13 Y 1 -18 d 1 -12 d -12 Y 1 X 20 Y 1 14 d 29 Y 1 10 d 17 Y 1 -1 d -28 Y 1 -12 d -166 Y 1 -17 d -48 Y 1 -2 d -1 Y 20 Y 1 11 d 126 Y 1 21 d 67 Y 1 4 d 6 Y -1 Y 1 -4 d
 -15 Y 1 -30 d -7 Y 1 -4 d -7 Y 1 -3 d -2 Y 1 -1 d 2 Y 1 2 d s 673 770 m -12 Y 1 -12 d -11 Y 1 -10 d -8 Y 1 -7 d -6 Y 1 -4 d -3 Y 1 -6 d 1 -3 d 1 -7 d 1 -6 d -8 Y 1 -6 d -11 Y 1 -8 d -15 Y 1 -19 d -21 Y 1 -2 d 8 Y 1 5 d 41 Y 1 31 d 31 Y 1 6 d 17 Y 1
 7 d 10 Y 1 3 d 2 Y 1 -1 d -14 Y 1 -7 d -45 Y 1 -59 d -33 Y 1 -6 d -18 Y 1 -8 d -12 Y 1 -5 d -4 Y 1 -2 d -2 Y 1 1 d 4 Y 1 6 d 1 10 d 1 7 d 1 6 d 9 Y 1 5 d 20 Y 1 8 d 25 Y 1 31 d 41 Y 1 8 d 11 Y 1 13 d 13 Y 1 5 d 6 Y 1 -1 d -7 Y 1 -5 d -60 Y 1 -70 d
 -41 Y 1 -4 d -7 Y 1 Y 1 3 d 16 Y 1 13 d 28 Y 1 6 d 12 Y 1 2 d 2 2 d 1 2 d 1 5 d 1 Y 1 X -1 Y 3 -42 d 2 Y 1 4 d 41 Y 1 35 d 27 Y 1 6 d 9 Y 1 X -5 Y 2 -50 d 1 -7 d -4 Y 1 -1 d -1 Y 1 1 d 8 Y 1 5 d 38 Y 1 28 d 19 Y 1 5 d 12 Y -1 Y 1 -1 d -41 Y 1 -13 d
 -162 Y 1 -5 d -10 Y 1 Y 1 2 d 22 Y 1 11 d 42 Y 1 8 d 17 Y 1 2 d 1 Y -2 Y 1 -2 d -5 Y 1 -6 d -9 Y 1 -4 d -26 Y 1 -29 d -8 Y 1 -6 d -9 Y 1 X 13 Y 1 11 d 14 Y 1 7 d 10 Y 1 1 d -2 Y 1 -3 d 1 -8 d -2 Y 1 1 d 7 Y 1 13 d 1 4 d 3 Y -1 Y 1 -2 d -8 Y 1 -7 d
 -18 Y 1 -14 d -19 Y 1 -7 d -34 Y 1 -51 d -19 Y 1 -8 d -18 Y 1 X 12 Y 1 7 d 28 Y 1 15 d 20 Y 1 9 d 9 Y 2 29 d 1 1 d 7 Y 1 16 d 11 Y 1 6 d 8 Y 1 X -4 Y 1 -5 d 1 -13 d -8 Y 1 -4 d 1 -14 d 1 -4 d -3 Y 1 X 3 Y 1 3 d 11 Y 1 3 d 2 Y 1 -1 d -10 Y 1 -7 d -11
 Y 1 -22 d -18 Y 1 -1 d 3 Y 1 4 d 16 Y 1 9 d 5 Y 1 3 d 5 Y 1 3 d 2 Y 1 X -1 Y 1 -1 d -5 Y 1 -6 d 1 -17 d -5 Y 1 -1 d 2 Y 1 3 d 6 Y 1 10 d 4 Y 1 2 d 1 6 d 4 Y 1 1 d 1 -2 d -15 Y 1 -8 d -13 Y 1 -25 d -15 Y 1 -4 d -8 Y 1 -4 d -3 Y 1 X 1 Y 1 2 d 8 Y 1 6
 d 10 Y 1 18 d 8 Y 1 5 d 9 Y 1 11 d 5 Y 1 3 d 2 Y 1 X -13 Y 1 -7 d -23 Y 1 -32 d -26 Y 1 -2 d -1 Y 4 Y 1 4 d 13 Y 1 17 d 29 Y 1 4 d 6 Y 1 1 d -2 Y 1 -3 d -8 Y 1 -5 d -6 Y s 821 482 m 16 Y 1 5 d 12 Y 1 2 d 6 Y 1 X -2 Y 1 -1 d -41 Y 1 -36 d -48 Y 1 -1
 d -1 Y 4 Y 1 2 d 33 Y 1 22 d 30 Y 1 2 d 3 Y 1 -1 d -9 Y 1 -5 d 1 -19 d -11 Y 1 -8 d -11 Y 1 -4 d -5 Y 1 -2 d 2 Y 1 2 d 23 Y 1 18 d 18 Y 1 2 d 3 Y -1 Y 1 -1 d -2 Y 2 -92 d 2 Y 1 1 d 15 Y 1 14 d 16 Y 1 3 d 5 Y 1 -1 d -4 Y 1 -8 d -1 Y 1 -1 d 4 Y 1 2 d
 26 Y 1 22 d 24 Y 1 4 d 8 Y 1 1 d -4 Y 1 -5 d -6 Y 1 -1 d 2 Y 1 2 d 17 Y 1 17 d 10 Y 1 2 d 6 Y -1 Y 1 -1 d -11 Y 1 -8 d -21 Y 1 -2 d -4 Y 1 1 d 11 Y 1 11 d 10 Y 1 3 d 5 Y -1 Y 1 -1 d -12 Y 1 -5 d -30 Y 1 -6 d -14 Y 1 -3 d -5 Y 1 -3 d 1 -5 d -4 Y 1 -3
 d -4 Y 1 -15 d -3 Y 1 -1 d -2 Y 1 1 d 15 Y 1 7 d 19 Y 1 5 d 8 Y 1 1 d 1 Y 1 -2 d -1 Y 1 X 1 Y 1 2 d 9 Y 1 10 d 8 Y 1 2 d 3 Y 1 X -5 Y 2 -36 d 1 -5 d -7 Y 1 -20 d -5 Y 1 -4 d -7 Y 1 -2 d -2 Y 1 X -1 Y 1 1 d 4 Y 1 2 d 15 Y 1 8 d 22 Y 1 5 d 10 Y 1 1 d
 1 Y 1 -1 d -4 Y 1 -2 d -4 Y 1 -5 d -21 Y 1 -8 d -23 Y 1 -5 d -11 Y 1 X 9 Y 1 4 d 80 Y 1 5 d 11 Y 1 X -11 Y 1 -4 d -52 Y 1 -5 d -16 Y 1 -1 d 2 Y 1 3 d 11 Y 1 4 d 7 Y 1 1 d 3 Y 1 1 d 1 Y 1 X -4 Y 1 -1 d -16 Y 1 -5 d -46 Y 1 -6 d -21 Y 1 -1 d -2 Y 1 1
 d 4 Y 1 4 d 4 Y 1 8 d 17 Y 1 9 d 21 Y 1 4 d 10 Y 1 1 d -5 Y 1 -3 d -10 Y 1 -23 d -12 Y 1 -1 d -1 Y 1 Y 1 1 d 9 Y 1 5 d 4 Y 1 1 d 1 -2 d 1 -5 d -1 Y 1 1 d 3 Y 1 3 d 9 Y 1 9 d 13 Y 1 4 d 4 Y 1 5 d 1 11 d 1 4 d 10 Y 1 6 d 19 Y 1 5 d 10 Y 1 1 d -5 Y s
 939 518 m 1 -3 d -20 Y 1 -22 d -32 Y 1 -3 d -7 Y 1 -2 d -4 Y 1 -1 d 1 Y 1 2 d 7 Y 1 4 d 20 Y 1 14 d 21 Y 1 1 d 2 Y 1 -1 d -8 Y 1 -20 d 1 -3 d -7 Y 1 -11 d 1 -7 d -8 Y 1 -2 d -2 Y 1 1 d 1 Y 1 5 d 2 Y 1 X -5 Y 1 -3 d -17 Y 1 -14 d -9 Y 1 -4 d -6 Y 1
 -1 d 1 1 d 5 Y 1 3 d 5 Y 1 3 d 6 Y 1 11 d 12 Y 1 2 d 3 Y -1 Y 1 X -6 Y 1 -2 d -8 Y 1 -4 d -14 Y s 969 393 m -2 Y 1 -2 d -1 Y 1 -1 d 2 Y 1 2 d 6 Y 1 3 d 21 Y 1 19 d 21 Y 1 3 d 5 Y 1 -1 d -7 Y 1 -8 d -2 Y 1 -2 d -1 Y 1 Y 1 1 d 8 Y 1 8 d 10 Y 1 3 d 4 Y
 1 -1 d -2 Y 1 -4 d -4 Y 1 -2 d -1 Y 1 1 d 5 Y 1 7 d 5 Y 1 2 d 1 Y -2 Y 1 -2 d -12 Y 1 -6 d -33 Y 1 -5 d -9 Y 1 -3 d -6 Y 1 -4 d 1 -6 d -2 Y 1 -2 d -5 Y 1 -8 d -4 Y 1 -1 d -1 Y 2 Y 1 1 d 8 Y 1 5 d 8 Y 1 11 d 14 Y 1 6 d 1 10 d 9 Y 1 1 d 1 Y 1 -1 d -14
 Y 1 -22 d 1 -4 d -7 Y 1 X 7 Y 1 4 d 14 Y 1 4 d 5 Y 1 X -8 Y 1 -5 d -20 Y 1 -3 d -5 Y 1 1 d 7 Y 1 4 d 16 Y 1 7 d 13 Y 1 6 d 1 10 d 8 Y 1 2 d 2 Y -1 Y 1 X -17 Y 1 -6 d -46 Y 1 -3 d -10 Y 1 1 d 10 Y 1 4 d 29 Y 1 9 d 23 Y 1 12 d 1 5 d 6 Y 1 2 d 2 Y 1 X
 -10 Y 1 -3 d -43 Y 1 -9 d -22 Y 1 -2 d -10 Y 1 -4 d -5 Y 1 -1 d -1 Y 1 X 14 Y 1 4 d 84 Y 1 4 d 11 Y 1 X -7 Y 1 -3 d -71 Y 1 -6 d -22 Y 1 -1 d -1 Y 1 X 4 Y 1 2 d 5 Y 1 4 d 14 Y 1 8 d 13 Y 1 6 d 13 Y 1 1 d -1 Y 1 -2 d 2 -25 d -7 Y 1 -11 d -6 Y 1 -4 d
 -6 Y 1 X 9 Y 1 3 d 37 Y 1 6 d 19 Y 1 1 d -3 Y 1 -2 d -62 Y 1 -8 d -25 Y 1 -1 d -2 Y 1 Y 1 1 d 6 Y 1 8 d 5 Y 1 X -4 Y 1 -3 d -10 Y 1 -12 d -11 Y 1 -1 d 5 Y 1 3 d 52 Y 1 8 d 26 Y 1 1 d 1 Y -2 Y 1 -2 d -2 Y 2 -35 d 1 -9 d -4 Y 1 -3 d -3 Y 1 -1 d -1 Y 1
 1 d 3 Y 1 3 d 1 7 d 4 Y 1 4 d 1 7 d 1 11 d 5 Y 1 5 d 9 Y 1 4 d 5 Y 1 1 d -2 Y 3 -39 d 3 Y 1 2 d 13 Y 1 14 d 13 Y 1 2 d 1 Y -3 Y 1 -2 d -22 Y 1 -23 d -7 Y s 1089 405 m -22 Y 1 -2 d -1 Y 1 Y 1 1 d 21 Y 1 13 d 15 Y 1 2 d 1 Y 1 -1 d -8 Y 1 -5 d -6 Y 1
 -19 d -11 Y 1 -6 d -10 Y 1 -19 d -15 Y 1 -4 d -7 Y 1 -1 d 1 1 d 3 Y 1 2 d 9 Y 1 3 d 18 Y 1 14 d 14 Y 1 3 d 5 Y -1 Y 1 -1 d -8 Y 1 -11 d -3 Y 1 -2 d -2 Y 1 1 d 13 Y 1 9 d 7 Y 1 2 d 2 Y 1 -1 d -12 Y 1 -12 d -3 Y 1 -3 d -3 Y 1 X 3 Y 1 3 d 5 Y 1 4 d 12
 Y s 1117 393 m 1 2 d 1 Y 1 -1 d -1 Y 1 -2 d -8 Y 1 -3 d 2 -56 d 1 -4 d -5 Y 1 -2 d 1 X 6 Y 1 3 d 33 Y 1 11 d 63 Y 1 6 d 19 Y 1 3 d 4 Y 1 1 d -1 Y 1 -2 d -5 Y 1 -2 d -30 Y 1 -9 d -78 Y 1 -3 d -8 Y 1 X 15 Y 1 7 d 25 Y 1 5 d 9 Y 1 1 d -3 Y 1 -3 d 1 -12
 d -3 Y 1 -2 d 1 -1 d 1 1 d 2 Y 1 3 d 1 3 d 7 Y 1 5 d 9 Y 1 4 d 26 Y 1 16 d 27 Y 1 5 d 11 Y 1 X -15 Y 1 -6 d -87 Y 1 -6 d -16 Y 1 X 14 Y 1 5 d 68 Y 1 6 d 16 Y 1 1 d -12 Y 1 -5 d -63 Y 1 -6 d -21 Y 1 -2 d -4 Y 1 1 d 2 Y 1 3 d 9 Y 1 2 d 24 Y 1 9 d 39 Y
 1 6 d 17 Y 1 1 d -6 Y 1 -3 d -13 Y 1 -23 d -15 Y 1 -1 d -2 Y 1 Y 1 2 d 3 Y 1 7 d 3 Y 1 -1 d -16 Y 1 -6 d -60 Y 1 -6 d -21 Y 1 -1 d 5 Y 1 3 d 121 Y 1 7 d 27 Y 1 1 d 1 Y -1 Y 1 -1 d -7 Y 1 -15 d 1 -4 d -7 Y 1 -7 d 1 -22 d -11 Y 1 -1 d 8 Y 1 4 d 27 Y 1
 13 d 18 Y 1 3 d 8 Y 1 4 d 5 Y 1 2 d -1 Y 1 -1 d -12 Y 1 -4 d -23 Y 1 -35 d -33 Y 1 -2 d -2 Y 1 Y 1 2 d 7 Y 1 6 d 12 Y 1 5 d 11 Y 1 14 d 6 Y 1 5 d 7 Y 1 X -5 Y 1 -3 d -20 Y 1 -20 d -17 Y 1 -2 d -1 Y 2 Y 1 2 d 9 Y 1 10 d 12 Y 1 2 d 5 Y 1 -1 d -1 Y 1
 -5 d 1 -1 d 1 Y 1 1 d 3 Y 1 7 d 3 Y 1 X -6 Y 1 -3 d -4 Y 1 -43 d 1 -5 d -15 Y 1 -4 d -5 Y 1 -4 d -5 Y 1 -3 d 1 -8 d 1 -2 d 1 1 d 6 Y 1 4 d 19 Y 1 19 d 12 Y 1 4 d 9 Y 1 2 d 2 Y 1 X -3 Y 1 -2 d -6 Y 1 -4 d -19 Y 1 -22 d -14 Y 1 -2 d -3 Y 1 Y 1 2 d 18
 Y 1 9 d 32 Y 1 4 d 11 Y 1 2 d 1 X 1 -4 d 2 X -1 Y 1 -1 d -7 Y 1 -4 d -4 Y s 1239 383 m -15 Y 1 -17 d -11 Y 1 -3 d -5 Y 1 1 d 13 Y 1 15 d 7 Y 1 3 d 2 Y -1 Y 1 -2 d -27 Y 1 -11 d -53 Y 1 -4 d -5 Y 1 1 d 19 Y 1 8 d 42 Y 1 4 d 8 Y 1 -1 d -13 Y 1 -7 d
 -32 Y 1 -5 d -10 Y 1 -2 d 1 2 d 2 Y 1 3 d 8 Y 1 3 d 22 Y 1 14 d 25 Y 1 4 d 8 Y 1 -1 d -13 Y 1 -6 d -41 Y 1 -9 d -19 Y 1 -8 d -5 Y 1 -6 d -9 Y 1 -3 d -3 Y s 1265 250 m 3 27 d 1 4 d 1 9 d 7 Y 1 3 d 4 Y 1 X -3 Y 1 -4 d -7 Y 1 -7 d -6 Y 1 -2 d 1 -1 d 1
 Y 1 2 d 1 1 d 1 1 d 2 Y 1 2 d 5 Y 1 3 d 30 Y 1 10 d 59 Y 1 5 d 12 Y 1 X -11 Y 1 -5 d -65 Y 1 -10 d -31 Y 1 -1 d -7 Y 1 -3 d -4 Y 1 X -1 Y 1 Y 1 X 5 Y 1 4 d 1 11 d 7 Y 1 X 1 Y 3 -14 d 1 -3 d 1 -2 d 1 -2 d 1 -2 d -1 Y 1 X 1 Y 1 2 d 8 Y 1 5 d 16 Y 1 4
 d 7 Y 1 1 d -7 Y 1 -5 d -19 Y 1 -9 d -12 Y 1 -3 d -5 Y 1 -1 d -1 Y 2 X 3 Y 1 3 d 1 5 d 3 Y 1 X -3 Y 1 -3 d -4 Y 1 -9 d -11 Y 1 -3 d -4 Y 1 -2 d -2 Y 1 -1 d 1 1 d 1 Y 1 3 d 2 Y 1 5 d 4 Y 1 6 d 6 Y 1 6 d 19 Y 1 6 d 9 Y 1 1 d 1 Y -5 Y 1 -4 d -19 Y 1
 -20 d -15 Y 1 -3 d -5 Y 1 X 3 Y 1 2 d 4 Y 1 7 d 6 Y 1 4 d 8 Y 1 14 d 14 Y 1 1 d 1 Y -4 Y 1 -3 d -11 Y 1 -25 d -7 Y 1 -3 d -2 Y 1 Y 1 1 d 11 Y 1 10 d 8 Y 1 6 d 4 Y 1 9 d 8 Y 1 4 d 5 Y 1 1 d 1 -1 d -5 Y 1 -7 d 1 -9 d -5 Y 1 -8 d 1 -6 d -5 Y 1 -1 d -1
 Y 1 1 d 3 Y 1 4 d 5 Y 1 1 d -1 Y 1 -2 d -7 Y 1 -18 d -3 Y 1 -2 d -2 Y 4 Y 1 2 d 21 Y 1 11 d 35 Y 1 3 d 8 Y 3 -28 d -2 Y 1 -1 d 1 X -1 Y 1 -1 d -4 Y 1 -4 d -5 Y 1 -16 d 1 -3 d -5 Y 1 1 d 3 Y 1 7 d 1 2 d 2 Y -2 Y 1 -2 d -7 Y 1 -17 d 1 -4 d -3 Y 1 1 d
 5 Y 1 4 d 1 9 d 8 Y 1 4 d 6 Y 1 13 d 4 Y 1 4 d 4 Y 3 -21 d 1 -1 d -1 Y 1 X 1 2 d 1 1 d 1 X 1 Y 1 1 d 4 Y 1 2 d 14 Y 1 16 d 6 Y 1 4 d 6 Y 1 1 d 1 -1 d -2 Y 1 -3 d -9 Y 1 -3 d -16 Y 1 -20 d 1 -5 d -11 Y 1 X -1 Y 1 Y 1 2 d 5 Y 1 4 d 10 Y 1 3 d 17 Y 1
 10 d 24 Y 1 9 d 19 Y 1 3 d 5 Y 1 2 d 1 5 d 6 Y 1 4 d 5 Y 1 7 d 11 Y 1 11 d 6 Y 1 4 d 9 Y 1 9 d 1 8 d 1 8 d s 1414 462 m 4 Y 1 2 d -1 Y 1 -2 d 1 -3 d -11 Y 1 -18 d -12 Y 1 -6 d -3 Y 1 2 d 20 Y 1 13 d 16 Y 1 53 d 28 Y 1 7 d 1 32 d 21 Y 1 6 d 3 Y 1 -1
 d -8 Y 3 -108 d -1 Y 1 4 d 15 Y 1 13 d 1 24 d 24 Y 1 19 d 1 51 d 28 Y 1 10 d 17 Y 1 4 d 2 4 d 3 X 12 Y 1 16 d 1 18 d 13 Y 1 2 d 1 Y -5 Y 1 -7 d -12 Y 1 -26 d -12 Y 1 -1 d 20 Y 1 12 d 48 Y 1 37 d 31 Y 1 10 d 18 Y 1 9 d 6 Y 1 5 d 3 Y 1 1 d -2 Y 1 -5 d
 -8 Y 1 -25 d -5 Y 1 -3 d 1 4 d 7 Y 1 15 d 6 Y 1 2 d -2 Y 1 -5 d -9 Y 2 -30 d -2 Y 1 -14 d 1 -16 d -9 Y 1 -2 d 1 Y 1 4 d 9 Y 1 18 d 1 6 d 3 Y 1 2 d -1 Y 1 -3 d 1 -6 d -13 Y 3 -54 d -10 Y 2 -33 d -16 Y 1 -3 d 7 Y 1 8 d 31 Y 1 27 d 21 Y 1 6 d 4 Y -10 Y
 1 -8 d -46 Y 1 -32 d -66 Y 1 -18 d -32 Y 1 -5 d -2 Y 1 3 d 1 4 d -1 Y 1 -6 d 2 -29 d 1 -2 d 1 Y 1 X -2 Y 1 -3 d -14 Y 1 -10 d -15 Y 1 -28 d -34 Y 1 -14 d -22 Y 1 -7 d -9 Y 1 -1 d 1 1 d 2 Y 1 2 d 6 Y 1 14 d 14 Y 1 1 d -7 Y 1 -7 d -24 Y 1 -23 d -54 Y
 1 -11 d -14 Y 1 2 d 23 Y 1 31 d 1 10 d 10 Y 1 -3 d -12 Y 2 -95 d 1 -8 d -5 Y 1 -4 d -3 Y 1 X 1 1 d 5 Y 2 10 d 4 Y 1 -1 d 2 -13 d 1 -3 d 1 -4 d 1 -4 d -2 Y 3 -48 d 1 X 3 Y 1 8 d 1 15 d 8 Y 1 X 2 -21 d 3 -11 d -2 Y 1 1 d 1 6 d 1 5 d 1 1 d -1 Y 1 -3 d
 2 -9 d -5 Y 2 -20 d -3 Y 1 X 8 Y 1 10 d 1 19 d 7 Y 1 4 d 2 Y 1 -2 d 2 -13 d 3 -14 d 2 -7 d 1 X 3 Y 1 5 d 2 13 d 3 20 d s 1562 222 m -18 Y 1 -1 d -6 Y 1 -1 d -1 Y 1 X 2 Y 1 1 d 14 Y 1 3 d 7 Y 1 X -1 Y 1 -1 d -21 Y 1 -3 d -8 Y 1 X 2 Y 1 1 d 5 Y 1 5 d
 6 Y 1 1 d 2 Y 2 X -1 Y 1 X -2 Y 1 -1 d -3 Y 1 -4 d -3 Y 1 -1 d -1 Y 1 -1 d 1 X 1 Y 1 X 3 Y 1 1 d 11 Y 1 4 d 8 Y 1 X 1 Y 1 X -32 Y 1 -3 d -12 Y 1 X -1 Y 1 1 d 12 Y 1 3 d 36 Y 1 1 d 4 Y 1 2 d 2 Y 1 X 1 Y 1 X -2 Y 1 -1 d -7 Y 1 -8 d -7 Y 1 -1 d -2 Y 1
 -1 d 1 X 1 1 d 1 Y 1 X 4 Y 1 1 d 1 Y 1 X 1 Y -2 Y 1 X -8 Y 1 -9 d -7 Y 1 -1 d -1 Y 1 X 2 Y 1 3 d 1 1 d 1 Y 1 1 d 2 X -3 Y 1 -1 d -5 Y 1 -7 d -4 Y 1 -1 d -1 Y 1 Y 1 X 9 Y 1 4 d 18 Y 1 1 d 1 Y 1 X -3 Y 2 -10 d -2 Y 1 -1 d 1 -7 d -2 Y 1 -1 d -1 Y 1 1 d
 7 Y 1 3 d 21 Y 1 1 d 1 Y 1 X -5 Y 1 -3 d -9 Y 1 -1 d -2 Y 1 X 3 Y 1 2 d 5 Y 1 1 d 3 Y 1 -1 d -2 Y 1 -3 d 1 -1 d 1 X 1 Y 1 X 2 Y 1 2 d 1 Y 1 1 d 2 Y 1 2 d 2 Y 2 X -5 Y 1 -3 d -8 Y 1 -1 d -3 Y 1 X 1 Y 1 1 d 4 Y 1 X 1 Y 1 -1 d -1 Y 2 -26 d 1 X 4 Y 1 2
 d 32 Y 1 1 d 2 Y 1 X -1 Y 2 -33 d 1 X 2 Y 1 2 d 5 Y 1 2 d 3 Y 4 -7 d 1 -1 d -1 Y 1 1 d 1 Y 1 X 7 Y 1 2 d 4 Y s 1669 201 m 9 Y 1 1 d 4 Y 1 X -3 Y 1 -2 d -10 Y 1 -1 d -4 Y 1 X 1 Y 1 1 d 3 Y 1 4 d 4 Y 1 X 1 4 d 2 Y 1 1 d 1 X -1 Y 3 -12 d -4 Y 1 -6 d 1
 -2 d -2 Y 1 X 3 Y 1 1 d 13 Y 1 2 d 8 Y 1 X 1 -1 d -1 Y 1 -3 d -2 Y 1 X 3 Y 1 1 d 4 Y 1 6 d 6 Y 1 1 d 1 -1 d -1 Y 1 -3 d -1 Y 1 -1 d 1 X 1 1 d 1 X -3 Y 3 -25 d -5 Y 1 -8 d -2 Y 1 -1 d -4 Y 1 -1 d 1 1 d 2 Y 1 1 d 7 Y 1 1 d 29 Y s 1710 215 m 18 Y 1 3 d
 7 Y 1 2 d 4 Y 1 X 1 Y -2 Y 1 -1 d 2 -25 d -1 Y 1 -1 d 1 1 d 1 1 d 1 Y 1 X 2 Y 1 3 d 2 Y 1 X -4 Y 1 -1 d -12 Y 1 -13 d -10 Y 1 -1 d -1 Y 1 Y 1 1 d 10 Y 1 6 d 8 Y 1 1 d -1 Y 1 -1 d -12 Y 1 -15 d -10 Y 1 -1 d -1 Y 1 Y 1 X 8 Y 1 4 d 11 Y 1 2 d 2 Y 1 X
 -2 Y 1 -2 d 1 -2 d -2 Y 1 -3 d 1 -2 d -1 Y 1 X 1 1 d 6 Y 1 5 d 5 Y 1 2 d 1 Y 1 2 d 1 Y 1 X -1 Y 1 X -2 Y 1 -2 d -6 Y 1 -8 d -8 Y 1 -1 d -2 Y 1 1 d 8 Y 1 8 d 7 Y 1 1 d 2 Y 1 X -10 Y 1 -4 d -22 Y 1 -1 d -4 Y 1 1 d 5 Y 1 3 d 10 Y 1 3 d 6 Y 1 2 d 3 Y 1
 1 d 1 1 d 1 -1 d -2 Y 2 -11 d 2 -5 d -1 Y 1 -1 d 1 X 4 Y 1 4 d 2 Y 1 2 d 2 Y 1 X -1 Y 1 X -1 Y 1 -2 d -3 Y 1 -1 d -10 Y 1 -8 d -5 Y 1 -1 d -2 Y 1 X 8 Y 1 3 d 16 Y 1 2 d 5 Y 1 X -3 Y 1 -2 d -6 Y 1 -1 d -2 Y 1 X 3 Y 1 2 d 7 Y 1 5 d 4 Y 1 6 d 1 7 d 1 4
 d 3 Y 1 2 d 1 7 d 3 Y 1 1 d 1 Y 1 -1 d -5 Y 1 -2 d -7 Y 1 -12 d -6 Y 1 -1 d -4 Y 1 -9 d -8 Y 1 -2 d -5 Y 1 X 2 Y 1 1 d 2 Y 1 5 d 4 Y 1 X -3 Y 1 -2 d 1 -6 d -3 Y 1 X 1 Y 1 1 d 2 Y 1 2 d 1 Y 1 X -1 Y 3 -6 d 1 -1 d 1 X 1 Y 1 X 1 Y 1 1 d 2 Y 2 3 d 1 Y 1
 2 d 2 Y 1 1 d 1 Y 1 X -3 Y 1 -1 d -8 Y 1 -3 d -4 Y 1 -1 d -2 Y 1 X 1 1 d 1 X 2 -1 d 1 1 d 3 Y 1 1 d 7 Y 1 5 d 3 Y 1 2 d 3 Y 1 5 d 2 Y 1 1 d 2 Y 1 1 d -1 Y 1 -1 d -3 Y 2 -16 d -4 Y 1 -4 d 1 -12 d -7 Y 1 X 1 Y 1 1 d 13 Y 1 11 d 12 Y 1 1 d 2 Y 3 -7 d 3
 X -1 Y 1 -1 d -2 Y 1 -2 d 1 -1 d 1 1 d 1 Y 1 1 d 1 3 d 1 Y 3 7 d s 1858 195 m -13 Y 1 -2 d -7 Y 1 -2 d -3 Y 1 X -1 Y 1 Y 1 X 10 Y 1 6 d 8 Y 1 1 d 2 Y 1 X -1 Y 1 -1 d -2 Y 1 -3 d -2 Y 1 -2 d -7 Y 1 -7 d -6 Y 1 -1 d -3 Y 1 X 2 Y 1 1 d 2 Y 1 1 d 1 Y 1
 1 d 2 -1 d 3 X 1 1 d 2 X -1 Y 1 -1 d -1 Y 1 -3 d -1 Y 1 -1 d 1 Y 1 1 d 11 Y 1 3 d 23 Y 1 1 d 2 Y 1 -1 d -2 Y 1 -1 d 1 -10 d 1 -3 d 1 -6 d 1 -2 d -3 Y 1 -3 d 1 -2 d -1 Y 1 -1 d 1 1 d 6 Y 1 2 d 12 Y 1 2 d 5 Y 1 1 d 1 Y 1 X 1 -1 d -1 Y 1 -1 d -7 Y 1 -3
 d -12 Y 1 -2 d -3 Y 1 X 5 Y 1 2 d 21 Y 1 1 d 6 Y 1 X 1 -1 d -1 Y 1 -5 d 1 -1 d -4 Y 1 -5 d 1 -1 d -3 Y 1 X 1 Y 1 1 d 3 Y 1 1 d 1 Y 1 X -1 Y 1 X -2 Y 1 -2 d 1 -2 d -4 Y 1 -6 d 1 -1 d -3 Y 1 X 2 Y 1 1 d 4 Y 1 6 d 1 1 d 5 Y 1 4 d 6 Y 1 2 d 4 Y 1 X -4 Y
 1 -1 d -22 Y 1 -2 d -5 Y 1 -1 d 1 Y 1 1 d 3 Y 1 2 d 2 Y 1 5 d 10 Y 1 4 d 13 Y 1 2 d 5 Y 1 X -2 Y 1 -2 d -14 Y 1 -2 d -7 Y 1 X 1 Y 1 1 d 4 Y 1 3 d 4 Y 1 X 1 Y 1 -1 d -1 Y 1 -1 d 1 -4 d -2 Y 1 -2 d 1 -6 d -4 Y 1 X 1 Y 1 1 d 3 Y 1 5 d 2 Y 1 1 d 1 Y 3 X
 1 Y 1 1 d 1 3 d 2 Y 1 X -2 Y 1 -1 d -2 Y 1 -5 d -4 Y 1 X 2 Y 1 1 d 24 Y 1 3 d 11 Y 1 X -1 Y 1 -1 d -8 Y 1 -4 d -16 Y 1 -2 d -2 Y 1 -8 d -2 Y 1 -1 d -3 Y 1 X 1 Y 1 1 d 12 Y 1 4 d 8 Y 1 X 1 Y 1 X -2 Y 2 -11 d 1 -4 d -1 Y 1 -1 d -1 Y 1 X 1 Y 1 1 d 7 Y
 1 5 d 2 Y s 1984 204 m 3 Y 1 1 d 1 X -12 Y 1 -10 d -8 Y 1 -1 d -3 Y 1 -1 d 1 X 1 1 d 1 1 d 1 Y 1 1 d 1 Y 1 1 d 4 Y 1 2 d 9 Y 1 9 d 11 Y 1 X 1 Y 1 -1 d -11 Y 1 -12 d -8 Y 1 X -2 Y 1 X 3 Y 1 2 d 5 Y 1 1 d 3 Y 1 1 d 2 Y 1 1 d 1 Y 1 1 d 1 Y s 2006 202 m
 -8 Y 1 -3 d -17 Y 1 -2 d -9 Y 1 -1 d -2 Y 1 Y 1 X 7 Y 1 2 d 10 Y 1 2 d 6 Y 1 2 d 3 Y 1 1 d 2 Y 1 X -2 Y 1 -1 d -7 Y 1 -2 d -11 Y 1 -1 d -5 Y 1 X 3 Y 1 1 d 6 Y 1 1 d 3 Y 1 1 d 3 Y 1 1 d 2 Y 1 X 1 -1 d -5 Y 1 -2 d s 2026 180 m -9 Y 1 -1 d -3 Y 1 Y 1 X
 6 Y 1 2 d 9 Y 1 2 d 8 Y 1 1 d 4 Y 1 X 2 Y 1 X 1 -1 d -4 Y 1 -2 d -7 Y 1 -2 d -5 Y 1 -1 d -1 Y 2 X 2 Y s black 1 1 1 c 453 430 1769 1007 bf black 1769 1007 m 453 X s 2222 1007 m 430 Y s 2222 1437 m -453 X s 1769 1437 m -430 Y s 1 1 1 c black
 gsave  2268 1537 0 0 C 1819.37 1358.03 t 0 r /Helvetica findfont 90.9686 sf 0 0 m (KCl_hq0) show NC gr  1769 1329 m 453 X s
 gsave  2268 1537 0 0 C 1790.13 1257.32 t 0 r /Helvetica findfont 51.982 sf 0 0 m (Entries ) show NC gr 
 gsave  2268 1537 0 0 C 2040.3 1257.32 t 0 r /Helvetica findfont 51.982 sf 0 0 m ( 23102) show NC gr 
 gsave  2268 1537 0 0 C 1790.13 1150.1 t 0 r /Helvetica findfont 51.982 sf 0 0 m (Mean  ) show NC gr 
 gsave  2268 1537 0 0 C 2040.3 1150.1 t 0 r /Helvetica findfont 51.982 sf 0 0 m (   5246) show NC gr 
 gsave  2268 1537 0 0 C 1790.13 1042.89 t 0 r /Helvetica findfont 51.982 sf 0 0 m (Std Dev   ) show NC gr 
 gsave  2268 1537 0 0 C 2040.3 1042.89 t 0 r /Helvetica findfont 51.982 sf 0 0 m (   3139) show NC gr  227 154 m 1814 X s 227 191 m -37 Y s 287 172 m -18 Y s 348 172 m -18 Y s 408 172 m -18 Y s 469 191 m -37 Y s 529 172 m -18 Y s 590 172 m -18 Y s
 650 172 m -18 Y s 711 191 m -37 Y s 771 172 m -18 Y s 831 172 m -18 Y s 892 172 m -18 Y s 952 191 m -37 Y s 1013 172 m -18 Y s 1073 172 m -18 Y s 1134 172 m -18 Y s 1194 191 m -37 Y s 1255 172 m -18 Y s 1315 172 m -18 Y s 1376 172 m -18 Y s 1436 191
 m -37 Y s 1497 172 m -18 Y s 1557 172 m -18 Y s 1618 172 m -18 Y s 1678 191 m -37 Y s 1739 172 m -18 Y s 1799 172 m -18 Y s 1860 172 m -18 Y s 1920 191 m -37 Y s 1920 191 m -37 Y s 1980 172 m -18 Y s 2041 172 m -18 Y s
 gsave  2268 1537 0 0 C 211.177 103.964 t 0 r /Helvetica findfont 48.7332 sf 0 0 m (0) show NC gr 
 gsave  2268 1537 0 0 C 412.607 103.964 t 0 r /Helvetica findfont 48.7332 sf 0 0 m (2000) show NC gr 
 gsave  2268 1537 0 0 C 653.024 103.964 t 0 r /Helvetica findfont 48.7332 sf 0 0 m (4000) show NC gr 
 gsave  2268 1537 0 0 C 896.69 103.964 t 0 r /Helvetica findfont 48.7332 sf 0 0 m (6000) show NC gr 
 gsave  2268 1537 0 0 C 1137.11 103.964 t 0 r /Helvetica findfont 48.7332 sf 0 0 m (8000) show NC gr 
 gsave  2268 1537 0 0 C 1367.78 103.964 t 0 r /Helvetica findfont 48.7332 sf 0 0 m (10000) show NC gr 
 gsave  2268 1537 0 0 C 1608.19 103.964 t 0 r /Helvetica findfont 48.7332 sf 0 0 m (12000) show NC gr 
 gsave  2268 1537 0 0 C 1848.61 103.964 t 0 r /Helvetica findfont 48.7332 sf 0 0 m (14000) show NC gr 
 gsave  2268 1537 0 0 C 1764.14 55.2309 t 0 r /Helvetica findfont 48.7332 sf 0 0 m (Energy [a.u.]) show NC gr  227 154 m 1229 Y s 281 154 m -54 X s 254 188 m -27 X s 254 222 m -27 X s 254 256 m -27 X s 281 291 m -54 X s 254 325 m -27 X s 254 359 m
 -27 X s 254 393 m -27 X s 281 428 m -54 X s 254 462 m -27 X s 254 496 m -27 X s 254 530 m -27 X s 281 564 m -54 X s 254 599 m -27 X s 254 633 m -27 X s 254 667 m -27 X s 281 701 m -54 X s 254 736 m -27 X s 254 770 m -27 X s 254 804 m -27 X s 281 838
 m -54 X s 254 873 m -27 X s 254 907 m -27 X s 254 941 m -27 X s 281 975 m -54 X s 254 1010 m -27 X s 254 1044 m -27 X s 254 1078 m -27 X s 281 1112 m -54 X s 254 1146 m -27 X s 254 1181 m -27 X s 254 1215 m -27 X s 281 1249 m -54 X s 281 1249 m -54
 X s 254 1283 m -27 X s 254 1318 m -27 X s 254 1352 m -27 X s
 gsave  2268 1537 0 0 C 188.435 136.453 t 0 r /Helvetica findfont 48.7332 sf 0 0 m (0) show NC gr 
 gsave  2268 1537 0 0 C 162.444 272.906 t 0 r /Helvetica findfont 48.7332 sf 0 0 m (20) show NC gr 
 gsave  2268 1537 0 0 C 162.444 409.359 t 0 r /Helvetica findfont 48.7332 sf 0 0 m (40) show NC gr 
 gsave  2268 1537 0 0 C 162.444 545.811 t 0 r /Helvetica findfont 48.7332 sf 0 0 m (60) show NC gr 
 gsave  2268 1537 0 0 C 162.444 682.264 t 0 r /Helvetica findfont 48.7332 sf 0 0 m (80) show NC gr 
 gsave  2268 1537 0 0 C 133.204 821.966 t 0 r /Helvetica findfont 48.7332 sf 0 0 m (100) show NC gr 
 gsave  2268 1537 0 0 C 133.204 958.419 t 0 r /Helvetica findfont 48.7332 sf 0 0 m (120) show NC gr 
 gsave  2268 1537 0 0 C 133.204 1094.87 t 0 r /Helvetica findfont 48.7332 sf 0 0 m (140) show NC gr 
 gsave  2268 1537 0 0 C 133.204 1231.32 t 0 r /Helvetica findfont 48.7332 sf 0 0 m (160) show NC gr 
 gsave  2268 1537 0 0 C 84.4708 695.26 t 90 r /Helvetica findfont 48.7332 sf 0 0 m (Counts) show NC gr  1 1 1 c 453 430 1769 1007 bf black 1769 1007 m 453 X s 2222 1007 m 430 Y s 2222 1437 m -453 X s 1769 1437 m -430 Y s 1 1 1 c black
 gsave  2268 1537 0 0 C 1819.37 1358.03 t 0 r /Helvetica findfont 90.9686 sf 0 0 m (KCl_hq0) show NC gr  1769 1329 m 453 X s
 gsave  2268 1537 0 0 C 1790.13 1257.32 t 0 r /Helvetica findfont 51.982 sf 0 0 m (Entries ) show NC gr 
 gsave  2268 1537 0 0 C 2040.3 1257.32 t 0 r /Helvetica findfont 51.982 sf 0 0 m ( 23102) show NC gr 
 gsave  2268 1537 0 0 C 1790.13 1150.1 t 0 r /Helvetica findfont 51.982 sf 0 0 m (Mean  ) show NC gr 
 gsave  2268 1537 0 0 C 2040.3 1150.1 t 0 r /Helvetica findfont 51.982 sf 0 0 m (   5246) show NC gr 
 gsave  2268 1537 0 0 C 1790.13 1042.89 t 0 r /Helvetica findfont 51.982 sf 0 0 m (Std Dev   ) show NC gr 
 gsave  2268 1537 0 0 C 2040.3 1042.89 t 0 r /Helvetica findfont 51.982 sf 0 0 m (   3139) show NC gr  1 1 1 c black
 gsave  2268 1537 0 0 C 990.908 1461.99 t 0 r /Helvetica findfont 74.7242 sf 0 0 m (KCl_hq0) show NC gr 
 gr  gr showpage
end
%%EOF
