%!PS-Adobe-2.0 EPSF-2.0
%%BoundingBox:  0 0 567 384
%%Title: net_KCl_hq0.eps: net_KCl_hq0
%%Creator: ROOT Version 6.13/01
%%CreationDate: Sat May 12 15:01:34 2018
%%DocumentNeededResources: ProcSet (FontSetInit)
%%EndComments
%%BeginProlog
80 dict begin
/s {stroke} def /l {lineto} def /m {moveto} def /t {translate} def
/r {rotate} def /rl {roll}  def /R {repeat} def
/d {rlineto} def /rm {rmoveto} def /gr {grestore} def /f {eofill} def
/c {setrgbcolor} def /black {0 setgray} def /sd {setdash} def
/cl {closepath} def /sf {scalefont setfont} def /lw {setlinewidth} def
/box {m dup 0 exch d exch 0 d 0 exch neg d cl} def
/NC{systemdict begin initclip end}def/C{NC box clip newpath}def
/bl {box s} def /bf {gsave box gsave f grestore 1 lw [] 0 sd s grestore} def /Y { 0 exch d} def /X { 0 d} def 
/K {{pop pop 0 moveto} exch kshow} bind def
/ita {/ang 15 def gsave [1 0 ang dup sin exch cos div 1 0 0] concat} def 
/mp {newpath /y exch def /x exch def} def
/side {[w .77 mul w .23 mul] .385 w mul sd w 0 l currentpoint t -144 r} def
/mr {mp x y w2 0 360 arc} def /m24 {mr s} def /m20 {mr f} def
/mb {mp x y w2 add m w2 neg 0 d 0 w neg d w 0 d 0 w d cl} def
/mt {mp x y w2 add m w2 neg w neg d w 0 d cl} def
/w4 {w 4 div} def
/w6 {w 6 div} def
/w8 {w 8 div} def
/m21 {mb f} def /m25 {mb s} def /m22 {mt f} def /m26{mt s} def
/m23 {mp x y w2 sub m w2 w d w neg 0 d cl f} def
/m27 {mp x y w2 add m w3 neg w2 neg d w3 w2 neg d w3 w2 d cl s} def
/m28 {mp x w2 sub y w2 sub w3 add m w3 0 d  0 w3 neg d w3 0 d 0 w3 d w3 0 d  0 w3 d w3 neg 0 d 0 w3 d w3 neg 0 d 0 w3 neg d w3 neg 0 d cl s } def
/m29 {mp gsave x w2 sub y w2 add w3 sub m currentpoint t 4 {side} repeat cl fill gr} def
/m30 {mp gsave x w2 sub y w2 add w3 sub m currentpoint t 4 {side} repeat cl s gr} def
/m31 {mp x y w2 sub m 0 w d x w2 sub y m w 0 d x w2 sub y w2 add m w w neg d x w2 sub y w2 sub m w w d s} def
/m32 {mp x y w2 sub m w2 w d w neg 0 d cl s} def
/m33 {mp x y w2 add m w3 neg w2 neg d w3 w2 neg d w3 w2 d cl f} def
/m34 {mp x w2 sub y w2 sub w3 add m w3 0 d  0 w3 neg d w3 0 d 0 w3 d w3 0 d  0 w3 d w3 neg 0 d 0 w3 d w3 neg 0 d 0 w3 neg d w3 neg 0 d cl f } def
/m35 {mp x y w2 add m w2 neg w2 neg d w2 w2 neg d w2 w2 d w2 neg w2 d x y w2 sub m 0 w d x w2 sub y m w 0 d s} def
/m36 {mb x w2 sub y w2 add m w w neg d x w2 sub y w2 sub m w w d s} def
/m37 {mp x y m w4 neg w2 d w4 neg w2 neg d w2 0 d  w4 neg w2 neg d w2 0 d w4 neg w2 d w2 0 d w4 neg w2 d w4 neg w2 neg d cl s} def
/m38 {mp x w4 sub y w2 add m w4 neg w4 neg d 0 w2 neg d w4 w4 neg d w2 0 d w4 w4 d 0 w2 d w4 neg w4 d w2 neg 0 d x y w2 sub m 0 w d x w2 sub y m w 0 d cl s} def
/m39 {mp x y m w4 neg w2 d w4 neg w2 neg d w2 0 d  w4 neg w2 neg d w2 0 d w4 neg w2 d w2 0 d w4 neg w2 d w4 neg w2 neg d cl f} def
/m40 {mp x y m w4 w2 d w4 w4 neg d w2 neg w4 neg d w2 w4 neg d w4 neg w4 neg d w4 neg w2 d w4 neg w2 neg d w4 neg w4 d w2 w4 d w2 neg w4 d w4 w4 d w4 w2 neg d cl s} def
/m41 {mp x y m w4 w2 d w4 w4 neg d w2 neg w4 neg d w2 w4 neg d w4 neg w4 neg d w4 neg w2 d w4 neg w2 neg d w4 neg w4 d w2 w4 d w2 neg w4 d w4 w4 d w4 w2 neg d cl f} def
/m42 {mp x y w2 add m w8 neg w2 -3 4 div mul d w2 -3 4 div mul w8 neg d w2 3 4 div mul w8 neg d w8 w2 -3 4 div mul d w8 w2 3 4 div mul d w2 3 4 div mul w8 d w2 -3 4 div mul w8 d w8 neg w2 3 4 div mul d cl s} def
/m43 {mp x y w2 add m w8 neg w2 -3 4 div mul d w2 -3 4 div mul w8 neg d w2 3 4 div mul w8 neg d w8 w2 -3 4 div mul d w8 w2 3 4 div mul d w2 3 4 div mul w8 d w2 -3 4 div mul w8 d w8 neg w2 3 4 div mul d cl f} def
/m44 {mp x y m w6 neg w2 d w2 2 3 div mul 0 d w6 neg w2 neg d w2 w6 d 0 w2 -2 3 div mul d w2 neg w6 d w6 w2 neg d w2 -2 3 div mul 0 d w6 w2 d w2 neg w6 neg d 0 w2 2 3 div mul d w2 w6 neg d cl s} def
/m45 {mp x y m w6 neg w2 d w2 2 3 div mul 0 d w6 neg w2 neg d w2 w6 d 0 w2 -2 3 div mul d w2 neg w6 d w6 w2 neg d w2 -2 3 div mul 0 d w6 w2 d w2 neg w6 neg d 0 w2 2 3 div mul d w2 w6 neg d cl f} def
/m46 {mp x y w4 add m w4 neg w4 d w4 neg w4 neg d  w4 w4 neg d w4 neg w4 neg d w4 w4 neg d w4 w4 d w4 w4 neg d w4 w4 d w4 neg w4 d w4 w4 d w4 neg w4 d w4 neg w4 neg d cl s} def
/m47 {mp x y w4 add m w4 neg w4 d w4 neg w4 neg d w4 w4 neg d w4 neg w4 neg d  w4 w4 neg d w4 w4 d w4 w4 neg d w4 w4 d w4 neg w4 d w4 w4 d w4 neg w4 d w4 neg w4 neg d cl f} def
/m48 {mp x y w4 add m w4 neg w4 d w4 neg w4 neg d w4 w4 neg d  w4 neg w4 neg d w4 w4 neg d w4 w4 d w4 w4 neg d w4 w4 d w4 neg w4 d w4 w4 d w4 neg w4 d w4 neg w4 neg d  w4 w4 neg d w4 neg w4 neg d w4 neg w4 d w4 w4 d cl f} def
/m49 {mp x w2 sub w3 add y w2 sub w3 add m  0 w3 neg d w3 0 d 0 w3 d w3 0 d 0 w3 d w3 neg 0 d 0 w3 d w3 neg 0 d 0 w3 neg d w3 neg 0 d 0 w3 neg d w3 0 d 0 w3 d w3 0 d 0 w3 neg d w3 neg 0 d cl f } def
/m2 {mp x y w2 sub m 0 w d x w2 sub y m w 0 d s} def
/m5 {mp x w2 sub y w2 sub m w w d x w2 sub y w2 add m w w neg d s} def
%%IncludeResource: ProcSet (FontSetInit)
%%IncludeResource: font Times-Roman
%%IncludeResource: font Times-Italic
%%IncludeResource: font Times-Bold
%%IncludeResource: font Times-BoldItalic
%%IncludeResource: font Helvetica
%%IncludeResource: font Helvetica-Oblique
%%IncludeResource: font Helvetica-Bold
%%IncludeResource: font Helvetica-BoldOblique
%%IncludeResource: font Courier
%%IncludeResource: font Courier-Oblique
%%IncludeResource: font Courier-Bold
%%IncludeResource: font Courier-BoldOblique
%%IncludeResource: font Symbol
%%IncludeResource: font ZapfDingbats
/reEncode {exch findfont dup length dict begin {1 index /FID eq  {pop pop} {def} ifelse } forall /Encoding exch def currentdict end dup /FontName get exch definefont pop } def [/Times-Bold /Times-Italic /Times-BoldItalic /Helvetica /Helvetica-Oblique
 /Helvetica-Bold /Helvetica-BoldOblique /Courier /Courier-Oblique /Courier-Bold /Courier-BoldOblique /Times-Roman /AvantGarde-Book /AvantGarde-BookOblique /AvantGarde-Demi /AvantGarde-DemiOblique /Bookman-Demi /Bookman-DemiItalic /Bookman-Light
 /Bookman-LightItalic /Helvetica-Narrow /Helvetica-Narrow-Bold /Helvetica-Narrow-BoldOblique /Helvetica-Narrow-Oblique /NewCenturySchlbk-Roman /NewCenturySchlbk-Bold /NewCenturySchlbk-BoldItalic /NewCenturySchlbk-Italic /Palatino-Bold
 /Palatino-BoldItalic /Palatino-Italic /Palatino-Roman ] {ISOLatin1Encoding reEncode } forall
%%EndProlog
%%BeginSetup
%%EndSetup
newpath  gsave  .25 .25 scale  gsave  0 0 t black[  ] 0 sd 3 lw 1 1 1 c 2268 1537 0 0 bf black 1 1 1 c 1814 1229 227 154 bf black 1814 1229 227 154 bl 1 1 1 c 1814 1229 227 154 bf black 1814 1229 227 154 bl 0 0 1 c 1 1 1 c black 0 0 1 c 289 392 m 14
 Y s 289 406 m 14 Y s 287 406 m 2 X s 289 406 m 1 X s black /w 2 def /w2 {w 2 div} def /w3 {w 3 div} def 289 406 m20 0 0 1 c 292 391 m 14 Y s 292 405 m 14 Y s 290 405 m 2 X s 292 405 m 1 X s black 292 405 m20 0 0 1 c 295 378 m 9 Y s 295 387 m 9 Y s
 293 387 m 2 X s 295 387 m 1 X s black 295 387 m20 0 0 1 c 298 394 m 14 Y s 298 408 m 14 Y s 296 408 m 2 X s 298 408 m 1 X s black 298 408 m20 0 0 1 c 301 394 m 14 Y s 301 408 m 14 Y s 299 408 m 2 X s 301 408 m 1 X s black 301 408 m20 0 0 1 c 304 384
 m 11 Y s 304 395 m 11 Y s 302 395 m 2 X s 304 395 m 1 X s black 304 395 m20 0 0 1 c 307 389 m 13 Y s 307 402 m 12 Y s 305 402 m 2 X s 307 402 m 1 X s black 307 402 m20 0 0 1 c 310 416 m 19 Y s 310 435 m 18 Y s 308 435 m 2 X s 310 435 m 1 X s black
 310 435 m20 0 0 1 c 313 379 m 8 Y s 313 387 m 9 Y s 311 387 m 2 X s 313 387 m 1 X s black 313 387 m20 0 0 1 c 316 408 m 18 Y s 316 426 m 17 Y s 314 426 m 2 X s 316 426 m 1 X s black 316 426 m20 0 0 1 c 319 395 m 14 Y s 319 409 m 14 Y s 317 409 m 2 X
 s 319 409 m 2 X s black 319 409 m20 0 0 1 c 322 401 m 15 Y s 322 416 m 15 Y s 321 416 m 1 X s 322 416 m 2 X s black 322 416 m20 0 0 1 c 325 408 m 18 Y s 325 426 m 18 Y s 324 426 m 1 X s 325 426 m 2 X s black 325 426 m20 0 0 1 c 328 426 m 21 Y s 328
 447 m 20 Y s 327 447 m 1 X s 328 447 m 2 X s black 328 447 m20 0 0 1 c 331 404 m 17 Y s 331 421 m 16 Y s 330 421 m 1 X s 331 421 m 2 X s black 331 421 m20 0 0 1 c 334 390 m 12 Y s 334 402 m 13 Y s 333 402 m 1 X s 334 402 m 2 X s black 334 402 m20 0
 0 1 c 337 414 m 18 Y s 337 432 m 19 Y s 336 432 m 1 X s 337 432 m 2 X s black 337 432 m20 0 0 1 c 340 388 m 13 Y s 340 401 m 12 Y s 339 401 m 1 X s 340 401 m 2 X s black 340 401 m20 0 0 1 c 343 381 m 8 Y s 343 389 m 9 Y s 342 389 m 1 X s 343 389 m 2
 X s black 343 389 m20 0 0 1 c 346 379 m 8 Y s 346 387 m 9 Y s 345 387 m 1 X s 346 387 m 2 X s black 346 387 m20 0 0 1 c 349 395 m 14 Y s 349 409 m 14 Y s 348 409 m 1 X s 349 409 m 2 X s black 349 409 m20 0 0 1 c 352 393 m 14 Y s 352 407 m 14 Y s 351
 407 m 1 X s 352 407 m 2 X s black 352 407 m20 0 0 1 c 355 375 m 6 Y s 355 381 m 7 Y s 354 381 m 1 X s 355 381 m 2 X s black 355 381 m20 0 0 1 c 358 383 m 11 Y s 358 394 m 11 Y s 357 394 m 1 X s 358 394 m 2 X s black 358 394 m20 0 0 1 c 361 378 m 9 Y
 s 361 387 m 9 Y s 360 387 m 1 X s 361 387 m 2 X s black 361 387 m20 0 0 1 c 364 384 m 11 Y s 364 395 m 11 Y s 363 395 m 1 X s 364 395 m 2 X s black 364 395 m20 0 0 1 c 367 398 m 16 Y s 367 414 m 15 Y s 366 414 m 1 X s 367 414 m 2 X s black 367 414
 m20 0 0 1 c 370 394 m 14 Y s 370 408 m 14 Y s 369 408 m 1 X s 370 408 m 2 X s black 370 408 m20 0 0 1 c 373 389 m 12 Y s 373 401 m 13 Y s 372 401 m 1 X s 373 401 m 2 X s black 373 401 m20 0 0 1 c 376 385 m 10 Y s 376 395 m 11 Y s 375 395 m 1 X s 376
 395 m 2 X s black 376 395 m20 0 0 1 c 379 394 m 14 Y s 379 408 m 14 Y s 378 408 m 1 X s 379 408 m 2 X s black 379 408 m20 0 0 1 c 382 405 m 16 Y s 382 421 m 17 Y s 381 421 m 1 X s 382 421 m 2 X s black 382 421 m20 0 0 1 c 386 402 m 17 Y s 386 419 m
 16 Y s 384 419 m 2 X s 386 419 m 1 X s black 386 419 m20 0 0 1 c 389 398 m 15 Y s 389 413 m 15 Y s 387 413 m 2 X s 389 413 m 1 X s black 389 413 m20 0 0 1 c 392 385 m 13 Y s 392 398 m 12 Y s 390 398 m 2 X s 392 398 m 1 X s black 392 398 m20 0 0 1 c
 395 393 m 14 Y s 395 407 m 14 Y s 393 407 m 2 X s 395 407 m 1 X s black 395 407 m20 0 0 1 c 398 413 m 19 Y s 398 432 m 18 Y s 396 432 m 2 X s 398 432 m 1 X s black 398 432 m20 0 0 1 c 401 471 m 28 Y s 401 499 m 28 Y s 399 499 m 2 X s 401 499 m 1 X s
 black 401 499 m20 0 0 1 c 404 405 m 17 Y s 404 422 m 18 Y s 402 422 m 2 X s 404 422 m 1 X s black 404 422 m20 0 0 1 c 407 479 m 29 Y s 407 508 m 30 Y s 405 508 m 2 X s 407 508 m 1 X s black 407 508 m20 0 0 1 c 410 509 m 33 Y s 410 542 m 32 Y s 408
 542 m 2 X s 410 542 m 1 X s black 410 542 m20 0 0 1 c 413 502 m 32 Y s 413 534 m 31 Y s 411 534 m 2 X s 413 534 m 1 X s black 413 534 m20 0 0 1 c 416 565 m 38 Y s 416 603 m 39 Y s 414 603 m 2 X s 416 603 m 1 X s black 416 603 m20 0 0 1 c 419 625 m
 44 Y s 419 669 m 43 Y s 417 669 m 2 X s 419 669 m 1 X s black 419 669 m20 0 0 1 c 422 648 m 45 Y s 422 693 m 45 Y s 420 693 m 2 X s 422 693 m 1 X s black 422 693 m20 0 0 1 c 425 702 m 50 Y s 425 752 m 49 Y s 423 752 m 2 X s 425 752 m 1 X s black 425
 752 m20 0 0 1 c 428 736 m 52 Y s 428 788 m 52 Y s 426 788 m 2 X s 428 788 m 1 X s black 428 788 m20 0 0 1 c 431 795 m 56 Y s 431 851 m 55 Y s 429 851 m 2 X s 431 851 m 1 X s black 431 851 m20 0 0 1 c 434 865 m 59 Y s 434 924 m 60 Y s 432 924 m 2 X s
 434 924 m 1 X s black 434 924 m20 0 0 1 c 437 820 m 58 Y s 437 878 m 57 Y s 435 878 m 2 X s 437 878 m 1 X s black 437 878 m20 0 0 1 c 440 975 m 67 Y s 440 1042 m 66 Y s 438 1042 m 2 X s 440 1042 m 1 X s black 440 1042 m20 0 0 1 c 443 1039 m 70 Y s
 443 1109 m 70 Y s 441 1109 m 2 X s 443 1109 m 1 X s black 443 1109 m20 0 0 1 c 446 1042 m 71 Y s 446 1113 m 70 Y s 444 1113 m 2 X s 446 1113 m 1 X s black 446 1113 m20 0 0 1 c 449 1023 m 70 Y s 449 1093 m 71 Y s 447 1093 m 2 X s 449 1093 m 2 X s
 black 449 1093 m20 0 0 1 c 452 1169 m 78 Y s 452 1247 m 78 Y s 451 1247 m 1 X s 452 1247 m 2 X s black 452 1247 m20 0 0 1 c 455 1159 m 78 Y s 455 1237 m 77 Y s 454 1237 m 1 X s 455 1237 m 2 X s black 455 1237 m20 0 0 1 c 458 1063 m 75 Y s 458 1138 m
 74 Y s 457 1138 m 1 X s 458 1138 m 2 X s black 458 1138 m20 0 0 1 c 461 1153 m 80 Y s 461 1233 m 80 Y s 460 1233 m 1 X s 461 1233 m 2 X s black 461 1233 m20 0 0 1 c 464 1144 m 81 Y s 464 1225 m 81 Y s 463 1225 m 1 X s 464 1225 m 2 X s black 464 1225
 m20 0 0 1 c 467 1077 m 79 Y s 467 1156 m 80 Y s 466 1156 m 1 X s 467 1156 m 2 X s black 467 1156 m20 0 0 1 c 470 1063 m 80 Y s 470 1143 m 80 Y s 469 1143 m 1 X s 470 1143 m 2 X s black 470 1143 m20 0 0 1 c 473 955 m 78 Y s 473 1033 m 77 Y s 472 1033
 m 1 X s 473 1033 m 2 X s black 473 1033 m20 0 0 1 c 476 1011 m 82 Y s 476 1093 m 82 Y s 475 1093 m 1 X s 476 1093 m 2 X s black 476 1093 m20 0 0 1 c 479 929 m 80 Y s 479 1009 m 80 Y s 478 1009 m 1 X s 479 1009 m 2 X s black 479 1009 m20 0 0 1 c 482
 839 m 78 Y s 482 917 m 78 Y s 481 917 m 1 X s 482 917 m 2 X s black 482 917 m20 0 0 1 c 485 714 m 76 Y s 485 790 m 77 Y s 484 790 m 1 X s 485 790 m 2 X s black 485 790 m20 0 0 1 c 488 753 m 79 Y s 488 832 m 80 Y s 487 832 m 1 X s 488 832 m 2 X s
 black 488 832 m20 0 0 1 c 491 622 m 75 Y s 491 697 m 75 Y s 490 697 m 1 X s 491 697 m 2 X s black 491 697 m20 0 0 1 c 494 698 m 80 Y s 494 778 m 81 Y s 493 778 m 1 X s 494 778 m 2 X s black 494 778 m20 0 0 1 c 497 707 m 83 Y s 497 790 m 82 Y s 496
 790 m 1 X s 497 790 m 2 X s black 497 790 m20 0 0 1 c 500 579 m 78 Y s 500 657 m 78 Y s 499 657 m 1 X s 500 657 m 2 X s black 500 657 m20 0 0 1 c 503 600 m 81 Y s 503 681 m 80 Y s 502 681 m 1 X s 503 681 m 2 X s black 503 681 m20 0 0 1 c 506 404 m
 75 Y s 506 479 m 75 Y s 505 479 m 1 X s 506 479 m 2 X s black 506 479 m20 0 0 1 c 509 528 m 80 Y s 509 608 m 79 Y s 508 608 m 1 X s 509 608 m 2 X s black 509 608 m20 0 0 1 c 513 354 m 74 Y s 513 428 m 73 Y s 511 428 m 2 X s 513 428 m 1 X s black 513
 428 m20 0 0 1 c 516 446 m 78 Y s 516 524 m 77 Y s 514 524 m 2 X s 516 524 m 1 X s black 516 524 m20 0 0 1 c 519 409 m 77 Y s 519 486 m 76 Y s 517 486 m 2 X s 519 486 m 1 X s black 519 486 m20 0 0 1 c 522 344 m 74 Y s 522 418 m 73 Y s 520 418 m 2 X s
 522 418 m 1 X s black 522 418 m20 0 0 1 c 525 349 m 72 Y s 525 421 m 73 Y s 523 421 m 2 X s 525 421 m 1 X s black 525 421 m20 0 0 1 c 528 380 m 73 Y s 528 453 m 73 Y s 526 453 m 2 X s 528 453 m 1 X s black 528 453 m20 0 0 1 c 531 387 m 74 Y s 531
 461 m 73 Y s 529 461 m 2 X s 531 461 m 1 X s black 531 461 m20 0 0 1 c 534 468 m 76 Y s 534 544 m 77 Y s 532 544 m 2 X s 534 544 m 1 X s black 534 544 m20 0 0 1 c 537 324 m 69 Y s 537 393 m 69 Y s 535 393 m 2 X s 537 393 m 1 X s black 537 393 m20 0
 0 1 c 540 285 m 66 Y s 540 351 m 67 Y s 538 351 m 2 X s 540 351 m 1 X s black 540 351 m20 0 0 1 c 543 352 m 69 Y s 543 421 m 69 Y s 541 421 m 2 X s 543 421 m 1 X s black 543 421 m20 0 0 1 c 546 462 m 71 Y s 546 533 m 71 Y s 544 533 m 2 X s 546 533 m
 1 X s black 546 533 m20 0 0 1 c 549 370 m 67 Y s 549 437 m 68 Y s 547 437 m 2 X s 549 437 m 1 X s black 549 437 m20 0 0 1 c 552 459 m 72 Y s 552 531 m 72 Y s 550 531 m 2 X s 552 531 m 1 X s black 552 531 m20 0 0 1 c 555 407 m 69 Y s 555 476 m 69 Y s
 553 476 m 2 X s 555 476 m 1 X s black 555 476 m20 0 0 1 c 558 357 m 66 Y s 558 423 m 67 Y s 556 423 m 2 X s 558 423 m 1 X s black 558 423 m20 0 0 1 c 561 373 m 66 Y s 561 439 m 65 Y s 559 439 m 2 X s 561 439 m 1 X s black 561 439 m20 0 0 1 c 564 324
 m 62 Y s 564 386 m 63 Y s 562 386 m 2 X s 564 386 m 1 X s black 564 386 m20 0 0 1 c 567 411 m 67 Y s 567 478 m 66 Y s 565 478 m 2 X s 567 478 m 1 X s black 567 478 m20 0 0 1 c 570 365 m 65 Y s 570 430 m 64 Y s 568 430 m 2 X s 570 430 m 1 X s black
 570 430 m20 0 0 1 c 573 396 m 66 Y s 573 462 m 66 Y s 571 462 m 2 X s 573 462 m 1 X s black 573 462 m20 0 0 1 c 576 250 m 57 Y s 576 307 m 58 Y s 574 307 m 2 X s 576 307 m 2 X s black 576 307 m20 0 0 1 c 579 386 m 65 Y s 579 451 m 64 Y s 578 451 m 1
 X s 579 451 m 2 X s black 579 451 m20 0 0 1 c 582 347 m 62 Y s 582 409 m 62 Y s 581 409 m 1 X s 582 409 m 2 X s black 582 409 m20 0 0 1 c 585 394 m 64 Y s 585 458 m 64 Y s 584 458 m 1 X s 585 458 m 2 X s black 585 458 m20 0 0 1 c 588 437 m 66 Y s
 588 503 m 66 Y s 587 503 m 1 X s 588 503 m 2 X s black 588 503 m20 0 0 1 c 591 313 m 60 Y s 591 373 m 59 Y s 590 373 m 1 X s 591 373 m 2 X s black 591 373 m20 0 0 1 c 594 279 m 58 Y s 594 337 m 57 Y s 593 337 m 1 X s 594 337 m 2 X s black 594 337
 m20 0 0 1 c 597 409 m 64 Y s 597 473 m 64 Y s 596 473 m 1 X s 597 473 m 2 X s black 597 473 m20 0 0 1 c 600 380 m 61 Y s 600 441 m 62 Y s 599 441 m 1 X s 600 441 m 2 X s black 600 441 m20 0 0 1 c 603 313 m 58 Y s 603 371 m 58 Y s 602 371 m 1 X s 603
 371 m 2 X s black 603 371 m20 0 0 1 c 606 372 m 61 Y s 606 433 m 61 Y s 605 433 m 1 X s 606 433 m 2 X s black 606 433 m20 0 0 1 c 609 353 m 59 Y s 609 412 m 60 Y s 608 412 m 1 X s 609 412 m 2 X s black 609 412 m20 0 0 1 c 612 305 m 57 Y s 612 362 m
 58 Y s 611 362 m 1 X s 612 362 m 2 X s black 612 362 m20 0 0 1 c 615 328 m 58 Y s 615 386 m 58 Y s 614 386 m 1 X s 615 386 m 2 X s black 615 386 m20 0 0 1 c 618 347 m 60 Y s 618 407 m 60 Y s 617 407 m 1 X s 618 407 m 2 X s black 618 407 m20 0 0 1 c
 621 352 m 59 Y s 621 411 m 59 Y s 620 411 m 1 X s 621 411 m 2 X s black 621 411 m20 0 0 1 c 624 370 m 59 Y s 624 429 m 59 Y s 623 429 m 1 X s 624 429 m 2 X s black 624 429 m20 0 0 1 c 627 381 m 61 Y s 627 442 m 60 Y s 626 442 m 1 X s 627 442 m 2 X s
 black 627 442 m20 0 0 1 c 630 523 m 67 Y s 630 590 m 67 Y s 629 590 m 1 X s 630 590 m 2 X s black 630 590 m20 0 0 1 c 633 377 m 61 Y s 633 438 m 61 Y s 632 438 m 1 X s 633 438 m 2 X s black 633 438 m20 0 0 1 c 636 403 m 62 Y s 636 465 m 62 Y s 635
 465 m 1 X s 636 465 m 2 X s black 636 465 m20 0 0 1 c 639 412 m 63 Y s 639 475 m 63 Y s 638 475 m 1 X s 639 475 m 2 X s black 639 475 m20 0 0 1 c 643 315 m 58 Y s 643 373 m 57 Y s 641 373 m 2 X s 643 373 m 1 X s black 643 373 m20 0 0 1 c 646 275 m
 57 Y s 646 332 m 56 Y s 644 332 m 2 X s 646 332 m 1 X s black 646 332 m20 0 0 1 c 649 500 m 68 Y s 649 568 m 69 Y s 647 568 m 2 X s 649 568 m 1 X s black 649 568 m20 0 0 1 c 652 391 m 64 Y s 652 455 m 64 Y s 650 455 m 2 X s 652 455 m 1 X s black 652
 455 m20 0 0 1 c 655 391 m 62 Y s 655 453 m 63 Y s 653 453 m 2 X s 655 453 m 1 X s black 655 453 m20 0 0 1 c 658 344 m 61 Y s 658 405 m 60 Y s 656 405 m 2 X s 658 405 m 1 X s black 658 405 m20 0 0 1 c 661 406 m 65 Y s 661 471 m 64 Y s 659 471 m 2 X s
 661 471 m 1 X s black 661 471 m20 0 0 1 c 664 209 m 51 Y s 664 260 m 51 Y s 662 260 m 2 X s 664 260 m 1 X s black 664 260 m20 0 0 1 c 667 444 m 63 Y s 667 507 m 64 Y s 665 507 m 2 X s 667 507 m 1 X s black 667 507 m20 0 0 1 c 670 415 m 60 Y s 670
 475 m 60 Y s 668 475 m 2 X s 670 475 m 1 X s black 670 475 m20 0 0 1 c 673 409 m 60 Y s 673 469 m 60 Y s 671 469 m 2 X s 673 469 m 1 X s black 673 469 m20 0 0 1 c 676 385 m 57 Y s 676 442 m 57 Y s 674 442 m 2 X s 676 442 m 1 X s black 676 442 m20 0
 0 1 c 679 366 m 56 Y s 679 422 m 56 Y s 677 422 m 2 X s 679 422 m 1 X s black 679 422 m20 0 0 1 c 682 378 m 54 Y s 682 432 m 55 Y s 680 432 m 2 X s 682 432 m 1 X s black 682 432 m20 0 0 1 c 685 314 m 51 Y s 685 365 m 50 Y s 683 365 m 2 X s 685 365 m
 1 X s black 685 365 m20 0 0 1 c 688 413 m 57 Y s 688 470 m 57 Y s 686 470 m 2 X s 688 470 m 1 X s black 688 470 m20 0 0 1 c 691 450 m 59 Y s 691 509 m 58 Y s 689 509 m 2 X s 691 509 m 1 X s black 691 509 m20 0 0 1 c 694 301 m 50 Y s 694 351 m 50 Y s
 692 351 m 2 X s 694 351 m 1 X s black 694 351 m20 0 0 1 c 697 269 m 47 Y s 697 316 m 48 Y s 695 316 m 2 X s 697 316 m 1 X s black 697 316 m20 0 0 1 c 700 302 m 49 Y s 700 351 m 48 Y s 698 351 m 2 X s 700 351 m 1 X s black 700 351 m20 0 0 1 c 703 331
 m 50 Y s 703 381 m 51 Y s 701 381 m 2 X s 703 381 m 2 X s black 703 381 m20 0 0 1 c 706 442 m 58 Y s 706 500 m 57 Y s 705 500 m 1 X s 706 500 m 2 X s black 706 500 m20 0 0 1 c 709 444 m 60 Y s 709 504 m 59 Y s 708 504 m 1 X s 709 504 m 2 X s black
 709 504 m20 0 0 1 c 712 287 m 49 Y s 712 336 m 50 Y s 711 336 m 1 X s 712 336 m 2 X s black 712 336 m20 0 0 1 c 715 384 m 54 Y s 715 438 m 53 Y s 714 438 m 1 X s 715 438 m 2 X s black 715 438 m20 0 0 1 c 718 351 m 54 Y s 718 405 m 53 Y s 717 405 m 1
 X s 718 405 m 2 X s black 718 405 m20 0 0 1 c 721 354 m 54 Y s 721 408 m 54 Y s 720 408 m 1 X s 721 408 m 2 X s black 721 408 m20 0 0 1 c 724 323 m 52 Y s 724 375 m 52 Y s 723 375 m 1 X s 724 375 m 2 X s black 724 375 m20 0 0 1 c 727 446 m 59 Y s
 727 505 m 58 Y s 726 505 m 1 X s 727 505 m 2 X s black 727 505 m20 0 0 1 c 730 382 m 55 Y s 730 437 m 56 Y s 729 437 m 1 X s 730 437 m 2 X s black 730 437 m20 0 0 1 c 733 383 m 55 Y s 733 438 m 55 Y s 732 438 m 1 X s 733 438 m 2 X s black 733 438
 m20 0 0 1 c 736 478 m 60 Y s 736 538 m 61 Y s 735 538 m 1 X s 736 538 m 2 X s black 736 538 m20 0 0 1 c 739 295 m 49 Y s 739 344 m 48 Y s 738 344 m 1 X s 739 344 m 2 X s black 739 344 m20 0 0 1 c 742 389 m 54 Y s 742 443 m 55 Y s 741 443 m 1 X s 742
 443 m 2 X s black 742 443 m20 0 0 1 c 745 376 m 54 Y s 745 430 m 53 Y s 744 430 m 1 X s 745 430 m 2 X s black 745 430 m20 0 0 1 c 748 288 m 49 Y s 748 337 m 48 Y s 747 337 m 1 X s 748 337 m 2 X s black 748 337 m20 0 0 1 c 751 383 m 51 Y s 751 434 m
 52 Y s 750 434 m 1 X s 751 434 m 2 X s black 751 434 m20 0 0 1 c 754 374 m 51 Y s 754 425 m 51 Y s 753 425 m 1 X s 754 425 m 2 X s black 754 425 m20 0 0 1 c 757 418 m 52 Y s 757 470 m 52 Y s 756 470 m 1 X s 757 470 m 2 X s black 757 470 m20 0 0 1 c
 760 353 m 49 Y s 760 402 m 48 Y s 759 402 m 1 X s 760 402 m 2 X s black 760 402 m20 0 0 1 c 763 261 m 39 Y s 763 300 m 40 Y s 762 300 m 1 X s 763 300 m 2 X s black 763 300 m20 0 0 1 c 766 323 m 45 Y s 766 368 m 45 Y s 765 368 m 1 X s 766 368 m 2 X s
 black 766 368 m20 0 0 1 c 770 394 m 48 Y s 770 442 m 48 Y s 768 442 m 2 X s 770 442 m 1 X s black 770 442 m20 0 0 1 c 773 439 m 51 Y s 773 490 m 50 Y s 771 490 m 2 X s 773 490 m 1 X s black 773 490 m20 0 0 1 c 776 405 m 48 Y s 776 453 m 49 Y s 774
 453 m 2 X s 776 453 m 1 X s black 776 453 m20 0 0 1 c 779 403 m 47 Y s 779 450 m 48 Y s 777 450 m 2 X s 779 450 m 1 X s black 779 450 m20 0 0 1 c 782 407 m 48 Y s 782 455 m 49 Y s 780 455 m 2 X s 782 455 m 1 X s black 782 455 m20 0 0 1 c 785 361 m
 44 Y s 785 405 m 45 Y s 783 405 m 2 X s 785 405 m 1 X s black 785 405 m20 0 0 1 c 788 406 m 47 Y s 788 453 m 47 Y s 786 453 m 2 X s 788 453 m 1 X s black 788 453 m20 0 0 1 c 791 418 m 48 Y s 791 466 m 47 Y s 789 466 m 2 X s 791 466 m 1 X s black 791
 466 m20 0 0 1 c 794 383 m 46 Y s 794 429 m 45 Y s 792 429 m 2 X s 794 429 m 1 X s black 794 429 m20 0 0 1 c 797 407 m 47 Y s 797 454 m 47 Y s 795 454 m 2 X s 797 454 m 1 X s black 797 454 m20 0 0 1 c 800 430 m 47 Y s 800 477 m 48 Y s 798 477 m 2 X s
 800 477 m 1 X s black 800 477 m20 0 0 1 c 803 355 m 42 Y s 803 397 m 42 Y s 801 397 m 2 X s 803 397 m 1 X s black 803 397 m20 0 0 1 c 806 337 m 42 Y s 806 379 m 41 Y s 804 379 m 2 X s 806 379 m 1 X s black 806 379 m20 0 0 1 c 809 391 m 45 Y s 809
 436 m 46 Y s 807 436 m 2 X s 809 436 m 1 X s black 809 436 m20 0 0 1 c 812 420 m 47 Y s 812 467 m 47 Y s 810 467 m 2 X s 812 467 m 1 X s black 812 467 m20 0 0 1 c 815 342 m 40 Y s 815 382 m 40 Y s 813 382 m 2 X s 815 382 m 1 X s black 815 382 m20 0
 0 1 c 818 382 m 46 Y s 818 428 m 45 Y s 816 428 m 2 X s 818 428 m 1 X s black 818 428 m20 0 0 1 c 821 378 m 44 Y s 821 422 m 44 Y s 819 422 m 2 X s 821 422 m 1 X s black 821 422 m20 0 0 1 c 824 417 m 47 Y s 824 464 m 46 Y s 822 464 m 2 X s 824 464 m
 1 X s black 824 464 m20 0 0 1 c 827 315 m 38 Y s 827 353 m 38 Y s 825 353 m 2 X s 827 353 m 1 X s black 827 353 m20 0 0 1 c 830 395 m 44 Y s 830 439 m 45 Y s 828 439 m 2 X s 830 439 m 1 X s black 830 439 m20 0 0 1 c 833 337 m 41 Y s 833 378 m 42 Y s
 831 378 m 2 X s 833 378 m 2 X s black 833 378 m20 0 0 1 c 836 332 m 39 Y s 836 371 m 39 Y s 835 371 m 1 X s 836 371 m 2 X s black 836 371 m20 0 0 1 c 839 397 m 44 Y s 839 441 m 44 Y s 838 441 m 1 X s 839 441 m 2 X s black 839 441 m20 0 0 1 c 842 327
 m 37 Y s 842 364 m 37 Y s 841 364 m 1 X s 842 364 m 2 X s black 842 364 m20 0 0 1 c 845 355 m 41 Y s 845 396 m 41 Y s 844 396 m 1 X s 845 396 m 2 X s black 845 396 m20 0 0 1 c 848 351 m 40 Y s 848 391 m 40 Y s 847 391 m 1 X s 848 391 m 2 X s black
 848 391 m20 0 0 1 c 851 415 m 46 Y s 851 461 m 46 Y s 850 461 m 1 X s 851 461 m 2 X s black 851 461 m20 0 0 1 c 854 423 m 45 Y s 854 468 m 45 Y s 853 468 m 1 X s 854 468 m 2 X s black 854 468 m20 0 0 1 c 857 459 m 48 Y s 857 507 m 49 Y s 856 507 m 1
 X s 857 507 m 2 X s black 857 507 m20 0 0 1 c 860 419 m 46 Y s 860 465 m 46 Y s 859 465 m 1 X s 860 465 m 2 X s black 860 465 m20 0 0 1 c 863 457 m 48 Y s 863 505 m 49 Y s 862 505 m 1 X s 863 505 m 2 X s black 863 505 m20 0 0 1 c 866 404 m 43 Y s
 866 447 m 44 Y s 865 447 m 1 X s 866 447 m 2 X s black 866 447 m20 0 0 1 c 869 381 m 42 Y s 869 423 m 43 Y s 868 423 m 1 X s 869 423 m 2 X s black 869 423 m20 0 0 1 c 872 368 m 40 Y s 872 408 m 41 Y s 871 408 m 1 X s 872 408 m 2 X s black 872 408
 m20 0 0 1 c 875 410 m 44 Y s 875 454 m 44 Y s 874 454 m 1 X s 875 454 m 2 X s black 875 454 m20 0 0 1 c 878 391 m 45 Y s 878 436 m 44 Y s 877 436 m 1 X s 878 436 m 2 X s black 878 436 m20 0 0 1 c 881 447 m 47 Y s 881 494 m 46 Y s 880 494 m 1 X s 881
 494 m 2 X s black 881 494 m20 0 0 1 c 884 403 m 43 Y s 884 446 m 44 Y s 883 446 m 1 X s 884 446 m 2 X s black 884 446 m20 0 0 1 c 887 354 m 40 Y s 887 394 m 41 Y s 886 394 m 1 X s 887 394 m 2 X s black 887 394 m20 0 0 1 c 890 356 m 41 Y s 890 397 m
 41 Y s 889 397 m 1 X s 890 397 m 2 X s black 890 397 m20 0 0 1 c 893 417 m 45 Y s 893 462 m 44 Y s 892 462 m 1 X s 893 462 m 2 X s black 893 462 m20 0 0 1 c 897 422 m 44 Y s 897 466 m 44 Y s 895 466 m 2 X s 897 466 m 1 X s black 897 466 m20 0 0 1 c
 900 348 m 39 Y s 900 387 m 39 Y s 898 387 m 2 X s 900 387 m 1 X s black 900 387 m20 0 0 1 c 903 453 m 47 Y s 903 500 m 46 Y s 901 500 m 2 X s 903 500 m 1 X s black 903 500 m20 0 0 1 c 906 374 m 41 Y s 906 415 m 40 Y s 904 415 m 2 X s 906 415 m 1 X s
 black 906 415 m20 0 0 1 c 909 405 m 42 Y s 909 447 m 43 Y s 907 447 m 2 X s 909 447 m 1 X s black 909 447 m20 0 0 1 c 912 419 m 43 Y s 912 462 m 42 Y s 910 462 m 2 X s 912 462 m 1 X s black 912 462 m20 0 0 1 c 915 316 m 36 Y s 915 352 m 35 Y s 913
 352 m 2 X s 915 352 m 1 X s black 915 352 m20 0 0 1 c 918 352 m 37 Y s 918 389 m 37 Y s 916 389 m 2 X s 918 389 m 1 X s black 918 389 m20 0 0 1 c 921 403 m 42 Y s 921 445 m 41 Y s 919 445 m 2 X s 921 445 m 1 X s black 921 445 m20 0 0 1 c 924 361 m
 37 Y s 924 398 m 38 Y s 922 398 m 2 X s 924 398 m 1 X s black 924 398 m20 0 0 1 c 927 373 m 39 Y s 927 412 m 39 Y s 925 412 m 2 X s 927 412 m 1 X s black 927 412 m20 0 0 1 c 930 362 m 39 Y s 930 401 m 38 Y s 928 401 m 2 X s 930 401 m 1 X s black 930
 401 m20 0 0 1 c 933 404 m 42 Y s 933 446 m 41 Y s 931 446 m 2 X s 933 446 m 1 X s black 933 446 m20 0 0 1 c 936 416 m 43 Y s 936 459 m 44 Y s 934 459 m 2 X s 936 459 m 1 X s black 936 459 m20 0 0 1 c 939 473 m 46 Y s 939 519 m 47 Y s 937 519 m 2 X s
 939 519 m 1 X s black 939 519 m20 0 0 1 c 942 405 m 40 Y s 942 445 m 41 Y s 940 445 m 2 X s 942 445 m 1 X s black 942 445 m20 0 0 1 c 945 391 m 40 Y s 945 431 m 40 Y s 943 431 m 2 X s 945 431 m 1 X s black 945 431 m20 0 0 1 c 948 449 m 45 Y s 948
 494 m 45 Y s 946 494 m 2 X s 948 494 m 1 X s black 948 494 m20 0 0 1 c 951 409 m 43 Y s 951 452 m 42 Y s 949 452 m 2 X s 951 452 m 1 X s black 951 452 m20 0 0 1 c 954 393 m 40 Y s 954 433 m 40 Y s 952 433 m 2 X s 954 433 m 1 X s black 954 433 m20 0
 0 1 c 957 398 m 41 Y s 957 439 m 40 Y s 955 439 m 2 X s 957 439 m 1 X s black 957 439 m20 0 0 1 c 960 352 m 37 Y s 960 389 m 36 Y s 958 389 m 2 X s 960 389 m 2 X s black 960 389 m20 0 0 1 c 963 369 m 37 Y s 963 406 m 37 Y s 962 406 m 1 X s 963 406 m
 2 X s black 963 406 m20 0 0 1 c 966 390 m 40 Y s 966 430 m 41 Y s 965 430 m 1 X s 966 430 m 2 X s black 966 430 m20 0 0 1 c 969 369 m 38 Y s 969 407 m 37 Y s 968 407 m 1 X s 969 407 m 2 X s black 969 407 m20 0 0 1 c 972 363 m 37 Y s 972 400 m 38 Y s
 971 400 m 1 X s 972 400 m 2 X s black 972 400 m20 0 0 1 c 975 421 m 43 Y s 975 464 m 43 Y s 974 464 m 1 X s 975 464 m 2 X s black 975 464 m20 0 0 1 c 978 406 m 42 Y s 978 448 m 41 Y s 977 448 m 1 X s 978 448 m 2 X s black 978 448 m20 0 0 1 c 981 424
 m 44 Y s 981 468 m 44 Y s 980 468 m 1 X s 981 468 m 2 X s black 981 468 m20 0 0 1 c 984 425 m 43 Y s 984 468 m 43 Y s 983 468 m 1 X s 984 468 m 2 X s black 984 468 m20 0 0 1 c 987 430 m 44 Y s 987 474 m 44 Y s 986 474 m 1 X s 987 474 m 2 X s black
 987 474 m20 0 0 1 c 990 378 m 40 Y s 990 418 m 40 Y s 989 418 m 1 X s 990 418 m 2 X s black 990 418 m20 0 0 1 c 993 342 m 38 Y s 993 380 m 38 Y s 992 380 m 1 X s 993 380 m 2 X s black 993 380 m20 0 0 1 c 996 340 m 37 Y s 996 377 m 36 Y s 995 377 m 1
 X s 996 377 m 2 X s black 996 377 m20 0 0 1 c 999 388 m 40 Y s 999 428 m 40 Y s 998 428 m 1 X s 999 428 m 2 X s black 999 428 m20 0 0 1 c 1002 404 m 42 Y s 1002 446 m 42 Y s 1001 446 m 1 X s 1002 446 m 2 X s black 1002 446 m20 0 0 1 c 1005 370 m 38
 Y s 1005 408 m 39 Y s 1004 408 m 1 X s 1005 408 m 2 X s black 1005 408 m20 0 0 1 c 1008 395 m 42 Y s 1008 437 m 41 Y s 1007 437 m 1 X s 1008 437 m 2 X s black 1008 437 m20 0 0 1 c 1011 363 m 38 Y s 1011 401 m 38 Y s 1010 401 m 1 X s 1011 401 m 2 X s
 black 1011 401 m20 0 0 1 c 1014 423 m 41 Y s 1014 464 m 42 Y s 1013 464 m 1 X s 1014 464 m 2 X s black 1014 464 m20 0 0 1 c 1017 412 m 44 Y s 1017 456 m 43 Y s 1016 456 m 1 X s 1017 456 m 2 X s black 1017 456 m20 0 0 1 c 1020 361 m 38 Y s 1020 399 m
 38 Y s 1019 399 m 1 X s 1020 399 m 2 X s black 1020 399 m20 0 0 1 c 1023 424 m 43 Y s 1023 467 m 43 Y s 1022 467 m 1 X s 1023 467 m 2 X s black 1023 467 m20 0 0 1 c 1027 456 m 44 Y s 1027 500 m 45 Y s 1025 500 m 2 X s 1027 500 m 1 X s black 1027 500
 m20 0 0 1 c 1030 391 m 38 Y s 1030 429 m 39 Y s 1028 429 m 2 X s 1030 429 m 1 X s black 1030 429 m20 0 0 1 c 1033 358 m 37 Y s 1033 395 m 37 Y s 1031 395 m 2 X s 1033 395 m 1 X s black 1033 395 m20 0 0 1 c 1036 477 m 45 Y s 1036 522 m 45 Y s 1034
 522 m 2 X s 1036 522 m 1 X s black 1036 522 m20 0 0 1 c 1039 368 m 38 Y s 1039 406 m 37 Y s 1037 406 m 2 X s 1039 406 m 1 X s black 1039 406 m20 0 0 1 c 1042 377 m 39 Y s 1042 416 m 38 Y s 1040 416 m 2 X s 1042 416 m 1 X s black 1042 416 m20 0 0 1 c
 1045 442 m 42 Y s 1045 484 m 42 Y s 1043 484 m 2 X s 1045 484 m 1 X s black 1045 484 m20 0 0 1 c 1048 411 m 41 Y s 1048 452 m 40 Y s 1046 452 m 2 X s 1048 452 m 1 X s black 1048 452 m20 0 0 1 c 1051 398 m 38 Y s 1051 436 m 38 Y s 1049 436 m 2 X s
 1051 436 m 1 X s black 1051 436 m20 0 0 1 c 1054 445 m 43 Y s 1054 488 m 44 Y s 1052 488 m 2 X s 1054 488 m 1 X s black 1054 488 m20 0 0 1 c 1057 367 m 35 Y s 1057 402 m 36 Y s 1055 402 m 2 X s 1057 402 m 1 X s black 1057 402 m20 0 0 1 c 1060 403 m
 38 Y s 1060 441 m 37 Y s 1058 441 m 2 X s 1060 441 m 1 X s black 1060 441 m20 0 0 1 c 1063 361 m 34 Y s 1063 395 m 34 Y s 1061 395 m 2 X s 1063 395 m 1 X s black 1063 395 m20 0 0 1 c 1066 455 m 41 Y s 1066 496 m 41 Y s 1064 496 m 2 X s 1066 496 m 1
 X s black 1066 496 m20 0 0 1 c 1069 415 m 38 Y s 1069 453 m 39 Y s 1067 453 m 2 X s 1069 453 m 1 X s black 1069 453 m20 0 0 1 c 1072 388 m 37 Y s 1072 425 m 37 Y s 1070 425 m 2 X s 1072 425 m 1 X s black 1072 425 m20 0 0 1 c 1075 396 m 38 Y s 1075
 434 m 38 Y s 1073 434 m 2 X s 1075 434 m 1 X s black 1075 434 m20 0 0 1 c 1078 435 m 40 Y s 1078 475 m 40 Y s 1076 475 m 2 X s 1078 475 m 1 X s black 1078 475 m20 0 0 1 c 1081 479 m 42 Y s 1081 521 m 42 Y s 1079 521 m 2 X s 1081 521 m 1 X s black
 1081 521 m20 0 0 1 c 1084 438 m 39 Y s 1084 477 m 39 Y s 1082 477 m 2 X s 1084 477 m 1 X s black 1084 477 m20 0 0 1 c 1087 473 m 42 Y s 1087 515 m 42 Y s 1085 515 m 2 X s 1087 515 m 2 X s black 1087 515 m20 0 0 1 c 1090 411 m 36 Y s 1090 447 m 37 Y
 s 1089 447 m 1 X s 1090 447 m 2 X s black 1090 447 m20 0 0 1 c 1093 441 m 41 Y s 1093 482 m 40 Y s 1092 482 m 1 X s 1093 482 m 2 X s black 1093 482 m20 0 0 1 c 1096 416 m 37 Y s 1096 453 m 38 Y s 1095 453 m 1 X s 1096 453 m 2 X s black 1096 453 m20
 0 0 1 c 1099 363 m 31 Y s 1099 394 m 32 Y s 1098 394 m 1 X s 1099 394 m 2 X s black 1099 394 m20 0 0 1 c 1102 378 m 32 Y s 1102 410 m 33 Y s 1101 410 m 1 X s 1102 410 m 2 X s black 1102 410 m20 0 0 1 c 1105 425 m 37 Y s 1105 462 m 38 Y s 1104 462 m
 1 X s 1105 462 m 2 X s black 1105 462 m20 0 0 1 c 1108 392 m 36 Y s 1108 428 m 35 Y s 1107 428 m 1 X s 1108 428 m 2 X s black 1108 428 m20 0 0 1 c 1111 426 m 38 Y s 1111 464 m 38 Y s 1110 464 m 1 X s 1111 464 m 2 X s black 1111 464 m20 0 0 1 c 1114
 405 m 35 Y s 1114 440 m 36 Y s 1113 440 m 1 X s 1114 440 m 2 X s black 1114 440 m20 0 0 1 c 1117 424 m 37 Y s 1117 461 m 38 Y s 1116 461 m 1 X s 1117 461 m 2 X s black 1117 461 m20 0 0 1 c 1120 421 m 37 Y s 1120 458 m 37 Y s 1119 458 m 1 X s 1120
 458 m 2 X s black 1120 458 m20 0 0 1 c 1123 354 m 32 Y s 1123 386 m 32 Y s 1122 386 m 1 X s 1123 386 m 2 X s black 1123 386 m20 0 0 1 c 1126 353 m 31 Y s 1126 384 m 31 Y s 1125 384 m 1 X s 1126 384 m 2 X s black 1126 384 m20 0 0 1 c 1129 482 m 41 Y
 s 1129 523 m 42 Y s 1128 523 m 1 X s 1129 523 m 2 X s black 1129 523 m20 0 0 1 c 1132 476 m 42 Y s 1132 518 m 42 Y s 1131 518 m 1 X s 1132 518 m 2 X s black 1132 518 m20 0 0 1 c 1135 379 m 32 Y s 1135 411 m 32 Y s 1134 411 m 1 X s 1135 411 m 2 X s
 black 1135 411 m20 0 0 1 c 1138 413 m 37 Y s 1138 450 m 37 Y s 1137 450 m 1 X s 1138 450 m 2 X s black 1138 450 m20 0 0 1 c 1141 397 m 35 Y s 1141 432 m 36 Y s 1140 432 m 1 X s 1141 432 m 2 X s black 1141 432 m20 0 0 1 c 1144 402 m 35 Y s 1144 437 m
 35 Y s 1143 437 m 1 X s 1144 437 m 2 X s black 1144 437 m20 0 0 1 c 1147 421 m 38 Y s 1147 459 m 37 Y s 1146 459 m 1 X s 1147 459 m 2 X s black 1147 459 m20 0 0 1 c 1150 496 m 44 Y s 1150 540 m 43 Y s 1149 540 m 1 X s 1150 540 m 2 X s black 1150 540
 m20 0 0 1 c 1154 388 m 34 Y s 1154 422 m 35 Y s 1152 422 m 2 X s 1154 422 m 1 X s black 1154 422 m20 0 0 1 c 1157 474 m 43 Y s 1157 517 m 42 Y s 1155 517 m 2 X s 1157 517 m 1 X s black 1157 517 m20 0 0 1 c 1160 384 m 34 Y s 1160 418 m 34 Y s 1158
 418 m 2 X s 1160 418 m 1 X s black 1160 418 m20 0 0 1 c 1163 391 m 35 Y s 1163 426 m 35 Y s 1161 426 m 2 X s 1163 426 m 1 X s black 1163 426 m20 0 0 1 c 1166 469 m 42 Y s 1166 511 m 42 Y s 1164 511 m 2 X s 1166 511 m 1 X s black 1166 511 m20 0 0 1 c
 1169 426 m 38 Y s 1169 464 m 37 Y s 1167 464 m 2 X s 1169 464 m 1 X s black 1169 464 m20 0 0 1 c 1172 429 m 39 Y s 1172 468 m 39 Y s 1170 468 m 2 X s 1172 468 m 1 X s black 1172 468 m20 0 0 1 c 1175 349 m 30 Y s 1175 379 m 30 Y s 1173 379 m 2 X s
 1175 379 m 1 X s black 1175 379 m20 0 0 1 c 1178 488 m 43 Y s 1178 531 m 42 Y s 1176 531 m 2 X s 1178 531 m 1 X s black 1178 531 m20 0 0 1 c 1181 471 m 41 Y s 1181 512 m 41 Y s 1179 512 m 2 X s 1181 512 m 1 X s black 1181 512 m20 0 0 1 c 1184 411 m
 37 Y s 1184 448 m 38 Y s 1182 448 m 2 X s 1184 448 m 1 X s black 1184 448 m20 0 0 1 c 1187 477 m 42 Y s 1187 519 m 43 Y s 1185 519 m 2 X s 1187 519 m 1 X s black 1187 519 m20 0 0 1 c 1190 502 m 43 Y s 1190 545 m 44 Y s 1188 545 m 2 X s 1190 545 m 1
 X s black 1190 545 m20 0 0 1 c 1193 399 m 36 Y s 1193 435 m 36 Y s 1191 435 m 2 X s 1193 435 m 1 X s black 1193 435 m20 0 0 1 c 1196 434 m 39 Y s 1196 473 m 38 Y s 1194 473 m 2 X s 1196 473 m 1 X s black 1196 473 m20 0 0 1 c 1199 480 m 41 Y s 1199
 521 m 41 Y s 1197 521 m 2 X s 1199 521 m 1 X s black 1199 521 m20 0 0 1 c 1202 415 m 37 Y s 1202 452 m 36 Y s 1200 452 m 2 X s 1202 452 m 1 X s black 1202 452 m20 0 0 1 c 1205 449 m 40 Y s 1205 489 m 39 Y s 1203 489 m 2 X s 1205 489 m 1 X s black
 1205 489 m20 0 0 1 c 1208 460 m 39 Y s 1208 499 m 38 Y s 1206 499 m 2 X s 1208 499 m 1 X s black 1208 499 m20 0 0 1 c 1211 463 m 39 Y s 1211 502 m 40 Y s 1209 502 m 2 X s 1211 502 m 1 X s black 1211 502 m20 0 0 1 c 1214 413 m 34 Y s 1214 447 m 35 Y
 s 1212 447 m 2 X s 1214 447 m 1 X s black 1214 447 m20 0 0 1 c 1217 396 m 32 Y s 1217 428 m 32 Y s 1215 428 m 2 X s 1217 428 m 2 X s black 1217 428 m20 0 0 1 c 1220 389 m 31 Y s 1220 420 m 32 Y s 1219 420 m 1 X s 1220 420 m 2 X s black 1220 420 m20
 0 0 1 c 1223 447 m 38 Y s 1223 485 m 37 Y s 1222 485 m 1 X s 1223 485 m 2 X s black 1223 485 m20 0 0 1 c 1226 441 m 37 Y s 1226 478 m 37 Y s 1225 478 m 1 X s 1226 478 m 2 X s black 1226 478 m20 0 0 1 c 1229 391 m 31 Y s 1229 422 m 32 Y s 1228 422 m
 1 X s 1229 422 m 2 X s black 1229 422 m20 0 0 1 c 1232 451 m 38 Y s 1232 489 m 38 Y s 1231 489 m 1 X s 1232 489 m 2 X s black 1232 489 m20 0 0 1 c 1235 451 m 38 Y s 1235 489 m 37 Y s 1234 489 m 1 X s 1235 489 m 2 X s black 1235 489 m20 0 0 1 c 1238
 445 m 37 Y s 1238 482 m 37 Y s 1237 482 m 1 X s 1238 482 m 2 X s black 1238 482 m20 0 0 1 c 1241 391 m 32 Y s 1241 423 m 32 Y s 1240 423 m 1 X s 1241 423 m 2 X s black 1241 423 m20 0 0 1 c 1244 432 m 35 Y s 1244 467 m 36 Y s 1243 467 m 1 X s 1244
 467 m 2 X s black 1244 467 m20 0 0 1 c 1247 339 m 27 Y s 1247 366 m 26 Y s 1246 366 m 1 X s 1247 366 m 2 X s black 1247 366 m20 0 0 1 c 1250 410 m 34 Y s 1250 444 m 34 Y s 1249 444 m 1 X s 1250 444 m 2 X s black 1250 444 m20 0 0 1 c 1253 365 m 28 Y
 s 1253 393 m 27 Y s 1252 393 m 1 X s 1253 393 m 2 X s black 1253 393 m20 0 0 1 c 1256 362 m 29 Y s 1256 391 m 29 Y s 1255 391 m 1 X s 1256 391 m 2 X s black 1256 391 m20 0 0 1 c 1259 439 m 35 Y s 1259 474 m 36 Y s 1258 474 m 1 X s 1259 474 m 2 X s
 black 1259 474 m20 0 0 1 c 1262 361 m 28 Y s 1262 389 m 27 Y s 1261 389 m 1 X s 1262 389 m 2 X s black 1262 389 m20 0 0 1 c 1265 338 m 24 Y s 1265 362 m 23 Y s 1264 362 m 1 X s 1265 362 m 2 X s black 1265 362 m20 0 0 1 c 1268 354 m 27 Y s 1268 381 m
 27 Y s 1267 381 m 1 X s 1268 381 m 2 X s black 1268 381 m20 0 0 1 c 1271 385 m 30 Y s 1271 415 m 29 Y s 1270 415 m 1 X s 1271 415 m 2 X s black 1271 415 m20 0 0 1 c 1274 353 m 27 Y s 1274 380 m 27 Y s 1273 380 m 1 X s 1274 380 m 2 X s black 1274 380
 m20 0 0 1 c 1277 358 m 27 Y s 1277 385 m 27 Y s 1276 385 m 1 X s 1277 385 m 2 X s black 1277 385 m20 0 0 1 c 1281 383 m 28 Y s 1281 411 m 28 Y s 1279 411 m 2 X s 1281 411 m 1 X s black 1281 411 m20 0 0 1 c 1284 481 m 38 Y s 1284 519 m 38 Y s 1282
 519 m 2 X s 1284 519 m 1 X s black 1284 519 m20 0 0 1 c 1287 375 m 27 Y s 1287 402 m 28 Y s 1285 402 m 2 X s 1287 402 m 1 X s black 1287 402 m20 0 0 1 c 1290 366 m 27 Y s 1290 393 m 26 Y s 1288 393 m 2 X s 1290 393 m 1 X s black 1290 393 m20 0 0 1 c
 1293 388 m 29 Y s 1293 417 m 29 Y s 1291 417 m 2 X s 1293 417 m 1 X s black 1293 417 m20 0 0 1 c 1296 371 m 27 Y s 1296 398 m 28 Y s 1294 398 m 2 X s 1296 398 m 1 X s black 1296 398 m20 0 0 1 c 1299 370 m 27 Y s 1299 397 m 27 Y s 1297 397 m 2 X s
 1299 397 m 1 X s black 1299 397 m20 0 0 1 c 1302 379 m 27 Y s 1302 406 m 27 Y s 1300 406 m 2 X s 1302 406 m 1 X s black 1302 406 m20 0 0 1 c 1305 408 m 31 Y s 1305 439 m 31 Y s 1303 439 m 2 X s 1305 439 m 1 X s black 1305 439 m20 0 0 1 c 1308 372 m
 25 Y s 1308 397 m 25 Y s 1306 397 m 2 X s 1308 397 m 1 X s black 1308 397 m20 0 0 1 c 1311 368 m 24 Y s 1311 392 m 25 Y s 1309 392 m 2 X s 1311 392 m 1 X s black 1311 392 m20 0 0 1 c 1314 381 m 26 Y s 1314 407 m 26 Y s 1312 407 m 2 X s 1314 407 m 1
 X s black 1314 407 m20 0 0 1 c 1317 352 m 22 Y s 1317 374 m 22 Y s 1315 374 m 2 X s 1317 374 m 1 X s black 1317 374 m20 0 0 1 c 1320 345 m 21 Y s 1320 366 m 21 Y s 1318 366 m 2 X s 1320 366 m 1 X s black 1320 366 m20 0 0 1 c 1323 369 m 23 Y s 1323
 392 m 24 Y s 1321 392 m 2 X s 1323 392 m 1 X s black 1323 392 m20 0 0 1 c 1326 397 m 29 Y s 1326 426 m 29 Y s 1324 426 m 2 X s 1326 426 m 1 X s black 1326 426 m20 0 0 1 c 1329 343 m 21 Y s 1329 364 m 21 Y s 1327 364 m 2 X s 1329 364 m 1 X s black
 1329 364 m20 0 0 1 c 1332 360 m 23 Y s 1332 383 m 22 Y s 1330 383 m 2 X s 1332 383 m 1 X s black 1332 383 m20 0 0 1 c 1335 396 m 28 Y s 1335 424 m 29 Y s 1333 424 m 2 X s 1335 424 m 1 X s black 1335 424 m20 0 0 1 c 1338 358 m 22 Y s 1338 380 m 22 Y
 s 1336 380 m 2 X s 1338 380 m 1 X s black 1338 380 m20 0 0 1 c 1341 392 m 26 Y s 1341 418 m 27 Y s 1339 418 m 2 X s 1341 418 m 1 X s black 1341 418 m20 0 0 1 c 1344 409 m 29 Y s 1344 438 m 30 Y s 1342 438 m 2 X s 1344 438 m 2 X s black 1344 438 m20
 0 0 1 c 1347 389 m 27 Y s 1347 416 m 27 Y s 1346 416 m 1 X s 1347 416 m 2 X s black 1347 416 m20 0 0 1 c 1350 373 m 25 Y s 1350 398 m 24 Y s 1349 398 m 1 X s 1350 398 m 2 X s black 1350 398 m20 0 0 1 c 1353 386 m 26 Y s 1353 412 m 26 Y s 1352 412 m
 1 X s 1353 412 m 2 X s black 1353 412 m20 0 0 1 c 1356 357 m 22 Y s 1356 379 m 22 Y s 1355 379 m 1 X s 1356 379 m 2 X s black 1356 379 m20 0 0 1 c 1359 418 m 31 Y s 1359 449 m 31 Y s 1358 449 m 1 X s 1359 449 m 2 X s black 1359 449 m20 0 0 1 c 1362
 402 m 28 Y s 1362 430 m 29 Y s 1361 430 m 1 X s 1362 430 m 2 X s black 1362 430 m20 0 0 1 c 1365 397 m 28 Y s 1365 425 m 27 Y s 1364 425 m 1 X s 1365 425 m 2 X s black 1365 425 m20 0 0 1 c 1368 362 m 23 Y s 1368 385 m 24 Y s 1367 385 m 1 X s 1368
 385 m 2 X s black 1368 385 m20 0 0 1 c 1371 379 m 25 Y s 1371 404 m 26 Y s 1370 404 m 1 X s 1371 404 m 2 X s black 1371 404 m20 0 0 1 c 1374 349 m 21 Y s 1374 370 m 21 Y s 1373 370 m 1 X s 1374 370 m 2 X s black 1374 370 m20 0 0 1 c 1377 364 m 25 Y
 s 1377 389 m 24 Y s 1376 389 m 1 X s 1377 389 m 2 X s black 1377 389 m20 0 0 1 c 1380 401 m 28 Y s 1380 429 m 28 Y s 1379 429 m 1 X s 1380 429 m 2 X s black 1380 429 m20 0 0 1 c 1383 379 m 26 Y s 1383 405 m 26 Y s 1382 405 m 1 X s 1383 405 m 2 X s
 black 1383 405 m20 0 0 1 c 1386 378 m 26 Y s 1386 404 m 26 Y s 1385 404 m 1 X s 1386 404 m 2 X s black 1386 404 m20 0 0 1 c 1389 379 m 27 Y s 1389 406 m 27 Y s 1388 406 m 1 X s 1389 406 m 2 X s black 1389 406 m20 0 0 1 c 1392 420 m 32 Y s 1392 452 m
 31 Y s 1391 452 m 1 X s 1392 452 m 2 X s black 1392 452 m20 0 0 1 c 1395 407 m 31 Y s 1395 438 m 30 Y s 1394 438 m 1 X s 1395 438 m 2 X s black 1395 438 m20 0 0 1 c 1398 360 m 25 Y s 1398 385 m 24 Y s 1397 385 m 1 X s 1398 385 m 2 X s black 1398 385
 m20 0 0 1 c 1401 379 m 27 Y s 1401 406 m 27 Y s 1400 406 m 1 X s 1401 406 m 2 X s black 1401 406 m20 0 0 1 c 1404 443 m 34 Y s 1404 477 m 35 Y s 1403 477 m 1 X s 1404 477 m 2 X s black 1404 477 m20 0 0 1 c 1407 451 m 36 Y s 1407 487 m 36 Y s 1406
 487 m 1 X s 1407 487 m 2 X s black 1407 487 m20 0 0 1 c 1411 492 m 40 Y s 1411 532 m 40 Y s 1409 532 m 2 X s 1411 532 m 1 X s black 1411 532 m20 0 0 1 c 1414 517 m 42 Y s 1414 559 m 42 Y s 1412 559 m 2 X s 1414 559 m 1 X s black 1414 559 m20 0 0 1 c
 1417 511 m 42 Y s 1417 553 m 42 Y s 1415 553 m 2 X s 1417 553 m 1 X s black 1417 553 m20 0 0 1 c 1420 463 m 38 Y s 1420 501 m 39 Y s 1418 501 m 2 X s 1420 501 m 1 X s black 1420 501 m20 0 0 1 c 1423 566 m 48 Y s 1423 614 m 48 Y s 1421 614 m 2 X s
 1423 614 m 1 X s black 1423 614 m20 0 0 1 c 1426 617 m 52 Y s 1426 669 m 51 Y s 1424 669 m 2 X s 1426 669 m 1 X s black 1426 669 m20 0 0 1 c 1429 509 m 44 Y s 1429 553 m 45 Y s 1427 553 m 2 X s 1429 553 m 1 X s black 1429 553 m20 0 0 1 c 1432 552 m
 48 Y s 1432 600 m 48 Y s 1430 600 m 2 X s 1432 600 m 1 X s black 1432 600 m20 0 0 1 c 1435 654 m 56 Y s 1435 710 m 55 Y s 1433 710 m 2 X s 1435 710 m 1 X s black 1435 710 m20 0 0 1 c 1438 664 m 56 Y s 1438 720 m 57 Y s 1436 720 m 2 X s 1438 720 m 1
 X s black 1438 720 m20 0 0 1 c 1441 650 m 57 Y s 1441 707 m 56 Y s 1439 707 m 2 X s 1441 707 m 1 X s black 1441 707 m20 0 0 1 c 1444 704 m 60 Y s 1444 764 m 59 Y s 1442 764 m 2 X s 1444 764 m 1 X s black 1444 764 m20 0 0 1 c 1447 629 m 57 Y s 1447
 686 m 57 Y s 1445 686 m 2 X s 1447 686 m 1 X s black 1447 686 m20 0 0 1 c 1450 766 m 65 Y s 1450 831 m 64 Y s 1448 831 m 2 X s 1450 831 m 1 X s black 1450 831 m20 0 0 1 c 1453 800 m 66 Y s 1453 866 m 65 Y s 1451 866 m 2 X s 1453 866 m 1 X s black
 1453 866 m20 0 0 1 c 1456 743 m 64 Y s 1456 807 m 63 Y s 1454 807 m 2 X s 1456 807 m 1 X s black 1456 807 m20 0 0 1 c 1459 774 m 65 Y s 1459 839 m 66 Y s 1457 839 m 2 X s 1459 839 m 1 X s black 1459 839 m20 0 0 1 c 1462 729 m 63 Y s 1462 792 m 63 Y
 s 1460 792 m 2 X s 1462 792 m 1 X s black 1462 792 m20 0 0 1 c 1465 698 m 62 Y s 1465 760 m 61 Y s 1463 760 m 2 X s 1465 760 m 1 X s black 1465 760 m20 0 0 1 c 1468 747 m 63 Y s 1468 810 m 63 Y s 1466 810 m 2 X s 1468 810 m 1 X s black 1468 810 m20
 0 0 1 c 1471 726 m 63 Y s 1471 789 m 62 Y s 1469 789 m 2 X s 1471 789 m 2 X s black 1471 789 m20 0 0 1 c 1474 679 m 60 Y s 1474 739 m 60 Y s 1473 739 m 1 X s 1474 739 m 2 X s black 1474 739 m20 0 0 1 c 1477 639 m 57 Y s 1477 696 m 56 Y s 1476 696 m
 1 X s 1477 696 m 2 X s black 1477 696 m20 0 0 1 c 1480 721 m 62 Y s 1480 783 m 61 Y s 1479 783 m 1 X s 1480 783 m 2 X s black 1480 783 m20 0 0 1 c 1483 562 m 51 Y s 1483 613 m 51 Y s 1482 613 m 1 X s 1483 613 m 2 X s black 1483 613 m20 0 0 1 c 1486
 581 m 51 Y s 1486 632 m 50 Y s 1485 632 m 1 X s 1486 632 m 2 X s black 1486 632 m20 0 0 1 c 1489 544 m 49 Y s 1489 593 m 49 Y s 1488 593 m 1 X s 1489 593 m 2 X s black 1489 593 m20 0 0 1 c 1492 558 m 48 Y s 1492 606 m 48 Y s 1491 606 m 1 X s 1492
 606 m 2 X s black 1492 606 m20 0 0 1 c 1495 452 m 39 Y s 1495 491 m 40 Y s 1494 491 m 1 X s 1495 491 m 2 X s black 1495 491 m20 0 0 1 c 1498 467 m 38 Y s 1498 505 m 39 Y s 1497 505 m 1 X s 1498 505 m 2 X s black 1498 505 m20 0 0 1 c 1501 498 m 41 Y
 s 1501 539 m 41 Y s 1500 539 m 1 X s 1501 539 m 2 X s black 1501 539 m20 0 0 1 c 1504 386 m 30 Y s 1504 416 m 29 Y s 1503 416 m 1 X s 1504 416 m 2 X s black 1504 416 m20 0 0 1 c 1507 454 m 36 Y s 1507 490 m 36 Y s 1506 490 m 1 X s 1507 490 m 2 X s
 black 1507 490 m20 0 0 1 c 1510 381 m 26 Y s 1510 407 m 26 Y s 1509 407 m 1 X s 1510 407 m 2 X s black 1510 407 m20 0 0 1 c 1513 368 m 23 Y s 1513 391 m 24 Y s 1512 391 m 1 X s 1513 391 m 2 X s black 1513 391 m20 0 0 1 c 1516 383 m 26 Y s 1516 409 m
 26 Y s 1515 409 m 1 X s 1516 409 m 2 X s black 1516 409 m20 0 0 1 c 1519 395 m 24 Y s 1519 419 m 25 Y s 1518 419 m 1 X s 1519 419 m 2 X s black 1519 419 m20 0 0 1 c 1522 384 m 23 Y s 1522 407 m 23 Y s 1521 407 m 1 X s 1522 407 m 2 X s black 1522 407
 m20 0 0 1 c 1525 343 m 16 Y s 1525 359 m 16 Y s 1524 359 m 1 X s 1525 359 m 2 X s black 1525 359 m20 0 0 1 c 1528 380 m 21 Y s 1528 401 m 21 Y s 1527 401 m 1 X s 1528 401 m 2 X s black 1528 401 m20 0 0 1 c 1531 360 m 18 Y s 1531 378 m 18 Y s 1530
 378 m 1 X s 1531 378 m 2 X s black 1531 378 m20 0 0 1 c 1534 348 m 16 Y s 1534 364 m 15 Y s 1533 364 m 1 X s 1534 364 m 2 X s black 1534 364 m20 0 0 1 c 1538 359 m 18 Y s 1538 377 m 18 Y s 1536 377 m 2 X s 1538 377 m 1 X s black 1538 377 m20 0 0 1 c
 1541 352 m 16 Y s 1541 368 m 16 Y s 1539 368 m 2 X s 1541 368 m 1 X s black 1541 368 m20 0 0 1 c 1544 334 m 10 Y s 1544 344 m 9 Y s 1542 344 m 2 X s 1544 344 m 1 X s black 1544 344 m20 0 0 1 c 1547 367 m 19 Y s 1547 386 m 19 Y s 1545 386 m 2 X s
 1547 386 m 1 X s black 1547 386 m20 0 0 1 c 1550 362 m 17 Y s 1550 379 m 17 Y s 1548 379 m 2 X s 1550 379 m 1 X s black 1550 379 m20 0 0 1 c 1553 356 m 14 Y s 1553 370 m 15 Y s 1551 370 m 2 X s 1553 370 m 1 X s black 1553 370 m20 0 0 1 c 1556 347 m
 13 Y s 1556 360 m 13 Y s 1554 360 m 2 X s 1556 360 m 1 X s black 1556 360 m20 0 0 1 c 1559 368 m 16 Y s 1559 384 m 17 Y s 1557 384 m 2 X s 1559 384 m 1 X s black 1559 384 m20 0 0 1 c 1562 376 m 20 Y s 1562 396 m 20 Y s 1560 396 m 2 X s 1562 396 m 1
 X s black 1562 396 m20 0 0 1 c 1565 354 m 15 Y s 1565 369 m 16 Y s 1563 369 m 2 X s 1565 369 m 1 X s black 1565 369 m20 0 0 1 c 1568 377 m 20 Y s 1568 397 m 20 Y s 1566 397 m 2 X s 1568 397 m 1 X s black 1568 397 m20 0 0 1 c 1571 348 m 14 Y s 1571
 362 m 14 Y s 1569 362 m 2 X s 1571 362 m 1 X s black 1571 362 m20 0 0 1 c 1574 366 m 18 Y s 1574 384 m 18 Y s 1572 384 m 2 X s 1574 384 m 1 X s black 1574 384 m20 0 0 1 c 1577 363 m 18 Y s 1577 381 m 18 Y s 1575 381 m 2 X s 1577 381 m 1 X s black
 1577 381 m20 0 0 1 c 1580 357 m 15 Y s 1580 372 m 16 Y s 1578 372 m 2 X s 1580 372 m 1 X s black 1580 372 m20 0 0 1 c 1583 355 m 16 Y s 1583 371 m 15 Y s 1581 371 m 2 X s 1583 371 m 1 X s black 1583 371 m20 0 0 1 c 1586 380 m 20 Y s 1586 400 m 20 Y
 s 1584 400 m 2 X s 1586 400 m 1 X s black 1586 400 m20 0 0 1 c 1589 347 m 11 Y s 1589 358 m 12 Y s 1587 358 m 2 X s 1589 358 m 1 X s black 1589 358 m20 0 0 1 c 1592 384 m 21 Y s 1592 405 m 21 Y s 1590 405 m 2 X s 1592 405 m 1 X s black 1592 405 m20
 0 0 1 c 1595 398 m 21 Y s 1595 419 m 22 Y s 1593 419 m 2 X s 1595 419 m 1 X s black 1595 419 m20 0 0 1 c 1598 370 m 18 Y s 1598 388 m 18 Y s 1596 388 m 2 X s 1598 388 m 1 X s black 1598 388 m20 0 0 1 c 1601 373 m 18 Y s 1601 391 m 18 Y s 1599 391 m
 2 X s 1601 391 m 2 X s black 1601 391 m20 0 0 1 c 1604 376 m 19 Y s 1604 395 m 19 Y s 1603 395 m 1 X s 1604 395 m 2 X s black 1604 395 m20 0 0 1 c 1607 356 m 14 Y s 1607 370 m 15 Y s 1606 370 m 1 X s 1607 370 m 2 X s black 1607 370 m20 0 0 1 c 1610
 361 m 16 Y s 1610 377 m 16 Y s 1609 377 m 1 X s 1610 377 m 2 X s black 1610 377 m20 0 0 1 c 1613 361 m 16 Y s 1613 377 m 16 Y s 1612 377 m 1 X s 1613 377 m 2 X s black 1613 377 m20 0 0 1 c 1616 350 m 11 Y s 1616 361 m 12 Y s 1615 361 m 1 X s 1616
 361 m 2 X s black 1616 361 m20 0 0 1 c 1619 372 m 18 Y s 1619 390 m 18 Y s 1618 390 m 1 X s 1619 390 m 2 X s black 1619 390 m20 0 0 1 c 1622 363 m 15 Y s 1622 378 m 16 Y s 1621 378 m 1 X s 1622 378 m 2 X s black 1622 378 m20 0 0 1 c 1625 355 m 13 Y
 s 1625 368 m 12 Y s 1624 368 m 1 X s 1625 368 m 2 X s black 1625 368 m20 0 0 1 c 1628 381 m 19 Y s 1628 400 m 19 Y s 1627 400 m 1 X s 1628 400 m 2 X s black 1628 400 m20 0 0 1 c 1631 362 m 16 Y s 1631 378 m 15 Y s 1630 378 m 1 X s 1631 378 m 2 X s
 black 1631 378 m20 0 0 1 c 1634 375 m 18 Y s 1634 393 m 18 Y s 1633 393 m 1 X s 1634 393 m 2 X s black 1634 393 m20 0 0 1 c 1637 371 m 17 Y s 1637 388 m 17 Y s 1636 388 m 1 X s 1637 388 m 2 X s black 1637 388 m20 0 0 1 c 1640 376 m 18 Y s 1640 394 m
 18 Y s 1639 394 m 1 X s 1640 394 m 2 X s black 1640 394 m20 0 0 1 c 1643 389 m 19 Y s 1643 408 m 19 Y s 1642 408 m 1 X s 1643 408 m 2 X s black 1643 408 m20 0 0 1 c 1646 362 m 16 Y s 1646 378 m 16 Y s 1645 378 m 1 X s 1646 378 m 2 X s black 1646 378
 m20 0 0 1 c 1649 365 m 17 Y s 1649 382 m 17 Y s 1648 382 m 1 X s 1649 382 m 2 X s black 1649 382 m20 0 0 1 c 1652 350 m 11 Y s 1652 361 m 12 Y s 1651 361 m 1 X s 1652 361 m 2 X s black 1652 361 m20 0 0 1 c 1655 380 m 19 Y s 1655 399 m 19 Y s 1654
 399 m 1 X s 1655 399 m 2 X s black 1655 399 m20 0 0 1 c 1658 352 m 13 Y s 1658 365 m 13 Y s 1657 365 m 1 X s 1658 365 m 2 X s black 1658 365 m20 0 0 1 c 1661 368 m 16 Y s 1661 384 m 15 Y s 1660 384 m 1 X s 1661 384 m 2 X s black 1661 384 m20 0 0 1 c
 1665 357 m 14 Y s 1665 371 m 14 Y s 1663 371 m 2 X s 1665 371 m 1 X s black 1665 371 m20 0 0 1 c 1668 359 m 14 Y s 1668 373 m 15 Y s 1666 373 m 2 X s 1668 373 m 1 X s black 1668 373 m20 0 0 1 c 1671 376 m 19 Y s 1671 395 m 19 Y s 1669 395 m 2 X s
 1671 395 m 1 X s black 1671 395 m20 0 0 1 c 1674 360 m 16 Y s 1674 376 m 16 Y s 1672 376 m 2 X s 1674 376 m 1 X s black 1674 376 m20 0 0 1 c 1677 373 m 18 Y s 1677 391 m 18 Y s 1675 391 m 2 X s 1677 391 m 1 X s black 1677 391 m20 0 0 1 c 1680 379 m
 19 Y s 1680 398 m 19 Y s 1678 398 m 2 X s 1680 398 m 1 X s black 1680 398 m20 0 0 1 c 1683 370 m 16 Y s 1683 386 m 17 Y s 1681 386 m 2 X s 1683 386 m 1 X s black 1683 386 m20 0 0 1 c 1686 359 m 15 Y s 1686 374 m 14 Y s 1684 374 m 2 X s 1686 374 m 1
 X s black 1686 374 m20 0 0 1 c 1689 379 m 19 Y s 1689 398 m 19 Y s 1687 398 m 2 X s 1689 398 m 1 X s black 1689 398 m20 0 0 1 c 1692 365 m 18 Y s 1692 383 m 18 Y s 1690 383 m 2 X s 1692 383 m 1 X s black 1692 383 m20 0 0 1 c 1695 382 m 21 Y s 1695
 403 m 21 Y s 1693 403 m 2 X s 1695 403 m 1 X s black 1695 403 m20 0 0 1 c 1698 376 m 20 Y s 1698 396 m 20 Y s 1696 396 m 2 X s 1698 396 m 1 X s black 1698 396 m20 0 0 1 c 1701 373 m 20 Y s 1701 393 m 20 Y s 1699 393 m 2 X s 1701 393 m 1 X s black
 1701 393 m20 0 0 1 c 1704 350 m 15 Y s 1704 365 m 16 Y s 1702 365 m 2 X s 1704 365 m 1 X s black 1704 365 m20 0 0 1 c 1707 339 m 11 Y s 1707 350 m 12 Y s 1705 350 m 2 X s 1707 350 m 1 X s black 1707 350 m20 0 0 1 c 1710 360 m 19 Y s 1710 379 m 19 Y
 s 1708 379 m 2 X s 1710 379 m 1 X s black 1710 379 m20 0 0 1 c 1713 393 m 23 Y s 1713 416 m 24 Y s 1711 416 m 2 X s 1713 416 m 1 X s black 1713 416 m20 0 0 1 c 1716 377 m 20 Y s 1716 397 m 20 Y s 1714 397 m 2 X s 1716 397 m 1 X s black 1716 397 m20
 0 0 1 c 1719 375 m 20 Y s 1719 395 m 20 Y s 1717 395 m 2 X s 1719 395 m 1 X s black 1719 395 m20 0 0 1 c 1722 387 m 21 Y s 1722 408 m 21 Y s 1720 408 m 2 X s 1722 408 m 1 X s black 1722 408 m20 0 0 1 c 1725 351 m 14 Y s 1725 365 m 14 Y s 1723 365 m
 2 X s 1725 365 m 1 X s black 1725 365 m20 0 0 1 c 1728 379 m 19 Y s 1728 398 m 19 Y s 1726 398 m 2 X s 1728 398 m 2 X s black 1728 398 m20 0 0 1 c 1731 349 m 11 Y s 1731 360 m 11 Y s 1730 360 m 1 X s 1731 360 m 2 X s black 1731 360 m20 0 0 1 c 1734
 364 m 17 Y s 1734 381 m 17 Y s 1733 381 m 1 X s 1734 381 m 2 X s black 1734 381 m20 0 0 1 c 1737 361 m 15 Y s 1737 376 m 16 Y s 1736 376 m 1 X s 1737 376 m 2 X s black 1737 376 m20 0 0 1 c 1740 354 m 15 Y s 1740 369 m 14 Y s 1739 369 m 1 X s 1740
 369 m 2 X s black 1740 369 m20 0 0 1 c 1743 377 m 18 Y s 1743 395 m 17 Y s 1742 395 m 1 X s 1743 395 m 2 X s black 1743 395 m20 0 0 1 c 1746 372 m 18 Y s 1746 390 m 18 Y s 1745 390 m 1 X s 1746 390 m 2 X s black 1746 390 m20 0 0 1 c 1749 351 m 13 Y
 s 1749 364 m 13 Y s 1748 364 m 1 X s 1749 364 m 2 X s black 1749 364 m20 0 0 1 c 1752 376 m 18 Y s 1752 394 m 18 Y s 1751 394 m 1 X s 1752 394 m 2 X s black 1752 394 m20 0 0 1 c 1755 349 m 10 Y s 1755 359 m 9 Y s 1754 359 m 1 X s 1755 359 m 2 X s
 black 1755 359 m20 0 0 1 c 1758 366 m 16 Y s 1758 382 m 16 Y s 1757 382 m 1 X s 1758 382 m 2 X s black 1758 382 m20 0 0 1 c 1761 372 m 17 Y s 1761 389 m 17 Y s 1760 389 m 1 X s 1761 389 m 2 X s black 1761 389 m20 0 0 1 c 1764 364 m 14 Y s 1764 378 m
 14 Y s 1763 378 m 1 X s 1764 378 m 2 X s black 1764 378 m20 0 0 1 c 1767 361 m 13 Y s 1767 374 m 13 Y s 1766 374 m 1 X s 1767 374 m 2 X s black 1767 374 m20 0 0 1 c 1770 371 m 16 Y s 1770 387 m 15 Y s 1769 387 m 1 X s 1770 387 m 2 X s black 1770 387
 m20 0 0 1 c 1773 367 m 14 Y s 1773 381 m 15 Y s 1772 381 m 1 X s 1773 381 m 2 X s black 1773 381 m20 0 0 1 c 1776 353 m 7 Y s 1776 360 m 7 Y s 1775 360 m 1 X s 1776 360 m 2 X s black 1776 360 m20 0 0 1 c 1779 375 m 16 Y s 1779 391 m 15 Y s 1778 391
 m 1 X s 1779 391 m 2 X s black 1779 391 m20 0 0 1 c 1782 360 m 13 Y s 1782 373 m 13 Y s 1781 373 m 1 X s 1782 373 m 2 X s black 1782 373 m20 0 0 1 c 1785 376 m 17 Y s 1785 393 m 16 Y s 1784 393 m 1 X s 1785 393 m 2 X s black 1785 393 m20 0 0 1 c
 1788 397 m 20 Y s 1788 417 m 20 Y s 1787 417 m 1 X s 1788 417 m 2 X s black 1788 417 m20 0 0 1 c 1791 405 m 21 Y s 1791 426 m 22 Y s 1790 426 m 1 X s 1791 426 m 2 X s black 1791 426 m20 0 0 1 c 1795 372 m 17 Y s 1795 389 m 17 Y s 1793 389 m 2 X s
 1795 389 m 1 X s black 1795 389 m20 0 0 1 c 1798 357 m 11 Y s 1798 368 m 11 Y s 1796 368 m 2 X s 1798 368 m 1 X s black 1798 368 m20 0 0 1 c 1801 363 m 14 Y s 1801 377 m 15 Y s 1799 377 m 2 X s 1801 377 m 1 X s black 1801 377 m20 0 0 1 c 1804 362 m
 11 Y s 1804 373 m 11 Y s 1802 373 m 2 X s 1804 373 m 1 X s black 1804 373 m20 0 0 1 c 1807 366 m 13 Y s 1807 379 m 12 Y s 1805 379 m 2 X s 1807 379 m 1 X s black 1807 379 m20 0 0 1 c 1810 361 m 11 Y s 1810 372 m 11 Y s 1808 372 m 2 X s 1810 372 m 1
 X s black 1810 372 m20 0 0 1 c 1813 360 m 11 Y s 1813 371 m 11 Y s 1811 371 m 2 X s 1813 371 m 1 X s black 1813 371 m20 0 0 1 c 1816 364 m 13 Y s 1816 377 m 13 Y s 1814 377 m 2 X s 1816 377 m 1 X s black 1816 377 m20 0 0 1 c 1819 371 m 14 Y s 1819
 385 m 14 Y s 1817 385 m 2 X s 1819 385 m 1 X s black 1819 385 m20 0 0 1 c 1822 357 m 9 Y s 1822 366 m 10 Y s 1820 366 m 2 X s 1822 366 m 1 X s black 1822 366 m20 0 0 1 c 1825 359 m 9 Y s 1825 368 m 9 Y s 1823 368 m 2 X s 1825 368 m 1 X s black 1825
 368 m20 0 0 1 c 1828 363 m 9 Y s 1828 372 m 9 Y s 1826 372 m 2 X s 1828 372 m 1 X s black 1828 372 m20 0 0 1 c 1831 370 m 14 Y s 1831 384 m 14 Y s 1829 384 m 2 X s 1831 384 m 1 X s black 1831 384 m20 0 0 1 c 1834 380 m 17 Y s 1834 397 m 16 Y s 1832
 397 m 2 X s 1834 397 m 1 X s black 1834 397 m20 0 0 1 c 1837 369 m 13 Y s 1837 382 m 12 Y s 1835 382 m 2 X s 1837 382 m 1 X s black 1837 382 m20 0 0 1 c 1840 356 m 3 Y s 1840 359 m 2 Y s 1838 359 m 2 X s 1840 359 m 1 X s black 1840 359 m20 0 0 1 c
 1843 370 m 16 Y s 1843 386 m 15 Y s 1841 386 m 2 X s 1843 386 m 1 X s black 1843 386 m20 0 0 1 c 1846 373 m 14 Y s 1846 387 m 15 Y s 1844 387 m 2 X s 1846 387 m 1 X s black 1846 387 m20 0 0 1 c 1849 371 m 15 Y s 1849 386 m 14 Y s 1847 386 m 2 X s
 1849 386 m 1 X s black 1849 386 m20 0 0 1 c 1852 371 m 13 Y s 1852 384 m 13 Y s 1850 384 m 2 X s 1852 384 m 1 X s black 1852 384 m20 0 0 1 c 1855 368 m 14 Y s 1855 382 m 14 Y s 1853 382 m 2 X s 1855 382 m 2 X s black 1855 382 m20 0 0 1 c 1858 379 m
 16 Y s 1858 395 m 15 Y s 1857 395 m 1 X s 1858 395 m 2 X s black 1858 395 m20 0 0 1 c 1861 360 m 9 Y s 1861 369 m 10 Y s 1860 369 m 1 X s 1861 369 m 2 X s black 1861 369 m20 0 0 1 c 1864 377 m 15 Y s 1864 392 m 16 Y s 1863 392 m 1 X s 1864 392 m 2 X
 s black 1864 392 m20 0 0 1 c 1867 376 m 14 Y s 1867 390 m 14 Y s 1866 390 m 1 X s 1867 390 m 2 X s black 1867 390 m20 0 0 1 c 1870 358 m 7 Y s 1870 365 m 6 Y s 1869 365 m 1 X s 1870 365 m 2 X s black 1870 365 m20 0 0 1 c 1873 358 m 9 Y s 1873 367 m
 9 Y s 1872 367 m 1 X s 1873 367 m 2 X s black 1873 367 m20 0 0 1 c 1876 362 m 9 Y s 1876 371 m 9 Y s 1875 371 m 1 X s 1876 371 m 2 X s black 1876 371 m20 0 0 1 c 1879 356 m 10 Y s 1879 366 m 9 Y s 1878 366 m 1 X s 1879 366 m 2 X s black 1879 366 m20
 0 0 1 c 1882 361 m 9 Y s 1882 370 m 9 Y s 1881 370 m 1 X s 1882 370 m 2 X s black 1882 370 m20 0 0 1 c 1885 358 m 6 Y s 1885 364 m 7 Y s 1884 364 m 1 X s 1885 364 m 2 X s black 1885 364 m20 0 0 1 c 1888 383 m 17 Y s 1888 400 m 17 Y s 1887 400 m 1 X
 s 1888 400 m 2 X s black 1888 400 m20 0 0 1 c 1891 371 m 14 Y s 1891 385 m 14 Y s 1890 385 m 1 X s 1891 385 m 2 X s black 1891 385 m20 0 0 1 c 1894 366 m 11 Y s 1894 377 m 11 Y s 1893 377 m 1 X s 1894 377 m 2 X s black 1894 377 m20 0 0 1 c 1897 362
 m 9 Y s 1897 371 m 9 Y s 1896 371 m 1 X s 1897 371 m 2 X s black 1897 371 m20 0 0 1 c 1900 381 m 16 Y s 1900 397 m 15 Y s 1899 397 m 1 X s 1900 397 m 2 X s black 1900 397 m20 0 0 1 c 1903 382 m 15 Y s 1903 397 m 16 Y s 1902 397 m 1 X s 1903 397 m 2
 X s black 1903 397 m20 0 0 1 c 1906 360 m 9 Y s 1906 369 m 9 Y s 1905 369 m 1 X s 1906 369 m 2 X s black 1906 369 m20 0 0 1 c 1909 382 m 16 Y s 1909 398 m 17 Y s 1908 398 m 1 X s 1909 398 m 2 X s black 1909 398 m20 0 0 1 c 1912 382 m 16 Y s 1912 398
 m 15 Y s 1911 398 m 1 X s 1912 398 m 2 X s black 1912 398 m20 0 0 1 c 1915 371 m 12 Y s 1915 383 m 13 Y s 1914 383 m 1 X s 1915 383 m 2 X s black 1915 383 m20 0 0 1 c 1918 375 m 14 Y s 1918 389 m 14 Y s 1917 389 m 1 X s 1918 389 m 2 X s black 1918
 389 m20 0 0 1 c 1922 369 m 13 Y s 1922 382 m 13 Y s 1920 382 m 2 X s 1922 382 m 1 X s black 1922 382 m20 0 0 1 c 1925 360 m 9 Y s 1925 369 m 9 Y s 1923 369 m 2 X s 1925 369 m 1 X s black 1925 369 m20 0 0 1 c 1928 367 m 13 Y s 1928 380 m 13 Y s 1926
 380 m 2 X s 1928 380 m 1 X s black 1928 380 m20 0 0 1 c 1931 384 m 17 Y s 1931 401 m 16 Y s 1929 401 m 2 X s 1931 401 m 1 X s black 1931 401 m20 0 0 1 c 1934 355 m 10 Y s 1934 365 m 9 Y s 1932 365 m 2 X s 1934 365 m 1 X s black 1934 365 m20 0 0 1 c
 1937 361 m 13 Y s 1937 374 m 13 Y s 1935 374 m 2 X s 1937 374 m 1 X s black 1937 374 m20 0 0 1 c 1940 395 m 19 Y s 1940 414 m 19 Y s 1938 414 m 2 X s 1940 414 m 1 X s black 1940 414 m20 0 0 1 c 1943 368 m 14 Y s 1943 382 m 14 Y s 1941 382 m 2 X s
 1943 382 m 1 X s black 1943 382 m20 0 0 1 c 1946 380 m 17 Y s 1946 397 m 17 Y s 1944 397 m 2 X s 1946 397 m 1 X s black 1946 397 m20 0 0 1 c 1949 377 m 16 Y s 1949 393 m 15 Y s 1947 393 m 2 X s 1949 393 m 1 X s black 1949 393 m20 0 0 1 c 1952 362 m
 13 Y s 1952 375 m 13 Y s 1950 375 m 2 X s 1952 375 m 1 X s black 1952 375 m20 0 0 1 c 1955 382 m 16 Y s 1955 398 m 15 Y s 1953 398 m 2 X s 1955 398 m 1 X s black 1955 398 m20 0 0 1 c 1958 376 m 15 Y s 1958 391 m 16 Y s 1956 391 m 2 X s 1958 391 m 1
 X s black 1958 391 m20 0 0 1 c 1961 376 m 17 Y s 1961 393 m 17 Y s 1959 393 m 2 X s 1961 393 m 1 X s black 1961 393 m20 0 0 1 c 1964 365 m 15 Y s 1964 380 m 14 Y s 1962 380 m 2 X s 1964 380 m 1 X s black 1964 380 m20 0 0 1 c 1967 391 m 21 Y s 1967
 412 m 21 Y s 1965 412 m 2 X s 1967 412 m 1 X s black 1967 412 m20 0 0 1 c 1970 373 m 16 Y s 1970 389 m 16 Y s 1968 389 m 2 X s 1970 389 m 1 X s black 1970 389 m20 0 0 1 c 1973 359 m 13 Y s 1973 372 m 12 Y s 1971 372 m 2 X s 1973 372 m 1 X s black
 1973 372 m20 0 0 1 c 1976 378 m 18 Y s 1976 396 m 18 Y s 1974 396 m 2 X s 1976 396 m 1 X s black 1976 396 m20 0 0 1 c 1979 372 m 16 Y s 1979 388 m 15 Y s 1977 388 m 2 X s 1979 388 m 1 X s black 1979 388 m20 0 0 1 c 1982 364 m 14 Y s 1982 378 m 14 Y
 s 1980 378 m 2 X s 1982 378 m 1 X s black 1982 378 m20 0 0 1 c 1985 379 m 18 Y s 1985 397 m 17 Y s 1983 397 m 2 X s 1985 397 m 2 X s black 1985 397 m20 0 0 1 c 1988 354 m 12 Y s 1988 366 m 11 Y s 1987 366 m 1 X s 1988 366 m 2 X s black 1988 366 m20
 0 0 1 c 1991 351 m 11 Y s 1991 362 m 12 Y s 1990 362 m 1 X s 1991 362 m 2 X s black 1991 362 m20 0 0 1 c 1994 364 m 13 Y s 1994 377 m 12 Y s 1993 377 m 1 X s 1994 377 m 2 X s black 1994 377 m20 0 0 1 c 1997 389 m 19 Y s 1997 408 m 19 Y s 1996 408 m
 1 X s 1997 408 m 2 X s black 1997 408 m20 0 0 1 c 2000 361 m 12 Y s 2000 373 m 13 Y s 1999 373 m 1 X s 2000 373 m 2 X s black 2000 373 m20 0 0 1 c 2003 370 m 16 Y s 2003 386 m 15 Y s 2002 386 m 1 X s 2003 386 m 2 X s black 2003 386 m20 0 0 1 c 2006
 378 m 17 Y s 2006 395 m 16 Y s 2005 395 m 1 X s 2006 395 m 2 X s black 2006 395 m20 0 0 1 c 2009 345 m 7 Y s 2009 352 m 7 Y s 2008 352 m 1 X s 2009 352 m 2 X s black 2009 352 m20 0 0 1 c 2012 371 m 14 Y s 2012 385 m 15 Y s 2011 385 m 1 X s 2012 385
 m 2 X s black 2012 385 m20 0 0 1 c 2015 375 m 15 Y s 2015 390 m 16 Y s 2014 390 m 1 X s 2015 390 m 2 X s black 2015 390 m20 0 0 1 c 2018 352 m 10 Y s 2018 362 m 9 Y s 2017 362 m 1 X s 2018 362 m 2 X s black 2018 362 m20 0 0 1 c 2021 364 m 13 Y s
 2021 377 m 12 Y s 2020 377 m 1 X s 2021 377 m 2 X s black 2021 377 m20 0 0 1 c 2024 365 m 15 Y s 2024 380 m 14 Y s 2023 380 m 1 X s 2024 380 m 2 X s black 2024 380 m20 0 0 1 c 2027 355 m 10 Y s 2027 365 m 9 Y s 2026 365 m 1 X s 2027 365 m 2 X s
 black 2027 365 m20 0 0 1 c 2030 374 m 16 Y s 2030 390 m 15 Y s 2029 390 m 1 X s 2030 390 m 2 X s black 2030 390 m20 0 0 1 c 2033 383 m 17 Y s 2033 400 m 16 Y s 2032 400 m 1 X s 2033 400 m 2 X s black 2033 400 m20 0 0 1 c 2036 367 m 13 Y s 2036 380 m
 13 Y s 2035 380 m 1 X s 2036 380 m 2 X s black 2036 380 m20 0 0 1 c 2039 363 m 13 Y s 2039 376 m 13 Y s 2038 376 m 1 X s 2039 376 m 2 X s black 2039 376 m20 1 1 1 c 453 430 1769 1007 bf black 1769 1007 m 453 X s 2222 1007 m 430 Y s 2222 1437 m -453
 X s 1769 1437 m -430 Y s 1 1 1 c black
 gsave  2268 1537 0 0 C 1790.13 1364.53 t 0 r /Helvetica findfont 68.2264 sf 0 0 m (net_spectrum) show NC gr  1769 1329 m 453 X s
 gsave  2268 1537 0 0 C 1790.13 1257.32 t 0 r /Helvetica findfont 51.982 sf 0 0 m (Entries ) show NC gr 
 gsave  2268 1537 0 0 C 2069.53 1257.32 t 0 r /Helvetica findfont 51.982 sf 0 0 m ( 2066) show NC gr 
 gsave  2268 1537 0 0 C 1790.13 1150.1 t 0 r /Helvetica findfont 51.982 sf 0 0 m (Mean  ) show NC gr 
 gsave  2268 1537 0 0 C 2040.3 1150.1 t 0 r /Helvetica findfont 51.982 sf 0 0 m (   5159) show NC gr 
 gsave  2268 1537 0 0 C 1790.13 1042.89 t 0 r /Helvetica findfont 51.982 sf 0 0 m (Std Dev   ) show NC gr 
 gsave  2268 1537 0 0 C 2040.3 1042.89 t 0 r /Helvetica findfont 51.982 sf 0 0 m (   3463) show NC gr  227 154 m 1814 X s 227 191 m -37 Y s 287 172 m -18 Y s 348 172 m -18 Y s 408 172 m -18 Y s 469 191 m -37 Y s 529 172 m -18 Y s 590 172 m -18 Y s
 650 172 m -18 Y s 711 191 m -37 Y s 771 172 m -18 Y s 831 172 m -18 Y s 892 172 m -18 Y s 952 191 m -37 Y s 1013 172 m -18 Y s 1073 172 m -18 Y s 1134 172 m -18 Y s 1194 191 m -37 Y s 1255 172 m -18 Y s 1315 172 m -18 Y s 1376 172 m -18 Y s 1436 191
 m -37 Y s 1497 172 m -18 Y s 1557 172 m -18 Y s 1618 172 m -18 Y s 1678 191 m -37 Y s 1739 172 m -18 Y s 1799 172 m -18 Y s 1860 172 m -18 Y s 1920 191 m -37 Y s 1920 191 m -37 Y s 1980 172 m -18 Y s 2041 172 m -18 Y s
 gsave  2268 1537 0 0 C 211.177 103.964 t 0 r /Helvetica findfont 48.7332 sf 0 0 m (0) show NC gr 
 gsave  2268 1537 0 0 C 412.607 103.964 t 0 r /Helvetica findfont 48.7332 sf 0 0 m (2000) show NC gr 
 gsave  2268 1537 0 0 C 653.024 103.964 t 0 r /Helvetica findfont 48.7332 sf 0 0 m (4000) show NC gr 
 gsave  2268 1537 0 0 C 896.69 103.964 t 0 r /Helvetica findfont 48.7332 sf 0 0 m (6000) show NC gr 
 gsave  2268 1537 0 0 C 1137.11 103.964 t 0 r /Helvetica findfont 48.7332 sf 0 0 m (8000) show NC gr 
 gsave  2268 1537 0 0 C 1367.78 103.964 t 0 r /Helvetica findfont 48.7332 sf 0 0 m (10000) show NC gr 
 gsave  2268 1537 0 0 C 1608.19 103.964 t 0 r /Helvetica findfont 48.7332 sf 0 0 m (12000) show NC gr 
 gsave  2268 1537 0 0 C 1848.61 103.964 t 0 r /Helvetica findfont 48.7332 sf 0 0 m (14000) show NC gr 
 gsave  2268 1537 0 0 C 1764.14 55.2309 t 0 r /Helvetica findfont 48.7332 sf 0 0 m (Energy [a.u.]) show NC gr  227 154 m 1229 Y s 281 257 m -54 X s 254 288 m -27 X s 254 319 m -27 X s 254 350 m -27 X s 281 382 m -54 X s 254 413 m -27 X s 254 444 m
 -27 X s 254 475 m -27 X s 281 506 m -54 X s 254 537 m -27 X s 254 569 m -27 X s 254 600 m -27 X s 281 631 m -54 X s 254 662 m -27 X s 254 693 m -27 X s 254 724 m -27 X s 281 756 m -54 X s 254 787 m -27 X s 254 818 m -27 X s 254 849 m -27 X s 281 880
 m -54 X s 254 911 m -27 X s 254 943 m -27 X s 254 974 m -27 X s 281 1005 m -54 X s 254 1036 m -27 X s 254 1067 m -27 X s 254 1098 m -27 X s 281 1129 m -54 X s 254 1161 m -27 X s 254 1192 m -27 X s 254 1223 m -27 X s 281 1254 m -54 X s 254 1285 m -27
 X s 254 1316 m -27 X s 254 1348 m -27 X s 281 1379 m -54 X s 281 257 m -54 X s 254 226 m -27 X s 254 195 m -27 X s 254 163 m -27 X s 281 1379 m -54 X s
 gsave  2268 1537 0 0 C 162.444 240.417 t 0 r /Helvetica findfont 48.7332 sf 0 0 m (20) show NC gr 
 gsave  2268 1537 0 0 C 133.204 240.417 t 0 r /Symbol findfont 48.7332 sf 0 0 m (-) show NC gr 
 gsave  2268 1537 0 0 C 188.435 363.874 t 0 r /Helvetica findfont 48.7332 sf 0 0 m (0) show NC gr 
 gsave  2268 1537 0 0 C 162.444 487.332 t 0 r /Helvetica findfont 48.7332 sf 0 0 m (20) show NC gr 
 gsave  2268 1537 0 0 C 162.444 614.038 t 0 r /Helvetica findfont 48.7332 sf 0 0 m (40) show NC gr 
 gsave  2268 1537 0 0 C 162.444 737.495 t 0 r /Helvetica findfont 48.7332 sf 0 0 m (60) show NC gr 
 gsave  2268 1537 0 0 C 162.444 860.953 t 0 r /Helvetica findfont 48.7332 sf 0 0 m (80) show NC gr 
 gsave  2268 1537 0 0 C 133.204 987.659 t 0 r /Helvetica findfont 48.7332 sf 0 0 m (100) show NC gr 
 gsave  2268 1537 0 0 C 133.204 1111.12 t 0 r /Helvetica findfont 48.7332 sf 0 0 m (120) show NC gr 
 gsave  2268 1537 0 0 C 133.204 1237.82 t 0 r /Helvetica findfont 48.7332 sf 0 0 m (140) show NC gr 
 gsave  2268 1537 0 0 C 133.204 1361.28 t 0 r /Helvetica findfont 48.7332 sf 0 0 m (160) show NC gr  1 1 1 c 453 430 1769 1007 bf black 1769 1007 m 453 X s 2222 1007 m 430 Y s 2222 1437 m -453 X s 1769 1437 m -430 Y s 1 1 1 c black
 gsave  2268 1537 0 0 C 1790.13 1364.53 t 0 r /Helvetica findfont 68.2264 sf 0 0 m (net_spectrum) show NC gr  1769 1329 m 453 X s
 gsave  2268 1537 0 0 C 1790.13 1257.32 t 0 r /Helvetica findfont 51.982 sf 0 0 m (Entries ) show NC gr 
 gsave  2268 1537 0 0 C 2069.53 1257.32 t 0 r /Helvetica findfont 51.982 sf 0 0 m ( 2066) show NC gr 
 gsave  2268 1537 0 0 C 1790.13 1150.1 t 0 r /Helvetica findfont 51.982 sf 0 0 m (Mean  ) show NC gr 
 gsave  2268 1537 0 0 C 2040.3 1150.1 t 0 r /Helvetica findfont 51.982 sf 0 0 m (   5159) show NC gr 
 gsave  2268 1537 0 0 C 1790.13 1042.89 t 0 r /Helvetica findfont 51.982 sf 0 0 m (Std Dev   ) show NC gr 
 gsave  2268 1537 0 0 C 2040.3 1042.89 t 0 r /Helvetica findfont 51.982 sf 0 0 m (   3463) show NC gr  1 1 1 c black
 gsave  2268 1537 0 0 C 396.363 1461.99 t 0 r /Helvetica findfont 71.4753 sf 0 0 m (Spettro KCl al netto della sottrazione del fondo) show NC gr 
 gr  gr showpage
end
%%EOF
