%!PS-Adobe-2.0 EPSF-2.0
%%BoundingBox:  0 0 567 384
%%Title: net_chocolate_hq0.eps: net_chocolate_hq0
%%Creator: ROOT Version 6.13/01
%%CreationDate: Sat May 12 15:01:34 2018
%%DocumentNeededResources: ProcSet (FontSetInit)
%%EndComments
%%BeginProlog
80 dict begin
/s {stroke} def /l {lineto} def /m {moveto} def /t {translate} def
/r {rotate} def /rl {roll}  def /R {repeat} def
/d {rlineto} def /rm {rmoveto} def /gr {grestore} def /f {eofill} def
/c {setrgbcolor} def /black {0 setgray} def /sd {setdash} def
/cl {closepath} def /sf {scalefont setfont} def /lw {setlinewidth} def
/box {m dup 0 exch d exch 0 d 0 exch neg d cl} def
/NC{systemdict begin initclip end}def/C{NC box clip newpath}def
/bl {box s} def /bf {gsave box gsave f grestore 1 lw [] 0 sd s grestore} def /Y { 0 exch d} def /X { 0 d} def 
/K {{pop pop 0 moveto} exch kshow} bind def
/ita {/ang 15 def gsave [1 0 ang dup sin exch cos div 1 0 0] concat} def 
/mp {newpath /y exch def /x exch def} def
/side {[w .77 mul w .23 mul] .385 w mul sd w 0 l currentpoint t -144 r} def
/mr {mp x y w2 0 360 arc} def /m24 {mr s} def /m20 {mr f} def
/mb {mp x y w2 add m w2 neg 0 d 0 w neg d w 0 d 0 w d cl} def
/mt {mp x y w2 add m w2 neg w neg d w 0 d cl} def
/w4 {w 4 div} def
/w6 {w 6 div} def
/w8 {w 8 div} def
/m21 {mb f} def /m25 {mb s} def /m22 {mt f} def /m26{mt s} def
/m23 {mp x y w2 sub m w2 w d w neg 0 d cl f} def
/m27 {mp x y w2 add m w3 neg w2 neg d w3 w2 neg d w3 w2 d cl s} def
/m28 {mp x w2 sub y w2 sub w3 add m w3 0 d  0 w3 neg d w3 0 d 0 w3 d w3 0 d  0 w3 d w3 neg 0 d 0 w3 d w3 neg 0 d 0 w3 neg d w3 neg 0 d cl s } def
/m29 {mp gsave x w2 sub y w2 add w3 sub m currentpoint t 4 {side} repeat cl fill gr} def
/m30 {mp gsave x w2 sub y w2 add w3 sub m currentpoint t 4 {side} repeat cl s gr} def
/m31 {mp x y w2 sub m 0 w d x w2 sub y m w 0 d x w2 sub y w2 add m w w neg d x w2 sub y w2 sub m w w d s} def
/m32 {mp x y w2 sub m w2 w d w neg 0 d cl s} def
/m33 {mp x y w2 add m w3 neg w2 neg d w3 w2 neg d w3 w2 d cl f} def
/m34 {mp x w2 sub y w2 sub w3 add m w3 0 d  0 w3 neg d w3 0 d 0 w3 d w3 0 d  0 w3 d w3 neg 0 d 0 w3 d w3 neg 0 d 0 w3 neg d w3 neg 0 d cl f } def
/m35 {mp x y w2 add m w2 neg w2 neg d w2 w2 neg d w2 w2 d w2 neg w2 d x y w2 sub m 0 w d x w2 sub y m w 0 d s} def
/m36 {mb x w2 sub y w2 add m w w neg d x w2 sub y w2 sub m w w d s} def
/m37 {mp x y m w4 neg w2 d w4 neg w2 neg d w2 0 d  w4 neg w2 neg d w2 0 d w4 neg w2 d w2 0 d w4 neg w2 d w4 neg w2 neg d cl s} def
/m38 {mp x w4 sub y w2 add m w4 neg w4 neg d 0 w2 neg d w4 w4 neg d w2 0 d w4 w4 d 0 w2 d w4 neg w4 d w2 neg 0 d x y w2 sub m 0 w d x w2 sub y m w 0 d cl s} def
/m39 {mp x y m w4 neg w2 d w4 neg w2 neg d w2 0 d  w4 neg w2 neg d w2 0 d w4 neg w2 d w2 0 d w4 neg w2 d w4 neg w2 neg d cl f} def
/m40 {mp x y m w4 w2 d w4 w4 neg d w2 neg w4 neg d w2 w4 neg d w4 neg w4 neg d w4 neg w2 d w4 neg w2 neg d w4 neg w4 d w2 w4 d w2 neg w4 d w4 w4 d w4 w2 neg d cl s} def
/m41 {mp x y m w4 w2 d w4 w4 neg d w2 neg w4 neg d w2 w4 neg d w4 neg w4 neg d w4 neg w2 d w4 neg w2 neg d w4 neg w4 d w2 w4 d w2 neg w4 d w4 w4 d w4 w2 neg d cl f} def
/m42 {mp x y w2 add m w8 neg w2 -3 4 div mul d w2 -3 4 div mul w8 neg d w2 3 4 div mul w8 neg d w8 w2 -3 4 div mul d w8 w2 3 4 div mul d w2 3 4 div mul w8 d w2 -3 4 div mul w8 d w8 neg w2 3 4 div mul d cl s} def
/m43 {mp x y w2 add m w8 neg w2 -3 4 div mul d w2 -3 4 div mul w8 neg d w2 3 4 div mul w8 neg d w8 w2 -3 4 div mul d w8 w2 3 4 div mul d w2 3 4 div mul w8 d w2 -3 4 div mul w8 d w8 neg w2 3 4 div mul d cl f} def
/m44 {mp x y m w6 neg w2 d w2 2 3 div mul 0 d w6 neg w2 neg d w2 w6 d 0 w2 -2 3 div mul d w2 neg w6 d w6 w2 neg d w2 -2 3 div mul 0 d w6 w2 d w2 neg w6 neg d 0 w2 2 3 div mul d w2 w6 neg d cl s} def
/m45 {mp x y m w6 neg w2 d w2 2 3 div mul 0 d w6 neg w2 neg d w2 w6 d 0 w2 -2 3 div mul d w2 neg w6 d w6 w2 neg d w2 -2 3 div mul 0 d w6 w2 d w2 neg w6 neg d 0 w2 2 3 div mul d w2 w6 neg d cl f} def
/m46 {mp x y w4 add m w4 neg w4 d w4 neg w4 neg d  w4 w4 neg d w4 neg w4 neg d w4 w4 neg d w4 w4 d w4 w4 neg d w4 w4 d w4 neg w4 d w4 w4 d w4 neg w4 d w4 neg w4 neg d cl s} def
/m47 {mp x y w4 add m w4 neg w4 d w4 neg w4 neg d w4 w4 neg d w4 neg w4 neg d  w4 w4 neg d w4 w4 d w4 w4 neg d w4 w4 d w4 neg w4 d w4 w4 d w4 neg w4 d w4 neg w4 neg d cl f} def
/m48 {mp x y w4 add m w4 neg w4 d w4 neg w4 neg d w4 w4 neg d  w4 neg w4 neg d w4 w4 neg d w4 w4 d w4 w4 neg d w4 w4 d w4 neg w4 d w4 w4 d w4 neg w4 d w4 neg w4 neg d  w4 w4 neg d w4 neg w4 neg d w4 neg w4 d w4 w4 d cl f} def
/m49 {mp x w2 sub w3 add y w2 sub w3 add m  0 w3 neg d w3 0 d 0 w3 d w3 0 d 0 w3 d w3 neg 0 d 0 w3 d w3 neg 0 d 0 w3 neg d w3 neg 0 d 0 w3 neg d w3 0 d 0 w3 d w3 0 d 0 w3 neg d w3 neg 0 d cl f } def
/m2 {mp x y w2 sub m 0 w d x w2 sub y m w 0 d s} def
/m5 {mp x w2 sub y w2 sub m w w d x w2 sub y w2 add m w w neg d s} def
%%IncludeResource: ProcSet (FontSetInit)
%%IncludeResource: font Times-Roman
%%IncludeResource: font Times-Italic
%%IncludeResource: font Times-Bold
%%IncludeResource: font Times-BoldItalic
%%IncludeResource: font Helvetica
%%IncludeResource: font Helvetica-Oblique
%%IncludeResource: font Helvetica-Bold
%%IncludeResource: font Helvetica-BoldOblique
%%IncludeResource: font Courier
%%IncludeResource: font Courier-Oblique
%%IncludeResource: font Courier-Bold
%%IncludeResource: font Courier-BoldOblique
%%IncludeResource: font Symbol
%%IncludeResource: font ZapfDingbats
/reEncode {exch findfont dup length dict begin {1 index /FID eq  {pop pop} {def} ifelse } forall /Encoding exch def currentdict end dup /FontName get exch definefont pop } def [/Times-Bold /Times-Italic /Times-BoldItalic /Helvetica /Helvetica-Oblique
 /Helvetica-Bold /Helvetica-BoldOblique /Courier /Courier-Oblique /Courier-Bold /Courier-BoldOblique /Times-Roman /AvantGarde-Book /AvantGarde-BookOblique /AvantGarde-Demi /AvantGarde-DemiOblique /Bookman-Demi /Bookman-DemiItalic /Bookman-Light
 /Bookman-LightItalic /Helvetica-Narrow /Helvetica-Narrow-Bold /Helvetica-Narrow-BoldOblique /Helvetica-Narrow-Oblique /NewCenturySchlbk-Roman /NewCenturySchlbk-Bold /NewCenturySchlbk-BoldItalic /NewCenturySchlbk-Italic /Palatino-Bold
 /Palatino-BoldItalic /Palatino-Italic /Palatino-Roman ] {ISOLatin1Encoding reEncode } forall
%%EndProlog
%%BeginSetup
%%EndSetup
newpath  gsave  .25 .25 scale  gsave  0 0 t black[  ] 0 sd 3 lw 1 1 1 c 2268 1537 0 0 bf black 1 1 1 c 1814 1229 227 154 bf black 1814 1229 227 154 bl 1 1 1 c 1814 1229 227 154 bf black 1814 1229 227 154 bl 0 0 1 c 1 1 1 c black 0 0 1 c 289 466 m 16
 Y s 289 482 m 17 Y s 287 482 m 2 X s 289 482 m 1 X s black /w 2 def /w2 {w 2 div} def /w3 {w 3 div} def 289 482 m20 0 0 1 c 292 472 m 18 Y s 292 490 m 17 Y s 290 490 m 2 X s 292 490 m 1 X s black 292 490 m20 0 0 1 c 295 466 m 16 Y s 295 482 m 16 Y s
 293 482 m 2 X s 295 482 m 1 X s black 295 482 m20 0 0 1 c 298 479 m 18 Y s 298 497 m 18 Y s 296 497 m 2 X s 298 497 m 1 X s black 298 497 m20 0 0 1 c 301 457 m 15 Y s 301 472 m 15 Y s 299 472 m 2 X s 301 472 m 1 X s black 301 472 m20 0 0 1 c 304 482
 m 18 Y s 304 500 m 19 Y s 302 500 m 2 X s 304 500 m 1 X s black 304 500 m20 0 0 1 c 307 461 m 15 Y s 307 476 m 15 Y s 305 476 m 2 X s 307 476 m 1 X s black 307 476 m20 0 0 1 c 310 459 m 15 Y s 310 474 m 14 Y s 308 474 m 2 X s 310 474 m 1 X s black
 310 474 m20 0 0 1 c 313 437 m 12 Y s 313 449 m 11 Y s 311 449 m 2 X s 313 449 m 1 X s black 313 449 m20 0 0 1 c 316 482 m 18 Y s 316 500 m 19 Y s 314 500 m 2 X s 316 500 m 1 X s black 316 500 m20 0 0 1 c 319 462 m 15 Y s 319 477 m 15 Y s 317 477 m 2
 X s 319 477 m 2 X s black 319 477 m20 0 0 1 c 322 438 m 11 Y s 322 449 m 10 Y s 321 449 m 1 X s 322 449 m 2 X s black 322 449 m20 0 0 1 c 325 432 m 10 Y s 325 442 m 9 Y s 324 442 m 1 X s 325 442 m 2 X s black 325 442 m20 0 0 1 c 328 444 m 12 Y s 328
 456 m 12 Y s 327 456 m 1 X s 328 456 m 2 X s black 328 456 m20 0 0 1 c 331 451 m 13 Y s 331 464 m 13 Y s 330 464 m 1 X s 331 464 m 2 X s black 331 464 m20 0 0 1 c 334 440 m 12 Y s 334 452 m 11 Y s 333 452 m 1 X s 334 452 m 2 X s black 334 452 m20 0
 0 1 c 337 460 m 15 Y s 337 475 m 16 Y s 336 475 m 1 X s 337 475 m 2 X s black 337 475 m20 0 0 1 c 340 439 m 11 Y s 340 450 m 11 Y s 339 450 m 1 X s 340 450 m 2 X s black 340 450 m20 0 0 1 c 343 430 m 8 Y s 343 438 m 9 Y s 342 438 m 1 X s 343 438 m 2
 X s black 343 438 m20 0 0 1 c 346 428 m 8 Y s 346 436 m 9 Y s 345 436 m 1 X s 346 436 m 2 X s black 346 436 m20 0 0 1 c 349 430 m 9 Y s 349 439 m 8 Y s 348 439 m 1 X s 349 439 m 2 X s black 349 439 m20 0 0 1 c 352 428 m 9 Y s 352 437 m 8 Y s 351 437
 m 1 X s 352 437 m 2 X s black 352 437 m20 0 0 1 c 355 431 m 10 Y s 355 441 m 9 Y s 354 441 m 1 X s 355 441 m 2 X s black 355 441 m20 0 0 1 c 358 435 m 10 Y s 358 445 m 10 Y s 357 445 m 1 X s 358 445 m 2 X s black 358 445 m20 0 0 1 c 361 430 m 10 Y s
 361 440 m 9 Y s 360 440 m 1 X s 361 440 m 2 X s black 361 440 m20 0 0 1 c 364 449 m 13 Y s 364 462 m 14 Y s 363 462 m 1 X s 364 462 m 2 X s black 364 462 m20 0 0 1 c 367 436 m 10 Y s 367 446 m 10 Y s 366 446 m 1 X s 367 446 m 2 X s black 367 446 m20
 0 0 1 c 370 429 m 9 Y s 370 438 m 8 Y s 369 438 m 1 X s 370 438 m 2 X s black 370 438 m20 0 0 1 c 373 443 m 12 Y s 373 455 m 12 Y s 372 455 m 1 X s 373 455 m 2 X s black 373 455 m20 0 0 1 c 376 440 m 11 Y s 376 451 m 11 Y s 375 451 m 1 X s 376 451 m
 2 X s black 376 451 m20 0 0 1 c 379 439 m 11 Y s 379 450 m 12 Y s 378 450 m 1 X s 379 450 m 2 X s black 379 450 m20 0 0 1 c 382 437 m 11 Y s 382 448 m 10 Y s 381 448 m 1 X s 382 448 m 2 X s black 382 448 m20 0 0 1 c 386 425 m 7 Y s 386 432 m 8 Y s
 384 432 m 2 X s 386 432 m 1 X s black 386 432 m20 0 0 1 c 389 435 m 10 Y s 389 445 m 11 Y s 387 445 m 2 X s 389 445 m 1 X s black 389 445 m20 0 0 1 c 392 453 m 14 Y s 392 467 m 15 Y s 390 467 m 2 X s 392 467 m 1 X s black 392 467 m20 0 0 1 c 395 467
 m 17 Y s 395 484 m 16 Y s 393 484 m 2 X s 395 484 m 1 X s black 395 484 m20 0 0 1 c 398 456 m 14 Y s 398 470 m 15 Y s 396 470 m 2 X s 398 470 m 1 X s black 398 470 m20 0 0 1 c 401 472 m 18 Y s 401 490 m 17 Y s 399 490 m 2 X s 401 490 m 1 X s black
 401 490 m20 0 0 1 c 404 485 m 20 Y s 404 505 m 19 Y s 402 505 m 2 X s 404 505 m 1 X s black 404 505 m20 0 0 1 c 407 488 m 20 Y s 407 508 m 20 Y s 405 508 m 2 X s 407 508 m 1 X s black 407 508 m20 0 0 1 c 410 528 m 24 Y s 410 552 m 24 Y s 408 552 m 2
 X s 410 552 m 1 X s black 410 552 m20 0 0 1 c 413 565 m 27 Y s 413 592 m 27 Y s 411 592 m 2 X s 413 592 m 1 X s black 413 592 m20 0 0 1 c 416 539 m 26 Y s 416 565 m 26 Y s 414 565 m 2 X s 416 565 m 1 X s black 416 565 m20 0 0 1 c 419 574 m 28 Y s
 419 602 m 29 Y s 417 602 m 2 X s 419 602 m 1 X s black 419 602 m20 0 0 1 c 422 636 m 33 Y s 422 669 m 33 Y s 420 669 m 2 X s 422 669 m 1 X s black 422 669 m20 0 0 1 c 425 711 m 38 Y s 425 749 m 38 Y s 423 749 m 2 X s 425 749 m 1 X s black 425 749
 m20 0 0 1 c 428 683 m 37 Y s 428 720 m 37 Y s 426 720 m 2 X s 428 720 m 1 X s black 428 720 m20 0 0 1 c 431 748 m 41 Y s 431 789 m 41 Y s 429 789 m 2 X s 431 789 m 1 X s black 431 789 m20 0 0 1 c 434 895 m 48 Y s 434 943 m 49 Y s 432 943 m 2 X s 434
 943 m 1 X s black 434 943 m20 0 0 1 c 437 905 m 49 Y s 437 954 m 49 Y s 435 954 m 2 X s 437 954 m 1 X s black 437 954 m20 0 0 1 c 440 960 m 52 Y s 440 1012 m 52 Y s 438 1012 m 2 X s 440 1012 m 1 X s black 440 1012 m20 0 0 1 c 443 1034 m 55 Y s 443
 1089 m 56 Y s 441 1089 m 2 X s 443 1089 m 1 X s black 443 1089 m20 0 0 1 c 446 983 m 53 Y s 446 1036 m 54 Y s 444 1036 m 2 X s 446 1036 m 1 X s black 446 1036 m20 0 0 1 c 449 1163 m 62 Y s 449 1225 m 61 Y s 447 1225 m 2 X s 449 1225 m 2 X s black
 449 1225 m20 0 0 1 c 452 1192 m 64 Y s 452 1256 m 63 Y s 451 1256 m 1 X s 452 1256 m 2 X s black 452 1256 m20 0 0 1 c 455 1119 m 61 Y s 455 1180 m 60 Y s 454 1180 m 1 X s 455 1180 m 2 X s black 455 1180 m20 0 0 1 c 458 1116 m 62 Y s 458 1178 m 61 Y
 s 457 1178 m 1 X s 458 1178 m 2 X s black 458 1178 m20 0 0 1 c 461 1161 m 65 Y s 461 1226 m 65 Y s 460 1226 m 1 X s 461 1226 m 2 X s black 461 1226 m20 0 0 1 c 464 1161 m 66 Y s 464 1227 m 66 Y s 463 1227 m 1 X s 464 1227 m 2 X s black 464 1227 m20
 0 0 1 c 467 1188 m 68 Y s 467 1256 m 69 Y s 466 1256 m 1 X s 467 1256 m 2 X s black 467 1256 m20 0 0 1 c 470 1006 m 64 Y s 470 1070 m 63 Y s 469 1070 m 1 X s 470 1070 m 2 X s black 470 1070 m20 0 0 1 c 473 1038 m 66 Y s 473 1104 m 67 Y s 472 1104 m
 1 X s 473 1104 m 2 X s black 473 1104 m20 0 0 1 c 476 1014 m 67 Y s 476 1081 m 67 Y s 475 1081 m 1 X s 476 1081 m 2 X s black 476 1081 m20 0 0 1 c 479 904 m 65 Y s 479 969 m 66 Y s 478 969 m 1 X s 479 969 m 2 X s black 479 969 m20 0 0 1 c 482 831 m
 64 Y s 482 895 m 64 Y s 481 895 m 1 X s 482 895 m 2 X s black 482 895 m20 0 0 1 c 485 824 m 68 Y s 485 892 m 67 Y s 484 892 m 1 X s 485 892 m 2 X s black 485 892 m20 0 0 1 c 488 745 m 66 Y s 488 811 m 66 Y s 487 811 m 1 X s 488 811 m 2 X s black 488
 811 m20 0 0 1 c 491 703 m 66 Y s 491 769 m 65 Y s 490 769 m 1 X s 491 769 m 2 X s black 491 769 m20 0 0 1 c 494 549 m 63 Y s 494 612 m 62 Y s 493 612 m 1 X s 494 612 m 2 X s black 494 612 m20 0 0 1 c 497 418 m 59 Y s 497 477 m 60 Y s 496 477 m 1 X s
 497 477 m 2 X s black 497 477 m20 0 0 1 c 500 403 m 60 Y s 500 463 m 59 Y s 499 463 m 1 X s 500 463 m 2 X s black 500 463 m20 0 0 1 c 503 482 m 64 Y s 503 546 m 65 Y s 502 546 m 1 X s 503 546 m 2 X s black 503 546 m20 0 0 1 c 506 378 m 63 Y s 506
 441 m 64 Y s 505 441 m 1 X s 506 441 m 2 X s black 506 441 m20 0 0 1 c 509 357 m 62 Y s 509 419 m 62 Y s 508 419 m 1 X s 509 419 m 2 X s black 509 419 m20 0 0 1 c 513 361 m 63 Y s 513 424 m 63 Y s 511 424 m 2 X s 513 424 m 1 X s black 513 424 m20 0
 0 1 c 516 410 m 65 Y s 516 475 m 65 Y s 514 475 m 2 X s 516 475 m 1 X s black 516 475 m20 0 0 1 c 519 350 m 63 Y s 519 413 m 62 Y s 517 413 m 2 X s 519 413 m 1 X s black 519 413 m20 0 0 1 c 522 356 m 63 Y s 522 419 m 63 Y s 520 419 m 2 X s 522 419 m
 1 X s black 522 419 m20 0 0 1 c 525 392 m 63 Y s 525 455 m 63 Y s 523 455 m 2 X s 525 455 m 1 X s black 525 455 m20 0 0 1 c 528 365 m 61 Y s 528 426 m 62 Y s 526 426 m 2 X s 528 426 m 1 X s black 528 426 m20 0 0 1 c 531 299 m 60 Y s 531 359 m 60 Y s
 529 359 m 2 X s 531 359 m 1 X s black 531 359 m20 0 0 1 c 534 332 m 60 Y s 534 392 m 60 Y s 532 392 m 2 X s 534 392 m 1 X s black 534 392 m20 0 0 1 c 537 298 m 58 Y s 537 356 m 59 Y s 535 356 m 2 X s 537 356 m 1 X s black 537 356 m20 0 0 1 c 540 282
 m 57 Y s 540 339 m 56 Y s 538 339 m 2 X s 540 339 m 1 X s black 540 339 m20 0 0 1 c 543 276 m 56 Y s 543 332 m 55 Y s 541 332 m 2 X s 543 332 m 1 X s black 543 332 m20 0 0 1 c 546 431 m 59 Y s 546 490 m 58 Y s 544 490 m 2 X s 546 490 m 1 X s black
 546 490 m20 0 0 1 c 549 290 m 54 Y s 549 344 m 54 Y s 547 344 m 2 X s 549 344 m 1 X s black 549 344 m20 0 0 1 c 552 215 m 51 Y s 552 266 m 51 Y s 550 266 m 2 X s 552 266 m 1 X s black 552 266 m20 0 0 1 c 555 296 m 54 Y s 555 350 m 54 Y s 553 350 m 2
 X s 555 350 m 1 X s black 555 350 m20 0 0 1 c 558 302 m 55 Y s 558 357 m 54 Y s 556 357 m 2 X s 558 357 m 1 X s black 558 357 m20 0 0 1 c 561 338 m 54 Y s 561 392 m 54 Y s 559 392 m 2 X s 561 392 m 1 X s black 561 392 m20 0 0 1 c 564 297 m 52 Y s
 564 349 m 52 Y s 562 349 m 2 X s 564 349 m 1 X s black 564 349 m20 0 0 1 c 567 377 m 55 Y s 567 432 m 55 Y s 565 432 m 2 X s 567 432 m 1 X s black 567 432 m20 0 0 1 c 570 300 m 52 Y s 570 352 m 51 Y s 568 352 m 2 X s 570 352 m 1 X s black 570 352
 m20 0 0 1 c 573 273 m 51 Y s 573 324 m 51 Y s 571 324 m 2 X s 573 324 m 1 X s black 573 324 m20 0 0 1 c 576 340 m 53 Y s 576 393 m 53 Y s 574 393 m 2 X s 576 393 m 2 X s black 576 393 m20 0 0 1 c 579 227 m 48 Y s 579 275 m 48 Y s 578 275 m 1 X s 579
 275 m 2 X s black 579 275 m20 0 0 1 c 582 248 m 48 Y s 582 296 m 48 Y s 581 296 m 1 X s 582 296 m 2 X s black 582 296 m20 0 0 1 c 585 326 m 52 Y s 585 378 m 51 Y s 584 378 m 1 X s 585 378 m 2 X s black 585 378 m20 0 0 1 c 588 351 m 52 Y s 588 403 m
 51 Y s 587 403 m 1 X s 588 403 m 2 X s black 588 403 m20 0 0 1 c 591 267 m 48 Y s 591 315 m 49 Y s 590 315 m 1 X s 591 315 m 2 X s black 591 315 m20 0 0 1 c 594 265 m 49 Y s 594 314 m 48 Y s 593 314 m 1 X s 594 314 m 2 X s black 594 314 m20 0 0 1 c
 597 300 m 50 Y s 597 350 m 49 Y s 596 350 m 1 X s 597 350 m 2 X s black 597 350 m20 0 0 1 c 600 275 m 47 Y s 600 322 m 47 Y s 599 322 m 1 X s 600 322 m 2 X s black 600 322 m20 0 0 1 c 603 338 m 50 Y s 603 388 m 50 Y s 602 388 m 1 X s 603 388 m 2 X s
 black 603 388 m20 0 0 1 c 606 341 m 50 Y s 606 391 m 51 Y s 605 391 m 1 X s 606 391 m 2 X s black 606 391 m20 0 0 1 c 609 417 m 52 Y s 609 469 m 53 Y s 608 469 m 1 X s 609 469 m 2 X s black 609 469 m20 0 0 1 c 612 322 m 49 Y s 612 371 m 49 Y s 611
 371 m 1 X s 612 371 m 2 X s black 612 371 m20 0 0 1 c 615 440 m 54 Y s 615 494 m 54 Y s 614 494 m 1 X s 615 494 m 2 X s black 615 494 m20 0 0 1 c 618 375 m 52 Y s 618 427 m 51 Y s 617 427 m 1 X s 618 427 m 2 X s black 618 427 m20 0 0 1 c 621 314 m
 49 Y s 621 363 m 48 Y s 620 363 m 1 X s 621 363 m 2 X s black 621 363 m20 0 0 1 c 624 386 m 50 Y s 624 436 m 50 Y s 623 436 m 1 X s 624 436 m 2 X s black 624 436 m20 0 0 1 c 627 333 m 49 Y s 627 382 m 49 Y s 626 382 m 1 X s 627 382 m 2 X s black 627
 382 m20 0 0 1 c 630 304 m 46 Y s 630 350 m 47 Y s 629 350 m 1 X s 630 350 m 2 X s black 630 350 m20 0 0 1 c 633 209 m 44 Y s 633 253 m 43 Y s 632 253 m 1 X s 633 253 m 2 X s black 633 253 m20 0 0 1 c 636 316 m 49 Y s 636 365 m 48 Y s 635 365 m 1 X s
 636 365 m 2 X s black 636 365 m20 0 0 1 c 639 331 m 49 Y s 639 380 m 50 Y s 638 380 m 1 X s 639 380 m 2 X s black 639 380 m20 0 0 1 c 643 315 m 49 Y s 643 364 m 49 Y s 641 364 m 2 X s 643 364 m 1 X s black 643 364 m20 0 0 1 c 646 277 m 48 Y s 646
 325 m 48 Y s 644 325 m 2 X s 646 325 m 1 X s black 646 325 m20 0 0 1 c 649 321 m 50 Y s 649 371 m 50 Y s 647 371 m 2 X s 649 371 m 1 X s black 649 371 m20 0 0 1 c 652 306 m 50 Y s 652 356 m 50 Y s 650 356 m 2 X s 652 356 m 1 X s black 652 356 m20 0
 0 1 c 655 301 m 49 Y s 655 350 m 49 Y s 653 350 m 2 X s 655 350 m 1 X s black 655 350 m20 0 0 1 c 658 342 m 51 Y s 658 393 m 51 Y s 656 393 m 2 X s 658 393 m 1 X s black 658 393 m20 0 0 1 c 661 301 m 50 Y s 661 351 m 50 Y s 659 351 m 2 X s 661 351 m
 1 X s black 661 351 m20 0 0 1 c 664 329 m 49 Y s 664 378 m 49 Y s 662 378 m 2 X s 664 378 m 1 X s black 664 378 m20 0 0 1 c 667 372 m 50 Y s 667 422 m 50 Y s 665 422 m 2 X s 667 422 m 1 X s black 667 422 m20 0 0 1 c 670 306 m 46 Y s 670 352 m 46 Y s
 668 352 m 2 X s 670 352 m 1 X s black 670 352 m20 0 0 1 c 673 286 m 45 Y s 673 331 m 44 Y s 671 331 m 2 X s 673 331 m 1 X s black 673 331 m20 0 0 1 c 676 323 m 45 Y s 676 368 m 45 Y s 674 368 m 2 X s 676 368 m 1 X s black 676 368 m20 0 0 1 c 679 281
 m 43 Y s 679 324 m 43 Y s 677 324 m 2 X s 679 324 m 1 X s black 679 324 m20 0 0 1 c 682 366 m 44 Y s 682 410 m 45 Y s 680 410 m 2 X s 682 410 m 1 X s black 682 410 m20 0 0 1 c 685 351 m 44 Y s 685 395 m 44 Y s 683 395 m 2 X s 685 395 m 1 X s black
 685 395 m20 0 0 1 c 688 332 m 44 Y s 688 376 m 44 Y s 686 376 m 2 X s 688 376 m 1 X s black 688 376 m20 0 0 1 c 691 379 m 46 Y s 691 425 m 45 Y s 689 425 m 2 X s 691 425 m 1 X s black 691 425 m20 0 0 1 c 694 353 m 44 Y s 694 397 m 45 Y s 692 397 m 2
 X s 694 397 m 1 X s black 694 397 m20 0 0 1 c 697 316 m 43 Y s 697 359 m 42 Y s 695 359 m 2 X s 697 359 m 1 X s black 697 359 m20 0 0 1 c 700 322 m 42 Y s 700 364 m 41 Y s 698 364 m 2 X s 700 364 m 1 X s black 700 364 m20 0 0 1 c 703 393 m 45 Y s
 703 438 m 46 Y s 701 438 m 2 X s 703 438 m 2 X s black 703 438 m20 0 0 1 c 706 346 m 43 Y s 706 389 m 44 Y s 705 389 m 1 X s 706 389 m 2 X s black 706 389 m20 0 0 1 c 709 360 m 45 Y s 709 405 m 46 Y s 708 405 m 1 X s 709 405 m 2 X s black 709 405
 m20 0 0 1 c 712 304 m 42 Y s 712 346 m 42 Y s 711 346 m 1 X s 712 346 m 2 X s black 712 346 m20 0 0 1 c 715 385 m 44 Y s 715 429 m 45 Y s 714 429 m 1 X s 715 429 m 2 X s black 715 429 m20 0 0 1 c 718 344 m 45 Y s 718 389 m 45 Y s 717 389 m 1 X s 718
 389 m 2 X s black 718 389 m20 0 0 1 c 721 373 m 47 Y s 721 420 m 46 Y s 720 420 m 1 X s 721 420 m 2 X s black 721 420 m20 0 0 1 c 724 322 m 44 Y s 724 366 m 43 Y s 723 366 m 1 X s 724 366 m 2 X s black 724 366 m20 0 0 1 c 727 382 m 45 Y s 727 427 m
 46 Y s 726 427 m 1 X s 727 427 m 2 X s black 727 427 m20 0 0 1 c 730 418 m 49 Y s 730 467 m 48 Y s 729 467 m 1 X s 730 467 m 2 X s black 730 467 m20 0 0 1 c 733 326 m 43 Y s 733 369 m 43 Y s 732 369 m 1 X s 733 369 m 2 X s black 733 369 m20 0 0 1 c
 736 279 m 41 Y s 736 320 m 40 Y s 735 320 m 1 X s 736 320 m 2 X s black 736 320 m20 0 0 1 c 739 342 m 43 Y s 739 385 m 43 Y s 738 385 m 1 X s 739 385 m 2 X s black 739 385 m20 0 0 1 c 742 325 m 42 Y s 742 367 m 42 Y s 741 367 m 1 X s 742 367 m 2 X s
 black 742 367 m20 0 0 1 c 745 331 m 41 Y s 745 372 m 42 Y s 744 372 m 1 X s 745 372 m 2 X s black 745 372 m20 0 0 1 c 748 350 m 44 Y s 748 394 m 44 Y s 747 394 m 1 X s 748 394 m 2 X s black 748 394 m20 0 0 1 c 751 332 m 40 Y s 751 372 m 40 Y s 750
 372 m 1 X s 751 372 m 2 X s black 751 372 m20 0 0 1 c 754 388 m 42 Y s 754 430 m 43 Y s 753 430 m 1 X s 754 430 m 2 X s black 754 430 m20 0 0 1 c 757 406 m 43 Y s 757 449 m 42 Y s 756 449 m 1 X s 757 449 m 2 X s black 757 449 m20 0 0 1 c 760 444 m
 44 Y s 760 488 m 45 Y s 759 488 m 1 X s 760 488 m 2 X s black 760 488 m20 0 0 1 c 763 299 m 34 Y s 763 333 m 35 Y s 762 333 m 1 X s 763 333 m 2 X s black 763 333 m20 0 0 1 c 766 322 m 37 Y s 766 359 m 37 Y s 765 359 m 1 X s 766 359 m 2 X s black 766
 359 m20 0 0 1 c 770 368 m 38 Y s 770 406 m 37 Y s 768 406 m 2 X s 770 406 m 1 X s black 770 406 m20 0 0 1 c 773 397 m 39 Y s 773 436 m 39 Y s 771 436 m 2 X s 773 436 m 1 X s black 773 436 m20 0 0 1 c 776 339 m 36 Y s 776 375 m 36 Y s 774 375 m 2 X s
 776 375 m 1 X s black 776 375 m20 0 0 1 c 779 393 m 38 Y s 779 431 m 38 Y s 777 431 m 2 X s 779 431 m 1 X s black 779 431 m20 0 0 1 c 782 314 m 34 Y s 782 348 m 34 Y s 780 348 m 2 X s 782 348 m 1 X s black 782 348 m20 0 0 1 c 785 352 m 35 Y s 785
 387 m 36 Y s 783 387 m 2 X s 785 387 m 1 X s black 785 387 m20 0 0 1 c 788 392 m 37 Y s 788 429 m 37 Y s 786 429 m 2 X s 788 429 m 1 X s black 788 429 m20 0 0 1 c 791 355 m 34 Y s 791 389 m 34 Y s 789 389 m 2 X s 791 389 m 1 X s black 791 389 m20 0
 0 1 c 794 400 m 37 Y s 794 437 m 38 Y s 792 437 m 2 X s 794 437 m 1 X s black 794 437 m20 0 0 1 c 797 380 m 36 Y s 797 416 m 37 Y s 795 416 m 2 X s 797 416 m 1 X s black 797 416 m20 0 0 1 c 800 392 m 36 Y s 800 428 m 35 Y s 798 428 m 2 X s 800 428 m
 1 X s black 800 428 m20 0 0 1 c 803 338 m 33 Y s 803 371 m 33 Y s 801 371 m 2 X s 803 371 m 1 X s black 803 371 m20 0 0 1 c 806 364 m 35 Y s 806 399 m 36 Y s 804 399 m 2 X s 806 399 m 1 X s black 806 399 m20 0 0 1 c 809 365 m 35 Y s 809 400 m 35 Y s
 807 400 m 2 X s 809 400 m 1 X s black 809 400 m20 0 0 1 c 812 356 m 34 Y s 812 390 m 33 Y s 810 390 m 2 X s 812 390 m 1 X s black 812 390 m20 0 0 1 c 815 345 m 33 Y s 815 378 m 32 Y s 813 378 m 2 X s 815 378 m 1 X s black 815 378 m20 0 0 1 c 818 375
 m 36 Y s 818 411 m 36 Y s 816 411 m 2 X s 818 411 m 1 X s black 818 411 m20 0 0 1 c 821 346 m 34 Y s 821 380 m 33 Y s 819 380 m 2 X s 821 380 m 1 X s black 821 380 m20 0 0 1 c 824 434 m 38 Y s 824 472 m 39 Y s 822 472 m 2 X s 824 472 m 1 X s black
 824 472 m20 0 0 1 c 827 344 m 32 Y s 827 376 m 32 Y s 825 376 m 2 X s 827 376 m 1 X s black 827 376 m20 0 0 1 c 830 300 m 29 Y s 830 329 m 29 Y s 828 329 m 2 X s 830 329 m 1 X s black 830 329 m20 0 0 1 c 833 352 m 34 Y s 833 386 m 35 Y s 831 386 m 2
 X s 833 386 m 2 X s black 833 386 m20 0 0 1 c 836 391 m 35 Y s 836 426 m 35 Y s 835 426 m 1 X s 836 426 m 2 X s black 836 426 m20 0 0 1 c 839 329 m 30 Y s 839 359 m 31 Y s 838 359 m 1 X s 839 359 m 2 X s black 839 359 m20 0 0 1 c 842 387 m 34 Y s
 842 421 m 33 Y s 841 421 m 1 X s 842 421 m 2 X s black 842 421 m20 0 0 1 c 845 363 m 33 Y s 845 396 m 34 Y s 844 396 m 1 X s 845 396 m 2 X s black 845 396 m20 0 0 1 c 848 387 m 34 Y s 848 421 m 35 Y s 847 421 m 1 X s 848 421 m 2 X s black 848 421
 m20 0 0 1 c 851 327 m 31 Y s 851 358 m 32 Y s 850 358 m 1 X s 851 358 m 2 X s black 851 358 m20 0 0 1 c 854 401 m 35 Y s 854 436 m 34 Y s 853 436 m 1 X s 854 436 m 2 X s black 854 436 m20 0 0 1 c 857 333 m 31 Y s 857 364 m 31 Y s 856 364 m 1 X s 857
 364 m 2 X s black 857 364 m20 0 0 1 c 860 370 m 34 Y s 860 404 m 33 Y s 859 404 m 1 X s 860 404 m 2 X s black 860 404 m20 0 0 1 c 863 374 m 33 Y s 863 407 m 34 Y s 862 407 m 1 X s 863 407 m 2 X s black 863 407 m20 0 0 1 c 866 387 m 34 Y s 866 421 m
 34 Y s 865 421 m 1 X s 866 421 m 2 X s black 866 421 m20 0 0 1 c 869 365 m 33 Y s 869 398 m 32 Y s 868 398 m 1 X s 869 398 m 2 X s black 869 398 m20 0 0 1 c 872 376 m 33 Y s 872 409 m 33 Y s 871 409 m 1 X s 872 409 m 2 X s black 872 409 m20 0 0 1 c
 875 431 m 36 Y s 875 467 m 37 Y s 874 467 m 1 X s 875 467 m 2 X s black 875 467 m20 0 0 1 c 878 374 m 35 Y s 878 409 m 34 Y s 877 409 m 1 X s 878 409 m 2 X s black 878 409 m20 0 0 1 c 881 365 m 32 Y s 881 397 m 32 Y s 880 397 m 1 X s 881 397 m 2 X s
 black 881 397 m20 0 0 1 c 884 382 m 33 Y s 884 415 m 34 Y s 883 415 m 1 X s 884 415 m 2 X s black 884 415 m20 0 0 1 c 887 341 m 31 Y s 887 372 m 32 Y s 886 372 m 1 X s 887 372 m 2 X s black 887 372 m20 0 0 1 c 890 391 m 35 Y s 890 426 m 34 Y s 889
 426 m 1 X s 890 426 m 2 X s black 890 426 m20 0 0 1 c 893 397 m 34 Y s 893 431 m 35 Y s 892 431 m 1 X s 893 431 m 2 X s black 893 431 m20 0 0 1 c 897 408 m 34 Y s 897 442 m 34 Y s 895 442 m 2 X s 897 442 m 1 X s black 897 442 m20 0 0 1 c 900 393 m
 34 Y s 900 427 m 34 Y s 898 427 m 2 X s 900 427 m 1 X s black 900 427 m20 0 0 1 c 903 333 m 28 Y s 903 361 m 29 Y s 901 361 m 2 X s 903 361 m 1 X s black 903 361 m20 0 0 1 c 906 375 m 33 Y s 906 408 m 32 Y s 904 408 m 2 X s 906 408 m 1 X s black 906
 408 m20 0 0 1 c 909 439 m 36 Y s 909 475 m 36 Y s 907 475 m 2 X s 909 475 m 1 X s black 909 475 m20 0 0 1 c 912 408 m 33 Y s 912 441 m 33 Y s 910 441 m 2 X s 912 441 m 1 X s black 912 441 m20 0 0 1 c 915 347 m 31 Y s 915 378 m 30 Y s 913 378 m 2 X s
 915 378 m 1 X s black 915 378 m20 0 0 1 c 918 364 m 30 Y s 918 394 m 30 Y s 916 394 m 2 X s 918 394 m 1 X s black 918 394 m20 0 0 1 c 921 348 m 29 Y s 921 377 m 29 Y s 919 377 m 2 X s 921 377 m 1 X s black 921 377 m20 0 0 1 c 924 450 m 36 Y s 924
 486 m 36 Y s 922 486 m 2 X s 924 486 m 1 X s black 924 486 m20 0 0 1 c 927 378 m 31 Y s 927 409 m 31 Y s 925 409 m 2 X s 927 409 m 1 X s black 927 409 m20 0 0 1 c 930 388 m 32 Y s 930 420 m 32 Y s 928 420 m 2 X s 930 420 m 1 X s black 930 420 m20 0
 0 1 c 933 416 m 34 Y s 933 450 m 33 Y s 931 450 m 2 X s 933 450 m 1 X s black 933 450 m20 0 0 1 c 936 399 m 34 Y s 936 433 m 33 Y s 934 433 m 2 X s 936 433 m 1 X s black 936 433 m20 0 0 1 c 939 426 m 33 Y s 939 459 m 34 Y s 937 459 m 2 X s 939 459 m
 1 X s black 939 459 m20 0 0 1 c 942 426 m 33 Y s 942 459 m 33 Y s 940 459 m 2 X s 942 459 m 1 X s black 942 459 m20 0 0 1 c 945 350 m 28 Y s 945 378 m 29 Y s 943 378 m 2 X s 945 378 m 1 X s black 945 378 m20 0 0 1 c 948 355 m 28 Y s 948 383 m 29 Y s
 946 383 m 2 X s 948 383 m 1 X s black 948 383 m20 0 0 1 c 951 385 m 32 Y s 951 417 m 32 Y s 949 417 m 2 X s 951 417 m 1 X s black 951 417 m20 0 0 1 c 954 419 m 33 Y s 954 452 m 34 Y s 952 452 m 2 X s 954 452 m 1 X s black 954 452 m20 0 0 1 c 957 371
 m 30 Y s 957 401 m 30 Y s 955 401 m 2 X s 957 401 m 1 X s black 957 401 m20 0 0 1 c 960 387 m 31 Y s 960 418 m 31 Y s 958 418 m 2 X s 960 418 m 2 X s black 960 418 m20 0 0 1 c 963 379 m 30 Y s 963 409 m 29 Y s 962 409 m 1 X s 963 409 m 2 X s black
 963 409 m20 0 0 1 c 966 334 m 27 Y s 966 361 m 27 Y s 965 361 m 1 X s 966 361 m 2 X s black 966 361 m20 0 0 1 c 969 357 m 29 Y s 969 386 m 28 Y s 968 386 m 1 X s 969 386 m 2 X s black 969 386 m20 0 0 1 c 972 370 m 30 Y s 972 400 m 30 Y s 971 400 m 1
 X s 972 400 m 2 X s black 972 400 m20 0 0 1 c 975 403 m 33 Y s 975 436 m 33 Y s 974 436 m 1 X s 975 436 m 2 X s black 975 436 m20 0 0 1 c 978 398 m 33 Y s 978 431 m 32 Y s 977 431 m 1 X s 978 431 m 2 X s black 978 431 m20 0 0 1 c 981 355 m 30 Y s
 981 385 m 30 Y s 980 385 m 1 X s 981 385 m 2 X s black 981 385 m20 0 0 1 c 984 444 m 35 Y s 984 479 m 35 Y s 983 479 m 1 X s 984 479 m 2 X s black 984 479 m20 0 0 1 c 987 370 m 31 Y s 987 401 m 32 Y s 986 401 m 1 X s 987 401 m 2 X s black 987 401
 m20 0 0 1 c 990 381 m 32 Y s 990 413 m 31 Y s 989 413 m 1 X s 990 413 m 2 X s black 990 413 m20 0 0 1 c 993 348 m 30 Y s 993 378 m 31 Y s 992 378 m 1 X s 993 378 m 2 X s black 993 378 m20 0 0 1 c 996 350 m 29 Y s 996 379 m 30 Y s 995 379 m 1 X s 996
 379 m 2 X s black 996 379 m20 0 0 1 c 999 359 m 29 Y s 999 388 m 29 Y s 998 388 m 1 X s 999 388 m 2 X s black 999 388 m20 0 0 1 c 1002 354 m 30 Y s 1002 384 m 30 Y s 1001 384 m 1 X s 1002 384 m 2 X s black 1002 384 m20 0 0 1 c 1005 314 m 26 Y s 1005
 340 m 26 Y s 1004 340 m 1 X s 1005 340 m 2 X s black 1005 340 m20 0 0 1 c 1008 397 m 32 Y s 1008 429 m 33 Y s 1007 429 m 1 X s 1008 429 m 2 X s black 1008 429 m20 0 0 1 c 1011 352 m 29 Y s 1011 381 m 29 Y s 1010 381 m 1 X s 1011 381 m 2 X s black
 1011 381 m20 0 0 1 c 1014 417 m 32 Y s 1014 449 m 33 Y s 1013 449 m 1 X s 1014 449 m 2 X s black 1014 449 m20 0 0 1 c 1017 375 m 32 Y s 1017 407 m 32 Y s 1016 407 m 1 X s 1017 407 m 2 X s black 1017 407 m20 0 0 1 c 1020 384 m 31 Y s 1020 415 m 31 Y
 s 1019 415 m 1 X s 1020 415 m 2 X s black 1020 415 m20 0 0 1 c 1023 388 m 31 Y s 1023 419 m 31 Y s 1022 419 m 1 X s 1023 419 m 2 X s black 1023 419 m20 0 0 1 c 1027 377 m 30 Y s 1027 407 m 30 Y s 1025 407 m 2 X s 1027 407 m 1 X s black 1027 407 m20
 0 0 1 c 1030 452 m 34 Y s 1030 486 m 34 Y s 1028 486 m 2 X s 1030 486 m 1 X s black 1030 486 m20 0 0 1 c 1033 378 m 31 Y s 1033 409 m 30 Y s 1031 409 m 2 X s 1033 409 m 1 X s black 1033 409 m20 0 0 1 c 1036 402 m 31 Y s 1036 433 m 30 Y s 1034 433 m
 2 X s 1036 433 m 1 X s black 1036 433 m20 0 0 1 c 1039 364 m 29 Y s 1039 393 m 29 Y s 1037 393 m 2 X s 1039 393 m 1 X s black 1039 393 m20 0 0 1 c 1042 354 m 28 Y s 1042 382 m 29 Y s 1040 382 m 2 X s 1042 382 m 1 X s black 1042 382 m20 0 0 1 c 1045
 394 m 30 Y s 1045 424 m 30 Y s 1043 424 m 2 X s 1045 424 m 1 X s black 1045 424 m20 0 0 1 c 1048 366 m 29 Y s 1048 395 m 28 Y s 1046 395 m 2 X s 1048 395 m 1 X s black 1048 395 m20 0 0 1 c 1051 372 m 27 Y s 1051 399 m 27 Y s 1049 399 m 2 X s 1051
 399 m 1 X s black 1051 399 m20 0 0 1 c 1054 381 m 30 Y s 1054 411 m 29 Y s 1052 411 m 2 X s 1054 411 m 1 X s black 1054 411 m20 0 0 1 c 1057 370 m 28 Y s 1057 398 m 28 Y s 1055 398 m 2 X s 1057 398 m 1 X s black 1057 398 m20 0 0 1 c 1060 404 m 29 Y
 s 1060 433 m 29 Y s 1058 433 m 2 X s 1060 433 m 1 X s black 1060 433 m20 0 0 1 c 1063 375 m 27 Y s 1063 402 m 27 Y s 1061 402 m 2 X s 1063 402 m 1 X s black 1063 402 m20 0 0 1 c 1066 438 m 30 Y s 1066 468 m 31 Y s 1064 468 m 2 X s 1066 468 m 1 X s
 black 1066 468 m20 0 0 1 c 1069 385 m 27 Y s 1069 412 m 27 Y s 1067 412 m 2 X s 1069 412 m 1 X s black 1069 412 m20 0 0 1 c 1072 394 m 29 Y s 1072 423 m 28 Y s 1070 423 m 2 X s 1072 423 m 1 X s black 1072 423 m20 0 0 1 c 1075 381 m 29 Y s 1075 410 m
 28 Y s 1073 410 m 2 X s 1075 410 m 1 X s black 1075 410 m20 0 0 1 c 1078 384 m 27 Y s 1078 411 m 27 Y s 1076 411 m 2 X s 1078 411 m 1 X s black 1078 411 m20 0 0 1 c 1081 428 m 28 Y s 1081 456 m 28 Y s 1079 456 m 2 X s 1081 456 m 1 X s black 1081 456
 m20 0 0 1 c 1084 393 m 26 Y s 1084 419 m 26 Y s 1082 419 m 2 X s 1084 419 m 1 X s black 1084 419 m20 0 0 1 c 1087 394 m 27 Y s 1087 421 m 27 Y s 1085 421 m 2 X s 1087 421 m 2 X s black 1087 421 m20 0 0 1 c 1090 398 m 27 Y s 1090 425 m 26 Y s 1089
 425 m 1 X s 1090 425 m 2 X s black 1090 425 m20 0 0 1 c 1093 400 m 29 Y s 1093 429 m 28 Y s 1092 429 m 1 X s 1093 429 m 2 X s black 1093 429 m20 0 0 1 c 1096 387 m 26 Y s 1096 413 m 27 Y s 1095 413 m 1 X s 1096 413 m 2 X s black 1096 413 m20 0 0 1 c
 1099 380 m 25 Y s 1099 405 m 25 Y s 1098 405 m 1 X s 1099 405 m 2 X s black 1099 405 m20 0 0 1 c 1102 422 m 27 Y s 1102 449 m 28 Y s 1101 449 m 1 X s 1102 449 m 2 X s black 1102 449 m20 0 0 1 c 1105 394 m 25 Y s 1105 419 m 26 Y s 1104 419 m 1 X s
 1105 419 m 2 X s black 1105 419 m20 0 0 1 c 1108 398 m 27 Y s 1108 425 m 27 Y s 1107 425 m 1 X s 1108 425 m 2 X s black 1108 425 m20 0 0 1 c 1111 411 m 28 Y s 1111 439 m 28 Y s 1110 439 m 1 X s 1111 439 m 2 X s black 1111 439 m20 0 0 1 c 1114 389 m
 25 Y s 1114 414 m 25 Y s 1113 414 m 1 X s 1114 414 m 2 X s black 1114 414 m20 0 0 1 c 1117 408 m 27 Y s 1117 435 m 27 Y s 1116 435 m 1 X s 1117 435 m 2 X s black 1117 435 m20 0 0 1 c 1120 388 m 25 Y s 1120 413 m 25 Y s 1119 413 m 1 X s 1120 413 m 2
 X s black 1120 413 m20 0 0 1 c 1123 401 m 28 Y s 1123 429 m 28 Y s 1122 429 m 1 X s 1123 429 m 2 X s black 1123 429 m20 0 0 1 c 1126 383 m 25 Y s 1126 408 m 26 Y s 1125 408 m 1 X s 1126 408 m 2 X s black 1126 408 m20 0 0 1 c 1129 365 m 22 Y s 1129
 387 m 22 Y s 1128 387 m 1 X s 1129 387 m 2 X s black 1129 387 m20 0 0 1 c 1132 439 m 30 Y s 1132 469 m 30 Y s 1131 469 m 1 X s 1132 469 m 2 X s black 1132 469 m20 0 0 1 c 1135 406 m 26 Y s 1135 432 m 26 Y s 1134 432 m 1 X s 1135 432 m 2 X s black
 1135 432 m20 0 0 1 c 1138 449 m 30 Y s 1138 479 m 31 Y s 1137 479 m 1 X s 1138 479 m 2 X s black 1138 479 m20 0 0 1 c 1141 396 m 26 Y s 1141 422 m 27 Y s 1140 422 m 1 X s 1141 422 m 2 X s black 1141 422 m20 0 0 1 c 1144 393 m 26 Y s 1144 419 m 26 Y
 s 1143 419 m 1 X s 1144 419 m 2 X s black 1144 419 m20 0 0 1 c 1147 386 m 25 Y s 1147 411 m 26 Y s 1146 411 m 1 X s 1147 411 m 2 X s black 1147 411 m20 0 0 1 c 1150 409 m 27 Y s 1150 436 m 28 Y s 1149 436 m 1 X s 1150 436 m 2 X s black 1150 436 m20
 0 0 1 c 1154 398 m 27 Y s 1154 425 m 26 Y s 1152 425 m 2 X s 1154 425 m 1 X s black 1154 425 m20 0 0 1 c 1157 400 m 27 Y s 1157 427 m 27 Y s 1155 427 m 2 X s 1157 427 m 1 X s black 1157 427 m20 0 0 1 c 1160 436 m 30 Y s 1160 466 m 30 Y s 1158 466 m
 2 X s 1160 466 m 1 X s black 1160 466 m20 0 0 1 c 1163 408 m 28 Y s 1163 436 m 28 Y s 1161 436 m 2 X s 1163 436 m 1 X s black 1163 436 m20 0 0 1 c 1166 390 m 26 Y s 1166 416 m 27 Y s 1164 416 m 2 X s 1166 416 m 1 X s black 1166 416 m20 0 0 1 c 1169
 415 m 28 Y s 1169 443 m 28 Y s 1167 443 m 2 X s 1169 443 m 1 X s black 1169 443 m20 0 0 1 c 1172 414 m 29 Y s 1172 443 m 29 Y s 1170 443 m 2 X s 1172 443 m 1 X s black 1172 443 m20 0 0 1 c 1175 387 m 26 Y s 1175 413 m 25 Y s 1173 413 m 2 X s 1175
 413 m 1 X s black 1175 413 m20 0 0 1 c 1178 413 m 27 Y s 1178 440 m 28 Y s 1176 440 m 2 X s 1178 440 m 1 X s black 1178 440 m20 0 0 1 c 1181 385 m 24 Y s 1181 409 m 25 Y s 1179 409 m 2 X s 1181 409 m 1 X s black 1181 409 m20 0 0 1 c 1184 428 m 30 Y
 s 1184 458 m 30 Y s 1182 458 m 2 X s 1184 458 m 1 X s black 1184 458 m20 0 0 1 c 1187 381 m 25 Y s 1187 406 m 26 Y s 1185 406 m 2 X s 1187 406 m 1 X s black 1187 406 m20 0 0 1 c 1190 438 m 30 Y s 1190 468 m 29 Y s 1188 468 m 2 X s 1190 468 m 1 X s
 black 1190 468 m20 0 0 1 c 1193 430 m 30 Y s 1193 460 m 29 Y s 1191 460 m 2 X s 1193 460 m 1 X s black 1193 460 m20 0 0 1 c 1196 403 m 26 Y s 1196 429 m 27 Y s 1194 429 m 2 X s 1196 429 m 1 X s black 1196 429 m20 0 0 1 c 1199 380 m 24 Y s 1199 404 m
 24 Y s 1197 404 m 2 X s 1199 404 m 1 X s black 1199 404 m20 0 0 1 c 1202 407 m 27 Y s 1202 434 m 27 Y s 1200 434 m 2 X s 1202 434 m 1 X s black 1202 434 m20 0 0 1 c 1205 391 m 26 Y s 1205 417 m 25 Y s 1203 417 m 2 X s 1205 417 m 1 X s black 1205 417
 m20 0 0 1 c 1208 402 m 24 Y s 1208 426 m 25 Y s 1206 426 m 2 X s 1208 426 m 1 X s black 1208 426 m20 0 0 1 c 1211 380 m 24 Y s 1211 404 m 24 Y s 1209 404 m 2 X s 1211 404 m 1 X s black 1211 404 m20 0 0 1 c 1214 431 m 27 Y s 1214 458 m 28 Y s 1212
 458 m 2 X s 1214 458 m 1 X s black 1214 458 m20 0 0 1 c 1217 430 m 27 Y s 1217 457 m 26 Y s 1215 457 m 2 X s 1217 457 m 2 X s black 1217 457 m20 0 0 1 c 1220 378 m 22 Y s 1220 400 m 22 Y s 1219 400 m 1 X s 1220 400 m 2 X s black 1220 400 m20 0 0 1 c
 1223 407 m 25 Y s 1223 432 m 24 Y s 1222 432 m 1 X s 1223 432 m 2 X s black 1223 432 m20 0 0 1 c 1226 419 m 26 Y s 1226 445 m 27 Y s 1225 445 m 1 X s 1226 445 m 2 X s black 1226 445 m20 0 0 1 c 1229 411 m 25 Y s 1229 436 m 25 Y s 1228 436 m 1 X s
 1229 436 m 2 X s black 1229 436 m20 0 0 1 c 1232 432 m 27 Y s 1232 459 m 27 Y s 1231 459 m 1 X s 1232 459 m 2 X s black 1232 459 m20 0 0 1 c 1235 401 m 24 Y s 1235 425 m 24 Y s 1234 425 m 1 X s 1235 425 m 2 X s black 1235 425 m20 0 0 1 c 1238 397 m
 24 Y s 1238 421 m 23 Y s 1237 421 m 1 X s 1238 421 m 2 X s black 1238 421 m20 0 0 1 c 1241 424 m 27 Y s 1241 451 m 26 Y s 1240 451 m 1 X s 1241 451 m 2 X s black 1241 451 m20 0 0 1 c 1244 371 m 20 Y s 1244 391 m 21 Y s 1243 391 m 1 X s 1244 391 m 2
 X s black 1244 391 m20 0 0 1 c 1247 396 m 24 Y s 1247 420 m 24 Y s 1246 420 m 1 X s 1247 420 m 2 X s black 1247 420 m20 0 0 1 c 1250 419 m 26 Y s 1250 445 m 26 Y s 1249 445 m 1 X s 1250 445 m 2 X s black 1250 445 m20 0 0 1 c 1253 408 m 24 Y s 1253
 432 m 24 Y s 1252 432 m 1 X s 1253 432 m 2 X s black 1253 432 m20 0 0 1 c 1256 373 m 22 Y s 1256 395 m 22 Y s 1255 395 m 1 X s 1256 395 m 2 X s black 1256 395 m20 0 0 1 c 1259 420 m 25 Y s 1259 445 m 25 Y s 1258 445 m 1 X s 1259 445 m 2 X s black
 1259 445 m20 0 0 1 c 1262 423 m 26 Y s 1262 449 m 25 Y s 1261 449 m 1 X s 1262 449 m 2 X s black 1262 449 m20 0 0 1 c 1265 401 m 23 Y s 1265 424 m 23 Y s 1264 424 m 1 X s 1265 424 m 2 X s black 1265 424 m20 0 0 1 c 1268 372 m 20 Y s 1268 392 m 21 Y
 s 1267 392 m 1 X s 1268 392 m 2 X s black 1268 392 m20 0 0 1 c 1271 404 m 23 Y s 1271 427 m 23 Y s 1270 427 m 1 X s 1271 427 m 2 X s black 1271 427 m20 0 0 1 c 1274 382 m 22 Y s 1274 404 m 22 Y s 1273 404 m 1 X s 1274 404 m 2 X s black 1274 404 m20
 0 0 1 c 1277 415 m 24 Y s 1277 439 m 25 Y s 1276 439 m 1 X s 1277 439 m 2 X s black 1277 439 m20 0 0 1 c 1281 377 m 18 Y s 1281 395 m 19 Y s 1279 395 m 2 X s 1281 395 m 1 X s black 1281 395 m20 0 0 1 c 1284 413 m 22 Y s 1284 435 m 23 Y s 1282 435 m
 2 X s 1284 435 m 1 X s black 1284 435 m20 0 0 1 c 1287 427 m 24 Y s 1287 451 m 25 Y s 1285 451 m 2 X s 1287 451 m 1 X s black 1287 451 m20 0 0 1 c 1290 403 m 22 Y s 1290 425 m 22 Y s 1288 425 m 2 X s 1290 425 m 1 X s black 1290 425 m20 0 0 1 c 1293
 399 m 21 Y s 1293 420 m 21 Y s 1291 420 m 2 X s 1293 420 m 1 X s black 1293 420 m20 0 0 1 c 1296 399 m 22 Y s 1296 421 m 23 Y s 1294 421 m 2 X s 1296 421 m 1 X s black 1296 421 m20 0 0 1 c 1299 383 m 19 Y s 1299 402 m 20 Y s 1297 402 m 2 X s 1299
 402 m 1 X s black 1299 402 m20 0 0 1 c 1302 381 m 18 Y s 1302 399 m 18 Y s 1300 399 m 2 X s 1302 399 m 1 X s black 1302 399 m20 0 0 1 c 1305 418 m 23 Y s 1305 441 m 23 Y s 1303 441 m 2 X s 1305 441 m 1 X s black 1305 441 m20 0 0 1 c 1308 430 m 24 Y
 s 1308 454 m 23 Y s 1306 454 m 2 X s 1308 454 m 1 X s black 1308 454 m20 0 0 1 c 1311 398 m 20 Y s 1311 418 m 19 Y s 1309 418 m 2 X s 1311 418 m 1 X s black 1311 418 m20 0 0 1 c 1314 423 m 22 Y s 1314 445 m 22 Y s 1312 445 m 2 X s 1314 445 m 1 X s
 black 1314 445 m20 0 0 1 c 1317 380 m 17 Y s 1317 397 m 17 Y s 1315 397 m 2 X s 1317 397 m 1 X s black 1317 397 m20 0 0 1 c 1320 430 m 24 Y s 1320 454 m 23 Y s 1318 454 m 2 X s 1320 454 m 1 X s black 1320 454 m20 0 0 1 c 1323 383 m 17 Y s 1323 400 m
 16 Y s 1321 400 m 2 X s 1323 400 m 1 X s black 1323 400 m20 0 0 1 c 1326 397 m 20 Y s 1326 417 m 20 Y s 1324 417 m 2 X s 1326 417 m 1 X s black 1326 417 m20 0 0 1 c 1329 390 m 20 Y s 1329 410 m 19 Y s 1327 410 m 2 X s 1329 410 m 1 X s black 1329 410
 m20 0 0 1 c 1332 420 m 22 Y s 1332 442 m 21 Y s 1330 442 m 2 X s 1332 442 m 1 X s black 1332 442 m20 0 0 1 c 1335 381 m 17 Y s 1335 398 m 17 Y s 1333 398 m 2 X s 1335 398 m 1 X s black 1335 398 m20 0 0 1 c 1338 443 m 24 Y s 1338 467 m 23 Y s 1336
 467 m 2 X s 1338 467 m 1 X s black 1338 467 m20 0 0 1 c 1341 403 m 19 Y s 1341 422 m 19 Y s 1339 422 m 2 X s 1341 422 m 1 X s black 1341 422 m20 0 0 1 c 1344 382 m 17 Y s 1344 399 m 17 Y s 1342 399 m 2 X s 1344 399 m 2 X s black 1344 399 m20 0 0 1 c
 1347 381 m 17 Y s 1347 398 m 16 Y s 1346 398 m 1 X s 1347 398 m 2 X s black 1347 398 m20 0 0 1 c 1350 420 m 21 Y s 1350 441 m 21 Y s 1349 441 m 1 X s 1350 441 m 2 X s black 1350 441 m20 0 0 1 c 1353 413 m 21 Y s 1353 434 m 20 Y s 1352 434 m 1 X s
 1353 434 m 2 X s black 1353 434 m20 0 0 1 c 1356 430 m 23 Y s 1356 453 m 22 Y s 1355 453 m 1 X s 1356 453 m 2 X s black 1356 453 m20 0 0 1 c 1359 392 m 18 Y s 1359 410 m 19 Y s 1358 410 m 1 X s 1359 410 m 2 X s black 1359 410 m20 0 0 1 c 1362 410 m
 20 Y s 1362 430 m 19 Y s 1361 430 m 1 X s 1362 430 m 2 X s black 1362 430 m20 0 0 1 c 1365 422 m 21 Y s 1365 443 m 21 Y s 1364 443 m 1 X s 1365 443 m 2 X s black 1365 443 m20 0 0 1 c 1368 386 m 18 Y s 1368 404 m 18 Y s 1367 404 m 1 X s 1368 404 m 2
 X s black 1368 404 m20 0 0 1 c 1371 424 m 21 Y s 1371 445 m 22 Y s 1370 445 m 1 X s 1371 445 m 2 X s black 1371 445 m20 0 0 1 c 1374 401 m 19 Y s 1374 420 m 20 Y s 1373 420 m 1 X s 1374 420 m 2 X s black 1374 420 m20 0 0 1 c 1377 413 m 22 Y s 1377
 435 m 21 Y s 1376 435 m 1 X s 1377 435 m 2 X s black 1377 435 m20 0 0 1 c 1380 412 m 20 Y s 1380 432 m 21 Y s 1379 432 m 1 X s 1380 432 m 2 X s black 1380 432 m20 0 0 1 c 1383 437 m 23 Y s 1383 460 m 24 Y s 1382 460 m 1 X s 1383 460 m 2 X s black
 1383 460 m20 0 0 1 c 1386 393 m 19 Y s 1386 412 m 20 Y s 1385 412 m 1 X s 1386 412 m 2 X s black 1386 412 m20 0 0 1 c 1389 404 m 21 Y s 1389 425 m 21 Y s 1388 425 m 1 X s 1389 425 m 2 X s black 1389 425 m20 0 0 1 c 1392 402 m 21 Y s 1392 423 m 20 Y
 s 1391 423 m 1 X s 1392 423 m 2 X s black 1392 423 m20 0 0 1 c 1395 412 m 22 Y s 1395 434 m 21 Y s 1394 434 m 1 X s 1395 434 m 2 X s black 1395 434 m20 0 0 1 c 1398 420 m 23 Y s 1398 443 m 22 Y s 1397 443 m 1 X s 1398 443 m 2 X s black 1398 443 m20
 0 0 1 c 1401 419 m 23 Y s 1401 442 m 22 Y s 1400 442 m 1 X s 1401 442 m 2 X s black 1401 442 m20 0 0 1 c 1404 446 m 25 Y s 1404 471 m 26 Y s 1403 471 m 1 X s 1404 471 m 2 X s black 1404 471 m20 0 0 1 c 1407 451 m 27 Y s 1407 478 m 27 Y s 1406 478 m
 1 X s 1407 478 m 2 X s black 1407 478 m20 0 0 1 c 1411 449 m 26 Y s 1411 475 m 27 Y s 1409 475 m 2 X s 1411 475 m 1 X s black 1411 475 m20 0 0 1 c 1414 463 m 28 Y s 1414 491 m 28 Y s 1412 491 m 2 X s 1414 491 m 1 X s black 1414 491 m20 0 0 1 c 1417
 429 m 26 Y s 1417 455 m 26 Y s 1415 455 m 2 X s 1417 455 m 1 X s black 1417 455 m20 0 0 1 c 1420 417 m 25 Y s 1420 442 m 26 Y s 1418 442 m 2 X s 1420 442 m 1 X s black 1420 442 m20 0 0 1 c 1423 473 m 31 Y s 1423 504 m 31 Y s 1421 504 m 2 X s 1423
 504 m 1 X s black 1423 504 m20 0 0 1 c 1426 530 m 36 Y s 1426 566 m 35 Y s 1424 566 m 2 X s 1426 566 m 1 X s black 1426 566 m20 0 0 1 c 1429 465 m 31 Y s 1429 496 m 32 Y s 1427 496 m 2 X s 1429 496 m 1 X s black 1429 496 m20 0 0 1 c 1432 430 m 29 Y
 s 1432 459 m 29 Y s 1430 459 m 2 X s 1432 459 m 1 X s black 1432 459 m20 0 0 1 c 1435 488 m 34 Y s 1435 522 m 35 Y s 1433 522 m 2 X s 1435 522 m 1 X s black 1435 522 m20 0 0 1 c 1438 490 m 36 Y s 1438 526 m 35 Y s 1436 526 m 2 X s 1438 526 m 1 X s
 black 1438 526 m20 0 0 1 c 1441 463 m 35 Y s 1441 498 m 34 Y s 1439 498 m 2 X s 1441 498 m 1 X s black 1441 498 m20 0 0 1 c 1444 524 m 38 Y s 1444 562 m 39 Y s 1442 562 m 2 X s 1444 562 m 1 X s black 1444 562 m20 0 0 1 c 1447 499 m 39 Y s 1447 538 m
 38 Y s 1445 538 m 2 X s 1447 538 m 1 X s black 1447 538 m20 0 0 1 c 1450 478 m 37 Y s 1450 515 m 38 Y s 1448 515 m 2 X s 1450 515 m 1 X s black 1450 515 m20 0 0 1 c 1453 514 m 39 Y s 1453 553 m 40 Y s 1451 553 m 2 X s 1453 553 m 1 X s black 1453 553
 m20 0 0 1 c 1456 433 m 36 Y s 1456 469 m 35 Y s 1454 469 m 2 X s 1456 469 m 1 X s black 1456 469 m20 0 0 1 c 1459 439 m 36 Y s 1459 475 m 36 Y s 1457 475 m 2 X s 1459 475 m 1 X s black 1459 475 m20 0 0 1 c 1462 466 m 38 Y s 1462 504 m 38 Y s 1460
 504 m 2 X s 1462 504 m 1 X s black 1462 504 m20 0 0 1 c 1465 432 m 36 Y s 1465 468 m 35 Y s 1463 468 m 2 X s 1465 468 m 1 X s black 1465 468 m20 0 0 1 c 1468 447 m 35 Y s 1468 482 m 35 Y s 1466 482 m 2 X s 1468 482 m 1 X s black 1468 482 m20 0 0 1 c
 1471 433 m 35 Y s 1471 468 m 35 Y s 1469 468 m 2 X s 1471 468 m 2 X s black 1471 468 m20 0 0 1 c 1474 389 m 32 Y s 1474 421 m 31 Y s 1473 421 m 1 X s 1474 421 m 2 X s black 1474 421 m20 0 0 1 c 1477 392 m 30 Y s 1477 422 m 31 Y s 1476 422 m 1 X s
 1477 422 m 2 X s black 1477 422 m20 0 0 1 c 1480 373 m 30 Y s 1480 403 m 29 Y s 1479 403 m 1 X s 1480 403 m 2 X s black 1480 403 m20 0 0 1 c 1483 408 m 31 Y s 1483 439 m 31 Y s 1482 439 m 1 X s 1483 439 m 2 X s black 1483 439 m20 0 0 1 c 1486 401 m
 28 Y s 1486 429 m 28 Y s 1485 429 m 1 X s 1486 429 m 2 X s black 1486 429 m20 0 0 1 c 1489 408 m 29 Y s 1489 437 m 30 Y s 1488 437 m 1 X s 1489 437 m 2 X s black 1489 437 m20 0 0 1 c 1492 394 m 26 Y s 1492 420 m 26 Y s 1491 420 m 1 X s 1492 420 m 2
 X s black 1492 420 m20 0 0 1 c 1495 402 m 26 Y s 1495 428 m 26 Y s 1494 428 m 1 X s 1495 428 m 2 X s black 1495 428 m20 0 0 1 c 1498 386 m 22 Y s 1498 408 m 21 Y s 1497 408 m 1 X s 1498 408 m 2 X s black 1498 408 m20 0 0 1 c 1501 359 m 17 Y s 1501
 376 m 18 Y s 1500 376 m 1 X s 1501 376 m 2 X s black 1501 376 m20 0 0 1 c 1504 383 m 20 Y s 1504 403 m 21 Y s 1503 403 m 1 X s 1504 403 m 2 X s black 1504 403 m20 0 0 1 c 1507 400 m 22 Y s 1507 422 m 22 Y s 1506 422 m 1 X s 1507 422 m 2 X s black
 1507 422 m20 0 0 1 c 1510 404 m 20 Y s 1510 424 m 20 Y s 1509 424 m 1 X s 1510 424 m 2 X s black 1510 424 m20 0 0 1 c 1513 412 m 20 Y s 1513 432 m 20 Y s 1512 432 m 1 X s 1513 432 m 2 X s black 1513 432 m20 0 0 1 c 1516 370 m 15 Y s 1516 385 m 14 Y
 s 1515 385 m 1 X s 1516 385 m 2 X s black 1516 385 m20 0 0 1 c 1519 403 m 15 Y s 1519 418 m 16 Y s 1518 418 m 1 X s 1519 418 m 2 X s black 1519 418 m20 0 0 1 c 1522 389 m 13 Y s 1522 402 m 14 Y s 1521 402 m 1 X s 1522 402 m 2 X s black 1522 402 m20
 0 0 1 c 1525 395 m 15 Y s 1525 410 m 15 Y s 1524 410 m 1 X s 1525 410 m 2 X s black 1525 410 m20 0 0 1 c 1528 410 m 16 Y s 1528 426 m 16 Y s 1527 426 m 1 X s 1528 426 m 2 X s black 1528 426 m20 0 0 1 c 1531 402 m 15 Y s 1531 417 m 15 Y s 1530 417 m
 1 X s 1531 417 m 2 X s black 1531 417 m20 0 0 1 c 1534 396 m 15 Y s 1534 411 m 14 Y s 1533 411 m 1 X s 1534 411 m 2 X s black 1534 411 m20 0 0 1 c 1538 408 m 17 Y s 1538 425 m 16 Y s 1536 425 m 2 X s 1538 425 m 1 X s black 1538 425 m20 0 0 1 c 1541
 377 m 9 Y s 1541 386 m 9 Y s 1539 386 m 2 X s 1541 386 m 1 X s black 1541 386 m20 0 0 1 c 1544 402 m 14 Y s 1544 416 m 15 Y s 1542 416 m 2 X s 1544 416 m 1 X s black 1544 416 m20 0 0 1 c 1547 397 m 13 Y s 1547 410 m 14 Y s 1545 410 m 2 X s 1547 410
 m 1 X s black 1547 410 m20 0 0 1 c 1550 414 m 16 Y s 1550 430 m 15 Y s 1548 430 m 2 X s 1550 430 m 1 X s black 1550 430 m20 0 0 1 c 1553 415 m 15 Y s 1553 430 m 15 Y s 1551 430 m 2 X s 1553 430 m 1 X s black 1553 430 m20 0 0 1 c 1556 406 m 14 Y s
 1556 420 m 15 Y s 1554 420 m 2 X s 1556 420 m 1 X s black 1556 420 m20 0 0 1 c 1559 427 m 17 Y s 1559 444 m 17 Y s 1557 444 m 2 X s 1559 444 m 1 X s black 1559 444 m20 0 0 1 c 1562 401 m 14 Y s 1562 415 m 14 Y s 1560 415 m 2 X s 1562 415 m 1 X s
 black 1562 415 m20 0 0 1 c 1565 395 m 14 Y s 1565 409 m 13 Y s 1563 409 m 2 X s 1565 409 m 1 X s black 1565 409 m20 0 0 1 c 1568 432 m 18 Y s 1568 450 m 18 Y s 1566 450 m 2 X s 1568 450 m 1 X s black 1568 450 m20 0 0 1 c 1571 387 m 12 Y s 1571 399 m
 12 Y s 1569 399 m 2 X s 1571 399 m 1 X s black 1571 399 m20 0 0 1 c 1574 409 m 15 Y s 1574 424 m 15 Y s 1572 424 m 2 X s 1574 424 m 1 X s black 1574 424 m20 0 0 1 c 1577 406 m 15 Y s 1577 421 m 15 Y s 1575 421 m 2 X s 1577 421 m 1 X s black 1577 421
 m20 0 0 1 c 1580 395 m 13 Y s 1580 408 m 12 Y s 1578 408 m 2 X s 1580 408 m 1 X s black 1580 408 m20 0 0 1 c 1583 401 m 13 Y s 1583 414 m 14 Y s 1581 414 m 2 X s 1583 414 m 1 X s black 1583 414 m20 0 0 1 c 1586 423 m 17 Y s 1586 440 m 17 Y s 1584
 440 m 2 X s 1586 440 m 1 X s black 1586 440 m20 0 0 1 c 1589 419 m 15 Y s 1589 434 m 16 Y s 1587 434 m 2 X s 1589 434 m 1 X s black 1589 434 m20 0 0 1 c 1592 387 m 10 Y s 1592 397 m 10 Y s 1590 397 m 2 X s 1592 397 m 1 X s black 1592 397 m20 0 0 1 c
 1595 439 m 18 Y s 1595 457 m 17 Y s 1593 457 m 2 X s 1595 457 m 1 X s black 1595 457 m20 0 0 1 c 1598 388 m 10 Y s 1598 398 m 11 Y s 1596 398 m 2 X s 1598 398 m 1 X s black 1598 398 m20 0 0 1 c 1601 417 m 15 Y s 1601 432 m 15 Y s 1599 432 m 2 X s
 1601 432 m 2 X s black 1601 432 m20 0 0 1 c 1604 396 m 12 Y s 1604 408 m 12 Y s 1603 408 m 1 X s 1604 408 m 2 X s black 1604 408 m20 0 0 1 c 1607 403 m 14 Y s 1607 417 m 13 Y s 1606 417 m 1 X s 1607 417 m 2 X s black 1607 417 m20 0 0 1 c 1610 408 m
 13 Y s 1610 421 m 14 Y s 1609 421 m 1 X s 1610 421 m 2 X s black 1610 421 m20 0 0 1 c 1613 390 m 10 Y s 1613 400 m 10 Y s 1612 400 m 1 X s 1613 400 m 2 X s black 1613 400 m20 0 0 1 c 1616 408 m 13 Y s 1616 421 m 13 Y s 1615 421 m 1 X s 1616 421 m 2
 X s black 1616 421 m20 0 0 1 c 1619 395 m 10 Y s 1619 405 m 11 Y s 1618 405 m 1 X s 1619 405 m 2 X s black 1619 405 m20 0 0 1 c 1622 424 m 16 Y s 1622 440 m 16 Y s 1621 440 m 1 X s 1622 440 m 2 X s black 1622 440 m20 0 0 1 c 1625 415 m 14 Y s 1625
 429 m 14 Y s 1624 429 m 1 X s 1625 429 m 2 X s black 1625 429 m20 0 0 1 c 1628 389 m 8 Y s 1628 397 m 8 Y s 1627 397 m 1 X s 1628 397 m 2 X s black 1628 397 m20 0 0 1 c 1631 412 m 14 Y s 1631 426 m 15 Y s 1630 426 m 1 X s 1631 426 m 2 X s black 1631
 426 m20 0 0 1 c 1634 408 m 13 Y s 1634 421 m 13 Y s 1633 421 m 1 X s 1634 421 m 2 X s black 1634 421 m20 0 0 1 c 1637 435 m 17 Y s 1637 452 m 17 Y s 1636 452 m 1 X s 1637 452 m 2 X s black 1637 452 m20 0 0 1 c 1640 396 m 10 Y s 1640 406 m 10 Y s
 1639 406 m 1 X s 1640 406 m 2 X s black 1640 406 m20 0 0 1 c 1643 425 m 15 Y s 1643 440 m 14 Y s 1642 440 m 1 X s 1643 440 m 2 X s black 1643 440 m20 0 0 1 c 1646 402 m 12 Y s 1646 414 m 13 Y s 1645 414 m 1 X s 1646 414 m 2 X s black 1646 414 m20 0
 0 1 c 1649 399 m 13 Y s 1649 412 m 12 Y s 1648 412 m 1 X s 1649 412 m 2 X s black 1649 412 m20 0 0 1 c 1652 401 m 11 Y s 1652 412 m 12 Y s 1651 412 m 1 X s 1652 412 m 2 X s black 1652 412 m20 0 0 1 c 1655 433 m 17 Y s 1655 450 m 18 Y s 1654 450 m 1
 X s 1655 450 m 2 X s black 1655 450 m20 0 0 1 c 1658 401 m 13 Y s 1658 414 m 12 Y s 1657 414 m 1 X s 1658 414 m 2 X s black 1658 414 m20 0 0 1 c 1661 415 m 14 Y s 1661 429 m 14 Y s 1660 429 m 1 X s 1661 429 m 2 X s black 1661 429 m20 0 0 1 c 1665
 430 m 17 Y s 1665 447 m 17 Y s 1663 447 m 2 X s 1665 447 m 1 X s black 1665 447 m20 0 0 1 c 1668 403 m 13 Y s 1668 416 m 12 Y s 1666 416 m 2 X s 1668 416 m 1 X s black 1668 416 m20 0 0 1 c 1671 393 m 11 Y s 1671 404 m 11 Y s 1669 404 m 2 X s 1671
 404 m 1 X s black 1671 404 m20 0 0 1 c 1674 406 m 14 Y s 1674 420 m 14 Y s 1672 420 m 2 X s 1674 420 m 1 X s black 1674 420 m20 0 0 1 c 1677 395 m 11 Y s 1677 406 m 11 Y s 1675 406 m 2 X s 1677 406 m 1 X s black 1677 406 m20 0 0 1 c 1680 425 m 16 Y
 s 1680 441 m 17 Y s 1678 441 m 2 X s 1680 441 m 1 X s black 1680 441 m20 0 0 1 c 1683 419 m 15 Y s 1683 434 m 15 Y s 1681 434 m 2 X s 1683 434 m 1 X s black 1683 434 m20 0 0 1 c 1686 422 m 15 Y s 1686 437 m 16 Y s 1684 437 m 2 X s 1686 437 m 1 X s
 black 1686 437 m20 0 0 1 c 1689 417 m 15 Y s 1689 432 m 15 Y s 1687 432 m 2 X s 1689 432 m 1 X s black 1689 432 m20 0 0 1 c 1692 407 m 15 Y s 1692 422 m 15 Y s 1690 422 m 2 X s 1692 422 m 1 X s black 1692 422 m20 0 0 1 c 1695 406 m 14 Y s 1695 420 m
 15 Y s 1693 420 m 2 X s 1695 420 m 1 X s black 1695 420 m20 0 0 1 c 1698 411 m 16 Y s 1698 427 m 16 Y s 1696 427 m 2 X s 1698 427 m 1 X s black 1698 427 m20 0 0 1 c 1701 387 m 12 Y s 1701 399 m 12 Y s 1699 399 m 2 X s 1701 399 m 1 X s black 1701 399
 m20 0 0 1 c 1704 405 m 16 Y s 1704 421 m 16 Y s 1702 421 m 2 X s 1704 421 m 1 X s black 1704 421 m20 0 0 1 c 1707 391 m 13 Y s 1707 404 m 13 Y s 1705 404 m 2 X s 1707 404 m 1 X s black 1707 404 m20 0 0 1 c 1710 385 m 13 Y s 1710 398 m 14 Y s 1708
 398 m 2 X s 1710 398 m 1 X s black 1710 398 m20 0 0 1 c 1713 410 m 16 Y s 1713 426 m 17 Y s 1711 426 m 2 X s 1713 426 m 1 X s black 1713 426 m20 0 0 1 c 1716 398 m 13 Y s 1716 411 m 14 Y s 1714 411 m 2 X s 1716 411 m 1 X s black 1716 411 m20 0 0 1 c
 1719 414 m 16 Y s 1719 430 m 17 Y s 1717 430 m 2 X s 1719 430 m 1 X s black 1719 430 m20 0 0 1 c 1722 426 m 17 Y s 1722 443 m 16 Y s 1720 443 m 2 X s 1722 443 m 1 X s black 1722 443 m20 0 0 1 c 1725 398 m 13 Y s 1725 411 m 13 Y s 1723 411 m 2 X s
 1725 411 m 1 X s black 1725 411 m20 0 0 1 c 1728 403 m 13 Y s 1728 416 m 12 Y s 1726 416 m 2 X s 1728 416 m 2 X s black 1728 416 m20 0 0 1 c 1731 403 m 12 Y s 1731 415 m 12 Y s 1730 415 m 1 X s 1731 415 m 2 X s black 1731 415 m20 0 0 1 c 1734 398 m
 12 Y s 1734 410 m 13 Y s 1733 410 m 1 X s 1734 410 m 2 X s black 1734 410 m20 0 0 1 c 1737 407 m 14 Y s 1737 421 m 14 Y s 1736 421 m 1 X s 1737 421 m 2 X s black 1737 421 m20 0 0 1 c 1740 398 m 13 Y s 1740 411 m 12 Y s 1739 411 m 1 X s 1740 411 m 2
 X s black 1740 411 m20 0 0 1 c 1743 410 m 13 Y s 1743 423 m 13 Y s 1742 423 m 1 X s 1743 423 m 2 X s black 1743 423 m20 0 0 1 c 1746 398 m 11 Y s 1746 409 m 12 Y s 1745 409 m 1 X s 1746 409 m 2 X s black 1746 409 m20 0 0 1 c 1749 404 m 13 Y s 1749
 417 m 13 Y s 1748 417 m 1 X s 1749 417 m 2 X s black 1749 417 m20 0 0 1 c 1752 413 m 14 Y s 1752 427 m 13 Y s 1751 427 m 1 X s 1752 427 m 2 X s black 1752 427 m20 0 0 1 c 1755 422 m 15 Y s 1755 437 m 15 Y s 1754 437 m 1 X s 1755 437 m 2 X s black
 1755 437 m20 0 0 1 c 1758 406 m 13 Y s 1758 419 m 12 Y s 1757 419 m 1 X s 1758 419 m 2 X s black 1758 419 m20 0 0 1 c 1761 393 m 10 Y s 1761 403 m 9 Y s 1760 403 m 1 X s 1761 403 m 2 X s black 1761 403 m20 0 0 1 c 1764 396 m 9 Y s 1764 405 m 9 Y s
 1763 405 m 1 X s 1764 405 m 2 X s black 1764 405 m20 0 0 1 c 1767 415 m 13 Y s 1767 428 m 13 Y s 1766 428 m 1 X s 1767 428 m 2 X s black 1767 428 m20 0 0 1 c 1770 415 m 13 Y s 1770 428 m 13 Y s 1769 428 m 1 X s 1770 428 m 2 X s black 1770 428 m20 0
 0 1 c 1773 413 m 12 Y s 1773 425 m 12 Y s 1772 425 m 1 X s 1773 425 m 2 X s black 1773 425 m20 0 0 1 c 1776 420 m 13 Y s 1776 433 m 13 Y s 1775 433 m 1 X s 1776 433 m 2 X s black 1776 433 m20 0 0 1 c 1779 427 m 14 Y s 1779 441 m 15 Y s 1778 441 m 1
 X s 1779 441 m 2 X s black 1779 441 m20 0 0 1 c 1782 414 m 13 Y s 1782 427 m 13 Y s 1781 427 m 1 X s 1782 427 m 2 X s black 1782 427 m20 0 0 1 c 1785 408 m 11 Y s 1785 419 m 12 Y s 1784 419 m 1 X s 1785 419 m 2 X s black 1785 419 m20 0 0 1 c 1788
 415 m 11 Y s 1788 426 m 12 Y s 1787 426 m 1 X s 1788 426 m 2 X s black 1788 426 m20 0 0 1 c 1791 401 m 9 Y s 1791 410 m 9 Y s 1790 410 m 1 X s 1791 410 m 2 X s black 1791 410 m20 0 0 1 c 1795 407 m 12 Y s 1795 419 m 13 Y s 1793 419 m 2 X s 1795 419
 m 1 X s black 1795 419 m20 0 0 1 c 1798 411 m 13 Y s 1798 424 m 12 Y s 1796 424 m 2 X s 1798 424 m 1 X s black 1798 424 m20 0 0 1 c 1801 408 m 13 Y s 1801 421 m 12 Y s 1799 421 m 2 X s 1801 421 m 1 X s black 1801 421 m20 0 0 1 c 1804 407 m 10 Y s
 1804 417 m 10 Y s 1802 417 m 2 X s 1804 417 m 1 X s black 1804 417 m20 0 0 1 c 1807 417 m 12 Y s 1807 429 m 12 Y s 1805 429 m 2 X s 1807 429 m 1 X s black 1807 429 m20 0 0 1 c 1810 424 m 13 Y s 1810 437 m 14 Y s 1808 437 m 2 X s 1810 437 m 1 X s
 black 1810 437 m20 0 0 1 c 1813 411 m 12 Y s 1813 423 m 12 Y s 1811 423 m 2 X s 1813 423 m 1 X s black 1813 423 m20 0 0 1 c 1816 422 m 13 Y s 1816 435 m 14 Y s 1814 435 m 2 X s 1816 435 m 1 X s black 1816 435 m20 0 0 1 c 1819 413 m 12 Y s 1819 425 m
 12 Y s 1817 425 m 2 X s 1819 425 m 1 X s black 1819 425 m20 0 0 1 c 1822 410 m 11 Y s 1822 421 m 11 Y s 1820 421 m 2 X s 1822 421 m 1 X s black 1822 421 m20 0 0 1 c 1825 405 m 9 Y s 1825 414 m 9 Y s 1823 414 m 2 X s 1825 414 m 1 X s black 1825 414
 m20 0 0 1 c 1828 417 m 10 Y s 1828 427 m 11 Y s 1826 427 m 2 X s 1828 427 m 1 X s black 1828 427 m20 0 0 1 c 1831 409 m 11 Y s 1831 420 m 10 Y s 1829 420 m 2 X s 1831 420 m 1 X s black 1831 420 m20 0 0 1 c 1834 402 m 9 Y s 1834 411 m 9 Y s 1832 411
 m 2 X s 1834 411 m 1 X s black 1834 411 m20 0 0 1 c 1837 413 m 11 Y s 1837 424 m 11 Y s 1835 424 m 2 X s 1837 424 m 1 X s black 1837 424 m20 0 0 1 c 1840 416 m 10 Y s 1840 426 m 11 Y s 1838 426 m 2 X s 1840 426 m 1 X s black 1840 426 m20 0 0 1 c
 1843 407 m 12 Y s 1843 419 m 11 Y s 1841 419 m 2 X s 1843 419 m 1 X s black 1843 419 m20 0 0 1 c 1846 423 m 13 Y s 1846 436 m 13 Y s 1844 436 m 2 X s 1846 436 m 1 X s black 1846 436 m20 0 0 1 c 1849 404 m 9 Y s 1849 413 m 9 Y s 1847 413 m 2 X s 1849
 413 m 1 X s black 1849 413 m20 0 0 1 c 1852 403 m 7 Y s 1852 410 m 6 Y s 1850 410 m 2 X s 1852 410 m 1 X s black 1852 410 m20 0 0 1 c 1855 410 m 11 Y s 1855 421 m 12 Y s 1853 421 m 2 X s 1855 421 m 2 X s black 1855 421 m20 0 0 1 c 1858 424 m 13 Y s
 1858 437 m 13 Y s 1857 437 m 1 X s 1858 437 m 2 X s black 1858 437 m20 0 0 1 c 1861 420 m 13 Y s 1861 433 m 12 Y s 1860 433 m 1 X s 1861 433 m 2 X s black 1861 433 m20 0 0 1 c 1864 415 m 11 Y s 1864 426 m 12 Y s 1863 426 m 1 X s 1864 426 m 2 X s
 black 1864 426 m20 0 0 1 c 1867 426 m 13 Y s 1867 439 m 13 Y s 1866 439 m 1 X s 1867 439 m 2 X s black 1867 439 m20 0 0 1 c 1870 409 m 9 Y s 1870 418 m 8 Y s 1869 418 m 1 X s 1870 418 m 2 X s black 1870 418 m20 0 0 1 c 1873 401 m 8 Y s 1873 409 m 8
 Y s 1872 409 m 1 X s 1873 409 m 2 X s black 1873 409 m20 0 0 1 c 1876 436 m 15 Y s 1876 451 m 15 Y s 1875 451 m 1 X s 1876 451 m 2 X s black 1876 451 m20 0 0 1 c 1879 409 m 11 Y s 1879 420 m 11 Y s 1878 420 m 1 X s 1879 420 m 2 X s black 1879 420
 m20 0 0 1 c 1882 421 m 13 Y s 1882 434 m 12 Y s 1881 434 m 1 X s 1882 434 m 2 X s black 1882 434 m20 0 0 1 c 1885 405 m 8 Y s 1885 413 m 8 Y s 1884 413 m 1 X s 1885 413 m 2 X s black 1885 413 m20 0 0 1 c 1888 403 m 8 Y s 1888 411 m 8 Y s 1887 411 m
 1 X s 1888 411 m 2 X s black 1888 411 m20 0 0 1 c 1891 417 m 12 Y s 1891 429 m 12 Y s 1890 429 m 1 X s 1891 429 m 2 X s black 1891 429 m20 0 0 1 c 1894 429 m 13 Y s 1894 442 m 14 Y s 1893 442 m 1 X s 1894 442 m 2 X s black 1894 442 m20 0 0 1 c 1897
 416 m 10 Y s 1897 426 m 11 Y s 1896 426 m 1 X s 1897 426 m 2 X s black 1897 426 m20 0 0 1 c 1900 416 m 11 Y s 1900 427 m 11 Y s 1899 427 m 1 X s 1900 427 m 2 X s black 1900 427 m20 0 0 1 c 1903 404 m 7 Y s 1903 411 m 6 Y s 1902 411 m 1 X s 1903 411
 m 2 X s black 1903 411 m20 0 0 1 c 1906 401 m 6 Y s 1906 407 m 7 Y s 1905 407 m 1 X s 1906 407 m 2 X s black 1906 407 m20 0 0 1 c 1909 428 m 15 Y s 1909 443 m 14 Y s 1908 443 m 1 X s 1909 443 m 2 X s black 1909 443 m20 0 0 1 c 1912 417 m 11 Y s 1912
 428 m 11 Y s 1911 428 m 1 X s 1912 428 m 2 X s black 1912 428 m20 0 0 1 c 1915 409 m 9 Y s 1915 418 m 8 Y s 1914 418 m 1 X s 1915 418 m 2 X s black 1915 418 m20 0 0 1 c 1918 414 m 11 Y s 1918 425 m 11 Y s 1917 425 m 1 X s 1918 425 m 2 X s black 1918
 425 m20 0 0 1 c 1922 424 m 13 Y s 1922 437 m 13 Y s 1920 437 m 2 X s 1922 437 m 1 X s black 1922 437 m20 0 0 1 c 1925 427 m 13 Y s 1925 440 m 14 Y s 1923 440 m 2 X s 1925 440 m 1 X s black 1925 440 m20 0 0 1 c 1928 429 m 14 Y s 1928 443 m 15 Y s
 1926 443 m 2 X s 1928 443 m 1 X s black 1928 443 m20 0 0 1 c 1931 427 m 14 Y s 1931 441 m 14 Y s 1929 441 m 2 X s 1931 441 m 1 X s black 1931 441 m20 0 0 1 c 1934 411 m 12 Y s 1934 423 m 12 Y s 1932 423 m 2 X s 1934 423 m 1 X s black 1934 423 m20 0
 0 1 c 1937 398 m 9 Y s 1937 407 m 9 Y s 1935 407 m 2 X s 1937 407 m 1 X s black 1937 407 m20 0 0 1 c 1940 411 m 10 Y s 1940 421 m 10 Y s 1938 421 m 2 X s 1940 421 m 1 X s black 1940 421 m20 0 0 1 c 1943 400 m 9 Y s 1943 409 m 9 Y s 1941 409 m 2 X s
 1943 409 m 1 X s black 1943 409 m20 0 0 1 c 1946 409 m 11 Y s 1946 420 m 11 Y s 1944 420 m 2 X s 1946 420 m 1 X s black 1946 420 m20 0 0 1 c 1949 418 m 13 Y s 1949 431 m 12 Y s 1947 431 m 2 X s 1949 431 m 1 X s black 1949 431 m20 0 0 1 c 1952 420 m
 13 Y s 1952 433 m 14 Y s 1950 433 m 2 X s 1952 433 m 1 X s black 1952 433 m20 0 0 1 c 1955 414 m 10 Y s 1955 424 m 10 Y s 1953 424 m 2 X s 1955 424 m 1 X s black 1955 424 m20 0 0 1 c 1958 417 m 12 Y s 1958 429 m 12 Y s 1956 429 m 2 X s 1958 429 m 1
 X s black 1958 429 m20 0 0 1 c 1961 405 m 11 Y s 1961 416 m 11 Y s 1959 416 m 2 X s 1961 416 m 1 X s black 1961 416 m20 0 0 1 c 1964 404 m 11 Y s 1964 415 m 11 Y s 1962 415 m 2 X s 1964 415 m 1 X s black 1964 415 m20 0 0 1 c 1967 398 m 11 Y s 1967
 409 m 11 Y s 1965 409 m 2 X s 1967 409 m 1 X s black 1967 409 m20 0 0 1 c 1970 404 m 10 Y s 1970 414 m 10 Y s 1968 414 m 2 X s 1970 414 m 1 X s black 1970 414 m20 0 0 1 c 1973 416 m 14 Y s 1973 430 m 13 Y s 1971 430 m 2 X s 1973 430 m 1 X s black
 1973 430 m20 0 0 1 c 1976 408 m 12 Y s 1976 420 m 13 Y s 1974 420 m 2 X s 1976 420 m 1 X s black 1976 420 m20 0 0 1 c 1979 399 m 9 Y s 1979 408 m 9 Y s 1977 408 m 2 X s 1979 408 m 1 X s black 1979 408 m20 0 0 1 c 1982 398 m 10 Y s 1982 408 m 10 Y s
 1980 408 m 2 X s 1982 408 m 1 X s black 1982 408 m20 0 0 1 c 1985 389 m 7 Y s 1985 396 m 7 Y s 1983 396 m 2 X s 1985 396 m 2 X s black 1985 396 m20 0 0 1 c 1988 420 m 14 Y s 1988 434 m 14 Y s 1987 434 m 1 X s 1988 434 m 2 X s black 1988 434 m20 0 0
 1 c 1991 385 m 7 Y s 1991 392 m 7 Y s 1990 392 m 1 X s 1991 392 m 2 X s black 1991 392 m20 0 0 1 c 1994 414 m 13 Y s 1994 427 m 12 Y s 1993 427 m 1 X s 1994 427 m 2 X s black 1994 427 m20 0 0 1 c 1997 408 m 10 Y s 1997 418 m 11 Y s 1996 418 m 1 X s
 1997 418 m 2 X s black 1997 418 m20 0 0 1 c 2000 404 m 11 Y s 2000 415 m 11 Y s 1999 415 m 1 X s 2000 415 m 2 X s black 2000 415 m20 0 0 1 c 2003 401 m 10 Y s 2003 411 m 9 Y s 2002 411 m 1 X s 2003 411 m 2 X s black 2003 411 m20 0 0 1 c 2006 403 m
 10 Y s 2006 413 m 10 Y s 2005 413 m 1 X s 2006 413 m 2 X s black 2006 413 m20 0 0 1 c 2009 394 m 9 Y s 2009 403 m 9 Y s 2008 403 m 1 X s 2009 403 m 2 X s black 2009 403 m20 0 0 1 c 2012 421 m 13 Y s 2012 434 m 13 Y s 2011 434 m 1 X s 2012 434 m 2 X
 s black 2012 434 m20 0 0 1 c 2015 415 m 13 Y s 2015 428 m 12 Y s 2014 428 m 1 X s 2015 428 m 2 X s black 2015 428 m20 0 0 1 c 2018 422 m 15 Y s 2018 437 m 14 Y s 2017 437 m 1 X s 2018 437 m 2 X s black 2018 437 m20 0 0 1 c 2021 404 m 10 Y s 2021 414
 m 10 Y s 2020 414 m 1 X s 2021 414 m 2 X s black 2021 414 m20 0 0 1 c 2024 414 m 13 Y s 2024 427 m 13 Y s 2023 427 m 1 X s 2024 427 m 2 X s black 2024 427 m20 0 0 1 c 2027 408 m 11 Y s 2027 419 m 11 Y s 2026 419 m 1 X s 2027 419 m 2 X s black 2027
 419 m20 0 0 1 c 2030 426 m 14 Y s 2030 440 m 14 Y s 2029 440 m 1 X s 2030 440 m 2 X s black 2030 440 m20 0 0 1 c 2033 412 m 11 Y s 2033 423 m 11 Y s 2032 423 m 1 X s 2033 423 m 2 X s black 2033 423 m20 0 0 1 c 2036 408 m 10 Y s 2036 418 m 10 Y s
 2035 418 m 1 X s 2036 418 m 2 X s black 2036 418 m20 0 0 1 c 2039 400 m 9 Y s 2039 409 m 9 Y s 2038 409 m 1 X s 2039 409 m 2 X s black 2039 409 m20 1 1 1 c 453 430 1769 1007 bf black 1769 1007 m 453 X s 2222 1007 m 430 Y s 2222 1437 m -453 X s 1769
 1437 m -430 Y s 1 1 1 c black
 gsave  2268 1537 0 0 C 1790.13 1364.53 t 0 r /Helvetica findfont 68.2264 sf 0 0 m (net_spectrum) show NC gr  1769 1329 m 453 X s
 gsave  2268 1537 0 0 C 1790.13 1254.07 t 0 r /Helvetica findfont 55.2309 sf 0 0 m (Entries ) show NC gr 
 gsave  2268 1537 0 0 C 2092.28 1254.07 t 0 r /Helvetica findfont 55.2309 sf 0 0 m ( 226) show NC gr 
 gsave  2268 1537 0 0 C 1790.13 1146.85 t 0 r /Helvetica findfont 55.2309 sf 0 0 m (Mean  ) show NC gr 
 gsave  2268 1537 0 0 C 2030.55 1146.85 t 0 r /Helvetica findfont 55.2309 sf 0 0 m (  931.3) show NC gr 
 gsave  2268 1537 0 0 C 1790.13 1039.64 t 0 r /Helvetica findfont 55.2309 sf 0 0 m (Std Dev   ) show NC gr 
 gsave  2268 1537 0 0 C 2030.55 1039.64 t 0 r /Helvetica findfont 55.2309 sf 0 0 m (   2122) show NC gr  227 154 m 1814 X s 227 191 m -37 Y s 287 172 m -18 Y s 348 172 m -18 Y s 408 172 m -18 Y s 469 191 m -37 Y s 529 172 m -18 Y s 590 172 m -18 Y s
 650 172 m -18 Y s 711 191 m -37 Y s 771 172 m -18 Y s 831 172 m -18 Y s 892 172 m -18 Y s 952 191 m -37 Y s 1013 172 m -18 Y s 1073 172 m -18 Y s 1134 172 m -18 Y s 1194 191 m -37 Y s 1255 172 m -18 Y s 1315 172 m -18 Y s 1376 172 m -18 Y s 1436 191
 m -37 Y s 1497 172 m -18 Y s 1557 172 m -18 Y s 1618 172 m -18 Y s 1678 191 m -37 Y s 1739 172 m -18 Y s 1799 172 m -18 Y s 1860 172 m -18 Y s 1920 191 m -37 Y s 1920 191 m -37 Y s 1980 172 m -18 Y s 2041 172 m -18 Y s
 gsave  2268 1537 0 0 C 211.177 103.964 t 0 r /Helvetica findfont 48.7332 sf 0 0 m (0) show NC gr 
 gsave  2268 1537 0 0 C 412.607 103.964 t 0 r /Helvetica findfont 48.7332 sf 0 0 m (2000) show NC gr 
 gsave  2268 1537 0 0 C 653.024 103.964 t 0 r /Helvetica findfont 48.7332 sf 0 0 m (4000) show NC gr 
 gsave  2268 1537 0 0 C 896.69 103.964 t 0 r /Helvetica findfont 48.7332 sf 0 0 m (6000) show NC gr 
 gsave  2268 1537 0 0 C 1137.11 103.964 t 0 r /Helvetica findfont 48.7332 sf 0 0 m (8000) show NC gr 
 gsave  2268 1537 0 0 C 1367.78 103.964 t 0 r /Helvetica findfont 48.7332 sf 0 0 m (10000) show NC gr 
 gsave  2268 1537 0 0 C 1608.19 103.964 t 0 r /Helvetica findfont 48.7332 sf 0 0 m (12000) show NC gr 
 gsave  2268 1537 0 0 C 1848.61 103.964 t 0 r /Helvetica findfont 48.7332 sf 0 0 m (14000) show NC gr 
 gsave  2268 1537 0 0 C 1764.14 55.2309 t 0 r /Helvetica findfont 48.7332 sf 0 0 m (Energy [a.u.]) show NC gr  227 154 m 1229 Y s 281 216 m -54 X s 254 258 m -27 X s 254 301 m -27 X s 254 343 m -27 X s 254 385 m -27 X s 281 427 m -54 X s 254 469 m
 -27 X s 254 511 m -27 X s 254 553 m -27 X s 254 595 m -27 X s 281 637 m -54 X s 254 679 m -27 X s 254 721 m -27 X s 254 763 m -27 X s 254 805 m -27 X s 281 847 m -54 X s 254 889 m -27 X s 254 932 m -27 X s 254 974 m -27 X s 254 1016 m -27 X s 281
 1058 m -54 X s 254 1100 m -27 X s 254 1142 m -27 X s 254 1184 m -27 X s 254 1226 m -27 X s 281 1268 m -54 X s 281 216 m -54 X s 254 174 m -27 X s 281 1268 m -54 X s 254 1310 m -27 X s 254 1352 m -27 X s
 gsave  2268 1537 0 0 C 162.444 198.182 t 0 r /Helvetica findfont 48.7332 sf 0 0 m (50) show NC gr 
 gsave  2268 1537 0 0 C 133.204 198.182 t 0 r /Symbol findfont 48.7332 sf 0 0 m (-) show NC gr 
 gsave  2268 1537 0 0 C 188.435 409.359 t 0 r /Helvetica findfont 48.7332 sf 0 0 m (0) show NC gr 
 gsave  2268 1537 0 0 C 162.444 620.536 t 0 r /Helvetica findfont 48.7332 sf 0 0 m (50) show NC gr 
 gsave  2268 1537 0 0 C 133.204 828.464 t 0 r /Helvetica findfont 48.7332 sf 0 0 m (100) show NC gr 
 gsave  2268 1537 0 0 C 133.204 1039.64 t 0 r /Helvetica findfont 48.7332 sf 0 0 m (150) show NC gr 
 gsave  2268 1537 0 0 C 133.204 1250.82 t 0 r /Helvetica findfont 48.7332 sf 0 0 m (200) show NC gr  1 1 1 c 453 430 1769 1007 bf black 1769 1007 m 453 X s 2222 1007 m 430 Y s 2222 1437 m -453 X s 1769 1437 m -430 Y s 1 1 1 c black
 gsave  2268 1537 0 0 C 1790.13 1364.53 t 0 r /Helvetica findfont 68.2264 sf 0 0 m (net_spectrum) show NC gr  1769 1329 m 453 X s
 gsave  2268 1537 0 0 C 1790.13 1254.07 t 0 r /Helvetica findfont 55.2309 sf 0 0 m (Entries ) show NC gr 
 gsave  2268 1537 0 0 C 2092.28 1254.07 t 0 r /Helvetica findfont 55.2309 sf 0 0 m ( 226) show NC gr 
 gsave  2268 1537 0 0 C 1790.13 1146.85 t 0 r /Helvetica findfont 55.2309 sf 0 0 m (Mean  ) show NC gr 
 gsave  2268 1537 0 0 C 2030.55 1146.85 t 0 r /Helvetica findfont 55.2309 sf 0 0 m (  931.3) show NC gr 
 gsave  2268 1537 0 0 C 1790.13 1039.64 t 0 r /Helvetica findfont 55.2309 sf 0 0 m (Std Dev   ) show NC gr 
 gsave  2268 1537 0 0 C 2030.55 1039.64 t 0 r /Helvetica findfont 55.2309 sf 0 0 m (   2122) show NC gr  1 1 1 c black
 gsave  2268 1537 0 0 C 415.856 1465.24 t 0 r /Helvetica findfont 61.7287 sf 0 0 m (Spettro chocolate al netto della sottrazione del fondo) show NC gr 
 gr  gr showpage
end
%%EOF
