%!PS-Adobe-2.0 EPSF-2.0
%%BoundingBox:  0 0 567 384
%%Title: net_KCl_2_hq0.eps: net_KCl_2_hq0
%%Creator: ROOT Version 6.13/01
%%CreationDate: Sat May 12 15:01:34 2018
%%DocumentNeededResources: ProcSet (FontSetInit)
%%EndComments
%%BeginProlog
80 dict begin
/s {stroke} def /l {lineto} def /m {moveto} def /t {translate} def
/r {rotate} def /rl {roll}  def /R {repeat} def
/d {rlineto} def /rm {rmoveto} def /gr {grestore} def /f {eofill} def
/c {setrgbcolor} def /black {0 setgray} def /sd {setdash} def
/cl {closepath} def /sf {scalefont setfont} def /lw {setlinewidth} def
/box {m dup 0 exch d exch 0 d 0 exch neg d cl} def
/NC{systemdict begin initclip end}def/C{NC box clip newpath}def
/bl {box s} def /bf {gsave box gsave f grestore 1 lw [] 0 sd s grestore} def /Y { 0 exch d} def /X { 0 d} def 
/K {{pop pop 0 moveto} exch kshow} bind def
/ita {/ang 15 def gsave [1 0 ang dup sin exch cos div 1 0 0] concat} def 
/mp {newpath /y exch def /x exch def} def
/side {[w .77 mul w .23 mul] .385 w mul sd w 0 l currentpoint t -144 r} def
/mr {mp x y w2 0 360 arc} def /m24 {mr s} def /m20 {mr f} def
/mb {mp x y w2 add m w2 neg 0 d 0 w neg d w 0 d 0 w d cl} def
/mt {mp x y w2 add m w2 neg w neg d w 0 d cl} def
/w4 {w 4 div} def
/w6 {w 6 div} def
/w8 {w 8 div} def
/m21 {mb f} def /m25 {mb s} def /m22 {mt f} def /m26{mt s} def
/m23 {mp x y w2 sub m w2 w d w neg 0 d cl f} def
/m27 {mp x y w2 add m w3 neg w2 neg d w3 w2 neg d w3 w2 d cl s} def
/m28 {mp x w2 sub y w2 sub w3 add m w3 0 d  0 w3 neg d w3 0 d 0 w3 d w3 0 d  0 w3 d w3 neg 0 d 0 w3 d w3 neg 0 d 0 w3 neg d w3 neg 0 d cl s } def
/m29 {mp gsave x w2 sub y w2 add w3 sub m currentpoint t 4 {side} repeat cl fill gr} def
/m30 {mp gsave x w2 sub y w2 add w3 sub m currentpoint t 4 {side} repeat cl s gr} def
/m31 {mp x y w2 sub m 0 w d x w2 sub y m w 0 d x w2 sub y w2 add m w w neg d x w2 sub y w2 sub m w w d s} def
/m32 {mp x y w2 sub m w2 w d w neg 0 d cl s} def
/m33 {mp x y w2 add m w3 neg w2 neg d w3 w2 neg d w3 w2 d cl f} def
/m34 {mp x w2 sub y w2 sub w3 add m w3 0 d  0 w3 neg d w3 0 d 0 w3 d w3 0 d  0 w3 d w3 neg 0 d 0 w3 d w3 neg 0 d 0 w3 neg d w3 neg 0 d cl f } def
/m35 {mp x y w2 add m w2 neg w2 neg d w2 w2 neg d w2 w2 d w2 neg w2 d x y w2 sub m 0 w d x w2 sub y m w 0 d s} def
/m36 {mb x w2 sub y w2 add m w w neg d x w2 sub y w2 sub m w w d s} def
/m37 {mp x y m w4 neg w2 d w4 neg w2 neg d w2 0 d  w4 neg w2 neg d w2 0 d w4 neg w2 d w2 0 d w4 neg w2 d w4 neg w2 neg d cl s} def
/m38 {mp x w4 sub y w2 add m w4 neg w4 neg d 0 w2 neg d w4 w4 neg d w2 0 d w4 w4 d 0 w2 d w4 neg w4 d w2 neg 0 d x y w2 sub m 0 w d x w2 sub y m w 0 d cl s} def
/m39 {mp x y m w4 neg w2 d w4 neg w2 neg d w2 0 d  w4 neg w2 neg d w2 0 d w4 neg w2 d w2 0 d w4 neg w2 d w4 neg w2 neg d cl f} def
/m40 {mp x y m w4 w2 d w4 w4 neg d w2 neg w4 neg d w2 w4 neg d w4 neg w4 neg d w4 neg w2 d w4 neg w2 neg d w4 neg w4 d w2 w4 d w2 neg w4 d w4 w4 d w4 w2 neg d cl s} def
/m41 {mp x y m w4 w2 d w4 w4 neg d w2 neg w4 neg d w2 w4 neg d w4 neg w4 neg d w4 neg w2 d w4 neg w2 neg d w4 neg w4 d w2 w4 d w2 neg w4 d w4 w4 d w4 w2 neg d cl f} def
/m42 {mp x y w2 add m w8 neg w2 -3 4 div mul d w2 -3 4 div mul w8 neg d w2 3 4 div mul w8 neg d w8 w2 -3 4 div mul d w8 w2 3 4 div mul d w2 3 4 div mul w8 d w2 -3 4 div mul w8 d w8 neg w2 3 4 div mul d cl s} def
/m43 {mp x y w2 add m w8 neg w2 -3 4 div mul d w2 -3 4 div mul w8 neg d w2 3 4 div mul w8 neg d w8 w2 -3 4 div mul d w8 w2 3 4 div mul d w2 3 4 div mul w8 d w2 -3 4 div mul w8 d w8 neg w2 3 4 div mul d cl f} def
/m44 {mp x y m w6 neg w2 d w2 2 3 div mul 0 d w6 neg w2 neg d w2 w6 d 0 w2 -2 3 div mul d w2 neg w6 d w6 w2 neg d w2 -2 3 div mul 0 d w6 w2 d w2 neg w6 neg d 0 w2 2 3 div mul d w2 w6 neg d cl s} def
/m45 {mp x y m w6 neg w2 d w2 2 3 div mul 0 d w6 neg w2 neg d w2 w6 d 0 w2 -2 3 div mul d w2 neg w6 d w6 w2 neg d w2 -2 3 div mul 0 d w6 w2 d w2 neg w6 neg d 0 w2 2 3 div mul d w2 w6 neg d cl f} def
/m46 {mp x y w4 add m w4 neg w4 d w4 neg w4 neg d  w4 w4 neg d w4 neg w4 neg d w4 w4 neg d w4 w4 d w4 w4 neg d w4 w4 d w4 neg w4 d w4 w4 d w4 neg w4 d w4 neg w4 neg d cl s} def
/m47 {mp x y w4 add m w4 neg w4 d w4 neg w4 neg d w4 w4 neg d w4 neg w4 neg d  w4 w4 neg d w4 w4 d w4 w4 neg d w4 w4 d w4 neg w4 d w4 w4 d w4 neg w4 d w4 neg w4 neg d cl f} def
/m48 {mp x y w4 add m w4 neg w4 d w4 neg w4 neg d w4 w4 neg d  w4 neg w4 neg d w4 w4 neg d w4 w4 d w4 w4 neg d w4 w4 d w4 neg w4 d w4 w4 d w4 neg w4 d w4 neg w4 neg d  w4 w4 neg d w4 neg w4 neg d w4 neg w4 d w4 w4 d cl f} def
/m49 {mp x w2 sub w3 add y w2 sub w3 add m  0 w3 neg d w3 0 d 0 w3 d w3 0 d 0 w3 d w3 neg 0 d 0 w3 d w3 neg 0 d 0 w3 neg d w3 neg 0 d 0 w3 neg d w3 0 d 0 w3 d w3 0 d 0 w3 neg d w3 neg 0 d cl f } def
/m2 {mp x y w2 sub m 0 w d x w2 sub y m w 0 d s} def
/m5 {mp x w2 sub y w2 sub m w w d x w2 sub y w2 add m w w neg d s} def
%%IncludeResource: ProcSet (FontSetInit)
%%IncludeResource: font Times-Roman
%%IncludeResource: font Times-Italic
%%IncludeResource: font Times-Bold
%%IncludeResource: font Times-BoldItalic
%%IncludeResource: font Helvetica
%%IncludeResource: font Helvetica-Oblique
%%IncludeResource: font Helvetica-Bold
%%IncludeResource: font Helvetica-BoldOblique
%%IncludeResource: font Courier
%%IncludeResource: font Courier-Oblique
%%IncludeResource: font Courier-Bold
%%IncludeResource: font Courier-BoldOblique
%%IncludeResource: font Symbol
%%IncludeResource: font ZapfDingbats
/reEncode {exch findfont dup length dict begin {1 index /FID eq  {pop pop} {def} ifelse } forall /Encoding exch def currentdict end dup /FontName get exch definefont pop } def [/Times-Bold /Times-Italic /Times-BoldItalic /Helvetica /Helvetica-Oblique
 /Helvetica-Bold /Helvetica-BoldOblique /Courier /Courier-Oblique /Courier-Bold /Courier-BoldOblique /Times-Roman /AvantGarde-Book /AvantGarde-BookOblique /AvantGarde-Demi /AvantGarde-DemiOblique /Bookman-Demi /Bookman-DemiItalic /Bookman-Light
 /Bookman-LightItalic /Helvetica-Narrow /Helvetica-Narrow-Bold /Helvetica-Narrow-BoldOblique /Helvetica-Narrow-Oblique /NewCenturySchlbk-Roman /NewCenturySchlbk-Bold /NewCenturySchlbk-BoldItalic /NewCenturySchlbk-Italic /Palatino-Bold
 /Palatino-BoldItalic /Palatino-Italic /Palatino-Roman ] {ISOLatin1Encoding reEncode } forall
%%EndProlog
%%BeginSetup
%%EndSetup
newpath  gsave  .25 .25 scale  gsave  0 0 t black[  ] 0 sd 3 lw 1 1 1 c 2268 1537 0 0 bf black 1 1 1 c 1814 1229 227 154 bf black 1814 1229 227 154 bl 1 1 1 c 1814 1229 227 154 bf black 1814 1229 227 154 bl 0 0 1 c 1 1 1 c black 0 0 1 c 289 226 m 5 Y
 s 289 231 m 4 Y s 287 231 m 2 X s 289 231 m 1 X s black /w 2 def /w2 {w 2 div} def /w3 {w 3 div} def 289 231 m20 0 0 1 c 292 224 m 3 Y s 292 227 m 3 Y s 290 227 m 2 X s 292 227 m 1 X s black 292 227 m20 0 0 1 c 295 224 m 3 Y s 295 227 m 4 Y s 293
 227 m 2 X s 295 227 m 1 X s black 295 227 m20 0 0 1 c 298 224 m 1 Y s 298 225 m s 296 225 m 2 X s 298 225 m 1 X s black 298 225 m20 0 0 1 c 301 232 m 6 Y s 301 238 m 7 Y s 299 238 m 2 X s 301 238 m 1 X s black 301 238 m20 0 0 1 c 304 224 m 1 Y s 304
 225 m s 302 225 m 2 X s 304 225 m 1 X s black 304 225 m20 0 0 1 c 307 225 m 3 Y s 307 228 m 4 Y s 305 228 m 2 X s 307 228 m 1 X s black 307 228 m20 0 0 1 c 310 226 m 3 Y s 310 229 m 3 Y s 308 229 m 2 X s 310 229 m 1 X s black 310 229 m20 0 0 1 c 313
 224 m s 313 224 m 1 Y s 311 224 m 2 X s 313 224 m 1 X s black 313 224 m20 0 0 1 c 316 224 m 1 Y s 316 225 m s 314 225 m 2 X s 316 225 m 1 X s black 316 225 m20 0 0 1 c 319 227 m 5 Y s 319 232 m 4 Y s 317 232 m 2 X s 319 232 m 2 X s black 319 232 m20
 0 0 1 c 322 225 m 1 Y s 322 226 m s 321 226 m 1 X s 322 226 m 2 X s black 322 226 m20 0 0 1 c 325 227 m 4 Y s 325 231 m 5 Y s 324 231 m 1 X s 325 231 m 2 X s black 325 231 m20 0 0 1 c 328 226 m 3 Y s 328 229 m 3 Y s 327 229 m 1 X s 328 229 m 2 X s
 black 328 229 m20 0 0 1 c 331 227 m 5 Y s 331 232 m 4 Y s 330 232 m 1 X s 331 232 m 2 X s black 331 232 m20 0 0 1 c 334 225 m s 334 225 m 1 Y s 333 225 m 1 X s 334 225 m 2 X s black 334 225 m20 0 0 1 c 337 225 m 3 Y s 337 228 m 3 Y s 336 228 m 1 X s
 337 228 m 2 X s black 337 228 m20 0 0 1 c 340 227 m 4 Y s 340 231 m 5 Y s 339 231 m 1 X s 340 231 m 2 X s black 340 231 m20 0 0 1 c 343 227 m 5 Y s 343 232 m 4 Y s 342 232 m 1 X s 343 232 m 2 X s black 343 232 m20 0 0 1 c 346 226 m 5 Y s 346 231 m 4
 Y s 345 231 m 1 X s 346 231 m 2 X s black 346 231 m20 0 0 1 c 349 227 m 5 Y s 349 232 m 4 Y s 348 232 m 1 X s 349 232 m 2 X s black 349 232 m20 0 0 1 c 352 224 m 4 Y s 352 228 m 3 Y s 351 228 m 1 X s 352 228 m 2 X s black 352 228 m20 0 0 1 c 355 226
 m 5 Y s 355 231 m 4 Y s 354 231 m 1 X s 355 231 m 2 X s black 355 231 m20 0 0 1 c 358 224 m s 358 224 m 1 Y s 357 224 m 1 X s 358 224 m 2 X s black 358 224 m20 0 0 1 c 361 230 m 7 Y s 361 237 m 6 Y s 360 237 m 1 X s 361 237 m 2 X s black 361 237 m20
 0 0 1 c 364 225 m 3 Y s 364 228 m 3 Y s 363 228 m 1 X s 364 228 m 2 X s black 364 228 m20 0 0 1 c 367 234 m 7 Y s 367 241 m 7 Y s 366 241 m 1 X s 367 241 m 2 X s black 367 241 m20 0 0 1 c 370 227 m 4 Y s 370 231 m 5 Y s 369 231 m 1 X s 370 231 m 2 X
 s black 370 231 m20 0 0 1 c 373 234 m 7 Y s 373 241 m 7 Y s 372 241 m 1 X s 373 241 m 2 X s black 373 241 m20 0 0 1 c 376 227 m 4 Y s 376 231 m 5 Y s 375 231 m 1 X s 376 231 m 2 X s black 376 231 m20 0 0 1 c 379 234 m 7 Y s 379 241 m 7 Y s 378 241 m
 1 X s 379 241 m 2 X s black 379 241 m20 0 0 1 c 382 227 m 5 Y s 382 232 m 5 Y s 381 232 m 1 X s 382 232 m 2 X s black 382 232 m20 0 0 1 c 386 236 m 8 Y s 386 244 m 8 Y s 384 244 m 2 X s 386 244 m 1 X s black 386 244 m20 0 0 1 c 389 233 m 8 Y s 389
 241 m 7 Y s 387 241 m 2 X s 389 241 m 1 X s black 389 241 m20 0 0 1 c 392 243 m 9 Y s 392 252 m 10 Y s 390 252 m 2 X s 392 252 m 1 X s black 392 252 m20 0 0 1 c 395 234 m 7 Y s 395 241 m 7 Y s 393 241 m 2 X s 395 241 m 1 X s black 395 241 m20 0 0 1
 c 398 266 m 14 Y s 398 280 m 13 Y s 396 280 m 2 X s 398 280 m 1 X s black 398 280 m20 0 0 1 c 401 277 m 15 Y s 401 292 m 15 Y s 399 292 m 2 X s 401 292 m 1 X s black 401 292 m20 0 0 1 c 404 265 m 13 Y s 404 278 m 14 Y s 402 278 m 2 X s 404 278 m 1 X
 s black 404 278 m20 0 0 1 c 407 287 m 17 Y s 407 304 m 16 Y s 405 304 m 2 X s 407 304 m 1 X s black 407 304 m20 0 0 1 c 410 297 m 17 Y s 410 314 m 17 Y s 408 314 m 2 X s 410 314 m 1 X s black 410 314 m20 0 0 1 c 413 317 m 19 Y s 413 336 m 19 Y s 411
 336 m 2 X s 413 336 m 1 X s black 413 336 m20 0 0 1 c 416 347 m 22 Y s 416 369 m 23 Y s 414 369 m 2 X s 416 369 m 1 X s black 416 369 m20 0 0 1 c 419 361 m 23 Y s 419 384 m 23 Y s 417 384 m 2 X s 419 384 m 1 X s black 419 384 m20 0 0 1 c 422 430 m
 28 Y s 422 458 m 28 Y s 420 458 m 2 X s 422 458 m 1 X s black 422 458 m20 0 0 1 c 425 463 m 29 Y s 425 492 m 30 Y s 423 492 m 2 X s 425 492 m 1 X s black 425 492 m20 0 0 1 c 428 481 m 31 Y s 428 512 m 31 Y s 426 512 m 2 X s 428 512 m 1 X s black 428
 512 m20 0 0 1 c 431 558 m 35 Y s 431 593 m 36 Y s 429 593 m 2 X s 431 593 m 1 X s black 431 593 m20 0 0 1 c 434 607 m 38 Y s 434 645 m 37 Y s 432 645 m 2 X s 434 645 m 1 X s black 434 645 m20 0 0 1 c 437 613 m 37 Y s 437 650 m 38 Y s 435 650 m 2 X s
 437 650 m 1 X s black 437 650 m20 0 0 1 c 440 692 m 41 Y s 440 733 m 41 Y s 438 733 m 2 X s 440 733 m 1 X s black 440 733 m20 0 0 1 c 443 782 m 45 Y s 443 827 m 45 Y s 441 827 m 2 X s 443 827 m 1 X s black 443 827 m20 0 0 1 c 446 828 m 47 Y s 446
 875 m 47 Y s 444 875 m 2 X s 446 875 m 1 X s black 446 875 m20 0 0 1 c 449 892 m 49 Y s 449 941 m 49 Y s 447 941 m 2 X s 449 941 m 2 X s black 449 941 m20 0 0 1 c 452 983 m 53 Y s 452 1036 m 52 Y s 451 1036 m 1 X s 452 1036 m 2 X s black 452 1036
 m20 0 0 1 c 455 922 m 50 Y s 455 972 m 51 Y s 454 972 m 1 X s 455 972 m 2 X s black 455 972 m20 0 0 1 c 458 836 m 48 Y s 458 884 m 48 Y s 457 884 m 1 X s 458 884 m 2 X s black 458 884 m20 0 0 1 c 461 867 m 50 Y s 461 917 m 50 Y s 460 917 m 1 X s 461
 917 m 2 X s black 461 917 m20 0 0 1 c 464 837 m 50 Y s 464 887 m 49 Y s 463 887 m 1 X s 464 887 m 2 X s black 464 887 m20 0 0 1 c 467 830 m 50 Y s 467 880 m 50 Y s 466 880 m 1 X s 467 880 m 2 X s black 467 880 m20 0 0 1 c 470 812 m 50 Y s 470 862 m
 49 Y s 469 862 m 1 X s 470 862 m 2 X s black 470 862 m20 0 0 1 c 473 801 m 50 Y s 473 851 m 49 Y s 472 851 m 1 X s 473 851 m 2 X s black 473 851 m20 0 0 1 c 476 872 m 52 Y s 476 924 m 53 Y s 475 924 m 1 X s 476 924 m 2 X s black 476 924 m20 0 0 1 c
 479 716 m 48 Y s 479 764 m 48 Y s 478 764 m 1 X s 479 764 m 2 X s black 479 764 m20 0 0 1 c 482 694 m 48 Y s 482 742 m 48 Y s 481 742 m 1 X s 482 742 m 2 X s black 482 742 m20 0 0 1 c 485 624 m 47 Y s 485 671 m 47 Y s 484 671 m 1 X s 485 671 m 2 X s
 black 485 671 m20 0 0 1 c 488 638 m 47 Y s 488 685 m 48 Y s 487 685 m 1 X s 488 685 m 2 X s black 488 685 m20 0 0 1 c 491 524 m 44 Y s 491 568 m 44 Y s 490 568 m 1 X s 491 568 m 2 X s black 491 568 m20 0 0 1 c 494 537 m 45 Y s 494 582 m 46 Y s 493
 582 m 1 X s 494 582 m 2 X s black 494 582 m20 0 0 1 c 497 565 m 46 Y s 497 611 m 47 Y s 496 611 m 1 X s 497 611 m 2 X s black 497 611 m20 0 0 1 c 500 571 m 48 Y s 500 619 m 47 Y s 499 619 m 1 X s 500 619 m 2 X s black 500 619 m20 0 0 1 c 503 483 m
 45 Y s 503 528 m 45 Y s 502 528 m 1 X s 503 528 m 2 X s black 503 528 m20 0 0 1 c 506 544 m 49 Y s 506 593 m 48 Y s 505 593 m 1 X s 506 593 m 2 X s black 506 593 m20 0 0 1 c 509 477 m 45 Y s 509 522 m 46 Y s 508 522 m 1 X s 509 522 m 2 X s black 509
 522 m20 0 0 1 c 513 397 m 43 Y s 513 440 m 43 Y s 511 440 m 2 X s 513 440 m 1 X s black 513 440 m20 0 0 1 c 516 443 m 44 Y s 516 487 m 45 Y s 514 487 m 2 X s 516 487 m 1 X s black 516 487 m20 0 0 1 c 519 483 m 47 Y s 519 530 m 46 Y s 517 530 m 2 X s
 519 530 m 1 X s black 519 530 m20 0 0 1 c 522 478 m 46 Y s 522 524 m 46 Y s 520 524 m 2 X s 522 524 m 1 X s black 522 524 m20 0 0 1 c 525 525 m 47 Y s 525 572 m 47 Y s 523 572 m 2 X s 525 572 m 1 X s black 525 572 m20 0 0 1 c 528 367 m 41 Y s 528
 408 m 42 Y s 526 408 m 2 X s 528 408 m 1 X s black 528 408 m20 0 0 1 c 531 397 m 42 Y s 531 439 m 43 Y s 529 439 m 2 X s 531 439 m 1 X s black 531 439 m20 0 0 1 c 534 422 m 43 Y s 534 465 m 43 Y s 532 465 m 2 X s 534 465 m 1 X s black 534 465 m20 0
 0 1 c 537 320 m 39 Y s 537 359 m 39 Y s 535 359 m 2 X s 537 359 m 1 X s black 537 359 m20 0 0 1 c 540 386 m 41 Y s 540 427 m 41 Y s 538 427 m 2 X s 540 427 m 1 X s black 540 427 m20 0 0 1 c 543 469 m 44 Y s 543 513 m 44 Y s 541 513 m 2 X s 543 513 m
 1 X s black 543 513 m20 0 0 1 c 546 453 m 42 Y s 546 495 m 42 Y s 544 495 m 2 X s 546 495 m 1 X s black 546 495 m20 0 0 1 c 549 484 m 44 Y s 549 528 m 44 Y s 547 528 m 2 X s 549 528 m 1 X s black 549 528 m20 0 0 1 c 552 385 m 40 Y s 552 425 m 40 Y s
 550 425 m 2 X s 552 425 m 1 X s black 552 425 m20 0 0 1 c 555 425 m 42 Y s 555 467 m 41 Y s 553 467 m 2 X s 555 467 m 1 X s black 555 467 m20 0 0 1 c 558 355 m 38 Y s 558 393 m 39 Y s 556 393 m 2 X s 558 393 m 1 X s black 558 393 m20 0 0 1 c 561 342
 m 37 Y s 561 379 m 38 Y s 559 379 m 2 X s 561 379 m 1 X s black 561 379 m20 0 0 1 c 564 356 m 38 Y s 564 394 m 37 Y s 562 394 m 2 X s 564 394 m 1 X s black 564 394 m20 0 0 1 c 567 429 m 40 Y s 567 469 m 41 Y s 565 469 m 2 X s 567 469 m 1 X s black
 567 469 m20 0 0 1 c 570 368 m 38 Y s 570 406 m 38 Y s 568 406 m 2 X s 570 406 m 1 X s black 570 406 m20 0 0 1 c 573 372 m 38 Y s 573 410 m 38 Y s 571 410 m 2 X s 573 410 m 1 X s black 573 410 m20 0 0 1 c 576 399 m 39 Y s 576 438 m 39 Y s 574 438 m 2
 X s 576 438 m 2 X s black 576 438 m20 0 0 1 c 579 349 m 37 Y s 579 386 m 37 Y s 578 386 m 1 X s 579 386 m 2 X s black 579 386 m20 0 0 1 c 582 424 m 40 Y s 582 464 m 40 Y s 581 464 m 1 X s 582 464 m 2 X s black 582 464 m20 0 0 1 c 585 386 m 38 Y s
 585 424 m 38 Y s 584 424 m 1 X s 585 424 m 2 X s black 585 424 m20 0 0 1 c 588 352 m 36 Y s 588 388 m 37 Y s 587 388 m 1 X s 588 388 m 2 X s black 588 388 m20 0 0 1 c 591 439 m 41 Y s 591 480 m 40 Y s 590 480 m 1 X s 591 480 m 2 X s black 591 480
 m20 0 0 1 c 594 381 m 38 Y s 594 419 m 38 Y s 593 419 m 1 X s 594 419 m 2 X s black 594 419 m20 0 0 1 c 597 381 m 37 Y s 597 418 m 38 Y s 596 418 m 1 X s 597 418 m 2 X s black 597 418 m20 0 0 1 c 600 407 m 38 Y s 600 445 m 38 Y s 599 445 m 1 X s 600
 445 m 2 X s black 600 445 m20 0 0 1 c 603 341 m 35 Y s 603 376 m 36 Y s 602 376 m 1 X s 603 376 m 2 X s black 603 376 m20 0 0 1 c 606 384 m 37 Y s 606 421 m 38 Y s 605 421 m 1 X s 606 421 m 2 X s black 606 421 m20 0 0 1 c 609 416 m 39 Y s 609 455 m
 38 Y s 608 455 m 1 X s 609 455 m 2 X s black 609 455 m20 0 0 1 c 612 398 m 38 Y s 612 436 m 38 Y s 611 436 m 1 X s 612 436 m 2 X s black 612 436 m20 0 0 1 c 615 428 m 40 Y s 615 468 m 39 Y s 614 468 m 1 X s 615 468 m 2 X s black 615 468 m20 0 0 1 c
 618 396 m 37 Y s 618 433 m 38 Y s 617 433 m 1 X s 618 433 m 2 X s black 618 433 m20 0 0 1 c 621 320 m 34 Y s 621 354 m 34 Y s 620 354 m 1 X s 621 354 m 2 X s black 621 354 m20 0 0 1 c 624 364 m 36 Y s 624 400 m 35 Y s 623 400 m 1 X s 624 400 m 2 X s
 black 624 400 m20 0 0 1 c 627 328 m 35 Y s 627 363 m 34 Y s 626 363 m 1 X s 627 363 m 2 X s black 627 363 m20 0 0 1 c 630 429 m 38 Y s 630 467 m 39 Y s 629 467 m 1 X s 630 467 m 2 X s black 630 467 m20 0 0 1 c 633 423 m 39 Y s 633 462 m 39 Y s 632
 462 m 1 X s 633 462 m 2 X s black 633 462 m20 0 0 1 c 636 402 m 38 Y s 636 440 m 38 Y s 635 440 m 1 X s 636 440 m 2 X s black 636 440 m20 0 0 1 c 639 358 m 36 Y s 639 394 m 37 Y s 638 394 m 1 X s 639 394 m 2 X s black 639 394 m20 0 0 1 c 643 382 m
 37 Y s 643 419 m 37 Y s 641 419 m 2 X s 643 419 m 1 X s black 643 419 m20 0 0 1 c 646 347 m 36 Y s 646 383 m 36 Y s 644 383 m 2 X s 646 383 m 1 X s black 646 383 m20 0 0 1 c 649 403 m 38 Y s 649 441 m 39 Y s 647 441 m 2 X s 649 441 m 1 X s black 649
 441 m20 0 0 1 c 652 384 m 38 Y s 652 422 m 38 Y s 650 422 m 2 X s 652 422 m 1 X s black 652 422 m20 0 0 1 c 655 398 m 38 Y s 655 436 m 39 Y s 653 436 m 2 X s 655 436 m 1 X s black 655 436 m20 0 0 1 c 658 395 m 38 Y s 658 433 m 39 Y s 656 433 m 2 X s
 658 433 m 1 X s black 658 433 m20 0 0 1 c 661 404 m 39 Y s 661 443 m 39 Y s 659 443 m 2 X s 661 443 m 1 X s black 661 443 m20 0 0 1 c 664 331 m 35 Y s 664 366 m 35 Y s 662 366 m 2 X s 664 366 m 1 X s black 664 366 m20 0 0 1 c 667 335 m 35 Y s 667
 370 m 35 Y s 665 370 m 2 X s 667 370 m 1 X s black 667 370 m20 0 0 1 c 670 330 m 34 Y s 670 364 m 34 Y s 668 364 m 2 X s 670 364 m 1 X s black 670 364 m20 0 0 1 c 673 334 m 33 Y s 673 367 m 34 Y s 671 367 m 2 X s 673 367 m 1 X s black 673 367 m20 0
 0 1 c 676 393 m 36 Y s 676 429 m 36 Y s 674 429 m 2 X s 676 429 m 1 X s black 676 429 m20 0 0 1 c 679 296 m 32 Y s 679 328 m 31 Y s 677 328 m 2 X s 679 328 m 1 X s black 679 328 m20 0 0 1 c 682 423 m 37 Y s 682 460 m 37 Y s 680 460 m 2 X s 682 460 m
 1 X s black 682 460 m20 0 0 1 c 685 427 m 36 Y s 685 463 m 37 Y s 683 463 m 2 X s 685 463 m 1 X s black 685 463 m20 0 0 1 c 688 371 m 35 Y s 688 406 m 35 Y s 686 406 m 2 X s 688 406 m 1 X s black 688 406 m20 0 0 1 c 691 343 m 33 Y s 691 376 m 33 Y s
 689 376 m 2 X s 691 376 m 1 X s black 691 376 m20 0 0 1 c 694 380 m 34 Y s 694 414 m 35 Y s 692 414 m 2 X s 694 414 m 1 X s black 694 414 m20 0 0 1 c 697 384 m 35 Y s 697 419 m 35 Y s 695 419 m 2 X s 697 419 m 1 X s black 697 419 m20 0 0 1 c 700 320
 m 31 Y s 700 351 m 31 Y s 698 351 m 2 X s 700 351 m 1 X s black 700 351 m20 0 0 1 c 703 353 m 33 Y s 703 386 m 33 Y s 701 386 m 2 X s 703 386 m 2 X s black 703 386 m20 0 0 1 c 706 391 m 35 Y s 706 426 m 35 Y s 705 426 m 1 X s 706 426 m 2 X s black
 706 426 m20 0 0 1 c 709 364 m 34 Y s 709 398 m 34 Y s 708 398 m 1 X s 709 398 m 2 X s black 709 398 m20 0 0 1 c 712 376 m 35 Y s 712 411 m 34 Y s 711 411 m 1 X s 712 411 m 2 X s black 712 411 m20 0 0 1 c 715 326 m 31 Y s 715 357 m 31 Y s 714 357 m 1
 X s 715 357 m 2 X s black 715 357 m20 0 0 1 c 718 305 m 31 Y s 718 336 m 32 Y s 717 336 m 1 X s 718 336 m 2 X s black 718 336 m20 0 0 1 c 721 378 m 35 Y s 721 413 m 35 Y s 720 413 m 1 X s 721 413 m 2 X s black 721 413 m20 0 0 1 c 724 334 m 32 Y s
 724 366 m 33 Y s 723 366 m 1 X s 724 366 m 2 X s black 724 366 m20 0 0 1 c 727 332 m 32 Y s 727 364 m 32 Y s 726 364 m 1 X s 727 364 m 2 X s black 727 364 m20 0 0 1 c 730 358 m 34 Y s 730 392 m 34 Y s 729 392 m 1 X s 730 392 m 2 X s black 730 392
 m20 0 0 1 c 733 312 m 31 Y s 733 343 m 32 Y s 732 343 m 1 X s 733 343 m 2 X s black 733 343 m20 0 0 1 c 736 337 m 33 Y s 736 370 m 32 Y s 735 370 m 1 X s 736 370 m 2 X s black 736 370 m20 0 0 1 c 739 338 m 33 Y s 739 371 m 32 Y s 738 371 m 1 X s 739
 371 m 2 X s black 739 371 m20 0 0 1 c 742 350 m 33 Y s 742 383 m 33 Y s 741 383 m 1 X s 742 383 m 2 X s black 742 383 m20 0 0 1 c 745 346 m 33 Y s 745 379 m 32 Y s 744 379 m 1 X s 745 379 m 2 X s black 745 379 m20 0 0 1 c 748 283 m 29 Y s 748 312 m
 30 Y s 747 312 m 1 X s 748 312 m 2 X s black 748 312 m20 0 0 1 c 751 347 m 32 Y s 751 379 m 32 Y s 750 379 m 1 X s 751 379 m 2 X s black 751 379 m20 0 0 1 c 754 342 m 32 Y s 754 374 m 31 Y s 753 374 m 1 X s 754 374 m 2 X s black 754 374 m20 0 0 1 c
 757 345 m 31 Y s 757 376 m 31 Y s 756 376 m 1 X s 757 376 m 2 X s black 757 376 m20 0 0 1 c 760 367 m 32 Y s 760 399 m 33 Y s 759 399 m 1 X s 760 399 m 2 X s black 760 399 m20 0 0 1 c 763 340 m 30 Y s 763 370 m 31 Y s 762 370 m 1 X s 763 370 m 2 X s
 black 763 370 m20 0 0 1 c 766 349 m 31 Y s 766 380 m 31 Y s 765 380 m 1 X s 766 380 m 2 X s black 766 380 m20 0 0 1 c 770 329 m 29 Y s 770 358 m 29 Y s 768 358 m 2 X s 770 358 m 1 X s black 770 358 m20 0 0 1 c 773 334 m 29 Y s 773 363 m 29 Y s 771
 363 m 2 X s 773 363 m 1 X s black 773 363 m20 0 0 1 c 776 374 m 32 Y s 776 406 m 32 Y s 774 406 m 2 X s 776 406 m 1 X s black 776 406 m20 0 0 1 c 779 356 m 31 Y s 779 387 m 30 Y s 777 387 m 2 X s 779 387 m 1 X s black 779 387 m20 0 0 1 c 782 326 m
 29 Y s 782 355 m 29 Y s 780 355 m 2 X s 782 355 m 1 X s black 782 355 m20 0 0 1 c 785 341 m 29 Y s 785 370 m 30 Y s 783 370 m 2 X s 785 370 m 1 X s black 785 370 m20 0 0 1 c 788 333 m 29 Y s 788 362 m 29 Y s 786 362 m 2 X s 788 362 m 1 X s black 788
 362 m20 0 0 1 c 791 363 m 31 Y s 791 394 m 30 Y s 789 394 m 2 X s 791 394 m 1 X s black 791 394 m20 0 0 1 c 794 361 m 30 Y s 794 391 m 31 Y s 792 391 m 2 X s 794 391 m 1 X s black 794 391 m20 0 0 1 c 797 401 m 32 Y s 797 433 m 33 Y s 795 433 m 2 X s
 797 433 m 1 X s black 797 433 m20 0 0 1 c 800 371 m 31 Y s 800 402 m 31 Y s 798 402 m 2 X s 800 402 m 1 X s black 800 402 m20 0 0 1 c 803 347 m 30 Y s 803 377 m 29 Y s 801 377 m 2 X s 803 377 m 1 X s black 803 377 m20 0 0 1 c 806 330 m 29 Y s 806
 359 m 28 Y s 804 359 m 2 X s 806 359 m 1 X s black 806 359 m20 0 0 1 c 809 309 m 27 Y s 809 336 m 27 Y s 807 336 m 2 X s 809 336 m 1 X s black 809 336 m20 0 0 1 c 812 370 m 30 Y s 812 400 m 31 Y s 810 400 m 2 X s 812 400 m 1 X s black 812 400 m20 0
 0 1 c 815 349 m 29 Y s 815 378 m 29 Y s 813 378 m 2 X s 815 378 m 1 X s black 815 378 m20 0 0 1 c 818 284 m 26 Y s 818 310 m 25 Y s 816 310 m 2 X s 818 310 m 1 X s black 818 310 m20 0 0 1 c 821 326 m 28 Y s 821 354 m 28 Y s 819 354 m 2 X s 821 354 m
 1 X s black 821 354 m20 0 0 1 c 824 316 m 27 Y s 824 343 m 27 Y s 822 343 m 2 X s 824 343 m 1 X s black 824 343 m20 0 0 1 c 827 347 m 29 Y s 827 376 m 29 Y s 825 376 m 2 X s 827 376 m 1 X s black 827 376 m20 0 0 1 c 830 349 m 29 Y s 830 378 m 30 Y s
 828 378 m 2 X s 830 378 m 1 X s black 830 378 m20 0 0 1 c 833 318 m 27 Y s 833 345 m 28 Y s 831 345 m 2 X s 833 345 m 2 X s black 833 345 m20 0 0 1 c 836 377 m 31 Y s 836 408 m 31 Y s 835 408 m 1 X s 836 408 m 2 X s black 836 408 m20 0 0 1 c 839 350
 m 29 Y s 839 379 m 29 Y s 838 379 m 1 X s 839 379 m 2 X s black 839 379 m20 0 0 1 c 842 345 m 28 Y s 842 373 m 29 Y s 841 373 m 1 X s 842 373 m 2 X s black 842 373 m20 0 0 1 c 845 365 m 30 Y s 845 395 m 30 Y s 844 395 m 1 X s 845 395 m 2 X s black
 845 395 m20 0 0 1 c 848 349 m 29 Y s 848 378 m 29 Y s 847 378 m 1 X s 848 378 m 2 X s black 848 378 m20 0 0 1 c 851 366 m 30 Y s 851 396 m 31 Y s 850 396 m 1 X s 851 396 m 2 X s black 851 396 m20 0 0 1 c 854 412 m 32 Y s 854 444 m 32 Y s 853 444 m 1
 X s 854 444 m 2 X s black 854 444 m20 0 0 1 c 857 361 m 30 Y s 857 391 m 29 Y s 856 391 m 1 X s 857 391 m 2 X s black 857 391 m20 0 0 1 c 860 377 m 30 Y s 860 407 m 31 Y s 859 407 m 1 X s 860 407 m 2 X s black 860 407 m20 0 0 1 c 863 369 m 30 Y s
 863 399 m 30 Y s 862 399 m 1 X s 863 399 m 2 X s black 863 399 m20 0 0 1 c 866 362 m 29 Y s 866 391 m 30 Y s 865 391 m 1 X s 866 391 m 2 X s black 866 391 m20 0 0 1 c 869 338 m 28 Y s 869 366 m 28 Y s 868 366 m 1 X s 869 366 m 2 X s black 869 366
 m20 0 0 1 c 872 333 m 28 Y s 872 361 m 27 Y s 871 361 m 1 X s 872 361 m 2 X s black 872 361 m20 0 0 1 c 875 334 m 28 Y s 875 362 m 28 Y s 874 362 m 1 X s 875 362 m 2 X s black 875 362 m20 0 0 1 c 878 326 m 28 Y s 878 354 m 28 Y s 877 354 m 1 X s 878
 354 m 2 X s black 878 354 m20 0 0 1 c 881 292 m 25 Y s 881 317 m 25 Y s 880 317 m 1 X s 881 317 m 2 X s black 881 317 m20 0 0 1 c 884 401 m 32 Y s 884 433 m 32 Y s 883 433 m 1 X s 884 433 m 2 X s black 884 433 m20 0 0 1 c 887 348 m 29 Y s 887 377 m
 29 Y s 886 377 m 1 X s 887 377 m 2 X s black 887 377 m20 0 0 1 c 890 319 m 27 Y s 890 346 m 27 Y s 889 346 m 1 X s 890 346 m 2 X s black 890 346 m20 0 0 1 c 893 308 m 26 Y s 893 334 m 26 Y s 892 334 m 1 X s 893 334 m 2 X s black 893 334 m20 0 0 1 c
 897 373 m 30 Y s 897 403 m 29 Y s 895 403 m 2 X s 897 403 m 1 X s black 897 403 m20 0 0 1 c 900 308 m 26 Y s 900 334 m 26 Y s 898 334 m 2 X s 900 334 m 1 X s black 900 334 m20 0 0 1 c 903 334 m 28 Y s 903 362 m 27 Y s 901 362 m 2 X s 903 362 m 1 X s
 black 903 362 m20 0 0 1 c 906 321 m 26 Y s 906 347 m 27 Y s 904 347 m 2 X s 906 347 m 1 X s black 906 347 m20 0 0 1 c 909 373 m 30 Y s 909 403 m 29 Y s 907 403 m 2 X s 909 403 m 1 X s black 909 403 m20 0 0 1 c 912 352 m 28 Y s 912 380 m 28 Y s 910
 380 m 2 X s 912 380 m 1 X s black 912 380 m20 0 0 1 c 915 336 m 27 Y s 915 363 m 28 Y s 913 363 m 2 X s 915 363 m 1 X s black 915 363 m20 0 0 1 c 918 362 m 29 Y s 918 391 m 29 Y s 916 391 m 2 X s 918 391 m 1 X s black 918 391 m20 0 0 1 c 921 386 m
 30 Y s 921 416 m 31 Y s 919 416 m 2 X s 921 416 m 1 X s black 921 416 m20 0 0 1 c 924 318 m 26 Y s 924 344 m 25 Y s 922 344 m 2 X s 924 344 m 1 X s black 924 344 m20 0 0 1 c 927 325 m 26 Y s 927 351 m 27 Y s 925 351 m 2 X s 927 351 m 1 X s black 927
 351 m20 0 0 1 c 930 353 m 28 Y s 930 381 m 29 Y s 928 381 m 2 X s 930 381 m 1 X s black 930 381 m20 0 0 1 c 933 350 m 28 Y s 933 378 m 28 Y s 931 378 m 2 X s 933 378 m 1 X s black 933 378 m20 0 0 1 c 936 318 m 26 Y s 936 344 m 26 Y s 934 344 m 2 X s
 936 344 m 1 X s black 936 344 m20 0 0 1 c 939 401 m 31 Y s 939 432 m 31 Y s 937 432 m 2 X s 939 432 m 1 X s black 939 432 m20 0 0 1 c 942 325 m 26 Y s 942 351 m 26 Y s 940 351 m 2 X s 942 351 m 1 X s black 942 351 m20 0 0 1 c 945 349 m 28 Y s 945
 377 m 27 Y s 943 377 m 2 X s 945 377 m 1 X s black 945 377 m20 0 0 1 c 948 343 m 27 Y s 948 370 m 28 Y s 946 370 m 2 X s 948 370 m 1 X s black 948 370 m20 0 0 1 c 951 366 m 29 Y s 951 395 m 29 Y s 949 395 m 2 X s 951 395 m 1 X s black 951 395 m20 0
 0 1 c 954 344 m 27 Y s 954 371 m 28 Y s 952 371 m 2 X s 954 371 m 1 X s black 954 371 m20 0 0 1 c 957 319 m 26 Y s 957 345 m 26 Y s 955 345 m 2 X s 957 345 m 1 X s black 957 345 m20 0 0 1 c 960 380 m 30 Y s 960 410 m 29 Y s 958 410 m 2 X s 960 410 m
 2 X s black 960 410 m20 0 0 1 c 963 369 m 29 Y s 963 398 m 29 Y s 962 398 m 1 X s 963 398 m 2 X s black 963 398 m20 0 0 1 c 966 367 m 29 Y s 966 396 m 29 Y s 965 396 m 1 X s 966 396 m 2 X s black 966 396 m20 0 0 1 c 969 291 m 24 Y s 969 315 m 23 Y s
 968 315 m 1 X s 969 315 m 2 X s black 969 315 m20 0 0 1 c 972 380 m 29 Y s 972 409 m 30 Y s 971 409 m 1 X s 972 409 m 2 X s black 972 409 m20 0 0 1 c 975 371 m 30 Y s 975 401 m 29 Y s 974 401 m 1 X s 975 401 m 2 X s black 975 401 m20 0 0 1 c 978 317
 m 26 Y s 978 343 m 26 Y s 977 343 m 1 X s 978 343 m 2 X s black 978 343 m20 0 0 1 c 981 359 m 28 Y s 981 387 m 29 Y s 980 387 m 1 X s 981 387 m 2 X s black 981 387 m20 0 0 1 c 984 300 m 25 Y s 984 325 m 24 Y s 983 325 m 1 X s 984 325 m 2 X s black
 984 325 m20 0 0 1 c 987 343 m 28 Y s 987 371 m 28 Y s 986 371 m 1 X s 987 371 m 2 X s black 987 371 m20 0 0 1 c 990 379 m 30 Y s 990 409 m 30 Y s 989 409 m 1 X s 990 409 m 2 X s black 990 409 m20 0 0 1 c 993 343 m 29 Y s 993 372 m 28 Y s 992 372 m 1
 X s 993 372 m 2 X s black 993 372 m20 0 0 1 c 996 332 m 27 Y s 996 359 m 27 Y s 995 359 m 1 X s 996 359 m 2 X s black 996 359 m20 0 0 1 c 999 357 m 28 Y s 999 385 m 29 Y s 998 385 m 1 X s 999 385 m 2 X s black 999 385 m20 0 0 1 c 1002 329 m 27 Y s
 1002 356 m 27 Y s 1001 356 m 1 X s 1002 356 m 2 X s black 1002 356 m20 0 0 1 c 1005 329 m 26 Y s 1005 355 m 27 Y s 1004 355 m 1 X s 1005 355 m 2 X s black 1005 355 m20 0 0 1 c 1008 422 m 33 Y s 1008 455 m 32 Y s 1007 455 m 1 X s 1008 455 m 2 X s
 black 1008 455 m20 0 0 1 c 1011 340 m 28 Y s 1011 368 m 27 Y s 1010 368 m 1 X s 1011 368 m 2 X s black 1011 368 m20 0 0 1 c 1014 309 m 25 Y s 1014 334 m 25 Y s 1013 334 m 1 X s 1014 334 m 2 X s black 1014 334 m20 0 0 1 c 1017 392 m 31 Y s 1017 423 m
 31 Y s 1016 423 m 1 X s 1017 423 m 2 X s black 1017 423 m20 0 0 1 c 1020 382 m 30 Y s 1020 412 m 30 Y s 1019 412 m 1 X s 1020 412 m 2 X s black 1020 412 m20 0 0 1 c 1023 324 m 26 Y s 1023 350 m 26 Y s 1022 350 m 1 X s 1023 350 m 2 X s black 1023 350
 m20 0 0 1 c 1027 388 m 31 Y s 1027 419 m 30 Y s 1025 419 m 2 X s 1027 419 m 1 X s black 1027 419 m20 0 0 1 c 1030 390 m 30 Y s 1030 420 m 30 Y s 1028 420 m 2 X s 1030 420 m 1 X s black 1030 420 m20 0 0 1 c 1033 368 m 28 Y s 1033 396 m 29 Y s 1031
 396 m 2 X s 1033 396 m 1 X s black 1033 396 m20 0 0 1 c 1036 389 m 30 Y s 1036 419 m 29 Y s 1034 419 m 2 X s 1036 419 m 1 X s black 1036 419 m20 0 0 1 c 1039 397 m 31 Y s 1039 428 m 30 Y s 1037 428 m 2 X s 1039 428 m 1 X s black 1039 428 m20 0 0 1 c
 1042 341 m 27 Y s 1042 368 m 28 Y s 1040 368 m 2 X s 1042 368 m 1 X s black 1042 368 m20 0 0 1 c 1045 313 m 24 Y s 1045 337 m 25 Y s 1043 337 m 2 X s 1045 337 m 1 X s black 1045 337 m20 0 0 1 c 1048 441 m 33 Y s 1048 474 m 32 Y s 1046 474 m 2 X s
 1048 474 m 1 X s black 1048 474 m20 0 0 1 c 1051 392 m 30 Y s 1051 422 m 30 Y s 1049 422 m 2 X s 1051 422 m 1 X s black 1051 422 m20 0 0 1 c 1054 419 m 32 Y s 1054 451 m 31 Y s 1052 451 m 2 X s 1054 451 m 1 X s black 1054 451 m20 0 0 1 c 1057 379 m
 30 Y s 1057 409 m 29 Y s 1055 409 m 2 X s 1057 409 m 1 X s black 1057 409 m20 0 0 1 c 1060 382 m 29 Y s 1060 411 m 28 Y s 1058 411 m 2 X s 1060 411 m 1 X s black 1060 411 m20 0 0 1 c 1063 378 m 29 Y s 1063 407 m 29 Y s 1061 407 m 2 X s 1063 407 m 1
 X s black 1063 407 m20 0 0 1 c 1066 369 m 28 Y s 1066 397 m 28 Y s 1064 397 m 2 X s 1066 397 m 1 X s black 1066 397 m20 0 0 1 c 1069 336 m 26 Y s 1069 362 m 26 Y s 1067 362 m 2 X s 1069 362 m 1 X s black 1069 362 m20 0 0 1 c 1072 353 m 28 Y s 1072
 381 m 27 Y s 1070 381 m 2 X s 1072 381 m 1 X s black 1072 381 m20 0 0 1 c 1075 367 m 28 Y s 1075 395 m 28 Y s 1073 395 m 2 X s 1075 395 m 1 X s black 1075 395 m20 0 0 1 c 1078 368 m 28 Y s 1078 396 m 28 Y s 1076 396 m 2 X s 1078 396 m 1 X s black
 1078 396 m20 0 0 1 c 1081 396 m 28 Y s 1081 424 m 29 Y s 1079 424 m 2 X s 1081 424 m 1 X s black 1081 424 m20 0 0 1 c 1084 359 m 27 Y s 1084 386 m 27 Y s 1082 386 m 2 X s 1084 386 m 1 X s black 1084 386 m20 0 0 1 c 1087 390 m 29 Y s 1087 419 m 29 Y
 s 1085 419 m 2 X s 1087 419 m 2 X s black 1087 419 m20 0 0 1 c 1090 409 m 29 Y s 1090 438 m 30 Y s 1089 438 m 1 X s 1090 438 m 2 X s black 1090 438 m20 0 0 1 c 1093 341 m 26 Y s 1093 367 m 26 Y s 1092 367 m 1 X s 1093 367 m 2 X s black 1093 367 m20
 0 0 1 c 1096 366 m 27 Y s 1096 393 m 28 Y s 1095 393 m 1 X s 1096 393 m 2 X s black 1096 393 m20 0 0 1 c 1099 389 m 29 Y s 1099 418 m 28 Y s 1098 418 m 1 X s 1099 418 m 2 X s black 1099 418 m20 0 0 1 c 1102 424 m 30 Y s 1102 454 m 31 Y s 1101 454 m
 1 X s 1102 454 m 2 X s black 1102 454 m20 0 0 1 c 1105 373 m 28 Y s 1105 401 m 27 Y s 1104 401 m 1 X s 1105 401 m 2 X s black 1105 401 m20 0 0 1 c 1108 405 m 30 Y s 1108 435 m 30 Y s 1107 435 m 1 X s 1108 435 m 2 X s black 1108 435 m20 0 0 1 c 1111
 368 m 27 Y s 1111 395 m 28 Y s 1110 395 m 1 X s 1111 395 m 2 X s black 1111 395 m20 0 0 1 c 1114 353 m 26 Y s 1114 379 m 26 Y s 1113 379 m 1 X s 1114 379 m 2 X s black 1114 379 m20 0 0 1 c 1117 357 m 27 Y s 1117 384 m 27 Y s 1116 384 m 1 X s 1117
 384 m 2 X s black 1117 384 m20 0 0 1 c 1120 407 m 30 Y s 1120 437 m 30 Y s 1119 437 m 1 X s 1120 437 m 2 X s black 1120 437 m20 0 0 1 c 1123 422 m 31 Y s 1123 453 m 31 Y s 1122 453 m 1 X s 1123 453 m 2 X s black 1123 453 m20 0 0 1 c 1126 366 m 27 Y
 s 1126 393 m 28 Y s 1125 393 m 1 X s 1126 393 m 2 X s black 1126 393 m20 0 0 1 c 1129 372 m 28 Y s 1129 400 m 27 Y s 1128 400 m 1 X s 1129 400 m 2 X s black 1129 400 m20 0 0 1 c 1132 446 m 32 Y s 1132 478 m 32 Y s 1131 478 m 1 X s 1132 478 m 2 X s
 black 1132 478 m20 0 0 1 c 1135 384 m 28 Y s 1135 412 m 28 Y s 1134 412 m 1 X s 1135 412 m 2 X s black 1135 412 m20 0 0 1 c 1138 364 m 27 Y s 1138 391 m 28 Y s 1137 391 m 1 X s 1138 391 m 2 X s black 1138 391 m20 0 0 1 c 1141 386 m 29 Y s 1141 415 m
 28 Y s 1140 415 m 1 X s 1141 415 m 2 X s black 1141 415 m20 0 0 1 c 1144 449 m 32 Y s 1144 481 m 32 Y s 1143 481 m 1 X s 1144 481 m 2 X s black 1144 481 m20 0 0 1 c 1147 448 m 32 Y s 1147 480 m 32 Y s 1146 480 m 1 X s 1147 480 m 2 X s black 1147 480
 m20 0 0 1 c 1150 436 m 31 Y s 1150 467 m 32 Y s 1149 467 m 1 X s 1150 467 m 2 X s black 1150 467 m20 0 0 1 c 1154 436 m 32 Y s 1154 468 m 31 Y s 1152 468 m 2 X s 1154 468 m 1 X s black 1154 468 m20 0 0 1 c 1157 443 m 32 Y s 1157 475 m 32 Y s 1155
 475 m 2 X s 1157 475 m 1 X s black 1157 475 m20 0 0 1 c 1160 403 m 30 Y s 1160 433 m 30 Y s 1158 433 m 2 X s 1160 433 m 1 X s black 1160 433 m20 0 0 1 c 1163 451 m 32 Y s 1163 483 m 33 Y s 1161 483 m 2 X s 1163 483 m 1 X s black 1163 483 m20 0 0 1 c
 1166 459 m 33 Y s 1166 492 m 33 Y s 1164 492 m 2 X s 1166 492 m 1 X s black 1166 492 m20 0 0 1 c 1169 420 m 30 Y s 1169 450 m 31 Y s 1167 450 m 2 X s 1169 450 m 1 X s black 1169 450 m20 0 0 1 c 1172 404 m 30 Y s 1172 434 m 30 Y s 1170 434 m 2 X s
 1172 434 m 1 X s black 1172 434 m20 0 0 1 c 1175 366 m 27 Y s 1175 393 m 27 Y s 1173 393 m 2 X s 1175 393 m 1 X s black 1175 393 m20 0 0 1 c 1178 397 m 29 Y s 1178 426 m 30 Y s 1176 426 m 2 X s 1178 426 m 1 X s black 1178 426 m20 0 0 1 c 1181 458 m
 33 Y s 1181 491 m 32 Y s 1179 491 m 2 X s 1181 491 m 1 X s black 1181 491 m20 0 0 1 c 1184 434 m 32 Y s 1184 466 m 31 Y s 1182 466 m 2 X s 1184 466 m 1 X s black 1184 466 m20 0 0 1 c 1187 411 m 30 Y s 1187 441 m 30 Y s 1185 441 m 2 X s 1187 441 m 1
 X s black 1187 441 m20 0 0 1 c 1190 444 m 32 Y s 1190 476 m 32 Y s 1188 476 m 2 X s 1190 476 m 1 X s black 1190 476 m20 0 0 1 c 1193 397 m 29 Y s 1193 426 m 29 Y s 1191 426 m 2 X s 1193 426 m 1 X s black 1193 426 m20 0 0 1 c 1196 427 m 31 Y s 1196
 458 m 31 Y s 1194 458 m 2 X s 1196 458 m 1 X s black 1196 458 m20 0 0 1 c 1199 383 m 28 Y s 1199 411 m 28 Y s 1197 411 m 2 X s 1199 411 m 1 X s black 1199 411 m20 0 0 1 c 1202 395 m 29 Y s 1202 424 m 29 Y s 1200 424 m 2 X s 1202 424 m 1 X s black
 1202 424 m20 0 0 1 c 1205 441 m 32 Y s 1205 473 m 31 Y s 1203 473 m 2 X s 1205 473 m 1 X s black 1205 473 m20 0 0 1 c 1208 393 m 28 Y s 1208 421 m 29 Y s 1206 421 m 2 X s 1208 421 m 1 X s black 1208 421 m20 0 0 1 c 1211 423 m 30 Y s 1211 453 m 30 Y
 s 1209 453 m 2 X s 1211 453 m 1 X s black 1211 453 m20 0 0 1 c 1214 401 m 29 Y s 1214 430 m 29 Y s 1212 430 m 2 X s 1214 430 m 1 X s black 1214 430 m20 0 0 1 c 1217 364 m 27 Y s 1217 391 m 26 Y s 1215 391 m 2 X s 1217 391 m 2 X s black 1217 391 m20
 0 0 1 c 1220 357 m 26 Y s 1220 383 m 26 Y s 1219 383 m 1 X s 1220 383 m 2 X s black 1220 383 m20 0 0 1 c 1223 441 m 31 Y s 1223 472 m 31 Y s 1222 472 m 1 X s 1223 472 m 2 X s black 1223 472 m20 0 0 1 c 1226 374 m 27 Y s 1226 401 m 27 Y s 1225 401 m
 1 X s 1226 401 m 2 X s black 1226 401 m20 0 0 1 c 1229 343 m 25 Y s 1229 368 m 25 Y s 1228 368 m 1 X s 1229 368 m 2 X s black 1229 368 m20 0 0 1 c 1232 400 m 29 Y s 1232 429 m 29 Y s 1231 429 m 1 X s 1232 429 m 2 X s black 1232 429 m20 0 0 1 c 1235
 382 m 27 Y s 1235 409 m 28 Y s 1234 409 m 1 X s 1235 409 m 2 X s black 1235 409 m20 0 0 1 c 1238 415 m 30 Y s 1238 445 m 30 Y s 1237 445 m 1 X s 1238 445 m 2 X s black 1238 445 m20 0 0 1 c 1241 329 m 24 Y s 1241 353 m 24 Y s 1240 353 m 1 X s 1241
 353 m 2 X s black 1241 353 m20 0 0 1 c 1244 332 m 24 Y s 1244 356 m 24 Y s 1243 356 m 1 X s 1244 356 m 2 X s black 1244 356 m20 0 0 1 c 1247 343 m 25 Y s 1247 368 m 26 Y s 1246 368 m 1 X s 1247 368 m 2 X s black 1247 368 m20 0 0 1 c 1250 314 m 23 Y
 s 1250 337 m 24 Y s 1249 337 m 1 X s 1250 337 m 2 X s black 1250 337 m20 0 0 1 c 1253 347 m 25 Y s 1253 372 m 25 Y s 1252 372 m 1 X s 1253 372 m 2 X s black 1253 372 m20 0 0 1 c 1256 365 m 26 Y s 1256 391 m 27 Y s 1255 391 m 1 X s 1256 391 m 2 X s
 black 1256 391 m20 0 0 1 c 1259 311 m 22 Y s 1259 333 m 22 Y s 1258 333 m 1 X s 1259 333 m 2 X s black 1259 333 m20 0 0 1 c 1262 291 m 20 Y s 1262 311 m 21 Y s 1261 311 m 1 X s 1262 311 m 2 X s black 1262 311 m20 0 0 1 c 1265 322 m 24 Y s 1265 346 m
 23 Y s 1264 346 m 1 X s 1265 346 m 2 X s black 1265 346 m20 0 0 1 c 1268 305 m 22 Y s 1268 327 m 22 Y s 1267 327 m 1 X s 1268 327 m 2 X s black 1268 327 m20 0 0 1 c 1271 261 m 18 Y s 1271 279 m 18 Y s 1270 279 m 1 X s 1271 279 m 2 X s black 1271 279
 m20 0 0 1 c 1274 302 m 21 Y s 1274 323 m 22 Y s 1273 323 m 1 X s 1274 323 m 2 X s black 1274 323 m20 0 0 1 c 1277 301 m 21 Y s 1277 322 m 22 Y s 1276 322 m 1 X s 1277 322 m 2 X s black 1277 322 m20 0 0 1 c 1281 313 m 22 Y s 1281 335 m 22 Y s 1279
 335 m 2 X s 1281 335 m 1 X s black 1281 335 m20 0 0 1 c 1284 292 m 21 Y s 1284 313 m 20 Y s 1282 313 m 2 X s 1284 313 m 1 X s black 1284 313 m20 0 0 1 c 1287 273 m 18 Y s 1287 291 m 19 Y s 1285 291 m 2 X s 1287 291 m 1 X s black 1287 291 m20 0 0 1 c
 1290 286 m 20 Y s 1290 306 m 19 Y s 1288 306 m 2 X s 1290 306 m 1 X s black 1290 306 m20 0 0 1 c 1293 259 m 17 Y s 1293 276 m 17 Y s 1291 276 m 2 X s 1293 276 m 1 X s black 1293 276 m20 0 0 1 c 1296 262 m 18 Y s 1296 280 m 18 Y s 1294 280 m 2 X s
 1296 280 m 1 X s black 1296 280 m20 0 0 1 c 1299 238 m 15 Y s 1299 253 m 15 Y s 1297 253 m 2 X s 1299 253 m 1 X s black 1299 253 m20 0 0 1 c 1302 248 m 15 Y s 1302 263 m 16 Y s 1300 263 m 2 X s 1302 263 m 1 X s black 1302 263 m20 0 0 1 c 1305 284 m
 20 Y s 1305 304 m 19 Y s 1303 304 m 2 X s 1305 304 m 1 X s black 1305 304 m20 0 0 1 c 1308 282 m 19 Y s 1308 301 m 19 Y s 1306 301 m 2 X s 1308 301 m 1 X s black 1308 301 m20 0 0 1 c 1311 270 m 18 Y s 1311 288 m 18 Y s 1309 288 m 2 X s 1311 288 m 1
 X s black 1311 288 m20 0 0 1 c 1314 248 m 15 Y s 1314 263 m 16 Y s 1312 263 m 2 X s 1314 263 m 1 X s black 1314 263 m20 0 0 1 c 1317 253 m 16 Y s 1317 269 m 16 Y s 1315 269 m 2 X s 1317 269 m 1 X s black 1317 269 m20 0 0 1 c 1320 252 m 16 Y s 1320
 268 m 16 Y s 1318 268 m 2 X s 1320 268 m 1 X s black 1320 268 m20 0 0 1 c 1323 291 m 19 Y s 1323 310 m 20 Y s 1321 310 m 2 X s 1323 310 m 1 X s black 1323 310 m20 0 0 1 c 1326 239 m 15 Y s 1326 254 m 15 Y s 1324 254 m 2 X s 1326 254 m 1 X s black
 1326 254 m20 0 0 1 c 1329 260 m 17 Y s 1329 277 m 17 Y s 1327 277 m 2 X s 1329 277 m 1 X s black 1329 277 m20 0 0 1 c 1332 237 m 14 Y s 1332 251 m 13 Y s 1330 251 m 2 X s 1332 251 m 1 X s black 1332 251 m20 0 0 1 c 1335 230 m 13 Y s 1335 243 m 13 Y
 s 1333 243 m 2 X s 1335 243 m 1 X s black 1335 243 m20 0 0 1 c 1338 244 m 14 Y s 1338 258 m 15 Y s 1336 258 m 2 X s 1338 258 m 1 X s black 1338 258 m20 0 0 1 c 1341 242 m 14 Y s 1341 256 m 14 Y s 1339 256 m 2 X s 1341 256 m 1 X s black 1341 256 m20
 0 0 1 c 1344 242 m 15 Y s 1344 257 m 15 Y s 1342 257 m 2 X s 1344 257 m 2 X s black 1344 257 m20 0 0 1 c 1347 264 m 17 Y s 1347 281 m 17 Y s 1346 281 m 1 X s 1347 281 m 2 X s black 1347 281 m20 0 0 1 c 1350 229 m 13 Y s 1350 242 m 13 Y s 1349 242 m
 1 X s 1350 242 m 2 X s black 1350 242 m20 0 0 1 c 1353 236 m 13 Y s 1353 249 m 14 Y s 1352 249 m 1 X s 1353 249 m 2 X s black 1353 249 m20 0 0 1 c 1356 264 m 17 Y s 1356 281 m 17 Y s 1355 281 m 1 X s 1356 281 m 2 X s black 1356 281 m20 0 0 1 c 1359
 247 m 16 Y s 1359 263 m 15 Y s 1358 263 m 1 X s 1359 263 m 2 X s black 1359 263 m20 0 0 1 c 1362 265 m 17 Y s 1362 282 m 16 Y s 1361 282 m 1 X s 1362 282 m 2 X s black 1362 282 m20 0 0 1 c 1365 274 m 18 Y s 1365 292 m 17 Y s 1364 292 m 1 X s 1365
 292 m 2 X s black 1365 292 m20 0 0 1 c 1368 282 m 19 Y s 1368 301 m 19 Y s 1367 301 m 1 X s 1368 301 m 2 X s black 1368 301 m20 0 0 1 c 1371 252 m 16 Y s 1371 268 m 16 Y s 1370 268 m 1 X s 1371 268 m 2 X s black 1371 268 m20 0 0 1 c 1374 322 m 22 Y
 s 1374 344 m 23 Y s 1373 344 m 1 X s 1374 344 m 2 X s black 1374 344 m20 0 0 1 c 1377 269 m 18 Y s 1377 287 m 18 Y s 1376 287 m 1 X s 1377 287 m 2 X s black 1377 287 m20 0 0 1 c 1380 333 m 23 Y s 1380 356 m 23 Y s 1379 356 m 1 X s 1380 356 m 2 X s
 black 1380 356 m20 0 0 1 c 1383 333 m 24 Y s 1383 357 m 23 Y s 1382 357 m 1 X s 1383 357 m 2 X s black 1383 357 m20 0 0 1 c 1386 339 m 23 Y s 1386 362 m 24 Y s 1385 362 m 1 X s 1386 362 m 2 X s black 1386 362 m20 0 0 1 c 1389 355 m 25 Y s 1389 380 m
 25 Y s 1388 380 m 1 X s 1389 380 m 2 X s black 1389 380 m20 0 0 1 c 1392 389 m 28 Y s 1392 417 m 27 Y s 1391 417 m 1 X s 1392 417 m 2 X s black 1392 417 m20 0 0 1 c 1395 422 m 30 Y s 1395 452 m 29 Y s 1394 452 m 1 X s 1395 452 m 2 X s black 1395 452
 m20 0 0 1 c 1398 473 m 32 Y s 1398 505 m 32 Y s 1397 505 m 1 X s 1398 505 m 2 X s black 1398 505 m20 0 0 1 c 1401 505 m 34 Y s 1401 539 m 34 Y s 1400 539 m 1 X s 1401 539 m 2 X s black 1401 539 m20 0 0 1 c 1404 525 m 35 Y s 1404 560 m 35 Y s 1403
 560 m 1 X s 1404 560 m 2 X s black 1404 560 m20 0 0 1 c 1407 531 m 35 Y s 1407 566 m 35 Y s 1406 566 m 1 X s 1407 566 m 2 X s black 1407 566 m20 0 0 1 c 1411 559 m 37 Y s 1411 596 m 36 Y s 1409 596 m 2 X s 1411 596 m 1 X s black 1411 596 m20 0 0 1 c
 1414 616 m 39 Y s 1414 655 m 39 Y s 1412 655 m 2 X s 1414 655 m 1 X s black 1414 655 m20 0 0 1 c 1417 626 m 40 Y s 1417 666 m 40 Y s 1415 666 m 2 X s 1417 666 m 1 X s black 1417 666 m20 0 0 1 c 1420 725 m 44 Y s 1420 769 m 44 Y s 1418 769 m 2 X s
 1420 769 m 1 X s black 1420 769 m20 0 0 1 c 1423 867 m 49 Y s 1423 916 m 49 Y s 1421 916 m 2 X s 1423 916 m 1 X s black 1423 916 m20 0 0 1 c 1426 870 m 49 Y s 1426 919 m 49 Y s 1424 919 m 2 X s 1426 919 m 1 X s black 1426 919 m20 0 0 1 c 1429 881 m
 50 Y s 1429 931 m 50 Y s 1427 931 m 2 X s 1429 931 m 1 X s black 1429 931 m20 0 0 1 c 1432 1027 m 55 Y s 1432 1082 m 55 Y s 1430 1082 m 2 X s 1432 1082 m 1 X s black 1432 1082 m20 0 0 1 c 1435 908 m 51 Y s 1435 959 m 51 Y s 1433 959 m 2 X s 1435 959
 m 1 X s black 1435 959 m20 0 0 1 c 1438 1014 m 55 Y s 1438 1069 m 54 Y s 1436 1069 m 2 X s 1438 1069 m 1 X s black 1438 1069 m20 0 0 1 c 1441 1156 m 59 Y s 1441 1215 m 59 Y s 1439 1215 m 2 X s 1441 1215 m 1 X s black 1441 1215 m20 0 0 1 c 1444 1195
 m 60 Y s 1444 1255 m 59 Y s 1442 1255 m 2 X s 1444 1255 m 1 X s black 1444 1255 m20 0 0 1 c 1447 1198 m 60 Y s 1447 1258 m 60 Y s 1445 1258 m 2 X s 1447 1258 m 1 X s black 1447 1258 m20 0 0 1 c 1450 1161 m 59 Y s 1450 1220 m 60 Y s 1448 1220 m 2 X s
 1450 1220 m 1 X s black 1450 1220 m20 0 0 1 c 1453 1204 m 60 Y s 1453 1264 m 61 Y s 1451 1264 m 2 X s 1453 1264 m 1 X s black 1453 1264 m20 0 0 1 c 1456 1178 m 60 Y s 1456 1238 m 60 Y s 1454 1238 m 2 X s 1456 1238 m 1 X s black 1456 1238 m20 0 0 1 c
 1459 1081 m 57 Y s 1459 1138 m 57 Y s 1457 1138 m 2 X s 1459 1138 m 1 X s black 1459 1138 m20 0 0 1 c 1462 1101 m 58 Y s 1462 1159 m 58 Y s 1460 1159 m 2 X s 1462 1159 m 1 X s black 1462 1159 m20 0 0 1 c 1465 978 m 54 Y s 1465 1032 m 54 Y s 1463
 1032 m 2 X s 1465 1032 m 1 X s black 1465 1032 m20 0 0 1 c 1468 1056 m 56 Y s 1468 1112 m 56 Y s 1466 1112 m 2 X s 1468 1112 m 1 X s black 1468 1112 m20 0 0 1 c 1471 970 m 54 Y s 1471 1024 m 53 Y s 1469 1024 m 2 X s 1471 1024 m 2 X s black 1471 1024
 m20 0 0 1 c 1474 838 m 49 Y s 1474 887 m 50 Y s 1473 887 m 1 X s 1474 887 m 2 X s black 1474 887 m20 0 0 1 c 1477 793 m 48 Y s 1477 841 m 48 Y s 1476 841 m 1 X s 1477 841 m 2 X s black 1477 841 m20 0 0 1 c 1480 669 m 43 Y s 1480 712 m 43 Y s 1479
 712 m 1 X s 1480 712 m 2 X s black 1480 712 m20 0 0 1 c 1483 701 m 44 Y s 1483 745 m 44 Y s 1482 745 m 1 X s 1483 745 m 2 X s black 1483 745 m20 0 0 1 c 1486 569 m 38 Y s 1486 607 m 38 Y s 1485 607 m 1 X s 1486 607 m 2 X s black 1486 607 m20 0 0 1 c
 1489 516 m 36 Y s 1489 552 m 36 Y s 1488 552 m 1 X s 1489 552 m 2 X s black 1489 552 m20 0 0 1 c 1492 505 m 35 Y s 1492 540 m 35 Y s 1491 540 m 1 X s 1492 540 m 2 X s black 1492 540 m20 0 0 1 c 1495 479 m 34 Y s 1495 513 m 33 Y s 1494 513 m 1 X s
 1495 513 m 2 X s black 1495 513 m20 0 0 1 c 1498 402 m 28 Y s 1498 430 m 29 Y s 1497 430 m 1 X s 1498 430 m 2 X s black 1498 430 m20 0 0 1 c 1501 381 m 27 Y s 1501 408 m 28 Y s 1500 408 m 1 X s 1501 408 m 2 X s black 1501 408 m20 0 0 1 c 1504 370 m
 26 Y s 1504 396 m 27 Y s 1503 396 m 1 X s 1504 396 m 2 X s black 1504 396 m20 0 0 1 c 1507 294 m 20 Y s 1507 314 m 21 Y s 1506 314 m 1 X s 1507 314 m 2 X s black 1507 314 m20 0 0 1 c 1510 286 m 19 Y s 1510 305 m 20 Y s 1509 305 m 1 X s 1510 305 m 2
 X s black 1510 305 m20 0 0 1 c 1513 282 m 18 Y s 1513 300 m 19 Y s 1512 300 m 1 X s 1513 300 m 2 X s black 1513 300 m20 0 0 1 c 1516 258 m 16 Y s 1516 274 m 16 Y s 1515 274 m 1 X s 1516 274 m 2 X s black 1516 274 m20 0 0 1 c 1519 273 m 17 Y s 1519
 290 m 17 Y s 1518 290 m 1 X s 1519 290 m 2 X s black 1519 290 m20 0 0 1 c 1522 242 m 13 Y s 1522 255 m 13 Y s 1521 255 m 1 X s 1522 255 m 2 X s black 1522 255 m20 0 0 1 c 1525 231 m 12 Y s 1525 243 m 12 Y s 1524 243 m 1 X s 1525 243 m 2 X s black
 1525 243 m20 0 0 1 c 1528 242 m 12 Y s 1528 254 m 13 Y s 1527 254 m 1 X s 1528 254 m 2 X s black 1528 254 m20 0 0 1 c 1531 240 m 12 Y s 1531 252 m 13 Y s 1530 252 m 1 X s 1531 252 m 2 X s black 1531 252 m20 0 0 1 c 1534 250 m 15 Y s 1534 265 m 14 Y
 s 1533 265 m 1 X s 1534 265 m 2 X s black 1534 265 m20 0 0 1 c 1538 217 m 9 Y s 1538 226 m 9 Y s 1536 226 m 2 X s 1538 226 m 1 X s black 1538 226 m20 0 0 1 c 1541 224 m 10 Y s 1541 234 m 10 Y s 1539 234 m 2 X s 1541 234 m 1 X s black 1541 234 m20 0
 0 1 c 1544 225 m 9 Y s 1544 234 m 10 Y s 1542 234 m 2 X s 1544 234 m 1 X s black 1544 234 m20 0 0 1 c 1547 227 m 10 Y s 1547 237 m 10 Y s 1545 237 m 2 X s 1547 237 m 1 X s black 1547 237 m20 0 0 1 c 1550 224 m 9 Y s 1550 233 m 9 Y s 1548 233 m 2 X s
 1550 233 m 1 X s black 1550 233 m20 0 0 1 c 1553 215 m 7 Y s 1553 222 m 6 Y s 1551 222 m 2 X s 1553 222 m 1 X s black 1553 222 m20 0 0 1 c 1556 221 m 8 Y s 1556 229 m 9 Y s 1554 229 m 2 X s 1556 229 m 1 X s black 1556 229 m20 0 0 1 c 1559 229 m 9 Y
 s 1559 238 m 10 Y s 1557 238 m 2 X s 1559 238 m 1 X s black 1559 238 m20 0 0 1 c 1562 210 m 6 Y s 1562 216 m 6 Y s 1560 216 m 2 X s 1562 216 m 1 X s black 1562 216 m20 0 0 1 c 1565 219 m 9 Y s 1565 228 m 9 Y s 1563 228 m 2 X s 1565 228 m 1 X s black
 1565 228 m20 0 0 1 c 1568 226 m 10 Y s 1568 236 m 10 Y s 1566 236 m 2 X s 1568 236 m 1 X s black 1568 236 m20 0 0 1 c 1571 224 m 10 Y s 1571 234 m 10 Y s 1569 234 m 2 X s 1571 234 m 1 X s black 1571 234 m20 0 0 1 c 1574 215 m 8 Y s 1574 223 m 7 Y s
 1572 223 m 2 X s 1574 223 m 1 X s black 1574 223 m20 0 0 1 c 1577 212 m 6 Y s 1577 218 m 7 Y s 1575 218 m 2 X s 1577 218 m 1 X s black 1577 218 m20 0 0 1 c 1580 213 m 7 Y s 1580 220 m 6 Y s 1578 220 m 2 X s 1580 220 m 1 X s black 1580 220 m20 0 0 1
 c 1583 210 m 6 Y s 1583 216 m 6 Y s 1581 216 m 2 X s 1583 216 m 1 X s black 1583 216 m20 0 0 1 c 1586 219 m 8 Y s 1586 227 m 8 Y s 1584 227 m 2 X s 1586 227 m 1 X s black 1586 227 m20 0 0 1 c 1589 223 m 9 Y s 1589 232 m 8 Y s 1587 232 m 2 X s 1589
 232 m 1 X s black 1589 232 m20 0 0 1 c 1592 216 m 8 Y s 1592 224 m 7 Y s 1590 224 m 2 X s 1592 224 m 1 X s black 1592 224 m20 0 0 1 c 1595 230 m 10 Y s 1595 240 m 10 Y s 1593 240 m 2 X s 1595 240 m 1 X s black 1595 240 m20 0 0 1 c 1598 217 m 7 Y s
 1598 224 m 8 Y s 1596 224 m 2 X s 1598 224 m 1 X s black 1598 224 m20 0 0 1 c 1601 218 m 8 Y s 1601 226 m 7 Y s 1599 226 m 2 X s 1601 226 m 2 X s black 1601 226 m20 0 0 1 c 1604 210 m 5 Y s 1604 215 m 5 Y s 1603 215 m 1 X s 1604 215 m 2 X s black
 1604 215 m20 0 0 1 c 1607 220 m 8 Y s 1607 228 m 8 Y s 1606 228 m 1 X s 1607 228 m 2 X s black 1607 228 m20 0 0 1 c 1610 215 m 7 Y s 1610 222 m 6 Y s 1609 222 m 1 X s 1610 222 m 2 X s black 1610 222 m20 0 0 1 c 1613 213 m 5 Y s 1613 218 m 6 Y s 1612
 218 m 1 X s 1613 218 m 2 X s black 1613 218 m20 0 0 1 c 1616 221 m 9 Y s 1616 230 m 8 Y s 1615 230 m 1 X s 1616 230 m 2 X s black 1616 230 m20 0 0 1 c 1619 220 m 9 Y s 1619 229 m 8 Y s 1618 229 m 1 X s 1619 229 m 2 X s black 1619 229 m20 0 0 1 c
 1622 213 m 6 Y s 1622 219 m 6 Y s 1621 219 m 1 X s 1622 219 m 2 X s black 1622 219 m20 0 0 1 c 1625 219 m 7 Y s 1625 226 m 8 Y s 1624 226 m 1 X s 1625 226 m 2 X s black 1625 226 m20 0 0 1 c 1628 222 m 8 Y s 1628 230 m 8 Y s 1627 230 m 1 X s 1628 230
 m 2 X s black 1628 230 m20 0 0 1 c 1631 220 m 9 Y s 1631 229 m 8 Y s 1630 229 m 1 X s 1631 229 m 2 X s black 1631 229 m20 0 0 1 c 1634 212 m 5 Y s 1634 217 m 4 Y s 1633 217 m 1 X s 1634 217 m 2 X s black 1634 217 m20 0 0 1 c 1637 228 m 9 Y s 1637
 237 m 9 Y s 1636 237 m 1 X s 1637 237 m 2 X s black 1637 237 m20 0 0 1 c 1640 222 m 8 Y s 1640 230 m 8 Y s 1639 230 m 1 X s 1640 230 m 2 X s black 1640 230 m20 0 0 1 c 1643 226 m 8 Y s 1643 234 m 8 Y s 1642 234 m 1 X s 1643 234 m 2 X s black 1643
 234 m20 0 0 1 c 1646 223 m 9 Y s 1646 232 m 9 Y s 1645 232 m 1 X s 1646 232 m 2 X s black 1646 232 m20 0 0 1 c 1649 217 m 7 Y s 1649 224 m 8 Y s 1648 224 m 1 X s 1649 224 m 2 X s black 1649 224 m20 0 0 1 c 1652 212 m 5 Y s 1652 217 m 4 Y s 1651 217
 m 1 X s 1652 217 m 2 X s black 1652 217 m20 0 0 1 c 1655 227 m 9 Y s 1655 236 m 9 Y s 1654 236 m 1 X s 1655 236 m 2 X s black 1655 236 m20 0 0 1 c 1658 215 m 7 Y s 1658 222 m 7 Y s 1657 222 m 1 X s 1658 222 m 2 X s black 1658 222 m20 0 0 1 c 1661
 226 m 8 Y s 1661 234 m 9 Y s 1660 234 m 1 X s 1661 234 m 2 X s black 1661 234 m20 0 0 1 c 1665 218 m 7 Y s 1665 225 m 7 Y s 1663 225 m 2 X s 1665 225 m 1 X s black 1665 225 m20 0 0 1 c 1668 224 m 9 Y s 1668 233 m 8 Y s 1666 233 m 2 X s 1668 233 m 1
 X s black 1668 233 m20 0 0 1 c 1671 220 m 8 Y s 1671 228 m 8 Y s 1669 228 m 2 X s 1671 228 m 1 X s black 1671 228 m20 0 0 1 c 1674 225 m 9 Y s 1674 234 m 10 Y s 1672 234 m 2 X s 1674 234 m 1 X s black 1674 234 m20 0 0 1 c 1677 221 m 8 Y s 1677 229 m
 8 Y s 1675 229 m 2 X s 1677 229 m 1 X s black 1677 229 m20 0 0 1 c 1680 224 m 9 Y s 1680 233 m 8 Y s 1678 233 m 2 X s 1680 233 m 1 X s black 1680 233 m20 0 0 1 c 1683 214 m 6 Y s 1683 220 m 6 Y s 1681 220 m 2 X s 1683 220 m 1 X s black 1683 220 m20
 0 0 1 c 1686 224 m 9 Y s 1686 233 m 8 Y s 1684 233 m 2 X s 1686 233 m 1 X s black 1686 233 m20 0 0 1 c 1689 221 m 8 Y s 1689 229 m 8 Y s 1687 229 m 2 X s 1689 229 m 1 X s black 1689 229 m20 0 0 1 c 1692 217 m 8 Y s 1692 225 m 8 Y s 1690 225 m 2 X s
 1692 225 m 1 X s black 1692 225 m20 0 0 1 c 1695 215 m 8 Y s 1695 223 m 7 Y s 1693 223 m 2 X s 1695 223 m 1 X s black 1695 223 m20 0 0 1 c 1698 215 m 7 Y s 1698 222 m 8 Y s 1696 222 m 2 X s 1698 222 m 1 X s black 1698 222 m20 0 0 1 c 1701 227 m 10 Y
 s 1701 237 m 11 Y s 1699 237 m 2 X s 1701 237 m 1 X s black 1701 237 m20 0 0 1 c 1704 210 m 7 Y s 1704 217 m 6 Y s 1702 217 m 2 X s 1704 217 m 1 X s black 1704 217 m20 0 0 1 c 1707 217 m 8 Y s 1707 225 m 8 Y s 1705 225 m 2 X s 1707 225 m 1 X s black
 1707 225 m20 0 0 1 c 1710 221 m 10 Y s 1710 231 m 9 Y s 1708 231 m 2 X s 1710 231 m 1 X s black 1710 231 m20 0 0 1 c 1713 216 m 8 Y s 1713 224 m 8 Y s 1711 224 m 2 X s 1713 224 m 1 X s black 1713 224 m20 0 0 1 c 1716 218 m 8 Y s 1716 226 m 8 Y s
 1714 226 m 2 X s 1716 226 m 1 X s black 1716 226 m20 0 0 1 c 1719 217 m 8 Y s 1719 225 m 8 Y s 1717 225 m 2 X s 1719 225 m 1 X s black 1719 225 m20 0 0 1 c 1722 215 m 7 Y s 1722 222 m 6 Y s 1720 222 m 2 X s 1722 222 m 1 X s black 1722 222 m20 0 0 1
 c 1725 215 m 8 Y s 1725 223 m 7 Y s 1723 223 m 2 X s 1725 223 m 1 X s black 1725 223 m20 0 0 1 c 1728 227 m 9 Y s 1728 236 m 9 Y s 1726 236 m 2 X s 1728 236 m 2 X s black 1728 236 m20 0 0 1 c 1731 211 m 5 Y s 1731 216 m 5 Y s 1730 216 m 1 X s 1731
 216 m 2 X s black 1731 216 m20 0 0 1 c 1734 209 m 5 Y s 1734 214 m 5 Y s 1733 214 m 1 X s 1734 214 m 2 X s black 1734 214 m20 0 0 1 c 1737 210 m 5 Y s 1737 215 m 5 Y s 1736 215 m 1 X s 1737 215 m 2 X s black 1737 215 m20 0 0 1 c 1740 210 m 4 Y s
 1740 214 m 5 Y s 1739 214 m 1 X s 1740 214 m 2 X s black 1740 214 m20 0 0 1 c 1743 222 m 8 Y s 1743 230 m 9 Y s 1742 230 m 1 X s 1743 230 m 2 X s black 1743 230 m20 0 0 1 c 1746 220 m 8 Y s 1746 228 m 9 Y s 1745 228 m 1 X s 1746 228 m 2 X s black
 1746 228 m20 0 0 1 c 1749 231 m 10 Y s 1749 241 m 10 Y s 1748 241 m 1 X s 1749 241 m 2 X s black 1749 241 m20 0 0 1 c 1752 212 m 5 Y s 1752 217 m 5 Y s 1751 217 m 1 X s 1752 217 m 2 X s black 1752 217 m20 0 0 1 c 1755 216 m 5 Y s 1755 221 m 6 Y s
 1754 221 m 1 X s 1755 221 m 2 X s black 1755 221 m20 0 0 1 c 1758 225 m 9 Y s 1758 234 m 8 Y s 1757 234 m 1 X s 1758 234 m 2 X s black 1758 234 m20 0 0 1 c 1761 215 m 6 Y s 1761 221 m 6 Y s 1760 221 m 1 X s 1761 221 m 2 X s black 1761 221 m20 0 0 1
 c 1764 212 m 3 Y s 1764 215 m 4 Y s 1763 215 m 1 X s 1764 215 m 2 X s black 1764 215 m20 0 0 1 c 1767 219 m 7 Y s 1767 226 m 7 Y s 1766 226 m 1 X s 1767 226 m 2 X s black 1767 226 m20 0 0 1 c 1770 215 m 4 Y s 1770 219 m 5 Y s 1769 219 m 1 X s 1770
 219 m 2 X s black 1770 219 m20 0 0 1 c 1773 222 m 8 Y s 1773 230 m 7 Y s 1772 230 m 1 X s 1773 230 m 2 X s black 1773 230 m20 0 0 1 c 1776 219 m 6 Y s 1776 225 m 5 Y s 1775 225 m 1 X s 1776 225 m 2 X s black 1776 225 m20 0 0 1 c 1779 226 m 8 Y s
 1779 234 m 8 Y s 1778 234 m 1 X s 1779 234 m 2 X s black 1779 234 m20 0 0 1 c 1782 212 m 4 Y s 1782 216 m 3 Y s 1781 216 m 1 X s 1782 216 m 2 X s black 1782 216 m20 0 0 1 c 1785 230 m 9 Y s 1785 239 m 9 Y s 1784 239 m 1 X s 1785 239 m 2 X s black
 1785 239 m20 0 0 1 c 1788 219 m 6 Y s 1788 225 m 6 Y s 1787 225 m 1 X s 1788 225 m 2 X s black 1788 225 m20 0 0 1 c 1791 223 m 7 Y s 1791 230 m 8 Y s 1790 230 m 1 X s 1791 230 m 2 X s black 1791 230 m20 0 0 1 c 1795 220 m 7 Y s 1795 227 m 8 Y s 1793
 227 m 2 X s 1795 227 m 1 X s black 1795 227 m20 0 0 1 c 1798 222 m 7 Y s 1798 229 m 7 Y s 1796 229 m 2 X s 1798 229 m 1 X s black 1798 229 m20 0 0 1 c 1801 216 m 5 Y s 1801 221 m 6 Y s 1799 221 m 2 X s 1801 221 m 1 X s black 1801 221 m20 0 0 1 c
 1804 214 m 1 Y s 1804 215 m 1 Y s 1802 215 m 2 X s 1804 215 m 1 X s black 1804 215 m20 0 0 1 c 1807 226 m 8 Y s 1807 234 m 8 Y s 1805 234 m 2 X s 1807 234 m 1 X s black 1807 234 m20 0 0 1 c 1810 229 m 9 Y s 1810 238 m 8 Y s 1808 238 m 2 X s 1810 238
 m 1 X s black 1810 238 m20 0 0 1 c 1813 216 m 5 Y s 1813 221 m 4 Y s 1811 221 m 2 X s 1813 221 m 1 X s black 1813 221 m20 0 0 1 c 1816 213 m 1 Y s 1816 214 m 1 Y s 1814 214 m 2 X s 1816 214 m 1 X s black 1816 214 m20 0 0 1 c 1819 219 m 6 Y s 1819
 225 m 5 Y s 1817 225 m 2 X s 1819 225 m 1 X s black 1819 225 m20 0 0 1 c 1822 221 m 7 Y s 1822 228 m 7 Y s 1820 228 m 2 X s 1822 228 m 1 X s black 1822 228 m20 0 0 1 c 1825 227 m 8 Y s 1825 235 m 8 Y s 1823 235 m 2 X s 1825 235 m 1 X s black 1825
 235 m20 0 0 1 c 1828 226 m 8 Y s 1828 234 m 7 Y s 1826 234 m 2 X s 1828 234 m 1 X s black 1828 234 m20 0 0 1 c 1831 226 m 8 Y s 1831 234 m 8 Y s 1829 234 m 2 X s 1831 234 m 1 X s black 1831 234 m20 0 0 1 c 1834 221 m 7 Y s 1834 228 m 6 Y s 1832 228
 m 2 X s 1834 228 m 1 X s black 1834 228 m20 0 0 1 c 1837 223 m 6 Y s 1837 229 m 7 Y s 1835 229 m 2 X s 1837 229 m 1 X s black 1837 229 m20 0 0 1 c 1840 217 m 3 Y s 1840 220 m 4 Y s 1838 220 m 2 X s 1840 220 m 1 X s black 1840 220 m20 0 0 1 c 1843
 217 m 5 Y s 1843 222 m 6 Y s 1841 222 m 2 X s 1843 222 m 1 X s black 1843 222 m20 0 0 1 c 1846 220 m 6 Y s 1846 226 m 5 Y s 1844 226 m 2 X s 1846 226 m 1 X s black 1846 226 m20 0 0 1 c 1849 227 m 8 Y s 1849 235 m 8 Y s 1847 235 m 2 X s 1849 235 m 1
 X s black 1849 235 m20 0 0 1 c 1852 224 m 6 Y s 1852 230 m 7 Y s 1850 230 m 2 X s 1852 230 m 1 X s black 1852 230 m20 0 0 1 c 1855 213 m 4 Y s 1855 217 m 3 Y s 1853 217 m 2 X s 1855 217 m 2 X s black 1855 217 m20 0 0 1 c 1858 233 m 9 Y s 1858 242 m
 10 Y s 1857 242 m 1 X s 1858 242 m 2 X s black 1858 242 m20 0 0 1 c 1861 228 m 8 Y s 1861 236 m 8 Y s 1860 236 m 1 X s 1861 236 m 2 X s black 1861 236 m20 0 0 1 c 1864 215 m 4 Y s 1864 219 m 3 Y s 1863 219 m 1 X s 1864 219 m 2 X s black 1864 219 m20
 0 0 1 c 1867 224 m 6 Y s 1867 230 m 7 Y s 1866 230 m 1 X s 1867 230 m 2 X s black 1867 230 m20 0 0 1 c 1870 221 m 6 Y s 1870 227 m 5 Y s 1869 227 m 1 X s 1870 227 m 2 X s black 1870 227 m20 0 0 1 c 1873 222 m 6 Y s 1873 228 m 7 Y s 1872 228 m 1 X s
 1873 228 m 2 X s black 1873 228 m20 0 0 1 c 1876 221 m 6 Y s 1876 227 m 5 Y s 1875 227 m 1 X s 1876 227 m 2 X s black 1876 227 m20 0 0 1 c 1879 219 m 5 Y s 1879 224 m 6 Y s 1878 224 m 1 X s 1879 224 m 2 X s black 1879 224 m20 0 0 1 c 1882 233 m 10 Y
 s 1882 243 m 9 Y s 1881 243 m 1 X s 1882 243 m 2 X s black 1882 243 m20 0 0 1 c 1885 226 m 7 Y s 1885 233 m 7 Y s 1884 233 m 1 X s 1885 233 m 2 X s black 1885 233 m20 0 0 1 c 1888 228 m 8 Y s 1888 236 m 8 Y s 1887 236 m 1 X s 1888 236 m 2 X s black
 1888 236 m20 0 0 1 c 1891 219 m 6 Y s 1891 225 m 5 Y s 1890 225 m 1 X s 1891 225 m 2 X s black 1891 225 m20 0 0 1 c 1894 217 m 3 Y s 1894 220 m 3 Y s 1893 220 m 1 X s 1894 220 m 2 X s black 1894 220 m20 0 0 1 c 1897 224 m 6 Y s 1897 230 m 7 Y s 1896
 230 m 1 X s 1897 230 m 2 X s black 1897 230 m20 0 0 1 c 1900 224 m 6 Y s 1900 230 m 7 Y s 1899 230 m 1 X s 1900 230 m 2 X s black 1900 230 m20 0 0 1 c 1903 224 m 7 Y s 1903 231 m 6 Y s 1902 231 m 1 X s 1903 231 m 2 X s black 1903 231 m20 0 0 1 c
 1906 228 m 8 Y s 1906 236 m 8 Y s 1905 236 m 1 X s 1906 236 m 2 X s black 1906 236 m20 0 0 1 c 1909 224 m 8 Y s 1909 232 m 7 Y s 1908 232 m 1 X s 1909 232 m 2 X s black 1909 232 m20 0 0 1 c 1912 222 m 6 Y s 1912 228 m 5 Y s 1911 228 m 1 X s 1912 228
 m 2 X s black 1912 228 m20 0 0 1 c 1915 219 m 5 Y s 1915 224 m 4 Y s 1914 224 m 1 X s 1915 224 m 2 X s black 1915 224 m20 0 0 1 c 1918 228 m 8 Y s 1918 236 m 8 Y s 1917 236 m 1 X s 1918 236 m 2 X s black 1918 236 m20 0 0 1 c 1922 225 m 8 Y s 1922
 233 m 7 Y s 1920 233 m 2 X s 1922 233 m 1 X s black 1922 233 m20 0 0 1 c 1925 227 m 8 Y s 1925 235 m 9 Y s 1923 235 m 2 X s 1925 235 m 1 X s black 1925 235 m20 0 0 1 c 1928 224 m 8 Y s 1928 232 m 7 Y s 1926 232 m 2 X s 1928 232 m 1 X s black 1928
 232 m20 0 0 1 c 1931 216 m 4 Y s 1931 220 m 3 Y s 1929 220 m 2 X s 1931 220 m 1 X s black 1931 220 m20 0 0 1 c 1934 231 m 9 Y s 1934 240 m 9 Y s 1932 240 m 2 X s 1934 240 m 1 X s black 1934 240 m20 0 0 1 c 1937 215 m 4 Y s 1937 219 m 5 Y s 1935 219
 m 2 X s 1937 219 m 1 X s black 1937 219 m20 0 0 1 c 1940 228 m 8 Y s 1940 236 m 8 Y s 1938 236 m 2 X s 1940 236 m 1 X s black 1940 236 m20 0 0 1 c 1943 213 m 4 Y s 1943 217 m 3 Y s 1941 217 m 2 X s 1943 217 m 1 X s black 1943 217 m20 0 0 1 c 1946
 224 m 7 Y s 1946 231 m 7 Y s 1944 231 m 2 X s 1946 231 m 1 X s black 1946 231 m20 0 0 1 c 1949 224 m 8 Y s 1949 232 m 7 Y s 1947 232 m 2 X s 1949 232 m 1 X s black 1949 232 m20 0 0 1 c 1952 225 m 8 Y s 1952 233 m 8 Y s 1950 233 m 2 X s 1952 233 m 1
 X s black 1952 233 m20 0 0 1 c 1955 218 m 3 Y s 1955 221 m 3 Y s 1953 221 m 2 X s 1955 221 m 1 X s black 1955 221 m20 0 0 1 c 1958 232 m 9 Y s 1958 241 m 9 Y s 1956 241 m 2 X s 1958 241 m 1 X s black 1958 241 m20 0 0 1 c 1961 215 m 5 Y s 1961 220 m
 4 Y s 1959 220 m 2 X s 1961 220 m 1 X s black 1961 220 m20 0 0 1 c 1964 217 m 5 Y s 1964 222 m 6 Y s 1962 222 m 2 X s 1964 222 m 1 X s black 1964 222 m20 0 0 1 c 1967 230 m 10 Y s 1967 240 m 9 Y s 1965 240 m 2 X s 1967 240 m 1 X s black 1967 240 m20
 0 0 1 c 1970 218 m 6 Y s 1970 224 m 5 Y s 1968 224 m 2 X s 1970 224 m 1 X s black 1970 224 m20 0 0 1 c 1973 218 m 7 Y s 1973 225 m 6 Y s 1971 225 m 2 X s 1973 225 m 1 X s black 1973 225 m20 0 0 1 c 1976 220 m 8 Y s 1976 228 m 7 Y s 1974 228 m 2 X s
 1976 228 m 1 X s black 1976 228 m20 0 0 1 c 1979 220 m 6 Y s 1979 226 m 7 Y s 1977 226 m 2 X s 1979 226 m 1 X s black 1979 226 m20 0 0 1 c 1982 214 m 4 Y s 1982 218 m 5 Y s 1980 218 m 2 X s 1982 218 m 1 X s black 1982 218 m20 0 0 1 c 1985 221 m 7 Y
 s 1985 228 m 7 Y s 1983 228 m 2 X s 1985 228 m 2 X s black 1985 228 m20 0 0 1 c 1988 221 m 7 Y s 1988 228 m 8 Y s 1987 228 m 1 X s 1988 228 m 2 X s black 1988 228 m20 0 0 1 c 1991 212 m 5 Y s 1991 217 m 5 Y s 1990 217 m 1 X s 1991 217 m 2 X s black
 1991 217 m20 0 0 1 c 1994 216 m 5 Y s 1994 221 m 4 Y s 1993 221 m 1 X s 1994 221 m 2 X s black 1994 221 m20 0 0 1 c 1997 216 m 5 Y s 1997 221 m 4 Y s 1996 221 m 1 X s 1997 221 m 2 X s black 1997 221 m20 0 0 1 c 2000 229 m 10 Y s 2000 239 m 9 Y s
 1999 239 m 1 X s 2000 239 m 2 X s black 2000 239 m20 0 0 1 c 2003 219 m 7 Y s 2003 226 m 6 Y s 2002 226 m 1 X s 2003 226 m 2 X s black 2003 226 m20 0 0 1 c 2006 216 m 4 Y s 2006 220 m 5 Y s 2005 220 m 1 X s 2006 220 m 2 X s black 2006 220 m20 0 0 1
 c 2009 218 m 6 Y s 2009 224 m 7 Y s 2008 224 m 1 X s 2009 224 m 2 X s black 2009 224 m20 0 0 1 c 2012 224 m 7 Y s 2012 231 m 8 Y s 2011 231 m 1 X s 2012 231 m 2 X s black 2012 231 m20 0 0 1 c 2015 221 m 6 Y s 2015 227 m 7 Y s 2014 227 m 1 X s 2015
 227 m 2 X s black 2015 227 m20 0 0 1 c 2018 217 m 6 Y s 2018 223 m 5 Y s 2017 223 m 1 X s 2018 223 m 2 X s black 2018 223 m20 0 0 1 c 2021 223 m 7 Y s 2021 230 m 8 Y s 2020 230 m 1 X s 2021 230 m 2 X s black 2021 230 m20 0 0 1 c 2024 211 m 2 Y s
 2024 213 m 1 Y s 2023 213 m 1 X s 2024 213 m 2 X s black 2024 213 m20 0 0 1 c 2027 226 m 8 Y s 2027 234 m 8 Y s 2026 234 m 1 X s 2027 234 m 2 X s black 2027 234 m20 0 0 1 c 2030 228 m 9 Y s 2030 237 m 9 Y s 2029 237 m 1 X s 2030 237 m 2 X s black
 2030 237 m20 0 0 1 c 2033 230 m 9 Y s 2033 239 m 8 Y s 2032 239 m 1 X s 2033 239 m 2 X s black 2033 239 m20 0 0 1 c 2036 215 m 4 Y s 2036 219 m 3 Y s 2035 219 m 1 X s 2036 219 m 2 X s black 2036 219 m20 0 0 1 c 2039 216 m 4 Y s 2039 220 m 5 Y s 2038
 220 m 1 X s 2039 220 m 2 X s black 2039 220 m20 1 1 1 c 453 430 1769 1007 bf black 1769 1007 m 453 X s 2222 1007 m 430 Y s 2222 1437 m -453 X s 1769 1437 m -430 Y s 1 1 1 c black
 gsave  2268 1537 0 0 C 1790.13 1364.53 t 0 r /Helvetica findfont 68.2264 sf 0 0 m (net_spectrum) show NC gr  1769 1329 m 453 X s
 gsave  2268 1537 0 0 C 1790.13 1257.32 t 0 r /Helvetica findfont 51.982 sf 0 0 m (Entries ) show NC gr 
 gsave  2268 1537 0 0 C 2040.3 1257.32 t 0 r /Helvetica findfont 51.982 sf 0 0 m ( 17183) show NC gr 
 gsave  2268 1537 0 0 C 1790.13 1150.1 t 0 r /Helvetica findfont 51.982 sf 0 0 m (Mean  ) show NC gr 
 gsave  2268 1537 0 0 C 2040.3 1150.1 t 0 r /Helvetica findfont 51.982 sf 0 0 m (   6159) show NC gr 
 gsave  2268 1537 0 0 C 1790.13 1042.89 t 0 r /Helvetica findfont 51.982 sf 0 0 m (Std Dev   ) show NC gr 
 gsave  2268 1537 0 0 C 2040.3 1042.89 t 0 r /Helvetica findfont 51.982 sf 0 0 m (   3158) show NC gr  227 154 m 1814 X s 227 191 m -37 Y s 287 172 m -18 Y s 348 172 m -18 Y s 408 172 m -18 Y s 469 191 m -37 Y s 529 172 m -18 Y s 590 172 m -18 Y s
 650 172 m -18 Y s 711 191 m -37 Y s 771 172 m -18 Y s 831 172 m -18 Y s 892 172 m -18 Y s 952 191 m -37 Y s 1013 172 m -18 Y s 1073 172 m -18 Y s 1134 172 m -18 Y s 1194 191 m -37 Y s 1255 172 m -18 Y s 1315 172 m -18 Y s 1376 172 m -18 Y s 1436 191
 m -37 Y s 1497 172 m -18 Y s 1557 172 m -18 Y s 1618 172 m -18 Y s 1678 191 m -37 Y s 1739 172 m -18 Y s 1799 172 m -18 Y s 1860 172 m -18 Y s 1920 191 m -37 Y s 1920 191 m -37 Y s 1980 172 m -18 Y s 2041 172 m -18 Y s
 gsave  2268 1537 0 0 C 211.177 103.964 t 0 r /Helvetica findfont 48.7332 sf 0 0 m (0) show NC gr 
 gsave  2268 1537 0 0 C 412.607 103.964 t 0 r /Helvetica findfont 48.7332 sf 0 0 m (2000) show NC gr 
 gsave  2268 1537 0 0 C 653.024 103.964 t 0 r /Helvetica findfont 48.7332 sf 0 0 m (4000) show NC gr 
 gsave  2268 1537 0 0 C 896.69 103.964 t 0 r /Helvetica findfont 48.7332 sf 0 0 m (6000) show NC gr 
 gsave  2268 1537 0 0 C 1137.11 103.964 t 0 r /Helvetica findfont 48.7332 sf 0 0 m (8000) show NC gr 
 gsave  2268 1537 0 0 C 1367.78 103.964 t 0 r /Helvetica findfont 48.7332 sf 0 0 m (10000) show NC gr 
 gsave  2268 1537 0 0 C 1608.19 103.964 t 0 r /Helvetica findfont 48.7332 sf 0 0 m (12000) show NC gr 
 gsave  2268 1537 0 0 C 1848.61 103.964 t 0 r /Helvetica findfont 48.7332 sf 0 0 m (14000) show NC gr 
 gsave  2268 1537 0 0 C 1764.14 55.2309 t 0 r /Helvetica findfont 48.7332 sf 0 0 m (Energy [a.u.]) show NC gr  227 154 m 1229 Y s 281 227 m -54 X s 254 260 m -27 X s 254 292 m -27 X s 254 324 m -27 X s 254 357 m -27 X s 281 389 m -54 X s 254 422 m
 -27 X s 254 454 m -27 X s 254 486 m -27 X s 254 519 m -27 X s 281 551 m -54 X s 254 584 m -27 X s 254 616 m -27 X s 254 648 m -27 X s 254 681 m -27 X s 281 713 m -54 X s 254 746 m -27 X s 254 778 m -27 X s 254 811 m -27 X s 254 843 m -27 X s 281 875
 m -54 X s 254 908 m -27 X s 254 940 m -27 X s 254 973 m -27 X s 254 1005 m -27 X s 281 1037 m -54 X s 254 1070 m -27 X s 254 1102 m -27 X s 254 1135 m -27 X s 254 1167 m -27 X s 281 1200 m -54 X s 254 1232 m -27 X s 254 1264 m -27 X s 254 1297 m -27
 X s 254 1329 m -27 X s 281 1362 m -54 X s 281 227 m -54 X s 254 195 m -27 X s 254 162 m -27 X s 281 1362 m -54 X s
 gsave  2268 1537 0 0 C 188.435 207.928 t 0 r /Helvetica findfont 48.7332 sf 0 0 m (0) show NC gr 
 gsave  2268 1537 0 0 C 162.444 370.372 t 0 r /Helvetica findfont 48.7332 sf 0 0 m (50) show NC gr 
 gsave  2268 1537 0 0 C 133.204 532.816 t 0 r /Helvetica findfont 48.7332 sf 0 0 m (100) show NC gr 
 gsave  2268 1537 0 0 C 133.204 695.26 t 0 r /Helvetica findfont 48.7332 sf 0 0 m (150) show NC gr 
 gsave  2268 1537 0 0 C 133.204 857.704 t 0 r /Helvetica findfont 48.7332 sf 0 0 m (200) show NC gr 
 gsave  2268 1537 0 0 C 133.204 1020.15 t 0 r /Helvetica findfont 48.7332 sf 0 0 m (250) show NC gr 
 gsave  2268 1537 0 0 C 133.204 1182.59 t 0 r /Helvetica findfont 48.7332 sf 0 0 m (300) show NC gr 
 gsave  2268 1537 0 0 C 133.204 1345.04 t 0 r /Helvetica findfont 48.7332 sf 0 0 m (350) show NC gr  1 1 1 c 453 430 1769 1007 bf black 1769 1007 m 453 X s 2222 1007 m 430 Y s 2222 1437 m -453 X s 1769 1437 m -430 Y s 1 1 1 c black
 gsave  2268 1537 0 0 C 1790.13 1364.53 t 0 r /Helvetica findfont 68.2264 sf 0 0 m (net_spectrum) show NC gr  1769 1329 m 453 X s
 gsave  2268 1537 0 0 C 1790.13 1257.32 t 0 r /Helvetica findfont 51.982 sf 0 0 m (Entries ) show NC gr 
 gsave  2268 1537 0 0 C 2040.3 1257.32 t 0 r /Helvetica findfont 51.982 sf 0 0 m ( 17183) show NC gr 
 gsave  2268 1537 0 0 C 1790.13 1150.1 t 0 r /Helvetica findfont 51.982 sf 0 0 m (Mean  ) show NC gr 
 gsave  2268 1537 0 0 C 2040.3 1150.1 t 0 r /Helvetica findfont 51.982 sf 0 0 m (   6159) show NC gr 
 gsave  2268 1537 0 0 C 1790.13 1042.89 t 0 r /Helvetica findfont 51.982 sf 0 0 m (Std Dev   ) show NC gr 
 gsave  2268 1537 0 0 C 2040.3 1042.89 t 0 r /Helvetica findfont 51.982 sf 0 0 m (   3158) show NC gr  1 1 1 c black
 gsave  2268 1537 0 0 C 393.114 1465.24 t 0 r /Helvetica findfont 68.2264 sf 0 0 m (Spettro KCl_2 al netto della sottrazione del fondo) show NC gr 
 gr  gr showpage
end
%%EOF
