\relax 
\select@language{italian}
\@writefile{toc}{\select@language{italian}}
\@writefile{lof}{\select@language{italian}}
\@writefile{lot}{\select@language{italian}}
\select@language{italian}
\@writefile{toc}{\select@language{italian}}
\@writefile{lof}{\select@language{italian}}
\@writefile{lot}{\select@language{italian}}
\@writefile{toc}{\contentsline {section}{\numberline {1}Obiettivo dell'esperienza}{1}}
\@writefile{toc}{\contentsline {section}{\numberline {2}Descrizione dell'apparato sperimentale}{1}}
\@writefile{lot}{\contentsline {table}{\numberline {1}{\ignorespaces  Fluke 111\relax }}{3}}
\providecommand*\caption@xref[2]{\@setref\relax\@undefined{#1}}
\newlabel{tab:fluke}{{1}{3}}
\@writefile{toc}{\contentsline {section}{\numberline {3}Impulsi}{3}}
\@writefile{toc}{\contentsline {subsection}{\numberline {3.1}Cenni teorici}{3}}
\@writefile{lof}{\contentsline {figure}{\numberline {1}{\ignorespaces  Schema del circuito RC ideale\relax }}{4}}
\newlabel{im:circuitoRC}{{1}{4}}
\@writefile{toc}{\contentsline {subsection}{\numberline {3.2}Procedura sperimentale}{4}}
\@writefile{lof}{\contentsline {figure}{\numberline {2}{\ignorespaces  Schema del circuito RC con oscilloscopio\relax }}{5}}
\newlabel{im:schemacircuito}{{2}{5}}
\@writefile{toc}{\contentsline {subsection}{\numberline {3.3}Analisi dati}{5}}
\@writefile{toc}{\contentsline {subsubsection}{\numberline {3.3.1}Stima della costante di tempo}{5}}
\@writefile{lot}{\contentsline {table}{\numberline {2}{\ignorespaces  Misure dirette di $R_4$ e $C_2$\relax }}{5}}
\newlabel{tab:misuredirette}{{2}{5}}
\@writefile{lot}{\contentsline {table}{\numberline {3}{\ignorespaces  Misure di scarica\relax }}{7}}
\newlabel{tab:datiscarica}{{3}{7}}
\@writefile{lof}{\contentsline {figure}{\numberline {3}{\ignorespaces  Grafico andamento esponenziale della tensione $V_c(t)$\relax }}{8}}
\newlabel{graf:exp}{{3}{8}}
\@writefile{lot}{\contentsline {table}{\numberline {4}{\ignorespaces  Misure logaritmiche di scarica\relax }}{9}}
\newlabel{tab:datilin1}{{4}{9}}
\@writefile{lof}{\contentsline {figure}{\numberline {4}{\ignorespaces  Grafico interpolazione lineare scarica del condensatore $V_c(t)$\relax }}{10}}
\newlabel{graf:scarica_lin}{{4}{10}}
\@writefile{lof}{\contentsline {figure}{\numberline {5}{\ignorespaces  Grafico residui interpolazione lineare scarica del condensatore $V_c(t)$\relax }}{10}}
\newlabel{graf:residui_scarica_lin}{{5}{10}}
\@writefile{lot}{\contentsline {table}{\numberline {5}{\ignorespaces  Risultati fit lineare scarica\relax }}{11}}
\newlabel{tab:risfitlin1}{{5}{11}}
\@writefile{lof}{\contentsline {figure}{\numberline {6}{\ignorespaces  Grafico fit lineare scarica del condensatore $V_c(t)$ - reiezione \relax }}{12}}
\newlabel{graf:scaricalinreiez}{{6}{12}}
\@writefile{lof}{\contentsline {figure}{\numberline {7}{\ignorespaces  Grafico residui fit lineare scarica del condensatore $V_c(t)$ - reiezione\relax }}{12}}
\newlabel{graf:residuiscaricalinreiez}{{7}{12}}
\@writefile{toc}{\contentsline {section}{\numberline {4}Regime sinusoidale}{13}}
\@writefile{toc}{\contentsline {subsection}{\numberline {4.1}Cenni teorici}{13}}
\newlabel{eq:freqtaglio}{{2}{14}}
\newlabel{eq:amplif}{{3}{14}}
\newlabel{eq:sfasamento}{{4}{14}}
\@writefile{toc}{\contentsline {subsection}{\numberline {4.2}Procedura sperimentale}{14}}
\@writefile{toc}{\contentsline {subsection}{\numberline {4.3}Analisi dati}{15}}
\@writefile{toc}{\contentsline {subsubsection}{\numberline {4.3.1}Calcolo della frequenza di taglio attesa}{15}}
\@writefile{toc}{\contentsline {subsubsection}{\numberline {4.3.2}Grafici di modulo e fase della funzione di trasferimento}{15}}
\@writefile{lot}{\contentsline {table}{\numberline {6}{\ignorespaces  Misure di frequenza\relax }}{16}}
\newlabel{tab:datiftaglio}{{6}{16}}
\@writefile{lof}{\contentsline {figure}{\numberline {8}{\ignorespaces  Grafico modulo della funzione di trasferimento $|T|$\relax }}{18}}
\newlabel{graf:amplif}{{8}{18}}
\@writefile{lof}{\contentsline {figure}{\numberline {9}{\ignorespaces  Grafico fase della funzione di trasferimento $\Delta \phi $\relax }}{19}}
\newlabel{graf:sfasamento}{{9}{19}}
\@writefile{lot}{\contentsline {table}{\numberline {7}{\ignorespaces  Modulo e fase della risposta in frequenza\relax }}{20}}
\newlabel{tab:modulofase}{{7}{20}}
\@writefile{toc}{\contentsline {subsubsection}{\numberline {4.3.3}Linearizzazione dell'amplificazione attorno a $f_t$}{21}}
\@writefile{lof}{\contentsline {figure}{\numberline {10}{\ignorespaces  Grafico linearizzazione dell'amplificazione attorno a $f_t$\relax }}{22}}
\newlabel{graf:lin_f2A-2}{{10}{22}}
\@writefile{lof}{\contentsline {figure}{\numberline {11}{\ignorespaces  Grafico residui dell'interpolazione dell'amplificazione attorno a $f_t$\relax }}{22}}
\newlabel{graf:residui_lin_f2A-2}{{11}{22}}
\@writefile{lot}{\contentsline {table}{\numberline {8}{\ignorespaces  Misure da linearizzazione dell'amplificazione in funzione della frequenza\relax }}{23}}
\newlabel{tab:datilin2}{{8}{23}}
\@writefile{lot}{\contentsline {table}{\numberline {9}{\ignorespaces  Risultati fit lineare\relax }}{23}}
\newlabel{tab:risfitlin2}{{9}{23}}
\@writefile{toc}{\contentsline {subsubsection}{\numberline {4.3.4}Linearizzazione dello sfasamento attorno a $f_t$}{23}}
\@writefile{lof}{\contentsline {figure}{\numberline {12}{\ignorespaces  Grafico linearizzazione dello sfasamento attorno a $f_t$\relax }}{25}}
\newlabel{graf:tandphi}{{12}{25}}
\@writefile{lof}{\contentsline {figure}{\numberline {13}{\ignorespaces  Grafico residui della linearizzazione dello sfasamento attorno a $f_t$\relax }}{25}}
\newlabel{graf:residuitandphi}{{13}{25}}
\@writefile{lot}{\contentsline {table}{\numberline {10}{\ignorespaces  Misure da linearizzazione dello sfasamento in funzione della frequenza\relax }}{26}}
\newlabel{tab:datilin3}{{10}{26}}
\@writefile{lot}{\contentsline {table}{\numberline {11}{\ignorespaces  Risultati fit lineare $\qopname  \relax o{tan}\Delta \phi $\relax }}{26}}
\newlabel{tab:risfitlin3}{{11}{26}}
\@writefile{toc}{\contentsline {subsubsection}{\numberline {4.3.5}Stima della frequenza di taglio $f_t$}{26}}
\@writefile{lot}{\contentsline {table}{\numberline {12}{\ignorespaces  Misure delle frequenza di taglio in $Hz$\relax }}{26}}
\newlabel{tab:ftaglio}{{12}{26}}
\@writefile{toc}{\contentsline {subsubsection}{\numberline {4.3.6}Grafico di Bode}{27}}
\@writefile{lot}{\contentsline {table}{\numberline {13}{\ignorespaces  Risultati fit Bode\relax }}{28}}
\newlabel{tab:boderis}{{13}{28}}
\@writefile{lot}{\contentsline {table}{\numberline {14}{\ignorespaces  Dati Bode\relax }}{29}}
\newlabel{tab:bode}{{14}{29}}
\@writefile{lof}{\contentsline {figure}{\numberline {14}{\ignorespaces  Grafico di Bode per il filtro passa basso\relax }}{30}}
\newlabel{graf:bode}{{14}{30}}
\@writefile{lof}{\contentsline {figure}{\numberline {15}{\ignorespaces  Residui grafico di Bode per il filtro passa basso\relax }}{30}}
\newlabel{graf:residui_bode}{{15}{30}}
\@writefile{toc}{\contentsline {subsubsection}{\numberline {4.3.7}Stime in accoppiamento AC}{31}}
\@writefile{lof}{\contentsline {figure}{\numberline {16}{\ignorespaces  Schema del circuito in accoppiamento AC\relax }}{31}}
\newlabel{im:schemacircuitoAC}{{16}{31}}
\@writefile{lot}{\contentsline {table}{\numberline {15}{\ignorespaces  Misure di accoppiamento $\mathit  {AC}$ del canale $\mathit  {OUT}$\relax }}{31}}
\newlabel{tab:AC}{{15}{31}}
\@writefile{lof}{\contentsline {figure}{\numberline {17}{\ignorespaces  Schema del circuito reale\relax }}{33}}
\newlabel{im:circuitoreale}{{17}{33}}
\@writefile{toc}{\contentsline {subsubsection}{\numberline {4.3.8}Correzioni della costante di tempo: circuito reale}{33}}
\@writefile{toc}{\contentsline {section}{\numberline {5}Conclusioni}{35}}
