	1.88	1	0.0577350269189626	0.0325625551822949	0.0662846387433268	-14	5	0.288675134594813	0.42	0.509640396096437
	-1.84	1	0.0577350269189626	0.0318697348592673	0.0659470494664722	15	5	0.288675134594813	0.45	0.534633831078181
	2.08	1	0.0577350269189626	0.0360266567974326	0.0680533124346885	-14	5	0.288675134594813	0.42	0.509640396096437
	-2.04	1	0.0577350269189626	0.0353338364744051	0.0676890931637685	15	5	0.288675134594813	0.45	0.534633831078181
