\relax 
\select@language{italian}
\@writefile{toc}{\select@language{italian}}
\@writefile{lof}{\select@language{italian}}
\@writefile{lot}{\select@language{italian}}
\select@language{italian}
\@writefile{toc}{\select@language{italian}}
\@writefile{lof}{\select@language{italian}}
\@writefile{lot}{\select@language{italian}}
\@writefile{toc}{\contentsline {section}{\numberline {1}Obiettivi dell'esperienza}{1}}
\@writefile{toc}{\contentsline {section}{\numberline {2}Descrizione dell'apparato sperimentale}{1}}
\@writefile{lof}{\contentsline {figure}{\numberline {1}{\ignorespaces  Schema dello spettrometro di diffrazione\relax }}{2}}
\providecommand*\caption@xref[2]{\@setref\relax\@undefined{#1}}
\newlabel{im:app}{{1}{2}}
\@writefile{toc}{\contentsline {section}{\numberline {3}Cenni teorici}{2}}
\newlabel{eq:interf}{{1}{2}}
\newlabel{eq:max}{{2}{2}}
\newlabel{eq:disp}{{4}{3}}
\@writefile{toc}{\contentsline {section}{\numberline {4}Procedura sperimentale}{3}}
\@writefile{toc}{\contentsline {section}{\numberline {5}Analisi dati}{4}}
\@writefile{lot}{\contentsline {table}{\numberline {1}{\ignorespaces  Misure di posizione angolare\relax }}{6}}
\newlabel{tab:dati}{{1}{6}}
\@writefile{lot}{\contentsline {table}{\numberline {2}{\ignorespaces  Valori di fit del violetto\relax }}{8}}
\newlabel{tab:fit1V}{{2}{8}}
\@writefile{lot}{\contentsline {table}{\numberline {3}{\ignorespaces  Valori di fit del blu scuro\relax }}{8}}
\newlabel{tab:fit1B2}{{3}{8}}
\@writefile{lot}{\contentsline {table}{\numberline {4}{\ignorespaces  Valori di fit blu chiaro\relax }}{8}}
\newlabel{tab:fit1B1}{{4}{8}}
\@writefile{lot}{\contentsline {table}{\numberline {5}{\ignorespaces  Valori di fit del verde\relax }}{8}}
\newlabel{tab:fit1G}{{5}{8}}
\@writefile{lot}{\contentsline {table}{\numberline {6}{\ignorespaces  Valori di fit del rosso\relax }}{8}}
\newlabel{tab:fit1R}{{6}{8}}
\@writefile{lot}{\contentsline {table}{\numberline {7}{\ignorespaces Risultati del fit lineare con e senza correzione dell'errore\relax }}{9}}
\newlabel{tab:ris}{{7}{9}}
\@writefile{lof}{\contentsline {figure}{\numberline {2}{\ignorespaces  Interpolazione lineare violetto con errore a posteriori\relax }}{10}}
\newlabel{im:im1V}{{2}{10}}
\@writefile{lof}{\contentsline {figure}{\numberline {3}{\ignorespaces  Interpolazione lineare blu scuro con errore a posteriori\relax }}{10}}
\newlabel{im:im1B2}{{3}{10}}
\@writefile{lof}{\contentsline {figure}{\numberline {4}{\ignorespaces  Interpolazione lineare azzurro con errore a posteriori\relax }}{11}}
\newlabel{im:im1B1}{{4}{11}}
\@writefile{lof}{\contentsline {figure}{\numberline {5}{\ignorespaces  Interpolazione lineare verde con errore a posteriori\relax }}{11}}
\newlabel{im:im1G}{{5}{11}}
\@writefile{lof}{\contentsline {figure}{\numberline {6}{\ignorespaces  Interpolazione lineare rosso con errore a posteriori\relax }}{12}}
\newlabel{im:im1R}{{6}{12}}
\@writefile{lot}{\contentsline {table}{\numberline {8}{\ignorespaces  Valori di fit del violetto con correzione di ortogonalit\IeC {\`a}\relax }}{14}}
\newlabel{tab:fit2V}{{8}{14}}
\@writefile{lot}{\contentsline {table}{\numberline {9}{\ignorespaces  Valori di fit del blu scuro con correzione di ortogonalit\IeC {\`a}\relax }}{14}}
\newlabel{tab:fit2B2}{{9}{14}}
\@writefile{lot}{\contentsline {table}{\numberline {10}{\ignorespaces  Valori di fit blu chiaro con correzione di ortogonalit\IeC {\`a}\relax }}{14}}
\newlabel{tab:fit2B1}{{10}{14}}
\@writefile{lot}{\contentsline {table}{\numberline {11}{\ignorespaces  Valori di fit del verde con correzione di ortogonalit\IeC {\`a}\relax }}{14}}
\newlabel{tab:fit2G}{{11}{14}}
\@writefile{lot}{\contentsline {table}{\numberline {12}{\ignorespaces  Valori di fit del rosso con correzione di ortogonalit\IeC {\`a}\relax }}{14}}
\newlabel{tab:fit2R}{{12}{14}}
\@writefile{lof}{\contentsline {figure}{\numberline {7}{\ignorespaces  Fit lineare violetto con correzione ortogonalit\IeC {\`a} ed errore a posteriori\relax }}{15}}
\newlabel{im:im2V}{{7}{15}}
\@writefile{lof}{\contentsline {figure}{\numberline {8}{\ignorespaces  Fit lineare blu scuro con correzione ortogonalit\IeC {\`a} ed errore a posteriori\relax }}{15}}
\newlabel{im:im2B2}{{8}{15}}
\@writefile{lof}{\contentsline {figure}{\numberline {9}{\ignorespaces  Fit lineare azzurro con correzione ortogonalit\IeC {\`a} ed errore a posteriori\relax }}{16}}
\newlabel{im:im2B1}{{9}{16}}
\@writefile{lof}{\contentsline {figure}{\numberline {10}{\ignorespaces  Fit lineare verde con correzione ortogonalit\IeC {\`a} ed errore a posteriori\relax }}{16}}
\newlabel{im:im2G}{{10}{16}}
\@writefile{lof}{\contentsline {figure}{\numberline {11}{\ignorespaces  Fit lineare rosso con correzione ortogonalit\IeC {\`a} ed errore a posteriori\relax }}{17}}
\newlabel{im:im2R}{{11}{17}}
\@writefile{lot}{\contentsline {table}{\numberline {13}{\ignorespaces  Risultati del fit lineare con condizione di ortogonalit\IeC {\`a}\relax }}{18}}
\newlabel{tab:risJ}{{13}{18}}
\@writefile{lot}{\contentsline {table}{\numberline {14}{\ignorespaces  Valori di lambda nelle varie lunghezze d'onda\relax }}{19}}
\newlabel{tab:lambda}{{14}{19}}
\@writefile{toc}{\contentsline {section}{\numberline {6}Conclusioni}{19}}
