# Caratteristica I-V di un diodo 1N4148
#
#  V 	I		eV	eI
0.287	1.0e-6		0.001	0.1e-6
0.325	2.0e-6		0.001	0.1e-6
0.369	5.0e-6		0.001	0.1e-6
0.402	10.0e-6		0.001	0.1e-6
0.435	20.1e-6		0.001	0.1e-6
0.479	50.0e-6		0.001	0.1e-6
0.512	100.2e-6	0.001	0.1e-6
0.545	0.200e-3	0.001	0.001e-3
0.585	0.491e-3	0.001	0.001e-3
0.619	1.011e-3	0.001	0.001e-3
0.652	2.04e-3		0.001	0.01e-3
0.698	5.05e-3		0.001	0.01e-3
0.734	10.04e-3	0.001	0.01e-3
0.774	20.0e-3		0.001	0.1e-3
